EESchema Schematic File Version 4
LIBS:littlehum-cache
EELAYER 29 0
EELAYER END
$Descr A4 11693 8268
encoding utf-8
Sheet 1 1
Title ""
Date ""
Rev ""
Comp ""
Comment1 ""
Comment2 ""
Comment3 ""
Comment4 ""
$EndDescr
$Comp
L Sensor_Humidity:Si7020-A20 U102
U 1 1 5D279F51
P 8050 3200
F 0 "U102" H 8491 3246 50  0000 L CNN
F 1 "Si7020-A20" H 8491 3155 50  0000 L CNN
F 2 "Package_DFN_QFN:DFN-6-1EP_3x3mm_P1mm_EP1.5x2.4mm" H 8050 2800 50  0001 C CNN
F 3 "https://www.silabs.com/documents/public/data-sheets/Si7020-A20.pdf" H 7850 3500 50  0001 C CNN
	1    8050 3200
	1    0    0    -1  
$EndComp
$Comp
L bgm111:BGM111 U101
U 1 1 5D2CCCFA
P 5300 2050
F 0 "U101" H 5300 2887 60  0000 C CNN
F 1 "BGM111" H 5300 2781 60  0000 C CNN
F 2 "littlehum:BGM111" H 5300 2050 60  0001 C CNN
F 3 "" H 5300 2050 60  0000 C CNN
	1    5300 2050
	1    0    0    -1  
$EndComp
$Comp
L Device:Battery_Cell BT101
U 1 1 5D2CD1E4
P 1250 1450
F 0 "BT101" H 1368 1546 50  0000 L CNN
F 1 "Battery_Cell" H 1368 1455 50  0000 L CNN
F 2 "Connector_PinHeader_2.00mm:PinHeader_1x02_P2.00mm_Vertical" V 1250 1510 50  0001 C CNN
F 3 "~" V 1250 1510 50  0001 C CNN
	1    1250 1450
	1    0    0    -1  
$EndComp
$Comp
L jtagcon:JTAGCON P101
U 1 1 5D2CD9E1
P 2650 2500
F 0 "P101" H 2750 3037 60  0000 C CNN
F 1 "JTAGCON" H 2750 2931 60  0000 C CNN
F 2 "littlehum:BM06B-SRSS-TB" H 3100 2700 60  0001 C CNN
F 3 "" H 3100 2700 60  0000 C CNN
	1    2650 2500
	1    0    0    -1  
$EndComp
Text Label 6050 2500 0    50   ~ 0
SWCLK
Text Label 6050 2400 0    50   ~ 0
SWDIO
Text Label 3350 2550 0    50   ~ 0
SWDIO
Text Label 3350 2650 0    50   ~ 0
SWCLK
$Comp
L power:GND #PWR0101
U 1 1 5D2CDBD6
P 3400 2800
F 0 "#PWR0101" H 3400 2550 50  0001 C CNN
F 1 "GND" H 3405 2627 50  0000 C CNN
F 2 "" H 3400 2800 50  0001 C CNN
F 3 "" H 3400 2800 50  0001 C CNN
	1    3400 2800
	1    0    0    -1  
$EndComp
Wire Wire Line
	3400 2800 3400 2750
Wire Wire Line
	3400 2750 3350 2750
$Comp
L power:GND #PWR0102
U 1 1 5D2CDBFC
P 2100 2800
F 0 "#PWR0102" H 2100 2550 50  0001 C CNN
F 1 "GND" H 2105 2627 50  0000 C CNN
F 2 "" H 2100 2800 50  0001 C CNN
F 3 "" H 2100 2800 50  0001 C CNN
	1    2100 2800
	1    0    0    -1  
$EndComp
Wire Wire Line
	2100 2800 2100 2750
Wire Wire Line
	2100 2650 2150 2650
Wire Wire Line
	2100 2750 2150 2750
Connection ~ 2100 2750
Wire Wire Line
	2100 2750 2100 2650
$Comp
L power:GND #PWR0103
U 1 1 5D2CDC46
P 4450 2700
F 0 "#PWR0103" H 4450 2450 50  0001 C CNN
F 1 "GND" H 4455 2527 50  0000 C CNN
F 2 "" H 4450 2700 50  0001 C CNN
F 3 "" H 4450 2700 50  0001 C CNN
	1    4450 2700
	1    0    0    -1  
$EndComp
Wire Wire Line
	4450 2700 4450 2600
Wire Wire Line
	4450 2600 4550 2600
$Comp
L power:GND #PWR0104
U 1 1 5D2CDC92
P 6150 2700
F 0 "#PWR0104" H 6150 2450 50  0001 C CNN
F 1 "GND" H 6155 2527 50  0000 C CNN
F 2 "" H 6150 2700 50  0001 C CNN
F 3 "" H 6150 2700 50  0001 C CNN
	1    6150 2700
	1    0    0    -1  
$EndComp
Wire Wire Line
	6150 2700 6150 2600
Wire Wire Line
	6150 2600 6050 2600
$Comp
L power:GND #PWR0105
U 1 1 5D2CDCF6
P 6200 1500
F 0 "#PWR0105" H 6200 1250 50  0001 C CNN
F 1 "GND" V 6205 1372 50  0000 R CNN
F 2 "" H 6200 1500 50  0001 C CNN
F 3 "" H 6200 1500 50  0001 C CNN
	1    6200 1500
	0    -1   -1   0   
$EndComp
Wire Wire Line
	6050 1500 6200 1500
$Comp
L power:GND #PWR0106
U 1 1 5D2CDD7F
P 4450 1500
F 0 "#PWR0106" H 4450 1250 50  0001 C CNN
F 1 "GND" V 4455 1372 50  0000 R CNN
F 2 "" H 4450 1500 50  0001 C CNN
F 3 "" H 4450 1500 50  0001 C CNN
	1    4450 1500
	0    1    1    0   
$EndComp
Wire Wire Line
	4550 1500 4450 1500
Text Label 6050 2200 0    50   ~ 0
DBG_TX
Text Label 6050 2300 0    50   ~ 0
DBG_RX
Text Label 3350 2350 0    50   ~ 0
DBG_TX
Text Label 3350 2450 0    50   ~ 0
DBG_RX
$Comp
L power:VCC #PWR0107
U 1 1 5D2CDF6C
P 3450 2150
F 0 "#PWR0107" H 3450 2000 50  0001 C CNN
F 1 "VCC" H 3467 2323 50  0000 C CNN
F 2 "" H 3450 2150 50  0001 C CNN
F 3 "" H 3450 2150 50  0001 C CNN
	1    3450 2150
	1    0    0    -1  
$EndComp
Wire Wire Line
	3450 2150 3450 2250
Wire Wire Line
	3450 2250 3350 2250
$Comp
L power:GND #PWR0108
U 1 1 5D2CE077
P 1250 1650
F 0 "#PWR0108" H 1250 1400 50  0001 C CNN
F 1 "GND" H 1255 1477 50  0000 C CNN
F 2 "" H 1250 1650 50  0001 C CNN
F 3 "" H 1250 1650 50  0001 C CNN
	1    1250 1650
	1    0    0    -1  
$EndComp
$Comp
L power:VCC #PWR0109
U 1 1 5D2CE08E
P 2950 1150
F 0 "#PWR0109" H 2950 1000 50  0001 C CNN
F 1 "VCC" H 2967 1323 50  0000 C CNN
F 2 "" H 2950 1150 50  0001 C CNN
F 3 "" H 2950 1150 50  0001 C CNN
	1    2950 1150
	1    0    0    -1  
$EndComp
$Comp
L power:VCC #PWR0110
U 1 1 5D2CE6FF
P 6250 1700
F 0 "#PWR0110" H 6250 1550 50  0001 C CNN
F 1 "VCC" V 6267 1828 50  0000 L CNN
F 2 "" H 6250 1700 50  0001 C CNN
F 3 "" H 6250 1700 50  0001 C CNN
	1    6250 1700
	0    1    1    0   
$EndComp
Wire Wire Line
	6050 1700 6250 1700
$Comp
L power:VCC #PWR0111
U 1 1 5D2CE943
P 8050 2800
F 0 "#PWR0111" H 8050 2650 50  0001 C CNN
F 1 "VCC" H 8067 2973 50  0000 C CNN
F 2 "" H 8050 2800 50  0001 C CNN
F 3 "" H 8050 2800 50  0001 C CNN
	1    8050 2800
	1    0    0    -1  
$EndComp
Wire Wire Line
	8050 2800 8050 2900
$Comp
L power:GND #PWR0112
U 1 1 5D2CEBAB
P 7950 3600
F 0 "#PWR0112" H 7950 3350 50  0001 C CNN
F 1 "GND" H 7955 3427 50  0000 C CNN
F 2 "" H 7950 3600 50  0001 C CNN
F 3 "" H 7950 3600 50  0001 C CNN
	1    7950 3600
	1    0    0    -1  
$EndComp
Wire Wire Line
	7950 3600 7950 3550
Wire Wire Line
	7950 3550 8150 3550
Wire Wire Line
	8150 3550 8150 3500
Connection ~ 7950 3550
Wire Wire Line
	7950 3550 7950 3500
$Comp
L Device:R R105
U 1 1 5D2D043F
P 7450 2850
F 0 "R105" H 7520 2896 50  0000 L CNN
F 1 "2.2k" H 7520 2805 50  0000 L CNN
F 2 "Resistor_SMD:R_0402_1005Metric" V 7380 2850 50  0001 C CNN
F 3 "~" H 7450 2850 50  0001 C CNN
	1    7450 2850
	1    0    0    -1  
$EndComp
$Comp
L Device:R R104
U 1 1 5D2D047D
P 7250 2850
F 0 "R104" H 7320 2896 50  0000 L CNN
F 1 "2.2k" H 7320 2805 50  0000 L CNN
F 2 "Resistor_SMD:R_0402_1005Metric" V 7180 2850 50  0001 C CNN
F 3 "~" H 7250 2850 50  0001 C CNN
	1    7250 2850
	1    0    0    -1  
$EndComp
Wire Wire Line
	7250 3000 7250 3300
Wire Wire Line
	7250 3300 7550 3300
Wire Wire Line
	7450 3000 7450 3100
Wire Wire Line
	7450 3100 7550 3100
$Comp
L power:VCC #PWR0114
U 1 1 5D2D0C71
P 7350 2600
F 0 "#PWR0114" H 7350 2450 50  0001 C CNN
F 1 "VCC" H 7367 2773 50  0000 C CNN
F 2 "" H 7350 2600 50  0001 C CNN
F 3 "" H 7350 2600 50  0001 C CNN
	1    7350 2600
	1    0    0    -1  
$EndComp
Wire Wire Line
	7350 2600 7450 2600
Wire Wire Line
	7450 2600 7450 2700
Wire Wire Line
	7350 2600 7250 2600
Wire Wire Line
	7250 2600 7250 2700
Connection ~ 7350 2600
$Comp
L Device:R R101
U 1 1 5D2D16F1
P 8650 1700
F 0 "R101" V 8443 1700 50  0000 C CNN
F 1 "R" V 8534 1700 50  0000 C CNN
F 2 "Resistor_SMD:R_0402_1005Metric" V 8580 1700 50  0001 C CNN
F 3 "~" H 8650 1700 50  0001 C CNN
	1    8650 1700
	0    1    1    0   
$EndComp
$Comp
L Device:R R102
U 1 1 5D2D173D
P 8650 1900
F 0 "R102" V 8443 1900 50  0000 C CNN
F 1 "R" V 8534 1900 50  0000 C CNN
F 2 "Resistor_SMD:R_0402_1005Metric" V 8580 1900 50  0001 C CNN
F 3 "~" H 8650 1900 50  0001 C CNN
	1    8650 1900
	0    1    1    0   
$EndComp
$Comp
L Device:R R103
U 1 1 5D2D1765
P 8650 2100
F 0 "R103" V 8443 2100 50  0000 C CNN
F 1 "R" V 8534 2100 50  0000 C CNN
F 2 "Resistor_SMD:R_0402_1005Metric" V 8580 2100 50  0001 C CNN
F 3 "~" H 8650 2100 50  0001 C CNN
	1    8650 2100
	0    1    1    0   
$EndComp
Wire Wire Line
	8800 1700 8900 1700
Wire Wire Line
	8800 1900 8900 1900
Wire Wire Line
	8900 2100 8800 2100
Text Label 8500 1700 2    50   ~ 0
R
Text Label 8500 1900 2    50   ~ 0
G
Text Label 8500 2100 2    50   ~ 0
B
Text Label 7450 3100 2    50   ~ 0
SDA
Text Label 7250 3300 2    50   ~ 0
SCL
Text Label 6050 1900 0    50   ~ 0
SDA
Text Label 6050 1800 0    50   ~ 0
SCL
Text Label 4550 2100 2    50   ~ 0
R
Text Label 4550 2000 2    50   ~ 0
G
Text Label 4550 1900 2    50   ~ 0
B
$Comp
L bgm13s:BGM13S U103
U 1 1 5D2E48B9
P 5300 4850
F 0 "U103" H 5300 5687 60  0000 C CNN
F 1 "BGM13S" H 5300 5581 60  0000 C CNN
F 2 "littlehum:BGM13S" H 5300 4850 60  0001 C CNN
F 3 "" H 5300 4850 60  0000 C CNN
	1    5300 4850
	1    0    0    -1  
$EndComp
$Comp
L Device:Battery_Cell BT102
U 1 1 5D2E4A68
P 1350 5050
F 0 "BT102" H 1468 5146 50  0000 L CNN
F 1 "Battery_Cell" H 1468 5055 50  0000 L CNN
F 2 "Connector_PinHeader_1.27mm:PinHeader_1x02_P1.27mm_Vertical" V 1350 5110 50  0001 C CNN
F 3 "~" V 1350 5110 50  0001 C CNN
	1    1350 5050
	1    0    0    -1  
$EndComp
$Comp
L jtagcon:JTAGCON P102
U 1 1 5D2E4A76
P 2750 5900
F 0 "P102" H 2850 6437 60  0000 C CNN
F 1 "JTAGCON" H 2850 6331 60  0000 C CNN
F 2 "littlehum:BM06B-SRSS-TB" H 3200 6100 60  0001 C CNN
F 3 "" H 3200 6100 60  0000 C CNN
	1    2750 5900
	1    0    0    -1  
$EndComp
Text Label 3450 5950 0    50   ~ 0
SWDIO2
Text Label 3450 6050 0    50   ~ 0
SWCLK2
$Comp
L power:GND #PWR0124
U 1 1 5D2E4A7F
P 3500 6200
F 0 "#PWR0124" H 3500 5950 50  0001 C CNN
F 1 "GND" H 3505 6027 50  0000 C CNN
F 2 "" H 3500 6200 50  0001 C CNN
F 3 "" H 3500 6200 50  0001 C CNN
	1    3500 6200
	1    0    0    -1  
$EndComp
Wire Wire Line
	3500 6200 3500 6150
Wire Wire Line
	3500 6150 3450 6150
$Comp
L power:GND #PWR0123
U 1 1 5D2E4A87
P 2200 6200
F 0 "#PWR0123" H 2200 5950 50  0001 C CNN
F 1 "GND" H 2205 6027 50  0000 C CNN
F 2 "" H 2200 6200 50  0001 C CNN
F 3 "" H 2200 6200 50  0001 C CNN
	1    2200 6200
	1    0    0    -1  
$EndComp
Wire Wire Line
	2200 6200 2200 6150
Wire Wire Line
	2200 6050 2250 6050
Wire Wire Line
	2200 6150 2250 6150
Connection ~ 2200 6150
Wire Wire Line
	2200 6150 2200 6050
Text Label 3450 5750 0    50   ~ 0
DBG_TX2
Text Label 3450 5850 0    50   ~ 0
DBG_RX2
Wire Wire Line
	3550 5550 3550 5650
Wire Wire Line
	3550 5650 3450 5650
$Comp
L power:GND #PWR0118
U 1 1 5D2E4A9C
P 1350 5250
F 0 "#PWR0118" H 1350 5000 50  0001 C CNN
F 1 "GND" H 1355 5077 50  0000 C CNN
F 2 "" H 1350 5250 50  0001 C CNN
F 3 "" H 1350 5250 50  0001 C CNN
	1    1350 5250
	1    0    0    -1  
$EndComp
$Comp
L Sensor_Humidity:Si7020-A20 U104
U 1 1 5D2E5A65
P 8000 5900
F 0 "U104" H 8441 5946 50  0000 L CNN
F 1 "Si7020-A20" H 8441 5855 50  0000 L CNN
F 2 "Package_DFN_QFN:DFN-6-1EP_3x3mm_P1mm_EP1.5x2.4mm" H 8000 5500 50  0001 C CNN
F 3 "https://www.silabs.com/documents/public/data-sheets/Si7020-A20.pdf" H 7800 6200 50  0001 C CNN
	1    8000 5900
	1    0    0    -1  
$EndComp
Wire Wire Line
	8000 5500 8000 5600
$Comp
L power:GND #PWR0126
U 1 1 5D2E5A78
P 7900 6300
F 0 "#PWR0126" H 7900 6050 50  0001 C CNN
F 1 "GND" H 7905 6127 50  0000 C CNN
F 2 "" H 7900 6300 50  0001 C CNN
F 3 "" H 7900 6300 50  0001 C CNN
	1    7900 6300
	1    0    0    -1  
$EndComp
Wire Wire Line
	7900 6300 7900 6250
Wire Wire Line
	7900 6250 8100 6250
Wire Wire Line
	8100 6250 8100 6200
Connection ~ 7900 6250
Wire Wire Line
	7900 6250 7900 6200
Wire Wire Line
	9350 4300 9350 4400
Wire Wire Line
	9350 4400 9250 4400
$Comp
L Device:R R110
U 1 1 5D2E5A8B
P 7400 5550
F 0 "R110" H 7470 5596 50  0000 L CNN
F 1 "2.2k" H 7470 5505 50  0000 L CNN
F 2 "Resistor_SMD:R_0402_1005Metric" V 7330 5550 50  0001 C CNN
F 3 "~" H 7400 5550 50  0001 C CNN
	1    7400 5550
	1    0    0    -1  
$EndComp
$Comp
L Device:R R109
U 1 1 5D2E5A91
P 7200 5550
F 0 "R109" H 7270 5596 50  0000 L CNN
F 1 "2.2k" H 7270 5505 50  0000 L CNN
F 2 "Resistor_SMD:R_0402_1005Metric" V 7130 5550 50  0001 C CNN
F 3 "~" H 7200 5550 50  0001 C CNN
	1    7200 5550
	1    0    0    -1  
$EndComp
Wire Wire Line
	7200 5700 7200 6000
Wire Wire Line
	7200 6000 7500 6000
Wire Wire Line
	7400 5700 7400 5800
Wire Wire Line
	7400 5800 7500 5800
Wire Wire Line
	7400 5300 7400 5400
Wire Wire Line
	7200 5300 7200 5400
$Comp
L Device:R R106
U 1 1 5D2E5AA6
P 8600 4400
F 0 "R106" V 8393 4400 50  0000 C CNN
F 1 "R" V 8484 4400 50  0000 C CNN
F 2 "Resistor_SMD:R_0402_1005Metric" V 8530 4400 50  0001 C CNN
F 3 "~" H 8600 4400 50  0001 C CNN
	1    8600 4400
	0    1    1    0   
$EndComp
$Comp
L Device:R R107
U 1 1 5D2E5AAC
P 8600 4600
F 0 "R107" V 8393 4600 50  0000 C CNN
F 1 "R" V 8484 4600 50  0000 C CNN
F 2 "Resistor_SMD:R_0402_1005Metric" V 8530 4600 50  0001 C CNN
F 3 "~" H 8600 4600 50  0001 C CNN
	1    8600 4600
	0    1    1    0   
$EndComp
$Comp
L Device:R R108
U 1 1 5D2E5AB2
P 8600 4800
F 0 "R108" V 8393 4800 50  0000 C CNN
F 1 "R" V 8484 4800 50  0000 C CNN
F 2 "Resistor_SMD:R_0402_1005Metric" V 8530 4800 50  0001 C CNN
F 3 "~" H 8600 4800 50  0001 C CNN
	1    8600 4800
	0    1    1    0   
$EndComp
Wire Wire Line
	8750 4400 8850 4400
Wire Wire Line
	8750 4600 8850 4600
Wire Wire Line
	8850 4800 8750 4800
Text Label 8450 4400 2    50   ~ 0
R2
Text Label 8450 4600 2    50   ~ 0
G2
Text Label 8450 4800 2    50   ~ 0
B2
Text Label 7400 5800 2    50   ~ 0
SDA2
Text Label 7200 6000 2    50   ~ 0
SCL2
$Comp
L power:VDD #PWR0116
U 1 1 5D2E71B0
P 2550 4750
F 0 "#PWR0116" H 2550 4600 50  0001 C CNN
F 1 "VDD" H 2567 4923 50  0000 C CNN
F 2 "" H 2550 4750 50  0001 C CNN
F 3 "" H 2550 4750 50  0001 C CNN
	1    2550 4750
	1    0    0    -1  
$EndComp
Wire Wire Line
	7200 5300 7300 5300
$Comp
L power:VDD #PWR0121
U 1 1 5D2E72D5
P 3550 5550
F 0 "#PWR0121" H 3550 5400 50  0001 C CNN
F 1 "VDD" H 3567 5723 50  0000 C CNN
F 2 "" H 3550 5550 50  0001 C CNN
F 3 "" H 3550 5550 50  0001 C CNN
	1    3550 5550
	1    0    0    -1  
$EndComp
$Comp
L power:VDD #PWR0119
U 1 1 5D2E730C
P 7300 5300
F 0 "#PWR0119" H 7300 5150 50  0001 C CNN
F 1 "VDD" H 7317 5473 50  0000 C CNN
F 2 "" H 7300 5300 50  0001 C CNN
F 3 "" H 7300 5300 50  0001 C CNN
	1    7300 5300
	1    0    0    -1  
$EndComp
Connection ~ 7300 5300
Wire Wire Line
	7300 5300 7400 5300
$Comp
L power:VDD #PWR0120
U 1 1 5D2E7345
P 8000 5500
F 0 "#PWR0120" H 8000 5350 50  0001 C CNN
F 1 "VDD" H 8017 5673 50  0000 C CNN
F 2 "" H 8000 5500 50  0001 C CNN
F 3 "" H 8000 5500 50  0001 C CNN
	1    8000 5500
	1    0    0    -1  
$EndComp
$Comp
L power:VDD #PWR0115
U 1 1 5D2E737C
P 9350 4300
F 0 "#PWR0115" H 9350 4150 50  0001 C CNN
F 1 "VDD" H 9367 4473 50  0000 C CNN
F 2 "" H 9350 4300 50  0001 C CNN
F 3 "" H 9350 4300 50  0001 C CNN
	1    9350 4300
	1    0    0    -1  
$EndComp
Text Label 6050 5300 0    50   ~ 0
SWCLK2
Text Label 6050 5200 0    50   ~ 0
SWDIO2
$Comp
L power:GND #PWR0128
U 1 1 5D2E766A
P 4450 7000
F 0 "#PWR0128" H 4450 6750 50  0001 C CNN
F 1 "GND" H 4455 6827 50  0000 C CNN
F 2 "" H 4450 7000 50  0001 C CNN
F 3 "" H 4450 7000 50  0001 C CNN
	1    4450 7000
	1    0    0    -1  
$EndComp
Wire Wire Line
	4450 7000 4450 6900
Wire Wire Line
	4450 6300 4550 6300
Wire Wire Line
	4450 6400 4550 6400
Connection ~ 4450 6400
Wire Wire Line
	4450 6400 4450 6300
Wire Wire Line
	4450 6500 4550 6500
Connection ~ 4450 6500
Wire Wire Line
	4450 6500 4450 6400
Wire Wire Line
	4550 6600 4450 6600
Connection ~ 4450 6600
Wire Wire Line
	4450 6600 4450 6500
Wire Wire Line
	4450 6700 4550 6700
Connection ~ 4450 6700
Wire Wire Line
	4450 6700 4450 6600
Wire Wire Line
	4450 6800 4550 6800
Connection ~ 4450 6800
Wire Wire Line
	4450 6800 4450 6700
Wire Wire Line
	4450 6900 4550 6900
Connection ~ 4450 6900
Wire Wire Line
	4450 6900 4450 6800
$Comp
L power:VDD #PWR0125
U 1 1 5D2F346A
P 6200 6200
F 0 "#PWR0125" H 6200 6050 50  0001 C CNN
F 1 "VDD" H 6217 6373 50  0000 C CNN
F 2 "" H 6200 6200 50  0001 C CNN
F 3 "" H 6200 6200 50  0001 C CNN
	1    6200 6200
	1    0    0    -1  
$EndComp
Wire Wire Line
	6200 6200 6200 6300
Wire Wire Line
	6200 6300 6050 6300
Wire Wire Line
	6200 6300 6200 6500
Wire Wire Line
	6200 6500 6050 6500
Connection ~ 6200 6300
$Comp
L power:GND #PWR0127
U 1 1 5D2F793C
P 6150 6800
F 0 "#PWR0127" H 6150 6550 50  0001 C CNN
F 1 "GND" H 6155 6627 50  0000 C CNN
F 2 "" H 6150 6800 50  0001 C CNN
F 3 "" H 6150 6800 50  0001 C CNN
	1    6150 6800
	1    0    0    -1  
$EndComp
Wire Wire Line
	6150 6800 6150 6700
Wire Wire Line
	6150 6700 6050 6700
$Comp
L power:GND #PWR0122
U 1 1 5D2F9E00
P 6150 5600
F 0 "#PWR0122" H 6150 5350 50  0001 C CNN
F 1 "GND" H 6155 5427 50  0000 C CNN
F 2 "" H 6150 5600 50  0001 C CNN
F 3 "" H 6150 5600 50  0001 C CNN
	1    6150 5600
	0    -1   -1   0   
$EndComp
Wire Wire Line
	6150 5600 6050 5600
Wire Wire Line
	4550 4400 4450 4400
Wire Wire Line
	4450 4400 4450 4500
Wire Wire Line
	4450 4500 4550 4500
$Comp
L power:GND #PWR0117
U 1 1 5D2FEDCB
P 4450 4800
F 0 "#PWR0117" H 4450 4550 50  0001 C CNN
F 1 "GND" H 4455 4627 50  0000 C CNN
F 2 "" H 4450 4800 50  0001 C CNN
F 3 "" H 4450 4800 50  0001 C CNN
	1    4450 4800
	1    0    0    -1  
$EndComp
Wire Wire Line
	4450 4800 4450 4700
Wire Wire Line
	4450 4700 4550 4700
Wire Wire Line
	4550 4600 4450 4600
Wire Wire Line
	4450 4600 4450 4700
Connection ~ 4450 4700
$Comp
L power:GND #PWR0129
U 1 1 5D2FD254
P 4450 4300
F 0 "#PWR0129" H 4450 4050 50  0001 C CNN
F 1 "GND" H 4455 4127 50  0000 C CNN
F 2 "" H 4450 4300 50  0001 C CNN
F 3 "" H 4450 4300 50  0001 C CNN
	1    4450 4300
	0    1    1    0   
$EndComp
Wire Wire Line
	4550 4300 4450 4300
$Comp
L Device:LED_RGB D102
U 1 1 5D303098
P 9050 4600
F 0 "D102" H 9050 5097 50  0000 C CNN
F 1 "LED_RGB" H 9050 5006 50  0000 C CNN
F 2 "LED_SMD:LED_RGB_PLCC-6" H 9050 4550 50  0001 C CNN
F 3 "~" H 9050 4550 50  0001 C CNN
	1    9050 4600
	1    0    0    -1  
$EndComp
Wire Wire Line
	9350 4400 9350 4600
Wire Wire Line
	9350 4600 9250 4600
Connection ~ 9350 4400
Wire Wire Line
	9350 4600 9350 4800
Wire Wire Line
	9350 4800 9250 4800
Connection ~ 9350 4600
Wire Wire Line
	9400 1600 9400 1700
Wire Wire Line
	9400 1700 9300 1700
$Comp
L Device:LED_RGB D101
U 1 1 5D30BCE0
P 9100 1900
F 0 "D101" H 9100 2397 50  0000 C CNN
F 1 "LED_RGB" H 9100 2306 50  0000 C CNN
F 2 "LED_SMD:LED_RGB_PLCC-6" H 9100 1850 50  0001 C CNN
F 3 "~" H 9100 1850 50  0001 C CNN
	1    9100 1900
	1    0    0    -1  
$EndComp
Wire Wire Line
	9400 1700 9400 1900
Wire Wire Line
	9400 1900 9300 1900
Connection ~ 9400 1700
Wire Wire Line
	9400 1900 9400 2100
Wire Wire Line
	9400 2100 9300 2100
Connection ~ 9400 1900
$Comp
L power:VCC #PWR0113
U 1 1 5D315294
P 9400 1600
F 0 "#PWR0113" H 9400 1450 50  0001 C CNN
F 1 "VCC" H 9417 1773 50  0000 C CNN
F 2 "" H 9400 1600 50  0001 C CNN
F 3 "" H 9400 1600 50  0001 C CNN
	1    9400 1600
	1    0    0    -1  
$EndComp
Text Label 6050 6100 0    50   ~ 0
SDA2
Text Label 6050 6000 0    50   ~ 0
SCL2
Text Label 6050 5700 0    50   ~ 0
R2
Text Label 6050 5800 0    50   ~ 0
G2
Text Label 6050 5900 0    50   ~ 0
B2
Wire Wire Line
	2950 1150 2950 1250
Wire Wire Line
	1250 1550 1250 1600
Wire Wire Line
	1350 5150 1350 5200
Text Label 6050 5500 0    50   ~ 0
DBG_TX2
Text Label 6050 5400 0    50   ~ 0
DBG_RX2
$Comp
L Regulator_Linear:MCP1700-3302E_SOT23 U106
U 1 1 5D30F5C0
P 2000 1250
F 0 "U106" H 2000 1492 50  0000 C CNN
F 1 "MCP1700-3302E_SOT23" H 2000 1401 50  0000 C CNN
F 2 "Package_TO_SOT_SMD:SOT-23" H 2000 1475 50  0001 C CNN
F 3 "http://ww1.microchip.com/downloads/en/DeviceDoc/20001826D.pdf" H 2000 1250 50  0001 C CNN
	1    2000 1250
	1    0    0    -1  
$EndComp
Wire Wire Line
	2300 1250 2950 1250
Wire Wire Line
	1700 1250 1250 1250
Wire Wire Line
	2000 1600 2000 1550
Wire Wire Line
	1250 1600 2000 1600
Connection ~ 1250 1600
Wire Wire Line
	1250 1600 1250 1650
$Comp
L Regulator_Linear:MCP1700-3302E_SOT23 U105
U 1 1 5D321A00
P 1900 4800
F 0 "U105" H 1900 5042 50  0000 C CNN
F 1 "MCP1700-3302E_SOT23" H 1900 4951 50  0000 C CNN
F 2 "Package_TO_SOT_SMD:SOT-23" H 1900 5025 50  0001 C CNN
F 3 "http://ww1.microchip.com/downloads/en/DeviceDoc/20001826D.pdf" H 1900 4800 50  0001 C CNN
	1    1900 4800
	1    0    0    -1  
$EndComp
Wire Wire Line
	2550 4750 2550 4800
Wire Wire Line
	2550 4800 2200 4800
Wire Wire Line
	1600 4800 1350 4800
Wire Wire Line
	1350 4800 1350 4850
Wire Wire Line
	1350 5200 1900 5200
Wire Wire Line
	1900 5200 1900 5100
Connection ~ 1350 5200
Wire Wire Line
	1350 5200 1350 5250
Text Notes 6250 1800 0    50   ~ 0
I2C0_SCL #30
Text Notes 6250 1900 0    50   ~ 0
I2C0_SDA30
Text Notes 6400 2200 0    50   ~ 0
US0_TX #27
Text Notes 6400 2300 0    50   ~ 0
US0_RX #25
Text Notes 4450 1900 2    50   ~ 0
TIM0_CC0 #0
Text Notes 4450 2000 2    50   ~ 0
TIM0_CC1 #0
Text Notes 4450 2100 2    50   ~ 0
TIM0_CC2 #0
$Comp
L Device:Crystal Y101
U 1 1 5D346333
P 4150 5700
F 0 "Y101" V 4104 5831 50  0000 L CNN
F 1 "Crystal" V 4195 5831 50  0000 L CNN
F 2 "Crystal:Crystal_SMD_3215-2Pin_3.2x1.5mm" H 4150 5700 50  0001 C CNN
F 3 "~" H 4150 5700 50  0001 C CNN
	1    4150 5700
	0    1    1    0   
$EndComp
Wire Wire Line
	4150 5550 4150 5500
Wire Wire Line
	4150 5500 4550 5500
Text Label 4150 5850 3    50   ~ 0
XTAL_N
Text Label 6050 6600 0    50   ~ 0
XTAL_N
Text Notes 6400 5400 0    50   ~ 0
US0_RX #15
Text Notes 6400 5500 0    50   ~ 0
US0_TX #15
Text Notes 6300 6000 0    50   ~ 0
I2C0_SCL #11
Text Notes 6300 6100 0    50   ~ 0
I2C0_SDA #11
Text Notes 6350 6600 0    50   ~ 0
LFXTAL_N
Text Notes 6400 5700 0    50   ~ 0
TIM0_CC0 #14
Text Notes 6400 5800 0    50   ~ 0
TIM0_CC1 #25
Text Notes 6400 5900 0    50   ~ 0
TIM0_CC2 #11
$Comp
L Connector:TestPoint TP101
U 1 1 5D37C569
P 4550 1600
F 0 "TP101" V 4745 1672 50  0000 C CNN
F 1 "TestPoint" V 4654 1672 50  0000 C CNN
F 2 "TestPoint:TestPoint_Pad_D1.0mm" H 4750 1600 50  0001 C CNN
F 3 "~" H 4750 1600 50  0001 C CNN
	1    4550 1600
	0    -1   -1   0   
$EndComp
$Comp
L Connector:TestPoint TP102
U 1 1 5D37D6BB
P 4550 1700
F 0 "TP102" V 4745 1772 50  0000 C CNN
F 1 "TestPoint" V 4654 1772 50  0000 C CNN
F 2 "TestPoint:TestPoint_Pad_D1.0mm" H 4750 1700 50  0001 C CNN
F 3 "~" H 4750 1700 50  0001 C CNN
	1    4550 1700
	0    -1   -1   0   
$EndComp
$Comp
L Connector:TestPoint TP103
U 1 1 5D37DFAB
P 4550 1800
F 0 "TP103" V 4745 1872 50  0000 C CNN
F 1 "TestPoint" V 4654 1872 50  0000 C CNN
F 2 "TestPoint:TestPoint_Pad_D1.0mm" H 4750 1800 50  0001 C CNN
F 3 "~" H 4750 1800 50  0001 C CNN
	1    4550 1800
	0    -1   -1   0   
$EndComp
$Comp
L Connector:TestPoint TP104
U 1 1 5D37E20A
P 4550 2200
F 0 "TP104" V 4745 2272 50  0000 C CNN
F 1 "TestPoint" V 4654 2272 50  0000 C CNN
F 2 "TestPoint:TestPoint_Pad_D1.0mm" H 4750 2200 50  0001 C CNN
F 3 "~" H 4750 2200 50  0001 C CNN
	1    4550 2200
	0    -1   -1   0   
$EndComp
$Comp
L Connector:TestPoint TP105
U 1 1 5D37E50B
P 4550 2300
F 0 "TP105" V 4745 2372 50  0000 C CNN
F 1 "TestPoint" V 4654 2372 50  0000 C CNN
F 2 "TestPoint:TestPoint_Pad_D1.0mm" H 4750 2300 50  0001 C CNN
F 3 "~" H 4750 2300 50  0001 C CNN
	1    4550 2300
	0    -1   -1   0   
$EndComp
$Comp
L Connector:TestPoint TP106
U 1 1 5D37E72D
P 4550 2400
F 0 "TP106" V 4745 2472 50  0000 C CNN
F 1 "TestPoint" V 4654 2472 50  0000 C CNN
F 2 "TestPoint:TestPoint_Pad_D1.0mm" H 4750 2400 50  0001 C CNN
F 3 "~" H 4750 2400 50  0001 C CNN
	1    4550 2400
	0    -1   -1   0   
$EndComp
$Comp
L Connector:TestPoint TP107
U 1 1 5D37E996
P 4550 2500
F 0 "TP107" V 4745 2572 50  0000 C CNN
F 1 "TestPoint" V 4654 2572 50  0000 C CNN
F 2 "TestPoint:TestPoint_Pad_D1.0mm" H 4750 2500 50  0001 C CNN
F 3 "~" H 4750 2500 50  0001 C CNN
	1    4550 2500
	0    -1   -1   0   
$EndComp
$Comp
L Connector:TestPoint TP108
U 1 1 5D37FA2C
P 5000 3100
F 0 "TP108" H 4942 3126 50  0000 R CNN
F 1 "TestPoint" H 4942 3217 50  0000 R CNN
F 2 "TestPoint:TestPoint_Pad_D1.0mm" H 5200 3100 50  0001 C CNN
F 3 "~" H 5200 3100 50  0001 C CNN
	1    5000 3100
	-1   0    0    1   
$EndComp
$Comp
L Connector:TestPoint TP109
U 1 1 5D37FFE8
P 5100 3100
F 0 "TP109" H 5042 3126 50  0000 R CNN
F 1 "TestPoint" H 5042 3217 50  0000 R CNN
F 2 "TestPoint:TestPoint_Pad_D1.0mm" H 5300 3100 50  0001 C CNN
F 3 "~" H 5300 3100 50  0001 C CNN
	1    5100 3100
	-1   0    0    1   
$EndComp
$Comp
L Connector:TestPoint TP110
U 1 1 5D38025A
P 5200 3100
F 0 "TP110" H 5142 3126 50  0000 R CNN
F 1 "TestPoint" H 5142 3217 50  0000 R CNN
F 2 "TestPoint:TestPoint_Pad_D1.0mm" H 5400 3100 50  0001 C CNN
F 3 "~" H 5400 3100 50  0001 C CNN
	1    5200 3100
	-1   0    0    1   
$EndComp
$Comp
L Connector:TestPoint TP111
U 1 1 5D380582
P 5300 3100
F 0 "TP111" H 5242 3126 50  0000 R CNN
F 1 "TestPoint" H 5242 3217 50  0000 R CNN
F 2 "TestPoint:TestPoint_Pad_D1.0mm" H 5500 3100 50  0001 C CNN
F 3 "~" H 5500 3100 50  0001 C CNN
	1    5300 3100
	-1   0    0    1   
$EndComp
$Comp
L Connector:TestPoint TP112
U 1 1 5D380812
P 5400 3100
F 0 "TP112" H 5342 3126 50  0000 R CNN
F 1 "TestPoint" H 5342 3217 50  0000 R CNN
F 2 "TestPoint:TestPoint_Pad_D1.0mm" H 5600 3100 50  0001 C CNN
F 3 "~" H 5600 3100 50  0001 C CNN
	1    5400 3100
	-1   0    0    1   
$EndComp
$Comp
L Connector:TestPoint TP113
U 1 1 5D380B5D
P 5500 3100
F 0 "TP113" H 5442 3126 50  0000 R CNN
F 1 "TestPoint" H 5442 3217 50  0000 R CNN
F 2 "TestPoint:TestPoint_Pad_D1.0mm" H 5700 3100 50  0001 C CNN
F 3 "~" H 5700 3100 50  0001 C CNN
	1    5500 3100
	-1   0    0    1   
$EndComp
$Comp
L Connector:TestPoint TP114
U 1 1 5D380EB8
P 5600 3100
F 0 "TP114" H 5542 3126 50  0000 R CNN
F 1 "TestPoint" H 5542 3217 50  0000 R CNN
F 2 "TestPoint:TestPoint_Pad_D1.0mm" H 5800 3100 50  0001 C CNN
F 3 "~" H 5800 3100 50  0001 C CNN
	1    5600 3100
	-1   0    0    1   
$EndComp
$Comp
L Connector:TestPoint TP116
U 1 1 5D382471
P 6050 2000
F 0 "TP116" V 6004 2188 50  0000 L CNN
F 1 "TestPoint" V 6095 2188 50  0000 L CNN
F 2 "TestPoint:TestPoint_Pad_D1.0mm" H 6250 2000 50  0001 C CNN
F 3 "~" H 6250 2000 50  0001 C CNN
	1    6050 2000
	0    1    1    0   
$EndComp
$Comp
L Connector:TestPoint TP117
U 1 1 5D382CF0
P 6050 2100
F 0 "TP117" V 6004 2288 50  0000 L CNN
F 1 "TestPoint" V 6095 2288 50  0000 L CNN
F 2 "TestPoint:TestPoint_Pad_D1.0mm" H 6250 2100 50  0001 C CNN
F 3 "~" H 6250 2100 50  0001 C CNN
	1    6050 2100
	0    1    1    0   
$EndComp
$Comp
L Connector:TestPoint TP115
U 1 1 5D3830BD
P 6050 1600
F 0 "TP115" V 6004 1788 50  0000 L CNN
F 1 "TestPoint" V 6095 1788 50  0000 L CNN
F 2 "TestPoint:TestPoint_Pad_D1.0mm" H 6250 1600 50  0001 C CNN
F 3 "~" H 6250 1600 50  0001 C CNN
	1    6050 1600
	0    1    1    0   
$EndComp
$EndSCHEMATC
