EESchema Schematic File Version 2
LIBS:power
LIBS:device
LIBS:transistors
LIBS:conn
LIBS:linear
LIBS:regul
LIBS:74xx
LIBS:cmos4000
LIBS:adc-dac
LIBS:memory
LIBS:xilinx
LIBS:microcontrollers
LIBS:dsp
LIBS:microchip
LIBS:analog_switches
LIBS:motorola
LIBS:texas
LIBS:intel
LIBS:audio
LIBS:interface
LIBS:digital-audio
LIBS:philips
LIBS:display
LIBS:cypress
LIBS:siliconi
LIBS:opto
LIBS:atmel
LIBS:contrib
LIBS:valves
LIBS:crap
LIBS:canpump-cache
EELAYER 25 0
EELAYER END
$Descr A4 11693 8268
encoding utf-8
Sheet 6 8
Title ""
Date ""
Rev ""
Comp ""
Comment1 ""
Comment2 ""
Comment3 ""
Comment4 ""
$EndDescr
$Comp
L ISO7140 U602
U 1 1 56C0B6D2
P 5500 4150
F 0 "U602" H 6000 3700 60  0000 C CNN
F 1 "ISO7140" H 5150 4650 60  0000 C CNN
F 2 "Housings_SSOP:SSOP-16_3.9x4.9mm_Pitch0.635mm" H 5400 4100 60  0001 C CNN
F 3 "" H 5400 4100 60  0000 C CNN
	1    5500 4150
	1    0    0    -1  
$EndComp
Text HLabel 4700 4300 0    60   Input ~ 0
IN0
Text HLabel 4700 4200 0    60   Input ~ 0
IN1
Text HLabel 4700 4100 0    60   Input ~ 0
IN2
Text HLabel 4700 4000 0    60   Input ~ 0
IN3
Text HLabel 4700 2600 0    60   Input ~ 0
IN4
Text HLabel 4700 2500 0    60   Input ~ 0
IN5
Text HLabel 4700 2400 0    60   Input ~ 0
IN6
Text HLabel 6350 4300 2    60   Output ~ 0
OUT0
Text HLabel 6350 4200 2    60   Output ~ 0
OUT1
Text HLabel 6350 4100 2    60   Output ~ 0
OUT2
Text HLabel 6350 4000 2    60   Output ~ 0
OUT3
Text HLabel 6350 2600 2    60   Output ~ 0
OUT4
Text HLabel 6350 2500 2    60   Output ~ 0
OUT5
Text HLabel 6350 2400 2    60   Output ~ 0
OUT6
$Comp
L VDD #PWR058
U 1 1 56C19F57
P 4750 2100
F 0 "#PWR058" H 4750 1950 50  0001 C CNN
F 1 "VDD" H 4750 2250 50  0000 C CNN
F 2 "" H 4750 2100 50  0000 C CNN
F 3 "" H 4750 2100 50  0000 C CNN
	1    4750 2100
	1    0    0    -1  
$EndComp
$Comp
L VDD #PWR059
U 1 1 56C19F77
P 4750 3700
F 0 "#PWR059" H 4750 3550 50  0001 C CNN
F 1 "VDD" H 4750 3850 50  0000 C CNN
F 2 "" H 4750 3700 50  0000 C CNN
F 3 "" H 4750 3700 50  0000 C CNN
	1    4750 3700
	1    0    0    -1  
$EndComp
$Comp
L GND #PWR060
U 1 1 56C1A202
P 4750 4600
F 0 "#PWR060" H 4750 4350 50  0001 C CNN
F 1 "GND" H 4750 4450 50  0000 C CNN
F 2 "" H 4750 4600 50  0000 C CNN
F 3 "" H 4750 4600 50  0000 C CNN
	1    4750 4600
	1    0    0    -1  
$EndComp
$Comp
L GND #PWR061
U 1 1 56C1A21A
P 4750 3000
F 0 "#PWR061" H 4750 2750 50  0001 C CNN
F 1 "GND" H 4750 2850 50  0000 C CNN
F 2 "" H 4750 3000 50  0000 C CNN
F 3 "" H 4750 3000 50  0000 C CNN
	1    4750 3000
	1    0    0    -1  
$EndComp
$Comp
L GNDA #PWR062
U 1 1 56C1A3EF
P 6300 4600
F 0 "#PWR062" H 6300 4350 50  0001 C CNN
F 1 "GNDA" H 6300 4450 50  0000 C CNN
F 2 "" H 6300 4600 50  0000 C CNN
F 3 "" H 6300 4600 50  0000 C CNN
	1    6300 4600
	1    0    0    -1  
$EndComp
$Comp
L GNDA #PWR063
U 1 1 56C1A423
P 6300 3000
F 0 "#PWR063" H 6300 2750 50  0001 C CNN
F 1 "GNDA" H 6300 2850 50  0000 C CNN
F 2 "" H 6300 3000 50  0000 C CNN
F 3 "" H 6300 3000 50  0000 C CNN
	1    6300 3000
	1    0    0    -1  
$EndComp
$Comp
L +5VA #PWR064
U 1 1 56C1A43F
P 6300 2100
F 0 "#PWR064" H 6300 1950 50  0001 C CNN
F 1 "+5VA" H 6300 2240 50  0000 C CNN
F 2 "" H 6300 2100 50  0000 C CNN
F 3 "" H 6300 2100 50  0000 C CNN
	1    6300 2100
	1    0    0    -1  
$EndComp
$Comp
L +5VA #PWR065
U 1 1 56C1A481
P 6300 3700
F 0 "#PWR065" H 6300 3550 50  0001 C CNN
F 1 "+5VA" H 6300 3840 50  0000 C CNN
F 2 "" H 6300 3700 50  0000 C CNN
F 3 "" H 6300 3700 50  0000 C CNN
	1    6300 3700
	1    0    0    -1  
$EndComp
$Comp
L GND #PWR066
U 1 1 56C1A723
P 4700 2300
F 0 "#PWR066" H 4700 2050 50  0001 C CNN
F 1 "GND" H 4700 2150 50  0000 C CNN
F 2 "" H 4700 2300 50  0000 C CNN
F 3 "" H 4700 2300 50  0000 C CNN
	1    4700 2300
	0    1    1    0   
$EndComp
$Comp
L GND #PWR067
U 1 1 56C1A75E
P 4700 3900
F 0 "#PWR067" H 4700 3650 50  0001 C CNN
F 1 "GND" H 4700 3750 50  0000 C CNN
F 2 "" H 4700 3900 50  0000 C CNN
F 3 "" H 4700 3900 50  0000 C CNN
	1    4700 3900
	0    1    1    0   
$EndComp
$Comp
L GNDA #PWR068
U 1 1 56C1A8B2
P 6350 3900
F 0 "#PWR068" H 6350 3650 50  0001 C CNN
F 1 "GNDA" H 6350 3750 50  0000 C CNN
F 2 "" H 6350 3900 50  0000 C CNN
F 3 "" H 6350 3900 50  0000 C CNN
	1    6350 3900
	0    -1   -1   0   
$EndComp
$Comp
L +5VA #PWR069
U 1 1 56C1A8E9
P 6350 4400
F 0 "#PWR069" H 6350 4250 50  0001 C CNN
F 1 "+5VA" H 6350 4540 50  0000 C CNN
F 2 "" H 6350 4400 50  0000 C CNN
F 3 "" H 6350 4400 50  0000 C CNN
	1    6350 4400
	0    1    1    0   
$EndComp
$Comp
L C C601
U 1 1 56C1AAED
P 4300 1600
F 0 "C601" H 4325 1700 50  0000 L CNN
F 1 "0.1u" H 4325 1500 50  0000 L CNN
F 2 "Capacitors_SMD:C_0402" H 4338 1450 50  0001 C CNN
F 3 "" H 4300 1600 50  0000 C CNN
	1    4300 1600
	1    0    0    -1  
$EndComp
$Comp
L C C603
U 1 1 56C1AD6D
P 6700 1450
F 0 "C603" H 6725 1550 50  0000 L CNN
F 1 "0.1u" H 6725 1350 50  0000 L CNN
F 2 "Capacitors_SMD:C_0402" H 6738 1300 50  0001 C CNN
F 3 "" H 6700 1450 50  0000 C CNN
	1    6700 1450
	1    0    0    -1  
$EndComp
$Comp
L VDD #PWR070
U 1 1 56C1AEB8
P 4300 1350
F 0 "#PWR070" H 4300 1200 50  0001 C CNN
F 1 "VDD" H 4300 1500 50  0000 C CNN
F 2 "" H 4300 1350 50  0000 C CNN
F 3 "" H 4300 1350 50  0000 C CNN
	1    4300 1350
	1    0    0    -1  
$EndComp
$Comp
L GND #PWR071
U 1 1 56C1AEE7
P 4300 1850
F 0 "#PWR071" H 4300 1600 50  0001 C CNN
F 1 "GND" H 4300 1700 50  0000 C CNN
F 2 "" H 4300 1850 50  0000 C CNN
F 3 "" H 4300 1850 50  0000 C CNN
	1    4300 1850
	1    0    0    -1  
$EndComp
$Comp
L C C602
U 1 1 56C1B066
P 4450 5350
F 0 "C602" H 4475 5450 50  0000 L CNN
F 1 "0.1u" H 4475 5250 50  0000 L CNN
F 2 "Capacitors_SMD:C_0402" H 4488 5200 50  0001 C CNN
F 3 "" H 4450 5350 50  0000 C CNN
	1    4450 5350
	1    0    0    -1  
$EndComp
$Comp
L VDD #PWR072
U 1 1 56C1B06C
P 4450 5100
F 0 "#PWR072" H 4450 4950 50  0001 C CNN
F 1 "VDD" H 4450 5250 50  0000 C CNN
F 2 "" H 4450 5100 50  0000 C CNN
F 3 "" H 4450 5100 50  0000 C CNN
	1    4450 5100
	1    0    0    -1  
$EndComp
$Comp
L GND #PWR073
U 1 1 56C1B072
P 4450 5600
F 0 "#PWR073" H 4450 5350 50  0001 C CNN
F 1 "GND" H 4450 5450 50  0000 C CNN
F 2 "" H 4450 5600 50  0000 C CNN
F 3 "" H 4450 5600 50  0000 C CNN
	1    4450 5600
	1    0    0    -1  
$EndComp
$Comp
L +5VA #PWR074
U 1 1 56C1B098
P 6700 1250
F 0 "#PWR074" H 6700 1100 50  0001 C CNN
F 1 "+5VA" H 6700 1390 50  0000 C CNN
F 2 "" H 6700 1250 50  0000 C CNN
F 3 "" H 6700 1250 50  0000 C CNN
	1    6700 1250
	1    0    0    -1  
$EndComp
$Comp
L GNDA #PWR075
U 1 1 56C1B0B5
P 6700 1700
F 0 "#PWR075" H 6700 1450 50  0001 C CNN
F 1 "GNDA" H 6700 1550 50  0000 C CNN
F 2 "" H 6700 1700 50  0000 C CNN
F 3 "" H 6700 1700 50  0000 C CNN
	1    6700 1700
	1    0    0    -1  
$EndComp
$Comp
L C C604
U 1 1 56C1B1B7
P 6550 5350
F 0 "C604" H 6575 5450 50  0000 L CNN
F 1 "0.1u" H 6575 5250 50  0000 L CNN
F 2 "Capacitors_SMD:C_0402" H 6588 5200 50  0001 C CNN
F 3 "" H 6550 5350 50  0000 C CNN
	1    6550 5350
	1    0    0    -1  
$EndComp
$Comp
L +5VA #PWR076
U 1 1 56C1B1BD
P 6550 5150
F 0 "#PWR076" H 6550 5000 50  0001 C CNN
F 1 "+5VA" H 6550 5290 50  0000 C CNN
F 2 "" H 6550 5150 50  0000 C CNN
F 3 "" H 6550 5150 50  0000 C CNN
	1    6550 5150
	1    0    0    -1  
$EndComp
$Comp
L GNDA #PWR077
U 1 1 56C1B1C3
P 6550 5600
F 0 "#PWR077" H 6550 5350 50  0001 C CNN
F 1 "GNDA" H 6550 5450 50  0000 C CNN
F 2 "" H 6550 5600 50  0000 C CNN
F 3 "" H 6550 5600 50  0000 C CNN
	1    6550 5600
	1    0    0    -1  
$EndComp
$Comp
L GNDA #PWR078
U 1 1 56C3205F
P 6350 2300
F 0 "#PWR078" H 6350 2050 50  0001 C CNN
F 1 "GNDA" H 6350 2150 50  0000 C CNN
F 2 "" H 6350 2300 50  0000 C CNN
F 3 "" H 6350 2300 50  0000 C CNN
	1    6350 2300
	0    -1   -1   0   
$EndComp
$Comp
L +5VA #PWR079
U 1 1 56C320B0
P 6350 2800
F 0 "#PWR079" H 6350 2650 50  0001 C CNN
F 1 "+5VA" H 6350 2940 50  0000 C CNN
F 2 "" H 6350 2800 50  0000 C CNN
F 3 "" H 6350 2800 50  0000 C CNN
	1    6350 2800
	0    1    1    0   
$EndComp
$Comp
L ISO7141 U601
U 1 1 56C33777
P 5500 2550
F 0 "U601" H 6000 2100 60  0000 C CNN
F 1 "ISO7141" H 5150 3050 60  0000 C CNN
F 2 "Housings_SSOP:SSOP-16_3.9x4.9mm_Pitch0.635mm" H 5400 2500 60  0001 C CNN
F 3 "" H 5400 2500 60  0000 C CNN
	1    5500 2550
	1    0    0    -1  
$EndComp
$Comp
L VDD #PWR080
U 1 1 56C339A3
P 4700 2800
F 0 "#PWR080" H 4700 2650 50  0001 C CNN
F 1 "VDD" H 4700 2950 50  0000 C CNN
F 2 "" H 4700 2800 50  0000 C CNN
F 3 "" H 4700 2800 50  0000 C CNN
	1    4700 2800
	0    -1   -1   0   
$EndComp
Wire Wire Line
	4750 2100 4750 2200
Wire Wire Line
	4750 2200 4850 2200
Wire Wire Line
	4750 3700 4750 3800
Wire Wire Line
	4750 3800 4850 3800
Wire Wire Line
	4750 4600 4750 4500
Wire Wire Line
	4750 4500 4850 4500
Wire Wire Line
	4750 3000 4750 2900
Wire Wire Line
	4750 2900 4850 2900
Wire Wire Line
	6300 4600 6300 4500
Wire Wire Line
	6300 4500 6200 4500
Wire Wire Line
	6300 3000 6300 2900
Wire Wire Line
	6300 2900 6200 2900
Wire Wire Line
	6300 2100 6300 2200
Wire Wire Line
	6300 2200 6200 2200
Wire Wire Line
	6300 3700 6300 3800
Wire Wire Line
	6300 3800 6200 3800
Wire Wire Line
	4700 2400 4850 2400
Wire Wire Line
	4850 2500 4700 2500
Wire Wire Line
	4700 2600 4850 2600
Wire Wire Line
	4850 2700 4700 2700
Wire Wire Line
	6200 2400 6350 2400
Wire Wire Line
	6350 2500 6200 2500
Wire Wire Line
	6200 2600 6350 2600
Wire Wire Line
	6350 2700 6200 2700
Wire Wire Line
	4700 2300 4850 2300
Wire Wire Line
	4700 3900 4850 3900
Wire Wire Line
	4700 4000 4850 4000
Wire Wire Line
	4850 4100 4700 4100
Wire Wire Line
	4700 4200 4850 4200
Wire Wire Line
	4850 4300 4700 4300
Wire Wire Line
	6200 4000 6350 4000
Wire Wire Line
	6350 4100 6200 4100
Wire Wire Line
	6200 4200 6350 4200
Wire Wire Line
	6350 4300 6200 4300
Wire Wire Line
	6350 3900 6200 3900
Wire Wire Line
	6350 4400 6200 4400
Wire Wire Line
	4300 1850 4300 1750
Wire Wire Line
	4300 1450 4300 1350
Wire Wire Line
	4450 5600 4450 5500
Wire Wire Line
	4450 5200 4450 5100
Wire Wire Line
	6700 1250 6700 1300
Wire Wire Line
	6700 1600 6700 1700
Wire Wire Line
	6550 5150 6550 5200
Wire Wire Line
	6550 5500 6550 5600
Wire Wire Line
	6350 2300 6200 2300
Wire Wire Line
	6350 2800 6200 2800
Wire Wire Line
	4700 2800 4850 2800
Text HLabel 6350 2700 2    60   Input ~ 0
INB0
Text HLabel 4700 2700 0    60   Output ~ 0
OUTB0
$EndSCHEMATC
