EESchema Schematic File Version 2
LIBS:power
LIBS:device
LIBS:transistors
LIBS:conn
LIBS:linear
LIBS:regul
LIBS:74xx
LIBS:cmos4000
LIBS:adc-dac
LIBS:memory
LIBS:xilinx
LIBS:microcontrollers
LIBS:dsp
LIBS:microchip
LIBS:analog_switches
LIBS:motorola
LIBS:texas
LIBS:intel
LIBS:audio
LIBS:interface
LIBS:digital-audio
LIBS:philips
LIBS:display
LIBS:cypress
LIBS:siliconi
LIBS:opto
LIBS:atmel
LIBS:contrib
LIBS:valves
LIBS:crap
LIBS:canpump-cache
EELAYER 25 0
EELAYER END
$Descr A4 11693 8268
encoding utf-8
Sheet 8 8
Title ""
Date "30 sep 2015"
Rev ""
Comp ""
Comment1 ""
Comment2 ""
Comment3 ""
Comment4 ""
$EndDescr
$Comp
L MCP1702 U801
U 1 1 56C1F91A
P 5850 3600
F 0 "U801" H 5950 3100 60  0000 C CNN
F 1 "MCP1702" H 5700 3550 60  0000 C CNN
F 2 "TO_SOT_Packages_SMD:SOT-23" H 5850 3600 60  0000 C CNN
F 3 "~" H 5850 3600 60  0000 C CNN
	1    5850 3600
	1    0    0    -1  
$EndComp
$Comp
L GND #PWR099
U 1 1 56C1F91B
P 5150 4050
F 0 "#PWR099" H 5150 4050 30  0001 C CNN
F 1 "GND" H 5150 3980 30  0001 C CNN
F 2 "" H 5150 4050 60  0000 C CNN
F 3 "" H 5150 4050 60  0000 C CNN
	1    5150 4050
	1    0    0    -1  
$EndComp
Wire Wire Line
	5150 4050 5150 3950
Wire Wire Line
	5150 3950 5250 3950
$Comp
L +5V #PWR0100
U 1 1 56C1F91C
P 5150 3700
F 0 "#PWR0100" H 5150 3790 20  0001 C CNN
F 1 "+5V" H 5150 3790 30  0000 C CNN
F 2 "" H 5150 3700 60  0000 C CNN
F 3 "" H 5150 3700 60  0000 C CNN
	1    5150 3700
	1    0    0    -1  
$EndComp
Wire Wire Line
	5150 3700 5150 3800
Wire Wire Line
	5150 3800 5250 3800
$Comp
L VDD #PWR0101
U 1 1 56C1F91D
P 6400 3700
F 0 "#PWR0101" H 6400 3800 30  0001 C CNN
F 1 "VDD" H 6400 3810 30  0000 C CNN
F 2 "" H 6400 3700 60  0000 C CNN
F 3 "" H 6400 3700 60  0000 C CNN
	1    6400 3700
	1    0    0    -1  
$EndComp
Wire Wire Line
	6400 3700 6400 3800
Wire Wire Line
	6400 3800 6300 3800
$Comp
L C C801
U 1 1 56C1F91E
P 4800 3850
F 0 "C801" H 4800 3950 40  0000 L CNN
F 1 "1u" H 4806 3765 40  0000 L CNN
F 2 "Capacitors_SMD:C_0603_HandSoldering" H 4838 3700 30  0000 C CNN
F 3 "~" H 4800 3850 60  0000 C CNN
	1    4800 3850
	1    0    0    -1  
$EndComp
$Comp
L GND #PWR0102
U 1 1 56C1F91F
P 4800 4050
F 0 "#PWR0102" H 4800 4050 30  0001 C CNN
F 1 "GND" H 4800 3980 30  0001 C CNN
F 2 "" H 4800 4050 60  0000 C CNN
F 3 "" H 4800 4050 60  0000 C CNN
	1    4800 4050
	1    0    0    -1  
$EndComp
Wire Wire Line
	4800 4050 4800 4000
$Comp
L +5V #PWR0103
U 1 1 56C1F920
P 4800 3650
F 0 "#PWR0103" H 4800 3740 20  0001 C CNN
F 1 "+5V" H 4800 3740 30  0000 C CNN
F 2 "" H 4800 3650 60  0000 C CNN
F 3 "" H 4800 3650 60  0000 C CNN
	1    4800 3650
	1    0    0    -1  
$EndComp
Wire Wire Line
	4800 3650 4800 3700
$Comp
L C C802
U 1 1 56C1F921
P 6700 3850
F 0 "C802" H 6700 3950 40  0000 L CNN
F 1 "10u" H 6706 3765 40  0000 L CNN
F 2 "Capacitors_SMD:C_0805" H 6738 3700 30  0000 C CNN
F 3 "~" H 6700 3850 60  0000 C CNN
	1    6700 3850
	1    0    0    -1  
$EndComp
$Comp
L GND #PWR0104
U 1 1 56C1F922
P 6700 4050
F 0 "#PWR0104" H 6700 4050 30  0001 C CNN
F 1 "GND" H 6700 3980 30  0001 C CNN
F 2 "" H 6700 4050 60  0000 C CNN
F 3 "" H 6700 4050 60  0000 C CNN
	1    6700 4050
	1    0    0    -1  
$EndComp
Wire Wire Line
	6700 4050 6700 4000
Wire Wire Line
	6700 3650 6700 3700
$Comp
L VDD #PWR0105
U 1 1 56C1F923
P 6700 3650
F 0 "#PWR0105" H 6700 3750 30  0001 C CNN
F 1 "VDD" H 6700 3760 30  0000 C CNN
F 2 "" H 6700 3650 60  0000 C CNN
F 3 "" H 6700 3650 60  0000 C CNN
	1    6700 3650
	1    0    0    -1  
$EndComp
$Comp
L LED D801
U 1 1 56C1F924
P 7100 3800
F 0 "D801" H 7100 3900 50  0000 C CNN
F 1 "LED" H 7100 3700 50  0000 C CNN
F 2 "Capacitors_SMD:C_0603" H 7100 3800 60  0000 C CNN
F 3 "~" H 7100 3800 60  0000 C CNN
	1    7100 3800
	0    -1   -1   0   
$EndComp
$Comp
L R R801
U 1 1 56C1F925
P 7100 4200
F 0 "R801" V 7180 4200 40  0000 C CNN
F 1 "1k" V 7107 4201 40  0000 C CNN
F 2 "Resistors_SMD:R_0402" V 7030 4200 30  0000 C CNN
F 3 "~" H 7100 4200 30  0000 C CNN
	1    7100 4200
	1    0    0    -1  
$EndComp
$Comp
L GND #PWR0106
U 1 1 56C1F926
P 7100 4450
F 0 "#PWR0106" H 7100 4450 30  0001 C CNN
F 1 "GND" H 7100 4380 30  0001 C CNN
F 2 "" H 7100 4450 60  0000 C CNN
F 3 "" H 7100 4450 60  0000 C CNN
	1    7100 4450
	1    0    0    -1  
$EndComp
Wire Wire Line
	7100 4450 7100 4350
Wire Wire Line
	7100 4050 7100 4000
$Comp
L VDD #PWR0107
U 1 1 56C1F927
P 7100 3500
F 0 "#PWR0107" H 7100 3600 30  0001 C CNN
F 1 "VDD" H 7100 3610 30  0000 C CNN
F 2 "" H 7100 3500 60  0000 C CNN
F 3 "" H 7100 3500 60  0000 C CNN
	1    7100 3500
	1    0    0    -1  
$EndComp
Wire Wire Line
	7100 3500 7100 3600
$EndSCHEMATC
