EESchema Schematic File Version 2
LIBS:power
LIBS:device
LIBS:transistors
LIBS:conn
LIBS:linear
LIBS:regul
LIBS:74xx
LIBS:cmos4000
LIBS:adc-dac
LIBS:memory
LIBS:xilinx
LIBS:microcontrollers
LIBS:dsp
LIBS:microchip
LIBS:analog_switches
LIBS:motorola
LIBS:texas
LIBS:intel
LIBS:audio
LIBS:interface
LIBS:digital-audio
LIBS:philips
LIBS:display
LIBS:cypress
LIBS:siliconi
LIBS:opto
LIBS:atmel
LIBS:contrib
LIBS:valves
LIBS:crap
LIBS:canpump-cache
EELAYER 25 0
EELAYER END
$Descr A4 11693 8268
encoding utf-8
Sheet 7 8
Title ""
Date "30 sep 2015"
Rev ""
Comp ""
Comment1 ""
Comment2 ""
Comment3 ""
Comment4 ""
$EndDescr
$Comp
L +24V #PWR081
U 1 1 56C13F73
P 2450 2150
F 0 "#PWR081" H 2450 2000 50  0001 C CNN
F 1 "+24V" H 2450 2290 50  0000 C CNN
F 2 "" H 2450 2150 60  0000 C CNN
F 3 "" H 2450 2150 60  0000 C CNN
	1    2450 2150
	1    0    0    -1  
$EndComp
$Comp
L LMR14203 U701
U 1 1 56C1435C
P 3800 2450
F 0 "U701" H 4100 2200 60  0000 C CNN
F 1 "LMR14203" H 3550 2700 60  0000 C CNN
F 2 "craplib:SOT-6L" H 3750 2150 60  0000 C CNN
F 3 "" H 3900 2200 60  0000 C CNN
	1    3800 2450
	1    0    0    -1  
$EndComp
$Comp
L C C701
U 1 1 56C1435F
P 2450 2450
F 0 "C701" H 2450 2550 40  0000 L CNN
F 1 "2.2u" H 2456 2365 40  0000 L CNN
F 2 "Capacitors_SMD:C_0805" H 2488 2300 30  0000 C CNN
F 3 "~" H 2450 2450 60  0000 C CNN
	1    2450 2450
	1    0    0    -1  
$EndComp
$Comp
L R R703
U 1 1 56C14362
P 6050 2350
F 0 "R703" V 6130 2350 40  0000 C CNN
F 1 "5.62k" V 6057 2351 40  0000 C CNN
F 2 "Resistors_SMD:R_0402" V 5980 2350 30  0000 C CNN
F 3 "~" H 6050 2350 30  0000 C CNN
	1    6050 2350
	-1   0    0    1   
$EndComp
$Comp
L R R704
U 1 1 56C14363
P 6050 2800
F 0 "R704" V 6130 2800 40  0000 C CNN
F 1 "1.02k" V 6057 2801 40  0000 C CNN
F 2 "Resistors_SMD:R_0402" V 5980 2800 30  0000 C CNN
F 3 "~" H 6050 2800 30  0000 C CNN
	1    6050 2800
	-1   0    0    1   
$EndComp
$Comp
L C C703
U 1 1 56C14365
P 6450 2450
F 0 "C703" H 6450 2550 40  0000 L CNN
F 1 "47u" H 6456 2365 40  0000 L CNN
F 2 "Capacitors_SMD:C_1210" H 6488 2300 30  0000 C CNN
F 3 "~" H 6450 2450 60  0000 C CNN
	1    6450 2450
	1    0    0    -1  
$EndComp
$Comp
L C C702
U 1 1 56C14367
P 4700 2150
F 0 "C702" H 4700 2250 40  0000 L CNN
F 1 "0.15u" H 4706 2065 40  0000 L CNN
F 2 "Capacitors_SMD:C_0603_HandSoldering" H 4738 2000 30  0000 C CNN
F 3 "~" H 4700 2150 60  0000 C CNN
	1    4700 2150
	0    -1   -1   0   
$EndComp
$Comp
L INDUCTOR L701
U 1 1 56C14368
P 5550 2150
F 0 "L701" V 5500 2150 40  0000 C CNN
F 1 "15u" V 5650 2150 40  0000 C CNN
F 2 "Capacitors_SMD:C_1812" V 5750 2200 60  0000 C CNN
F 3 "~" H 5550 2150 60  0000 C CNN
	1    5550 2150
	0    -1   -1   0   
$EndComp
Text Label 5900 2550 2    60   ~ 0
FB
Text Label 4400 2550 0    60   ~ 0
FB
$Comp
L +5VA #PWR082
U 1 1 56C1436B
P 6750 2050
F 0 "#PWR082" H 6750 2180 20  0001 C CNN
F 1 "+5VA" H 6750 2150 30  0000 C CNN
F 2 "" H 6750 2050 60  0000 C CNN
F 3 "" H 6750 2050 60  0000 C CNN
	1    6750 2050
	1    0    0    -1  
$EndComp
Text Notes 5550 3750 0    60   ~ 0
Vout = 0.765 * (1+R1/R2)\nVout = 4.98
$Comp
L LED D703
U 1 1 56C1436C
P 8800 2800
F 0 "D703" H 8800 2900 50  0000 C CNN
F 1 "LED" H 8800 2700 50  0000 C CNN
F 2 "Capacitors_SMD:C_0603" H 8800 2800 60  0000 C CNN
F 3 "~" H 8800 2800 60  0000 C CNN
	1    8800 2800
	0    -1   -1   0   
$EndComp
$Comp
L R R705
U 1 1 56C1436D
P 8800 3250
F 0 "R705" V 8880 3250 40  0000 C CNN
F 1 "1k" V 8807 3251 40  0000 C CNN
F 2 "Resistors_SMD:R_0402" V 8730 3250 30  0000 C CNN
F 3 "~" H 8800 3250 30  0000 C CNN
	1    8800 3250
	1    0    0    -1  
$EndComp
$Comp
L +5VA #PWR083
U 1 1 56C1436F
P 8800 2500
F 0 "#PWR083" H 8800 2630 20  0001 C CNN
F 1 "+5VA" H 8800 2600 30  0000 C CNN
F 2 "" H 8800 2500 60  0000 C CNN
F 3 "" H 8800 2500 60  0000 C CNN
	1    8800 2500
	1    0    0    -1  
$EndComp
$Comp
L +24V #PWR084
U 1 1 56C14507
P 3150 2250
F 0 "#PWR084" H 3150 2100 50  0001 C CNN
F 1 "+24V" H 3150 2390 50  0000 C CNN
F 2 "" H 3150 2250 60  0000 C CNN
F 3 "" H 3150 2250 60  0000 C CNN
	1    3150 2250
	1    0    0    -1  
$EndComp
$Comp
L GNDA #PWR085
U 1 1 56C1455A
P 2450 2750
F 0 "#PWR085" H 2450 2500 50  0001 C CNN
F 1 "GNDA" H 2450 2600 50  0000 C CNN
F 2 "" H 2450 2750 60  0000 C CNN
F 3 "" H 2450 2750 60  0000 C CNN
	1    2450 2750
	1    0    0    -1  
$EndComp
$Comp
L GNDA #PWR086
U 1 1 56C145C8
P 3150 2650
F 0 "#PWR086" H 3150 2400 50  0001 C CNN
F 1 "GNDA" H 3150 2500 50  0000 C CNN
F 2 "" H 3150 2650 60  0000 C CNN
F 3 "" H 3150 2650 60  0000 C CNN
	1    3150 2650
	1    0    0    -1  
$EndComp
$Comp
L GNDA #PWR087
U 1 1 56C14662
P 5150 2650
F 0 "#PWR087" H 5150 2400 50  0001 C CNN
F 1 "GNDA" H 5150 2500 50  0000 C CNN
F 2 "" H 5150 2650 60  0000 C CNN
F 3 "" H 5150 2650 60  0000 C CNN
	1    5150 2650
	1    0    0    -1  
$EndComp
$Comp
L GNDA #PWR088
U 1 1 56C146A8
P 6450 2750
F 0 "#PWR088" H 6450 2500 50  0001 C CNN
F 1 "GNDA" H 6450 2600 50  0000 C CNN
F 2 "" H 6450 2750 60  0000 C CNN
F 3 "" H 6450 2750 60  0000 C CNN
	1    6450 2750
	1    0    0    -1  
$EndComp
$Comp
L GNDA #PWR089
U 1 1 56C146D1
P 6050 3050
F 0 "#PWR089" H 6050 2800 50  0001 C CNN
F 1 "GNDA" H 6050 2900 50  0000 C CNN
F 2 "" H 6050 3050 60  0000 C CNN
F 3 "" H 6050 3050 60  0000 C CNN
	1    6050 3050
	1    0    0    -1  
$EndComp
$Comp
L D_Schottky D702
U 1 1 56C14902
P 5150 2400
F 0 "D702" H 5150 2500 50  0000 C CNN
F 1 "D_Schottky" H 5150 2300 50  0000 C CNN
F 2 "Diodes_SMD:SOD-123" H 5150 2400 60  0001 C CNN
F 3 "" H 5150 2400 60  0000 C CNN
	1    5150 2400
	0    1    1    0   
$EndComp
$Comp
L GNDA #PWR090
U 1 1 56C14BB7
P 8800 3500
F 0 "#PWR090" H 8800 3250 50  0001 C CNN
F 1 "GNDA" H 8800 3350 50  0000 C CNN
F 2 "" H 8800 3500 60  0000 C CNN
F 3 "" H 8800 3500 60  0000 C CNN
	1    8800 3500
	1    0    0    -1  
$EndComp
$Comp
L GNDA #PWR091
U 1 1 56C153B2
P 4700 5850
F 0 "#PWR091" H 4700 5600 50  0001 C CNN
F 1 "GNDA" H 4700 5700 50  0000 C CNN
F 2 "" H 4700 5850 60  0000 C CNN
F 3 "" H 4700 5850 60  0000 C CNN
	1    4700 5850
	1    0    0    -1  
$EndComp
$Comp
L R R701
U 1 1 56C15441
P 4350 4800
F 0 "R701" V 4430 4800 50  0000 C CNN
F 1 "R" V 4350 4800 50  0000 C CNN
F 2 "Resistors_SMD:R_0402" V 4280 4800 30  0001 C CNN
F 3 "" H 4350 4800 30  0000 C CNN
	1    4350 4800
	-1   0    0    1   
$EndComp
$Comp
L R R702
U 1 1 56C15491
P 4350 5150
F 0 "R702" V 4430 5150 50  0000 C CNN
F 1 "R" V 4350 5150 50  0000 C CNN
F 2 "Resistors_SMD:R_0402" V 4280 5150 30  0001 C CNN
F 3 "" H 4350 5150 30  0000 C CNN
	1    4350 5150
	-1   0    0    1   
$EndComp
$Comp
L +24V #PWR092
U 1 1 56C158A6
P 3550 4600
F 0 "#PWR092" H 3550 4450 50  0001 C CNN
F 1 "+24V" H 3550 4740 50  0000 C CNN
F 2 "" H 3550 4600 60  0000 C CNN
F 3 "" H 3550 4600 60  0000 C CNN
	1    3550 4600
	1    0    0    -1  
$EndComp
$Comp
L +12V #PWR093
U 1 1 56C15A36
P 5100 5100
F 0 "#PWR093" H 5100 4950 50  0001 C CNN
F 1 "+12V" H 5100 5240 50  0000 C CNN
F 2 "" H 5100 5100 60  0000 C CNN
F 3 "" H 5100 5100 60  0000 C CNN
	1    5100 5100
	1    0    0    -1  
$EndComp
$Comp
L D_Schottky D701
U 1 1 56C164B6
P 3850 4600
F 0 "D701" H 3850 4700 50  0000 C CNN
F 1 "D_Schottky" H 3850 4500 50  0000 C CNN
F 2 "Diodes_SMD:SOD-123" H 3850 4600 60  0001 C CNN
F 3 "" H 3850 4600 60  0000 C CNN
	1    3850 4600
	-1   0    0    1   
$EndComp
$Comp
L FDC6333C Q701
U 1 1 56C16EB2
P 4600 5250
F 0 "Q701" H 4550 4750 50  0000 R CNN
F 1 "FDC6333C" H 5450 5000 50  0000 R CNN
F 2 "craplib:FAIRCHILD-MOSFET-SuperSOT-6" H 4800 5650 29  0001 C CNN
F 3 "" H 4600 5550 60  0000 C CNN
	1    4600 5250
	1    0    0    -1  
$EndComp
Text HLabel 4200 5550 0    60   Input ~ 0
HALF
Wire Wire Line
	3150 2250 3150 2450
Wire Wire Line
	3150 2350 3250 2350
Wire Wire Line
	3150 2650 3150 2550
Wire Wire Line
	3150 2550 3250 2550
Wire Wire Line
	3150 2450 3250 2450
Connection ~ 3150 2350
Wire Wire Line
	2450 2600 2450 2750
Wire Wire Line
	2450 2150 2450 2300
Wire Wire Line
	6050 3050 6050 2950
Wire Wire Line
	5850 2150 6750 2150
Wire Wire Line
	6450 2150 6450 2300
Wire Wire Line
	6450 2750 6450 2600
Wire Wire Line
	4300 2350 4400 2350
Wire Wire Line
	4400 2350 4400 2150
Wire Wire Line
	4400 2150 4550 2150
Wire Wire Line
	5000 2450 4300 2450
Wire Wire Line
	5000 2150 5000 2450
Wire Wire Line
	4850 2150 5250 2150
Connection ~ 5000 2150
Wire Wire Line
	5150 2150 5150 2250
Connection ~ 5150 2150
Wire Wire Line
	5150 2650 5150 2550
Wire Wire Line
	6050 2150 6050 2200
Wire Wire Line
	6050 2500 6050 2650
Wire Wire Line
	5900 2550 6050 2550
Connection ~ 6050 2550
Wire Wire Line
	4400 2550 4300 2550
Connection ~ 6050 2150
Wire Wire Line
	6750 2150 6750 2050
Connection ~ 6450 2150
Wire Wire Line
	8800 3500 8800 3400
Wire Wire Line
	8800 3100 8800 3000
Wire Wire Line
	8800 2600 8800 2500
Wire Wire Line
	4700 5850 4700 5750
Wire Wire Line
	4200 5550 4400 5550
Wire Wire Line
	3550 4600 3700 4600
Wire Wire Line
	4700 4600 4700 4750
Wire Wire Line
	4700 5150 5100 5150
Wire Wire Line
	5100 5150 5100 5100
Wire Wire Line
	4000 4600 4700 4600
Wire Wire Line
	4350 4650 4350 4600
Connection ~ 4350 4600
Wire Wire Line
	4350 4950 4400 4950
Wire Wire Line
	4700 5350 4350 5350
Wire Wire Line
	4350 5350 4350 5300
Wire Wire Line
	4350 5000 4350 4950
$Comp
L CONN_01X02 P701
U 1 1 56C2F5F1
P 8200 1500
F 0 "P701" H 8200 1650 50  0000 C CNN
F 1 "CONN_01X02" V 8300 1500 50  0000 C CNN
F 2 "craplib:WE_CONN_3.81_vertical_2way" H 8200 1500 50  0001 C CNN
F 3 "" H 8200 1500 50  0000 C CNN
	1    8200 1500
	1    0    0    1   
$EndComp
$Comp
L GNDA #PWR094
U 1 1 56C2F680
P 7900 1650
F 0 "#PWR094" H 7900 1400 50  0001 C CNN
F 1 "GNDA" H 7900 1500 50  0000 C CNN
F 2 "" H 7900 1650 50  0000 C CNN
F 3 "" H 7900 1650 50  0000 C CNN
	1    7900 1650
	1    0    0    -1  
$EndComp
Wire Wire Line
	7900 1650 7900 1550
Wire Wire Line
	7900 1550 8000 1550
$Comp
L +24V #PWR095
U 1 1 56C2F6F1
P 7900 1350
F 0 "#PWR095" H 7900 1200 50  0001 C CNN
F 1 "+24V" H 7900 1490 50  0000 C CNN
F 2 "" H 7900 1350 50  0000 C CNN
F 3 "" H 7900 1350 50  0000 C CNN
	1    7900 1350
	1    0    0    -1  
$EndComp
Wire Wire Line
	7900 1350 7900 1450
Wire Wire Line
	7900 1450 8000 1450
$Comp
L C C704
U 1 1 56C2FA38
P 7300 1500
F 0 "C704" H 7325 1600 50  0000 L CNN
F 1 "100u" H 7325 1400 50  0000 L CNN
F 2 "Capacitors_ThroughHole:C_Radial_D5_L11_P2.5" H 7338 1350 50  0001 C CNN
F 3 "" H 7300 1500 50  0000 C CNN
	1    7300 1500
	1    0    0    -1  
$EndComp
$Comp
L GNDA #PWR096
U 1 1 56C2FB27
P 7300 1750
F 0 "#PWR096" H 7300 1500 50  0001 C CNN
F 1 "GNDA" H 7300 1600 50  0000 C CNN
F 2 "" H 7300 1750 50  0000 C CNN
F 3 "" H 7300 1750 50  0000 C CNN
	1    7300 1750
	1    0    0    -1  
$EndComp
Wire Wire Line
	7300 1750 7300 1650
$Comp
L +24V #PWR097
U 1 1 56C2FBA6
P 7300 1250
F 0 "#PWR097" H 7300 1100 50  0001 C CNN
F 1 "+24V" H 7300 1390 50  0000 C CNN
F 2 "" H 7300 1250 50  0000 C CNN
F 3 "" H 7300 1250 50  0000 C CNN
	1    7300 1250
	1    0    0    -1  
$EndComp
Wire Wire Line
	7300 1250 7300 1350
Text HLabel 2000 3750 0    60   Output ~ 0
PGOOD
Wire Wire Line
	2100 3650 2100 3750
Wire Wire Line
	2100 3750 2000 3750
$Comp
L +5VA #PWR098
U 1 1 56C372D5
P 2100 3650
F 0 "#PWR098" H 2100 3500 50  0001 C CNN
F 1 "+5VA" H 2100 3790 50  0000 C CNN
F 2 "" H 2100 3650 50  0000 C CNN
F 3 "" H 2100 3650 50  0000 C CNN
	1    2100 3650
	1    0    0    -1  
$EndComp
$EndSCHEMATC
