EESchema Schematic File Version 2
LIBS:power
LIBS:device
LIBS:transistors
LIBS:conn
LIBS:linear
LIBS:regul
LIBS:74xx
LIBS:cmos4000
LIBS:adc-dac
LIBS:memory
LIBS:xilinx
LIBS:microcontrollers
LIBS:dsp
LIBS:microchip
LIBS:analog_switches
LIBS:motorola
LIBS:texas
LIBS:intel
LIBS:audio
LIBS:interface
LIBS:digital-audio
LIBS:philips
LIBS:display
LIBS:cypress
LIBS:siliconi
LIBS:opto
LIBS:atmel
LIBS:contrib
LIBS:valves
LIBS:crap
LIBS:canpump-cache
EELAYER 25 0
EELAYER END
$Descr A4 11693 8268
encoding utf-8
Sheet 3 8
Title ""
Date ""
Rev ""
Comp ""
Comment1 ""
Comment2 ""
Comment3 ""
Comment4 ""
$EndDescr
Text HLabel 1550 1850 0    60   Input ~ 0
PUMP0
$Comp
L CONN_01X02 P301
U 1 1 56C0F91B
P 2300 1400
F 0 "P301" H 2300 1550 50  0000 C CNN
F 1 "CONN_01X02" V 2400 1400 50  0000 C CNN
F 2 "craplib:KRMC_02" H 2300 1400 60  0001 C CNN
F 3 "" H 2300 1400 60  0000 C CNN
	1    2300 1400
	1    0    0    1   
$EndComp
$Comp
L GNDA #PWR017
U 1 1 56C0F9C8
P 2100 2050
F 0 "#PWR017" H 2100 1800 50  0001 C CNN
F 1 "GNDA" H 2100 1900 50  0000 C CNN
F 2 "" H 2100 2050 60  0000 C CNN
F 3 "" H 2100 2050 60  0000 C CNN
	1    2100 2050
	1    0    0    -1  
$EndComp
$Comp
L +24V #PWR018
U 1 1 56C0FA8E
P 2100 1150
F 0 "#PWR018" H 2100 1000 50  0001 C CNN
F 1 "+24V" H 2100 1290 50  0000 C CNN
F 2 "" H 2100 1150 60  0000 C CNN
F 3 "" H 2100 1150 60  0000 C CNN
	1    2100 1150
	1    0    0    -1  
$EndComp
$Comp
L D_Schottky D301
U 1 1 56C0FAAC
P 1850 1400
F 0 "D301" H 1850 1500 50  0000 C CNN
F 1 "D_Schottky" H 1850 1300 50  0000 C CNN
F 2 "Diodes_SMD:SOD-123" H 1850 1400 60  0001 C CNN
F 3 "" H 1850 1400 60  0000 C CNN
	1    1850 1400
	0    1    1    0   
$EndComp
Text Notes 1950 2300 2    60   ~ 0
Ref: BSS316N H6327
$Comp
L Q_NMOS_GSD Q301
U 1 1 56C13979
P 2000 1850
F 0 "Q301" H 2300 1900 50  0000 R CNN
F 1 "Q_NMOS_GSD" H 2650 1800 50  0000 R CNN
F 2 "TO_SOT_Packages_SMD:SOT-23" H 2200 1950 29  0001 C CNN
F 3 "" H 2000 1850 60  0000 C CNN
	1    2000 1850
	1    0    0    -1  
$EndComp
$Comp
L CONN_01X02 P304
U 1 1 56C161DA
P 3200 1400
F 0 "P304" H 3200 1550 50  0000 C CNN
F 1 "CONN_01X02" V 3300 1400 50  0000 C CNN
F 2 "craplib:KRMC_02" H 3200 1400 60  0001 C CNN
F 3 "" H 3200 1400 60  0000 C CNN
	1    3200 1400
	1    0    0    1   
$EndComp
$Comp
L D_Schottky D304
U 1 1 56C161E6
P 2750 1400
F 0 "D304" H 2750 1500 50  0000 C CNN
F 1 "D_Schottky" H 2750 1300 50  0000 C CNN
F 2 "Diodes_SMD:SOD-123" H 2750 1400 60  0001 C CNN
F 3 "" H 2750 1400 60  0000 C CNN
	1    2750 1400
	0    1    1    0   
$EndComp
$Comp
L +12V #PWR019
U 1 1 56C1621D
P 3000 1150
F 0 "#PWR019" H 3000 1000 50  0001 C CNN
F 1 "+12V" H 3000 1290 50  0000 C CNN
F 2 "" H 3000 1150 60  0000 C CNN
F 3 "" H 3000 1150 60  0000 C CNN
	1    3000 1150
	1    0    0    -1  
$EndComp
Text HLabel 1550 4100 0    60   Input ~ 0
PUMP1
$Comp
L CONN_01X02 P307
U 1 1 56C1957A
P 8050 1400
F 0 "P307" H 8050 1550 50  0000 C CNN
F 1 "CONN_01X02" V 8150 1400 50  0000 C CNN
F 2 "craplib:KRMC_02" H 8050 1400 60  0001 C CNN
F 3 "" H 8050 1400 60  0000 C CNN
	1    8050 1400
	1    0    0    1   
$EndComp
$Comp
L GNDA #PWR020
U 1 1 56C19580
P 7850 2100
F 0 "#PWR020" H 7850 1850 50  0001 C CNN
F 1 "GNDA" H 7850 1950 50  0000 C CNN
F 2 "" H 7850 2100 60  0000 C CNN
F 3 "" H 7850 2100 60  0000 C CNN
	1    7850 2100
	1    0    0    -1  
$EndComp
$Comp
L +24V #PWR021
U 1 1 56C19586
P 7850 1150
F 0 "#PWR021" H 7850 1000 50  0001 C CNN
F 1 "+24V" H 7850 1290 50  0000 C CNN
F 2 "" H 7850 1150 60  0000 C CNN
F 3 "" H 7850 1150 60  0000 C CNN
	1    7850 1150
	1    0    0    -1  
$EndComp
$Comp
L D_Schottky D307
U 1 1 56C1958C
P 7600 1400
F 0 "D307" H 7600 1500 50  0000 C CNN
F 1 "D_Schottky" H 7600 1300 50  0000 C CNN
F 2 "Diodes_SMD:SOD-123" H 7600 1400 60  0001 C CNN
F 3 "" H 7600 1400 60  0000 C CNN
	1    7600 1400
	0    1    1    0   
$EndComp
Text Notes 7700 2300 2    60   ~ 0
Ref: BSS316N H6327
$Comp
L Q_NMOS_GSD Q304
U 1 1 56C1959D
P 7750 1900
F 0 "Q304" H 8050 1950 50  0000 R CNN
F 1 "Q_NMOS_GSD" H 8400 1850 50  0000 R CNN
F 2 "TO_SOT_Packages_SMD:SOT-23" H 7950 2000 29  0001 C CNN
F 3 "" H 7750 1900 60  0000 C CNN
	1    7750 1900
	1    0    0    -1  
$EndComp
$Comp
L CONN_01X02 P310
U 1 1 56C195A3
P 8950 1400
F 0 "P310" H 8950 1550 50  0000 C CNN
F 1 "CONN_01X02" V 9050 1400 50  0000 C CNN
F 2 "craplib:KRMC_02" H 8950 1400 60  0001 C CNN
F 3 "" H 8950 1400 60  0000 C CNN
	1    8950 1400
	1    0    0    1   
$EndComp
$Comp
L D_Schottky D310
U 1 1 56C195A9
P 8500 1400
F 0 "D310" H 8500 1500 50  0000 C CNN
F 1 "D_Schottky" H 8500 1300 50  0000 C CNN
F 2 "Diodes_SMD:SOD-123" H 8500 1400 60  0001 C CNN
F 3 "" H 8500 1400 60  0000 C CNN
	1    8500 1400
	0    1    1    0   
$EndComp
$Comp
L +12V #PWR022
U 1 1 56C195B5
P 8750 1150
F 0 "#PWR022" H 8750 1000 50  0001 C CNN
F 1 "+12V" H 8750 1290 50  0000 C CNN
F 2 "" H 8750 1150 60  0000 C CNN
F 3 "" H 8750 1150 60  0000 C CNN
	1    8750 1150
	1    0    0    -1  
$EndComp
Text HLabel 1550 6200 0    60   Input ~ 0
PUMP2
$Comp
L CONN_01X02 P302
U 1 1 56C19C4E
P 2300 3600
F 0 "P302" H 2300 3750 50  0000 C CNN
F 1 "CONN_01X02" V 2400 3600 50  0000 C CNN
F 2 "craplib:KRMC_02" H 2300 3600 60  0001 C CNN
F 3 "" H 2300 3600 60  0000 C CNN
	1    2300 3600
	1    0    0    1   
$EndComp
$Comp
L GNDA #PWR023
U 1 1 56C19C54
P 2100 4300
F 0 "#PWR023" H 2100 4050 50  0001 C CNN
F 1 "GNDA" H 2100 4150 50  0000 C CNN
F 2 "" H 2100 4300 60  0000 C CNN
F 3 "" H 2100 4300 60  0000 C CNN
	1    2100 4300
	1    0    0    -1  
$EndComp
$Comp
L +24V #PWR024
U 1 1 56C19C5A
P 2100 3350
F 0 "#PWR024" H 2100 3200 50  0001 C CNN
F 1 "+24V" H 2100 3490 50  0000 C CNN
F 2 "" H 2100 3350 60  0000 C CNN
F 3 "" H 2100 3350 60  0000 C CNN
	1    2100 3350
	1    0    0    -1  
$EndComp
$Comp
L D_Schottky D302
U 1 1 56C19C60
P 1850 3600
F 0 "D302" H 1850 3700 50  0000 C CNN
F 1 "D_Schottky" H 1850 3500 50  0000 C CNN
F 2 "Diodes_SMD:SOD-123" H 1850 3600 60  0001 C CNN
F 3 "" H 1850 3600 60  0000 C CNN
	1    1850 3600
	0    1    1    0   
$EndComp
Text Notes 1950 4500 2    60   ~ 0
Ref: BSS316N H6327
$Comp
L Q_NMOS_GSD Q302
U 1 1 56C19C71
P 2000 4100
F 0 "Q302" H 2300 4150 50  0000 R CNN
F 1 "Q_NMOS_GSD" H 2650 4050 50  0000 R CNN
F 2 "TO_SOT_Packages_SMD:SOT-23" H 2200 4200 29  0001 C CNN
F 3 "" H 2000 4100 60  0000 C CNN
	1    2000 4100
	1    0    0    -1  
$EndComp
$Comp
L CONN_01X02 P305
U 1 1 56C19C77
P 3200 3600
F 0 "P305" H 3200 3750 50  0000 C CNN
F 1 "CONN_01X02" V 3300 3600 50  0000 C CNN
F 2 "craplib:KRMC_02" H 3200 3600 60  0001 C CNN
F 3 "" H 3200 3600 60  0000 C CNN
	1    3200 3600
	1    0    0    1   
$EndComp
$Comp
L D_Schottky D305
U 1 1 56C19C7D
P 2750 3600
F 0 "D305" H 2750 3700 50  0000 C CNN
F 1 "D_Schottky" H 2750 3500 50  0000 C CNN
F 2 "Diodes_SMD:SOD-123" H 2750 3600 60  0001 C CNN
F 3 "" H 2750 3600 60  0000 C CNN
	1    2750 3600
	0    1    1    0   
$EndComp
$Comp
L +12V #PWR025
U 1 1 56C19C89
P 3000 3350
F 0 "#PWR025" H 3000 3200 50  0001 C CNN
F 1 "+12V" H 3000 3490 50  0000 C CNN
F 2 "" H 3000 3350 60  0000 C CNN
F 3 "" H 3000 3350 60  0000 C CNN
	1    3000 3350
	1    0    0    -1  
$EndComp
Text HLabel 7300 1900 0    60   Input ~ 0
PUMP3
$Comp
L CONN_01X02 P308
U 1 1 56C19C92
P 8050 3750
F 0 "P308" H 8050 3900 50  0000 C CNN
F 1 "CONN_01X02" V 8150 3750 50  0000 C CNN
F 2 "craplib:KRMC_02" H 8050 3750 60  0001 C CNN
F 3 "" H 8050 3750 60  0000 C CNN
	1    8050 3750
	1    0    0    1   
$EndComp
$Comp
L GNDA #PWR026
U 1 1 56C19C98
P 7850 4450
F 0 "#PWR026" H 7850 4200 50  0001 C CNN
F 1 "GNDA" H 7850 4300 50  0000 C CNN
F 2 "" H 7850 4450 60  0000 C CNN
F 3 "" H 7850 4450 60  0000 C CNN
	1    7850 4450
	1    0    0    -1  
$EndComp
$Comp
L +24V #PWR027
U 1 1 56C19C9E
P 7850 3500
F 0 "#PWR027" H 7850 3350 50  0001 C CNN
F 1 "+24V" H 7850 3640 50  0000 C CNN
F 2 "" H 7850 3500 60  0000 C CNN
F 3 "" H 7850 3500 60  0000 C CNN
	1    7850 3500
	1    0    0    -1  
$EndComp
$Comp
L D_Schottky D308
U 1 1 56C19CA4
P 7600 3750
F 0 "D308" H 7600 3850 50  0000 C CNN
F 1 "D_Schottky" H 7600 3650 50  0000 C CNN
F 2 "Diodes_SMD:SOD-123" H 7600 3750 60  0001 C CNN
F 3 "" H 7600 3750 60  0000 C CNN
	1    7600 3750
	0    1    1    0   
$EndComp
Text Notes 7700 4650 2    60   ~ 0
Ref: BSS316N H6327
$Comp
L Q_NMOS_GSD Q305
U 1 1 56C19CB5
P 7750 4250
F 0 "Q305" H 8050 4300 50  0000 R CNN
F 1 "Q_NMOS_GSD" H 8400 4200 50  0000 R CNN
F 2 "TO_SOT_Packages_SMD:SOT-23" H 7950 4350 29  0001 C CNN
F 3 "" H 7750 4250 60  0000 C CNN
	1    7750 4250
	1    0    0    -1  
$EndComp
$Comp
L CONN_01X02 P311
U 1 1 56C19CBB
P 8950 3750
F 0 "P311" H 8950 3900 50  0000 C CNN
F 1 "CONN_01X02" V 9050 3750 50  0000 C CNN
F 2 "craplib:KRMC_02" H 8950 3750 60  0001 C CNN
F 3 "" H 8950 3750 60  0000 C CNN
	1    8950 3750
	1    0    0    1   
$EndComp
$Comp
L D_Schottky D311
U 1 1 56C19CC1
P 8500 3750
F 0 "D311" H 8500 3850 50  0000 C CNN
F 1 "D_Schottky" H 8500 3650 50  0000 C CNN
F 2 "Diodes_SMD:SOD-123" H 8500 3750 60  0001 C CNN
F 3 "" H 8500 3750 60  0000 C CNN
	1    8500 3750
	0    1    1    0   
$EndComp
$Comp
L +12V #PWR028
U 1 1 56C19CCD
P 8750 3500
F 0 "#PWR028" H 8750 3350 50  0001 C CNN
F 1 "+12V" H 8750 3640 50  0000 C CNN
F 2 "" H 8750 3500 60  0000 C CNN
F 3 "" H 8750 3500 60  0000 C CNN
	1    8750 3500
	1    0    0    -1  
$EndComp
Text HLabel 7300 4250 0    60   Input ~ 0
PUMP4
$Comp
L CONN_01X02 P303
U 1 1 56C1A032
P 2300 5700
F 0 "P303" H 2300 5850 50  0000 C CNN
F 1 "CONN_01X02" V 2400 5700 50  0000 C CNN
F 2 "craplib:KRMC_02" H 2300 5700 60  0001 C CNN
F 3 "" H 2300 5700 60  0000 C CNN
	1    2300 5700
	1    0    0    1   
$EndComp
$Comp
L GNDA #PWR029
U 1 1 56C1A038
P 2100 6400
F 0 "#PWR029" H 2100 6150 50  0001 C CNN
F 1 "GNDA" H 2100 6250 50  0000 C CNN
F 2 "" H 2100 6400 60  0000 C CNN
F 3 "" H 2100 6400 60  0000 C CNN
	1    2100 6400
	1    0    0    -1  
$EndComp
$Comp
L +24V #PWR030
U 1 1 56C1A03E
P 2100 5450
F 0 "#PWR030" H 2100 5300 50  0001 C CNN
F 1 "+24V" H 2100 5590 50  0000 C CNN
F 2 "" H 2100 5450 60  0000 C CNN
F 3 "" H 2100 5450 60  0000 C CNN
	1    2100 5450
	1    0    0    -1  
$EndComp
$Comp
L D_Schottky D303
U 1 1 56C1A044
P 1850 5700
F 0 "D303" H 1850 5800 50  0000 C CNN
F 1 "D_Schottky" H 1850 5600 50  0000 C CNN
F 2 "Diodes_SMD:SOD-123" H 1850 5700 60  0001 C CNN
F 3 "" H 1850 5700 60  0000 C CNN
	1    1850 5700
	0    1    1    0   
$EndComp
Text Notes 1950 6600 2    60   ~ 0
Ref: BSS316N H6327
$Comp
L Q_NMOS_GSD Q303
U 1 1 56C1A055
P 2000 6200
F 0 "Q303" H 2300 6250 50  0000 R CNN
F 1 "Q_NMOS_GSD" H 2650 6150 50  0000 R CNN
F 2 "TO_SOT_Packages_SMD:SOT-23" H 2200 6300 29  0001 C CNN
F 3 "" H 2000 6200 60  0000 C CNN
	1    2000 6200
	1    0    0    -1  
$EndComp
$Comp
L CONN_01X02 P306
U 1 1 56C1A05B
P 3200 5700
F 0 "P306" H 3200 5850 50  0000 C CNN
F 1 "CONN_01X02" V 3300 5700 50  0000 C CNN
F 2 "craplib:KRMC_02" H 3200 5700 60  0001 C CNN
F 3 "" H 3200 5700 60  0000 C CNN
	1    3200 5700
	1    0    0    1   
$EndComp
$Comp
L D_Schottky D306
U 1 1 56C1A061
P 2750 5700
F 0 "D306" H 2750 5800 50  0000 C CNN
F 1 "D_Schottky" H 2750 5600 50  0000 C CNN
F 2 "Diodes_SMD:SOD-123" H 2750 5700 60  0001 C CNN
F 3 "" H 2750 5700 60  0000 C CNN
	1    2750 5700
	0    1    1    0   
$EndComp
$Comp
L +12V #PWR031
U 1 1 56C1A06D
P 3000 5450
F 0 "#PWR031" H 3000 5300 50  0001 C CNN
F 1 "+12V" H 3000 5590 50  0000 C CNN
F 2 "" H 3000 5450 60  0000 C CNN
F 3 "" H 3000 5450 60  0000 C CNN
	1    3000 5450
	1    0    0    -1  
$EndComp
Wire Wire Line
	2100 1150 2100 1350
Wire Wire Line
	2100 1650 2100 1450
Wire Wire Line
	2100 1550 1850 1550
Connection ~ 2100 1550
Wire Wire Line
	1850 1250 2100 1250
Connection ~ 2100 1250
Wire Notes Line
	950  2350 3400 2350
Wire Notes Line
	950  2350 950  850 
Wire Notes Line
	950  850  3400 850 
Wire Wire Line
	1550 1850 1800 1850
Wire Wire Line
	3000 1150 3000 1350
Wire Wire Line
	3000 1650 3000 1450
Wire Wire Line
	3000 1550 2750 1550
Connection ~ 3000 1550
Wire Wire Line
	2750 1250 3000 1250
Connection ~ 3000 1250
Wire Notes Line
	3400 850  3400 2350
Wire Wire Line
	7850 1150 7850 1350
Wire Wire Line
	7850 1450 7850 1700
Wire Wire Line
	7850 1550 7600 1550
Connection ~ 7850 1550
Wire Wire Line
	7600 1250 7850 1250
Connection ~ 7850 1250
Wire Notes Line
	6700 2350 9150 2350
Wire Notes Line
	6700 2350 6700 850 
Wire Notes Line
	6700 850  9150 850 
Wire Wire Line
	7300 1900 7550 1900
Wire Wire Line
	8750 1150 8750 1350
Wire Wire Line
	8750 1550 8500 1550
Connection ~ 8750 1550
Wire Wire Line
	8500 1250 8750 1250
Connection ~ 8750 1250
Wire Notes Line
	9150 850  9150 2350
Wire Wire Line
	2100 3350 2100 3550
Wire Wire Line
	2100 3650 2100 3900
Wire Wire Line
	2100 3750 1850 3750
Connection ~ 2100 3750
Wire Wire Line
	1850 3450 2100 3450
Connection ~ 2100 3450
Wire Notes Line
	950  4550 3400 4550
Wire Notes Line
	950  4550 950  3050
Wire Notes Line
	950  3050 3400 3050
Wire Wire Line
	1550 4100 1800 4100
Wire Wire Line
	3000 3350 3000 3550
Wire Wire Line
	3000 3750 2750 3750
Connection ~ 3000 3750
Wire Wire Line
	2750 3450 3000 3450
Connection ~ 3000 3450
Wire Notes Line
	3400 3050 3400 4550
Wire Wire Line
	7850 3500 7850 3700
Wire Wire Line
	7850 3800 7850 4050
Wire Wire Line
	7850 3900 7600 3900
Connection ~ 7850 3900
Wire Wire Line
	7600 3600 7850 3600
Connection ~ 7850 3600
Wire Notes Line
	6700 4700 9150 4700
Wire Notes Line
	6700 4700 6700 3200
Wire Notes Line
	6700 3200 9150 3200
Wire Wire Line
	7300 4250 7550 4250
Wire Wire Line
	8750 3500 8750 3700
Wire Wire Line
	8750 3900 8500 3900
Connection ~ 8750 3900
Wire Wire Line
	8500 3600 8750 3600
Connection ~ 8750 3600
Wire Notes Line
	9150 3200 9150 4700
Wire Wire Line
	2100 5450 2100 5650
Wire Wire Line
	2100 5750 2100 6000
Wire Wire Line
	2100 5850 1850 5850
Connection ~ 2100 5850
Wire Wire Line
	1850 5550 2100 5550
Connection ~ 2100 5550
Wire Notes Line
	950  6650 3400 6650
Wire Notes Line
	950  6650 950  5150
Wire Notes Line
	950  5150 3400 5150
Wire Wire Line
	1550 6200 1800 6200
Wire Wire Line
	3000 5450 3000 5650
Wire Wire Line
	3000 5850 2750 5850
Connection ~ 3000 5850
Wire Wire Line
	2750 5550 3000 5550
Connection ~ 3000 5550
Wire Notes Line
	3400 5150 3400 6650
$Comp
L Q_NMOS_GSD Q306
U 1 1 56C4F397
P 2900 1850
F 0 "Q306" H 3200 1900 50  0000 R CNN
F 1 "Q_NMOS_GSD" H 3550 1800 50  0000 R CNN
F 2 "TO_SOT_Packages_SMD:SOT-23" H 3100 1950 29  0001 C CNN
F 3 "" H 2900 1850 60  0000 C CNN
	1    2900 1850
	1    0    0    -1  
$EndComp
$Comp
L GNDA #PWR032
U 1 1 56C4F423
P 3000 2050
F 0 "#PWR032" H 3000 1800 50  0001 C CNN
F 1 "GNDA" H 3000 1900 50  0000 C CNN
F 2 "" H 3000 2050 60  0000 C CNN
F 3 "" H 3000 2050 60  0000 C CNN
	1    3000 2050
	1    0    0    -1  
$EndComp
$Comp
L R R302
U 1 1 56C4F46C
P 2650 2000
F 0 "R302" V 2730 2000 50  0000 C CNN
F 1 "R" V 2650 2000 50  0000 C CNN
F 2 "Resistors_SMD:R_0402" V 2580 2000 50  0001 C CNN
F 3 "" H 2650 2000 50  0000 C CNN
	1    2650 2000
	1    0    0    -1  
$EndComp
$Comp
L R R301
U 1 1 56C4F4C5
P 2450 1700
F 0 "R301" V 2530 1700 50  0000 C CNN
F 1 "R" V 2450 1700 50  0000 C CNN
F 2 "Resistors_SMD:R_0402" V 2380 1700 50  0001 C CNN
F 3 "" H 2450 1700 50  0000 C CNN
	1    2450 1700
	0    1    1    0   
$EndComp
Wire Wire Line
	2100 1600 2300 1600
Wire Wire Line
	2300 1600 2300 1700
Connection ~ 2100 1600
Wire Wire Line
	2600 1700 2650 1700
Wire Wire Line
	2650 1700 2650 1850
Wire Wire Line
	2650 1850 2700 1850
$Comp
L GNDA #PWR033
U 1 1 56C4F6D6
P 2650 2200
F 0 "#PWR033" H 2650 1950 50  0001 C CNN
F 1 "GNDA" H 2650 2050 50  0000 C CNN
F 2 "" H 2650 2200 60  0000 C CNN
F 3 "" H 2650 2200 60  0000 C CNN
	1    2650 2200
	1    0    0    -1  
$EndComp
Wire Wire Line
	2650 2200 2650 2150
Wire Wire Line
	8750 1650 8750 1450
$Comp
L Q_NMOS_GSD Q309
U 1 1 56C50268
P 8650 1850
F 0 "Q309" H 8950 1900 50  0000 R CNN
F 1 "Q_NMOS_GSD" H 9300 1800 50  0000 R CNN
F 2 "TO_SOT_Packages_SMD:SOT-23" H 8850 1950 29  0001 C CNN
F 3 "" H 8650 1850 60  0000 C CNN
	1    8650 1850
	1    0    0    -1  
$EndComp
$Comp
L GNDA #PWR034
U 1 1 56C5026E
P 8750 2050
F 0 "#PWR034" H 8750 1800 50  0001 C CNN
F 1 "GNDA" H 8750 1900 50  0000 C CNN
F 2 "" H 8750 2050 60  0000 C CNN
F 3 "" H 8750 2050 60  0000 C CNN
	1    8750 2050
	1    0    0    -1  
$EndComp
$Comp
L R R309
U 1 1 56C50274
P 8400 2000
F 0 "R309" V 8480 2000 50  0000 C CNN
F 1 "R" V 8400 2000 50  0000 C CNN
F 2 "Resistors_SMD:R_0402" V 8330 2000 50  0001 C CNN
F 3 "" H 8400 2000 50  0000 C CNN
	1    8400 2000
	1    0    0    -1  
$EndComp
$Comp
L R R307
U 1 1 56C5027A
P 8200 1700
F 0 "R307" V 8280 1700 50  0000 C CNN
F 1 "R" V 8200 1700 50  0000 C CNN
F 2 "Resistors_SMD:R_0402" V 8130 1700 50  0001 C CNN
F 3 "" H 8200 1700 50  0000 C CNN
	1    8200 1700
	0    1    1    0   
$EndComp
Wire Wire Line
	7850 1600 8050 1600
Wire Wire Line
	8050 1600 8050 1700
Wire Wire Line
	8350 1700 8400 1700
Wire Wire Line
	8400 1700 8400 1850
Wire Wire Line
	8400 1850 8450 1850
$Comp
L GNDA #PWR035
U 1 1 56C50285
P 8400 2200
F 0 "#PWR035" H 8400 1950 50  0001 C CNN
F 1 "GNDA" H 8400 2050 50  0000 C CNN
F 2 "" H 8400 2200 60  0000 C CNN
F 3 "" H 8400 2200 60  0000 C CNN
	1    8400 2200
	1    0    0    -1  
$EndComp
Wire Wire Line
	8400 2200 8400 2150
Wire Wire Line
	3000 3850 3000 3650
$Comp
L Q_NMOS_GSD Q307
U 1 1 56C505CC
P 2900 4050
F 0 "Q307" H 3200 4100 50  0000 R CNN
F 1 "Q_NMOS_GSD" H 3550 4000 50  0000 R CNN
F 2 "TO_SOT_Packages_SMD:SOT-23" H 3100 4150 29  0001 C CNN
F 3 "" H 2900 4050 60  0000 C CNN
	1    2900 4050
	1    0    0    -1  
$EndComp
$Comp
L GNDA #PWR036
U 1 1 56C505D2
P 3000 4250
F 0 "#PWR036" H 3000 4000 50  0001 C CNN
F 1 "GNDA" H 3000 4100 50  0000 C CNN
F 2 "" H 3000 4250 60  0000 C CNN
F 3 "" H 3000 4250 60  0000 C CNN
	1    3000 4250
	1    0    0    -1  
$EndComp
$Comp
L R R305
U 1 1 56C505D8
P 2650 4200
F 0 "R305" V 2730 4200 50  0000 C CNN
F 1 "R" V 2650 4200 50  0000 C CNN
F 2 "Resistors_SMD:R_0402" V 2580 4200 50  0001 C CNN
F 3 "" H 2650 4200 50  0000 C CNN
	1    2650 4200
	1    0    0    -1  
$EndComp
$Comp
L R R303
U 1 1 56C505DE
P 2450 3900
F 0 "R303" V 2530 3900 50  0000 C CNN
F 1 "R" V 2450 3900 50  0000 C CNN
F 2 "Resistors_SMD:R_0402" V 2380 3900 50  0001 C CNN
F 3 "" H 2450 3900 50  0000 C CNN
	1    2450 3900
	0    1    1    0   
$EndComp
Wire Wire Line
	2100 3800 2300 3800
Wire Wire Line
	2300 3800 2300 3900
Wire Wire Line
	2600 3900 2650 3900
Wire Wire Line
	2650 3900 2650 4050
Wire Wire Line
	2650 4050 2700 4050
$Comp
L GNDA #PWR037
U 1 1 56C505E9
P 2650 4400
F 0 "#PWR037" H 2650 4150 50  0001 C CNN
F 1 "GNDA" H 2650 4250 50  0000 C CNN
F 2 "" H 2650 4400 60  0000 C CNN
F 3 "" H 2650 4400 60  0000 C CNN
	1    2650 4400
	1    0    0    -1  
$EndComp
Wire Wire Line
	2650 4400 2650 4350
Connection ~ 2100 3800
Connection ~ 7850 1600
Wire Wire Line
	3000 5950 3000 5750
$Comp
L Q_NMOS_GSD Q308
U 1 1 56C50C51
P 2900 6150
F 0 "Q308" H 3200 6200 50  0000 R CNN
F 1 "Q_NMOS_GSD" H 3550 6100 50  0000 R CNN
F 2 "TO_SOT_Packages_SMD:SOT-23" H 3100 6250 29  0001 C CNN
F 3 "" H 2900 6150 60  0000 C CNN
	1    2900 6150
	1    0    0    -1  
$EndComp
$Comp
L GNDA #PWR038
U 1 1 56C50C57
P 3000 6350
F 0 "#PWR038" H 3000 6100 50  0001 C CNN
F 1 "GNDA" H 3000 6200 50  0000 C CNN
F 2 "" H 3000 6350 60  0000 C CNN
F 3 "" H 3000 6350 60  0000 C CNN
	1    3000 6350
	1    0    0    -1  
$EndComp
$Comp
L R R306
U 1 1 56C50C5D
P 2650 6300
F 0 "R306" V 2730 6300 50  0000 C CNN
F 1 "R" V 2650 6300 50  0000 C CNN
F 2 "Resistors_SMD:R_0402" V 2580 6300 50  0001 C CNN
F 3 "" H 2650 6300 50  0000 C CNN
	1    2650 6300
	1    0    0    -1  
$EndComp
$Comp
L R R304
U 1 1 56C50C63
P 2450 6000
F 0 "R304" V 2530 6000 50  0000 C CNN
F 1 "R" V 2450 6000 50  0000 C CNN
F 2 "Resistors_SMD:R_0402" V 2380 6000 50  0001 C CNN
F 3 "" H 2450 6000 50  0000 C CNN
	1    2450 6000
	0    1    1    0   
$EndComp
Wire Wire Line
	2100 5900 2300 5900
Wire Wire Line
	2300 5900 2300 6000
Wire Wire Line
	2600 6000 2650 6000
Wire Wire Line
	2650 6000 2650 6150
Wire Wire Line
	2650 6150 2700 6150
$Comp
L GNDA #PWR039
U 1 1 56C50C6E
P 2650 6500
F 0 "#PWR039" H 2650 6250 50  0001 C CNN
F 1 "GNDA" H 2650 6350 50  0000 C CNN
F 2 "" H 2650 6500 60  0000 C CNN
F 3 "" H 2650 6500 60  0000 C CNN
	1    2650 6500
	1    0    0    -1  
$EndComp
Wire Wire Line
	2650 6500 2650 6450
Connection ~ 2100 5900
Wire Wire Line
	8750 4000 8750 3800
$Comp
L Q_NMOS_GSD Q310
U 1 1 56C5107F
P 8650 4200
F 0 "Q310" H 8950 4250 50  0000 R CNN
F 1 "Q_NMOS_GSD" H 9300 4150 50  0000 R CNN
F 2 "TO_SOT_Packages_SMD:SOT-23" H 8850 4300 29  0001 C CNN
F 3 "" H 8650 4200 60  0000 C CNN
	1    8650 4200
	1    0    0    -1  
$EndComp
$Comp
L GNDA #PWR040
U 1 1 56C51085
P 8750 4400
F 0 "#PWR040" H 8750 4150 50  0001 C CNN
F 1 "GNDA" H 8750 4250 50  0000 C CNN
F 2 "" H 8750 4400 60  0000 C CNN
F 3 "" H 8750 4400 60  0000 C CNN
	1    8750 4400
	1    0    0    -1  
$EndComp
$Comp
L R R310
U 1 1 56C5108B
P 8400 4350
F 0 "R310" V 8480 4350 50  0000 C CNN
F 1 "R" V 8400 4350 50  0000 C CNN
F 2 "Resistors_SMD:R_0402" V 8330 4350 50  0001 C CNN
F 3 "" H 8400 4350 50  0000 C CNN
	1    8400 4350
	1    0    0    -1  
$EndComp
$Comp
L R R308
U 1 1 56C51091
P 8200 4050
F 0 "R308" V 8280 4050 50  0000 C CNN
F 1 "R" V 8200 4050 50  0000 C CNN
F 2 "Resistors_SMD:R_0402" V 8130 4050 50  0001 C CNN
F 3 "" H 8200 4050 50  0000 C CNN
	1    8200 4050
	0    1    1    0   
$EndComp
Wire Wire Line
	7850 3950 8050 3950
Wire Wire Line
	8050 3950 8050 4050
Wire Wire Line
	8350 4050 8400 4050
Wire Wire Line
	8400 4050 8400 4200
Wire Wire Line
	8400 4200 8450 4200
$Comp
L GNDA #PWR041
U 1 1 56C5109C
P 8400 4550
F 0 "#PWR041" H 8400 4300 50  0001 C CNN
F 1 "GNDA" H 8400 4400 50  0000 C CNN
F 2 "" H 8400 4550 60  0000 C CNN
F 3 "" H 8400 4550 60  0000 C CNN
	1    8400 4550
	1    0    0    -1  
$EndComp
Wire Wire Line
	8400 4550 8400 4500
Connection ~ 7850 3950
$EndSCHEMATC
