EESchema Schematic File Version 2
LIBS:power
LIBS:device
LIBS:transistors
LIBS:conn
LIBS:linear
LIBS:regul
LIBS:74xx
LIBS:cmos4000
LIBS:adc-dac
LIBS:memory
LIBS:xilinx
LIBS:microcontrollers
LIBS:dsp
LIBS:microchip
LIBS:analog_switches
LIBS:motorola
LIBS:texas
LIBS:intel
LIBS:audio
LIBS:interface
LIBS:digital-audio
LIBS:philips
LIBS:display
LIBS:cypress
LIBS:siliconi
LIBS:opto
LIBS:atmel
LIBS:contrib
LIBS:valves
LIBS:crap
LIBS:canpump-cache
EELAYER 25 0
EELAYER END
$Descr A4 11693 8268
encoding utf-8
Sheet 4 8
Title ""
Date ""
Rev ""
Comp ""
Comment1 ""
Comment2 ""
Comment3 ""
Comment4 ""
$EndDescr
Text HLabel 4700 1800 2    60   Output ~ 0
PRES0
Text HLabel 4700 2700 2    60   Output ~ 0
PRES1
Text HLabel 4700 3700 2    60   Output ~ 0
PRES2
Text HLabel 6100 2250 2    60   Output ~ 0
PRES3
Text HLabel 6100 3150 2    60   Output ~ 0
PRES4
$Comp
L CONN_01X03 P401
U 1 1 56C1FAF3
P 4400 1800
F 0 "P401" H 4400 2000 50  0000 C CNN
F 1 "CONN_01X03" V 4500 1800 50  0000 C CNN
F 2 "craplib:PIN_ARRAY_3_BLUE" H 4400 1800 50  0001 C CNN
F 3 "" H 4400 1800 50  0000 C CNN
	1    4400 1800
	-1   0    0    1   
$EndComp
Wire Wire Line
	4600 1800 4700 1800
$Comp
L GND #PWR042
U 1 1 56C1FD0C
P 4700 2000
F 0 "#PWR042" H 4700 1750 50  0001 C CNN
F 1 "GND" H 4700 1850 50  0000 C CNN
F 2 "" H 4700 2000 50  0000 C CNN
F 3 "" H 4700 2000 50  0000 C CNN
	1    4700 2000
	1    0    0    -1  
$EndComp
Wire Wire Line
	4700 2000 4700 1900
Wire Wire Line
	4700 1900 4600 1900
Wire Wire Line
	4700 1600 4700 1700
Wire Wire Line
	4700 1700 4600 1700
$Comp
L CONN_01X03 P402
U 1 1 56C1FF82
P 4400 2700
F 0 "P402" H 4400 2900 50  0000 C CNN
F 1 "CONN_01X03" V 4500 2700 50  0000 C CNN
F 2 "craplib:PIN_ARRAY_3_BLUE" H 4400 2700 50  0001 C CNN
F 3 "" H 4400 2700 50  0000 C CNN
	1    4400 2700
	-1   0    0    1   
$EndComp
Wire Wire Line
	4600 2700 4700 2700
$Comp
L GND #PWR043
U 1 1 56C1FF89
P 4700 2900
F 0 "#PWR043" H 4700 2650 50  0001 C CNN
F 1 "GND" H 4700 2750 50  0000 C CNN
F 2 "" H 4700 2900 50  0000 C CNN
F 3 "" H 4700 2900 50  0000 C CNN
	1    4700 2900
	1    0    0    -1  
$EndComp
Wire Wire Line
	4700 2900 4700 2800
Wire Wire Line
	4700 2800 4600 2800
Wire Wire Line
	4700 2500 4700 2600
Wire Wire Line
	4700 2600 4600 2600
$Comp
L CONN_01X03 P403
U 1 1 56C1FFF8
P 4400 3700
F 0 "P403" H 4400 3900 50  0000 C CNN
F 1 "CONN_01X03" V 4500 3700 50  0000 C CNN
F 2 "craplib:PIN_ARRAY_3_BLUE" H 4400 3700 50  0001 C CNN
F 3 "" H 4400 3700 50  0000 C CNN
	1    4400 3700
	-1   0    0    1   
$EndComp
Wire Wire Line
	4600 3700 4700 3700
$Comp
L GND #PWR044
U 1 1 56C1FFFF
P 4700 3900
F 0 "#PWR044" H 4700 3650 50  0001 C CNN
F 1 "GND" H 4700 3750 50  0000 C CNN
F 2 "" H 4700 3900 50  0000 C CNN
F 3 "" H 4700 3900 50  0000 C CNN
	1    4700 3900
	1    0    0    -1  
$EndComp
Wire Wire Line
	4700 3900 4700 3800
Wire Wire Line
	4700 3800 4600 3800
Wire Wire Line
	4700 3500 4700 3600
Wire Wire Line
	4700 3600 4600 3600
$Comp
L CONN_01X03 P404
U 1 1 56C20493
P 5800 2250
F 0 "P404" H 5800 2450 50  0000 C CNN
F 1 "CONN_01X03" V 5900 2250 50  0000 C CNN
F 2 "craplib:PIN_ARRAY_3_BLUE" H 5800 2250 50  0001 C CNN
F 3 "" H 5800 2250 50  0000 C CNN
	1    5800 2250
	-1   0    0    1   
$EndComp
Wire Wire Line
	6000 2250 6100 2250
$Comp
L GND #PWR045
U 1 1 56C2049A
P 6100 2450
F 0 "#PWR045" H 6100 2200 50  0001 C CNN
F 1 "GND" H 6100 2300 50  0000 C CNN
F 2 "" H 6100 2450 50  0000 C CNN
F 3 "" H 6100 2450 50  0000 C CNN
	1    6100 2450
	1    0    0    -1  
$EndComp
Wire Wire Line
	6100 2450 6100 2350
Wire Wire Line
	6100 2350 6000 2350
Wire Wire Line
	6100 2050 6100 2150
Wire Wire Line
	6100 2150 6000 2150
$Comp
L CONN_01X03 P405
U 1 1 56C204AA
P 5800 3150
F 0 "P405" H 5800 3350 50  0000 C CNN
F 1 "CONN_01X03" V 5900 3150 50  0000 C CNN
F 2 "craplib:PIN_ARRAY_3_BLUE" H 5800 3150 50  0001 C CNN
F 3 "" H 5800 3150 50  0000 C CNN
	1    5800 3150
	-1   0    0    1   
$EndComp
Wire Wire Line
	6000 3150 6100 3150
$Comp
L GND #PWR046
U 1 1 56C204B1
P 6100 3350
F 0 "#PWR046" H 6100 3100 50  0001 C CNN
F 1 "GND" H 6100 3200 50  0000 C CNN
F 2 "" H 6100 3350 50  0000 C CNN
F 3 "" H 6100 3350 50  0000 C CNN
	1    6100 3350
	1    0    0    -1  
$EndComp
Wire Wire Line
	6100 3350 6100 3250
Wire Wire Line
	6100 3250 6000 3250
Wire Wire Line
	6100 2950 6100 3050
Wire Wire Line
	6100 3050 6000 3050
$Comp
L +5V #PWR047
U 1 1 56C2E7B6
P 4700 1600
F 0 "#PWR047" H 4700 1450 50  0001 C CNN
F 1 "+5V" H 4700 1740 50  0000 C CNN
F 2 "" H 4700 1600 50  0000 C CNN
F 3 "" H 4700 1600 50  0000 C CNN
	1    4700 1600
	1    0    0    -1  
$EndComp
$Comp
L +5V #PWR048
U 1 1 56C2E7EF
P 6100 2050
F 0 "#PWR048" H 6100 1900 50  0001 C CNN
F 1 "+5V" H 6100 2190 50  0000 C CNN
F 2 "" H 6100 2050 50  0000 C CNN
F 3 "" H 6100 2050 50  0000 C CNN
	1    6100 2050
	1    0    0    -1  
$EndComp
$Comp
L +5V #PWR049
U 1 1 56C2E818
P 6100 2950
F 0 "#PWR049" H 6100 2800 50  0001 C CNN
F 1 "+5V" H 6100 3090 50  0000 C CNN
F 2 "" H 6100 2950 50  0000 C CNN
F 3 "" H 6100 2950 50  0000 C CNN
	1    6100 2950
	1    0    0    -1  
$EndComp
$Comp
L +5V #PWR050
U 1 1 56C2E85A
P 4700 3500
F 0 "#PWR050" H 4700 3350 50  0001 C CNN
F 1 "+5V" H 4700 3640 50  0000 C CNN
F 2 "" H 4700 3500 50  0000 C CNN
F 3 "" H 4700 3500 50  0000 C CNN
	1    4700 3500
	1    0    0    -1  
$EndComp
$Comp
L +5V #PWR051
U 1 1 56C2E892
P 4700 2500
F 0 "#PWR051" H 4700 2350 50  0001 C CNN
F 1 "+5V" H 4700 2640 50  0000 C CNN
F 2 "" H 4700 2500 50  0000 C CNN
F 3 "" H 4700 2500 50  0000 C CNN
	1    4700 2500
	1    0    0    -1  
$EndComp
$EndSCHEMATC
