EESchema Schematic File Version 2
LIBS:foxTX-rescue
LIBS:power
LIBS:device
LIBS:transistors
LIBS:conn
LIBS:linear
LIBS:regul
LIBS:74xx
LIBS:cmos4000
LIBS:adc-dac
LIBS:memory
LIBS:xilinx
LIBS:microcontrollers
LIBS:dsp
LIBS:microchip
LIBS:analog_switches
LIBS:motorola
LIBS:texas
LIBS:intel
LIBS:audio
LIBS:interface
LIBS:digital-audio
LIBS:philips
LIBS:display
LIBS:cypress
LIBS:siliconi
LIBS:opto
LIBS:atmel
LIBS:contrib
LIBS:valves
LIBS:crap
LIBS:foxTX
LIBS:foxTX-cache
EELAYER 25 0
EELAYER END
$Descr A4 11693 8268
encoding utf-8
Sheet 1 1
Title ""
Date "16 may 2016"
Rev ""
Comp ""
Comment1 ""
Comment2 ""
Comment3 ""
Comment4 ""
$EndDescr
$Comp
L DRV8837 U1
U 1 1 5734C039
P 3100 5550
F 0 "U1" H 3400 5150 60  0000 C CNN
F 1 "DRV8837" H 2800 5950 60  0000 C CNN
F 2 "lib:WSON-DRV883x" H 3100 6450 60  0001 C CNN
F 3 "" H 3100 6450 60  0000 C CNN
	1    3100 5550
	1    0    0    -1  
$EndComp
$Comp
L LM27313 U2
U 1 1 5734C1EF
P 7600 2000
F 0 "U2" H 8050 1700 60  0000 C CNN
F 1 "LM27313" H 7350 2300 60  0000 C CNN
F 2 "lib:CRAP-SOT23-5" H 7600 2000 60  0001 C CNN
F 3 "" H 7600 2000 60  0000 C CNN
	1    7600 2000
	1    0    0    -1  
$EndComp
$Comp
L +3.3V-RESCUE-foxTX #PWR01
U 1 1 5734C232
P 6650 1000
F 0 "#PWR01" H 6650 960 30  0001 C CNN
F 1 "+3.3V" H 6650 1110 30  0000 C CNN
F 2 "" H 6650 1000 60  0000 C CNN
F 3 "" H 6650 1000 60  0000 C CNN
	1    6650 1000
	1    0    0    -1  
$EndComp
$Comp
L R-RESCUE-foxTX R8
U 1 1 5734C25D
P 6300 1800
F 0 "R8" V 6380 1800 40  0000 C CNN
F 1 "47k" V 6307 1801 40  0000 C CNN
F 2 "Resistors_SMD:R_0603_HandSoldering" V 6230 1800 30  0000 C CNN
F 3 "~" H 6300 1800 30  0000 C CNN
	1    6300 1800
	1    0    0    -1  
$EndComp
Wire Wire Line
	6650 1000 6650 1900
Wire Wire Line
	6650 1900 6950 1900
Wire Wire Line
	6950 2050 6300 2050
Wire Wire Line
	6300 1550 6300 1400
Wire Wire Line
	6050 1400 6650 1400
Connection ~ 6650 1400
$Comp
L C-RESCUE-foxTX C1
U 1 1 5734C2C7
P 6050 1750
F 0 "C1" H 6050 1850 40  0000 L CNN
F 1 "2.2u" H 6056 1665 40  0000 L CNN
F 2 "Capacitors_SMD:C_0805_HandSoldering" H 6088 1600 30  0000 C CNN
F 3 "~" H 6050 1750 60  0000 C CNN
	1    6050 1750
	1    0    0    -1  
$EndComp
Wire Wire Line
	6050 1400 6050 1550
Connection ~ 6300 1400
Wire Wire Line
	6050 1950 6050 2750
Wire Wire Line
	8200 2150 8350 2150
Wire Wire Line
	8350 2150 8350 2750
$Comp
L GND-RESCUE-foxTX #PWR02
U 1 1 5734C30D
P 7650 2850
F 0 "#PWR02" H 7650 2850 30  0001 C CNN
F 1 "GND" H 7650 2780 30  0001 C CNN
F 2 "" H 7650 2850 60  0000 C CNN
F 3 "" H 7650 2850 60  0000 C CNN
	1    7650 2850
	1    0    0    -1  
$EndComp
$Comp
L INDUCTOR L1
U 1 1 5734C31C
P 7550 1500
F 0 "L1" V 7500 1500 40  0000 C CNN
F 1 "INDUCTOR" V 7650 1500 40  0000 C CNN
F 2 "SMD_Packages:SMD-1210_Pol" H 7550 1500 60  0000 C CNN
F 3 "~" H 7550 1500 60  0000 C CNN
	1    7550 1500
	0    -1   -1   0   
$EndComp
$Comp
L C-RESCUE-foxTX C3
U 1 1 5734C329
P 9950 2150
F 0 "C3" H 9950 2250 40  0000 L CNN
F 1 "4.7u" H 9956 2065 40  0000 L CNN
F 2 "Capacitors_SMD:C_0805_HandSoldering" H 9988 2000 30  0000 C CNN
F 3 "~" H 9950 2150 60  0000 C CNN
	1    9950 2150
	1    0    0    -1  
$EndComp
$Comp
L C-RESCUE-foxTX C2
U 1 1 5734C32F
P 9550 1800
F 0 "C2" H 9550 1900 40  0000 L CNN
F 1 "220p" H 9556 1715 40  0000 L CNN
F 2 "Capacitors_SMD:C_0603_HandSoldering" H 9588 1650 30  0000 C CNN
F 3 "~" H 9550 1800 60  0000 C CNN
	1    9550 1800
	1    0    0    -1  
$EndComp
$Comp
L R-RESCUE-foxTX R10
U 1 1 5734C335
P 9250 2400
F 0 "R10" V 9330 2400 40  0000 C CNN
F 1 "1k" V 9257 2401 40  0000 C CNN
F 2 "Resistors_SMD:R_0603_HandSoldering" V 9180 2400 30  0000 C CNN
F 3 "~" H 9250 2400 30  0000 C CNN
	1    9250 2400
	1    0    0    -1  
$EndComp
$Comp
L R-RESCUE-foxTX R9
U 1 1 5734C33C
P 9250 1800
F 0 "R9" V 9330 1800 40  0000 C CNN
F 1 "5.1k" V 9257 1801 40  0000 C CNN
F 2 "Resistors_SMD:R_0603_HandSoldering" V 9180 1800 30  0000 C CNN
F 3 "~" H 9250 1800 30  0000 C CNN
	1    9250 1800
	1    0    0    -1  
$EndComp
$Comp
L DIODESCH D1
U 1 1 5734C363
P 8800 1500
F 0 "D1" H 8800 1600 40  0000 C CNN
F 1 "DIODESCH" H 8800 1400 40  0000 C CNN
F 2 "lib:SOD-123" H 8800 1500 60  0001 C CNN
F 3 "~" H 8800 1500 60  0000 C CNN
	1    8800 1500
	1    0    0    -1  
$EndComp
Wire Wire Line
	8200 1850 8450 1850
Wire Wire Line
	8450 1850 8450 1500
Wire Wire Line
	7850 1500 8600 1500
Wire Wire Line
	9000 1500 10350 1500
Wire Wire Line
	9250 1500 9250 1550
Connection ~ 9250 1500
Wire Wire Line
	9550 1500 9550 1600
Connection ~ 9550 1500
Wire Wire Line
	9950 1950 9950 1500
Connection ~ 9950 1500
Wire Wire Line
	8200 2000 9050 2000
Wire Wire Line
	9050 2000 9050 2100
Wire Wire Line
	9050 2100 9550 2100
Wire Wire Line
	9550 2100 9550 2000
Wire Wire Line
	9250 2050 9250 2150
Connection ~ 9250 2100
Wire Wire Line
	9950 2750 9950 2350
Wire Wire Line
	6050 2750 9950 2750
Wire Wire Line
	9250 2750 9250 2650
Wire Wire Line
	7650 2850 7650 2750
Connection ~ 9250 2750
Connection ~ 8350 2750
Connection ~ 7650 2750
Wire Wire Line
	7250 1500 6650 1500
Connection ~ 6650 1500
Connection ~ 8450 1500
$Comp
L VCC_US #PWR03
U 1 1 5734C596
P 10350 1500
F 0 "#PWR03" H 10350 1470 20  0001 C CNN
F 1 "VCC_US" H 10350 1610 30  0000 C CNN
F 2 "" H 10350 1500 60  0000 C CNN
F 3 "" H 10350 1500 60  0000 C CNN
	1    10350 1500
	1    0    0    -1  
$EndComp
Wire Wire Line
	3000 6000 3000 6100
Wire Wire Line
	3000 6100 3200 6100
Wire Wire Line
	3200 6100 3200 6000
Wire Wire Line
	3100 6100 3100 6200
Connection ~ 3100 6100
$Comp
L GND-RESCUE-foxTX #PWR04
U 1 1 5734C631
P 3100 6200
F 0 "#PWR04" H 3100 6200 30  0001 C CNN
F 1 "GND" H 3100 6130 30  0001 C CNN
F 2 "" H 3100 6200 60  0000 C CNN
F 3 "" H 3100 6200 60  0000 C CNN
	1    3100 6200
	1    0    0    -1  
$EndComp
$Comp
L R-RESCUE-foxTX R1
U 1 1 5734C695
P 1650 5800
F 0 "R1" V 1730 5800 40  0000 C CNN
F 1 "R" V 1657 5801 40  0000 C CNN
F 2 "Resistors_ThroughHole:Resistor_Horizontal_RM10mm" V 1580 5800 30  0000 C CNN
F 3 "~" H 1650 5800 30  0000 C CNN
	1    1650 5800
	1    0    0    -1  
$EndComp
Wire Wire Line
	2300 5300 2500 5300
$Comp
L +3.3V-RESCUE-foxTX #PWR05
U 1 1 5734C769
P 2300 5300
F 0 "#PWR05" H 2300 5260 30  0001 C CNN
F 1 "+3.3V" H 2300 5410 30  0000 C CNN
F 2 "" H 2300 5300 60  0000 C CNN
F 3 "" H 2300 5300 60  0000 C CNN
	1    2300 5300
	1    0    0    -1  
$EndComp
Wire Wire Line
	3700 5300 3850 5300
Wire Wire Line
	3850 5300 3850 5000
$Comp
L VCC_US #PWR06
U 1 1 5734C7A8
P 3850 5000
F 0 "#PWR06" H 3850 4970 20  0001 C CNN
F 1 "VCC_US" H 3850 5110 30  0000 C CNN
F 2 "" H 3850 5000 60  0000 C CNN
F 3 "" H 3850 5000 60  0000 C CNN
	1    3850 5000
	1    0    0    -1  
$EndComp
$Comp
L R-RESCUE-foxTX R2
U 1 1 5734C7C4
P 1800 6000
F 0 "R2" V 1880 6000 40  0000 C CNN
F 1 "R" V 1807 6001 40  0000 C CNN
F 2 "Resistors_ThroughHole:Resistor_Horizontal_RM10mm" V 1730 6000 30  0000 C CNN
F 3 "~" H 1800 6000 30  0000 C CNN
	1    1800 6000
	1    0    0    -1  
$EndComp
$Comp
L R-RESCUE-foxTX R3
U 1 1 5734C7D6
P 1950 6100
F 0 "R3" V 2030 6100 40  0000 C CNN
F 1 "R" V 1957 6101 40  0000 C CNN
F 2 "Resistors_ThroughHole:Resistor_Horizontal_RM10mm" V 1880 6100 30  0000 C CNN
F 3 "~" H 1950 6100 30  0000 C CNN
	1    1950 6100
	1    0    0    -1  
$EndComp
Wire Wire Line
	1650 5500 1650 5550
Wire Wire Line
	1800 5750 1800 5700
Wire Wire Line
	1950 5850 1950 5800
Wire Wire Line
	1800 5700 2500 5700
Wire Wire Line
	1950 5800 2500 5800
Text Label 2000 5500 0    60   ~ 0
EN
Text Label 2000 5700 0    60   ~ 0
IN1
Text Label 2000 5800 0    60   ~ 0
IN2
Wire Wire Line
	1650 6050 1650 6400
Wire Wire Line
	1650 6400 1950 6400
Wire Wire Line
	1950 6400 1950 6350
Wire Wire Line
	1800 6250 1800 6500
Connection ~ 1800 6400
$Comp
L GND-RESCUE-foxTX #PWR07
U 1 1 5734CAC9
P 1800 6500
F 0 "#PWR07" H 1800 6500 30  0001 C CNN
F 1 "GND" H 1800 6430 30  0001 C CNN
F 2 "" H 1800 6500 60  0000 C CNN
F 3 "" H 1800 6500 60  0000 C CNN
	1    1800 6500
	1    0    0    -1  
$EndComp
Wire Wire Line
	2500 5500 1650 5500
$Comp
L TRANSFO T1
U 1 1 5734E912
P 5050 5600
F 0 "T1" H 5050 5850 70  0000 C CNN
F 1 "TRANSFO" H 5050 5300 70  0000 C CNN
F 2 "foxTX:B65806P1004D001" H 5050 5600 60  0000 C CNN
F 3 "~" H 5050 5600 60  0000 C CNN
	1    5050 5600
	1    0    0    1   
$EndComp
$Comp
L R-RESCUE-foxTX R4
U 1 1 5734E996
P 4300 5600
F 0 "R4" V 4380 5600 40  0000 C CNN
F 1 "R" V 4307 5601 40  0000 C CNN
F 2 "Resistors_ThroughHole:Resistor_Horizontal_RM10mm" V 4230 5600 30  0000 C CNN
F 3 "~" H 4300 5600 30  0000 C CNN
	1    4300 5600
	1    0    0    -1  
$EndComp
Wire Wire Line
	4100 5500 3700 5500
Wire Wire Line
	4100 5300 4100 5500
Wire Wire Line
	4100 5300 4550 5300
Wire Wire Line
	4550 5300 4550 5400
Wire Wire Line
	4550 5400 4650 5400
Wire Wire Line
	4300 5350 4300 5300
Connection ~ 4300 5300
Wire Wire Line
	3700 5700 4100 5700
Wire Wire Line
	4100 5700 4100 5900
Wire Wire Line
	4100 5900 4550 5900
Wire Wire Line
	4550 5900 4550 5800
Wire Wire Line
	4550 5800 4650 5800
Wire Wire Line
	4300 5850 4300 5900
Connection ~ 4300 5900
$Comp
L R-RESCUE-foxTX R5
U 1 1 5734EB14
P 5800 5600
F 0 "R5" V 5880 5600 40  0000 C CNN
F 1 "R" V 5807 5601 40  0000 C CNN
F 2 "Resistors_ThroughHole:Resistor_Horizontal_RM10mm" V 5730 5600 30  0000 C CNN
F 3 "~" H 5800 5600 30  0000 C CNN
	1    5800 5600
	-1   0    0    1   
$EndComp
$Comp
L R-RESCUE-foxTX R7
U 1 1 5734EB1A
P 5900 6200
F 0 "R7" V 5980 6200 40  0000 C CNN
F 1 "R" V 5907 6201 40  0000 C CNN
F 2 "Resistors_ThroughHole:Resistor_Horizontal_RM10mm" V 5830 6200 30  0000 C CNN
F 3 "~" H 5900 6200 30  0000 C CNN
	1    5900 6200
	1    0    0    -1  
$EndComp
$Comp
L R-RESCUE-foxTX R6
U 1 1 5734EB44
P 5900 5000
F 0 "R6" V 5980 5000 40  0000 C CNN
F 1 "R" V 5907 5001 40  0000 C CNN
F 2 "Resistors_ThroughHole:Resistor_Horizontal_RM10mm" V 5830 5000 30  0000 C CNN
F 3 "~" H 5900 5000 30  0000 C CNN
	1    5900 5000
	1    0    0    -1  
$EndComp
Wire Wire Line
	5450 5400 5550 5400
Wire Wire Line
	5550 5400 5550 5300
Wire Wire Line
	5550 5300 6250 5300
Wire Wire Line
	5900 5300 5900 5250
Wire Wire Line
	5800 5350 5800 5300
Connection ~ 5800 5300
Wire Wire Line
	5450 5800 5550 5800
Wire Wire Line
	5550 5800 5550 5900
Wire Wire Line
	5550 5900 6250 5900
Wire Wire Line
	5800 5900 5800 5850
Wire Wire Line
	5900 5900 5900 5950
Connection ~ 5800 5900
Wire Wire Line
	5900 4750 5900 4650
Wire Wire Line
	5900 6450 5900 6550
$Comp
L GND-RESCUE-foxTX #PWR08
U 1 1 5734ED86
P 5900 6550
F 0 "#PWR08" H 5900 6550 30  0001 C CNN
F 1 "GND" H 5900 6480 30  0001 C CNN
F 2 "" H 5900 6550 60  0000 C CNN
F 3 "" H 5900 6550 60  0000 C CNN
	1    5900 6550
	1    0    0    -1  
$EndComp
$Comp
L GND-RESCUE-foxTX #PWR09
U 1 1 5734ED93
P 5900 4650
F 0 "#PWR09" H 5900 4650 30  0001 C CNN
F 1 "GND" H 5900 4580 30  0001 C CNN
F 2 "" H 5900 4650 60  0000 C CNN
F 3 "" H 5900 4650 60  0000 C CNN
	1    5900 4650
	-1   0    0    1   
$EndComp
$Comp
L FOXTEST P1
U 1 1 573627BD
P 1800 2400
F 0 "P1" H 1950 1300 60  0000 C CNN
F 1 "FOXTEST" H 1800 2000 60  0000 C CNN
F 2 "crap:FOXTEST" H 1950 1950 60  0001 C CNN
F 3 "" H 1950 1950 60  0000 C CNN
	1    1800 2400
	1    0    0    -1  
$EndComp
Wire Wire Line
	1800 3650 1800 3700
$Comp
L GND-RESCUE-foxTX #PWR010
U 1 1 5736282C
P 1800 3700
F 0 "#PWR010" H 1800 3700 30  0001 C CNN
F 1 "GND" H 1800 3630 30  0001 C CNN
F 2 "" H 1800 3700 60  0000 C CNN
F 3 "" H 1800 3700 60  0000 C CNN
	1    1800 3700
	1    0    0    -1  
$EndComp
Wire Wire Line
	1950 1150 1950 1050
$Comp
L +3,3V #PWR011
U 1 1 57362892
P 1950 1050
F 0 "#PWR011" H 1950 1010 30  0001 C CNN
F 1 "+3,3V" H 1950 1160 30  0000 C CNN
F 2 "" H 1950 1050 60  0000 C CNN
F 3 "" H 1950 1050 60  0000 C CNN
	1    1950 1050
	1    0    0    -1  
$EndComp
NoConn ~ 1200 1800
NoConn ~ 1200 1900
NoConn ~ 1200 2400
NoConn ~ 2450 2400
NoConn ~ 2450 2500
NoConn ~ 2450 2600
NoConn ~ 2450 2700
NoConn ~ 2450 3300
NoConn ~ 2450 3200
NoConn ~ 2450 3000
NoConn ~ 2450 2900
NoConn ~ 2450 2200
NoConn ~ 1650 1150
NoConn ~ 1850 1150
NoConn ~ 2450 2000
NoConn ~ 2450 2100
Text Notes 2550 1700 0    60   ~ 0
TIM3_CH2
Text Notes 2550 1800 0    60   ~ 0
TIM3_CH1
Text Notes 2550 1900 0    60   ~ 0
TIM3_CH3
Wire Wire Line
	2450 1900 3100 1900
Wire Wire Line
	2450 1800 3100 1800
Wire Wire Line
	2450 1700 3100 1700
Text Label 3100 1700 0    60   ~ 0
EN
Text Label 3100 1900 0    60   ~ 0
IN1
Text Label 3100 1800 0    60   ~ 0
IN2
$Comp
L CONN_2 P2
U 1 1 573629AE
P 6750 5600
F 0 "P2" V 6700 5600 40  0000 C CNN
F 1 "CONN_2" V 6800 5600 40  0000 C CNN
F 2 "Pin_Headers:Pin_Header_Straight_1x02" H 6750 5600 60  0001 C CNN
F 3 "" H 6750 5600 60  0000 C CNN
	1    6750 5600
	1    0    0    -1  
$EndComp
Wire Wire Line
	6400 5500 6250 5500
Wire Wire Line
	6250 5500 6250 5300
Connection ~ 5900 5300
Wire Wire Line
	6250 5900 6250 5700
Wire Wire Line
	6250 5700 6400 5700
Connection ~ 5900 5900
Wire Wire Line
	9600 3450 9550 3450
Wire Wire Line
	9550 3450 9550 3400
Wire Wire Line
	10100 3450 10150 3450
Wire Wire Line
	10150 3450 10150 3400
$Comp
L VCC_US #PWR012
U 1 1 573E1E10
P 10150 3400
F 0 "#PWR012" H 10150 3370 20  0001 C CNN
F 1 "VCC_US" H 10150 3510 30  0000 C CNN
F 2 "" H 10150 3400 60  0000 C CNN
F 3 "" H 10150 3400 60  0000 C CNN
	1    10150 3400
	1    0    0    -1  
$EndComp
$Comp
L +3.3V-RESCUE-foxTX #PWR013
U 1 1 573E21E9
P 9550 3400
F 0 "#PWR013" H 9550 3360 30  0001 C CNN
F 1 "+3.3V" H 9550 3510 30  0000 C CNN
F 2 "" H 9550 3400 60  0000 C CNN
F 3 "" H 9550 3400 60  0000 C CNN
	1    9550 3400
	1    0    0    -1  
$EndComp
$Comp
L CONN_01X01 P3
U 1 1 573E303C
P 9600 3650
F 0 "P3" H 9600 3750 50  0000 C CNN
F 1 "CONN_01X01" V 9700 3650 50  0000 C CNN
F 2 "Pin_Headers:Pin_Header_Straight_1x01" H 9600 3650 50  0001 C CNN
F 3 "" H 9600 3650 50  0000 C CNN
	1    9600 3650
	0    1    1    0   
$EndComp
$Comp
L CONN_01X01 P4
U 1 1 573E30DA
P 10100 3650
F 0 "P4" H 10100 3750 50  0000 C CNN
F 1 "CONN_01X01" V 10200 3650 50  0000 C CNN
F 2 "Pin_Headers:Pin_Header_Straight_1x01" H 10100 3650 50  0001 C CNN
F 3 "" H 10100 3650 50  0000 C CNN
	1    10100 3650
	0    1    1    0   
$EndComp
$Comp
L CONN_01X01 P5
U 1 1 573E4C52
P 10300 4600
F 0 "P5" H 10300 4700 50  0000 C CNN
F 1 "CONN_01X01" V 10400 4600 50  0000 C CNN
F 2 "Pin_Headers:Pin_Header_Straight_1x01" H 10300 4600 50  0001 C CNN
F 3 "" H 10300 4600 50  0000 C CNN
	1    10300 4600
	0    1    1    0   
$EndComp
Wire Wire Line
	10300 4400 10300 4300
$Comp
L GND-RESCUE-foxTX #PWR014
U 1 1 573E4D5F
P 10300 4300
F 0 "#PWR014" H 10300 4300 30  0001 C CNN
F 1 "GND" H 10300 4230 30  0001 C CNN
F 2 "" H 10300 4300 60  0000 C CNN
F 3 "" H 10300 4300 60  0000 C CNN
	1    10300 4300
	-1   0    0    1   
$EndComp
$EndSCHEMATC
