PCBNEW-LibModule-V1  Fri 13 May 2016 10:05:54 PM CEST
# encoding utf-8
Units mm
$INDEX
B65806P1004D001
$EndINDEX
$MODULE B65806P1004D001
Po 0 0 0 15 5734F6B6 00000000 ~~
Li B65806P1004D001
Sc 0
AR 
Op 0 0 0
T0 0 1.27 1 1 0 0.15 N V 21 N "B65806P1004D001"
T1 0 -1.27 1 1 0 0.15 N V 21 N "VAL**"
DS -3.81 -6.35 6.35 -6.35 0.15 21
DS 6.35 -6.35 6.35 3.81 0.15 21
DS 6.35 3.81 3.81 6.35 0.15 21
DS 3.81 6.35 -6.35 6.35 0.15 21
DS -6.35 6.35 -6.35 -3.81 0.15 21
DS -6.35 -3.81 -3.81 -6.35 0.15 21
$PAD
Sh "1" C 2 2 0 0 0
Dr 1 0 0
At STD N 00E0FFFF
Ne 0 ""
Po -5.08 -2.54
$EndPAD
$PAD
Sh "2" C 2 2 0 0 0
Dr 1 0 0
At STD N 00E0FFFF
Ne 0 ""
Po -2.54 -5.08
$EndPAD
$PAD
Sh "3" C 2 2 0 0 0
Dr 1 0 0
At STD N 00E0FFFF
Ne 0 ""
Po 5.08 2.54
$EndPAD
$PAD
Sh "4" C 2 2 0 0 0
Dr 1 0 0
At STD N 00E0FFFF
Ne 0 ""
Po 2.54 5.08
$EndPAD
$PAD
Sh "" C 2 2 0 0 0
Dr 1 0 0
At STD N 00E0FFFF
Ne 0 ""
Po -5.08 5.08
$EndPAD
$PAD
Sh "" C 2 2 0 0 0
Dr 1 0 0
At STD N 00E0FFFF
Ne 0 ""
Po 5.08 -5.08
$EndPAD
$EndMODULE B65806P1004D001
$EndLIBRARY
