G04 #@! TF.FileFunction,Legend,Bot*
%FSLAX46Y46*%
G04 Gerber Fmt 4.6, Leading zero omitted, Abs format (unit mm)*
G04 Created by KiCad (PCBNEW 4.0.7-e2-6376~61~ubuntu18.04.1) date Fri May 25 22:12:32 2018*
%MOMM*%
%LPD*%
G01*
G04 APERTURE LIST*
%ADD10C,0.100000*%
%ADD11C,6.140000*%
%ADD12R,2.102000X2.102000*%
%ADD13C,2.102000*%
%ADD14R,2.040000X2.040000*%
%ADD15C,2.040000*%
%ADD16R,0.990000X0.990000*%
G04 APERTURE END LIST*
D10*
%LPC*%
D11*
X3000000Y-37000000D03*
X3000000Y-3000000D03*
D12*
X57500000Y-4000000D03*
D13*
X61000000Y-4000000D03*
D11*
X82000000Y-37000000D03*
X82000000Y-3000000D03*
D14*
X67095000Y-3500000D03*
D15*
X70905000Y-3500000D03*
D16*
X44700000Y-14400000D03*
D13*
X81000000Y-10500000D03*
D12*
X81000000Y-17500000D03*
D13*
X81000000Y-14000000D03*
X81000000Y-24000000D03*
D12*
X81000000Y-31000000D03*
D13*
X81000000Y-27500000D03*
M02*
