EESchema Schematic File Version 2
LIBS:power
LIBS:device
LIBS:transistors
LIBS:conn
LIBS:linear
LIBS:regul
LIBS:74xx
LIBS:cmos4000
LIBS:adc-dac
LIBS:memory
LIBS:xilinx
LIBS:special
LIBS:microcontrollers
LIBS:dsp
LIBS:microchip
LIBS:analog_switches
LIBS:motorola
LIBS:texas
LIBS:intel
LIBS:audio
LIBS:interface
LIBS:digital-audio
LIBS:philips
LIBS:display
LIBS:cypress
LIBS:siliconi
LIBS:opto
LIBS:atmel
LIBS:contrib
LIBS:valves
LIBS:crap
LIBS:canservoitf-cache
EELAYER 27 0
EELAYER END
$Descr A4 11693 8268
encoding utf-8
Sheet 3 6
Title ""
Date "18 sep 2015"
Rev ""
Comp ""
Comment1 ""
Comment2 ""
Comment3 ""
Comment4 ""
$EndDescr
$Comp
L ISO7141 U501
U 1 1 55639BA9
P 5600 2250
F 0 "U501" H 6100 1800 60  0000 C CNN
F 1 "ISO7141FCC" H 5250 2750 60  0000 C CNN
F 2 "TSSOP16" H 5300 1800 60  0000 C CNN
F 3 "" H 5500 2200 60  0000 C CNN
	1    5600 2250
	1    0    0    -1  
$EndComp
$Comp
L ISO7140 U503
U 1 1 55639BB5
P 5550 4400
F 0 "U503" H 6050 3950 60  0000 C CNN
F 1 "ISO7140FCC" H 5200 4900 60  0000 C CNN
F 2 "TSSOP16" H 5300 3900 60  0000 C CNN
F 3 "" H 5450 4350 60  0000 C CNN
	1    5550 4400
	1    0    0    -1  
$EndComp
Text HLabel 4800 2100 0    60   Input ~ 0
POWER_EN
Text HLabel 4800 2400 0    60   Output ~ 0
POWER_GOOD
Text HLabel 4800 2200 0    60   Input ~ 0
PWM0
Text HLabel 4750 4450 0    60   Input ~ 0
PWM1
Text HLabel 4750 4350 0    60   Input ~ 0
PWM2
Text HLabel 4750 4250 0    60   Input ~ 0
PWM3
Text HLabel 4800 2300 0    60   Input ~ 0
PWM4
Text HLabel 4750 4550 0    60   Input ~ 0
PWM5
Text HLabel 6400 2100 2    60   Output ~ 0
P_POWER_EN
Text HLabel 6400 2400 2    60   Input ~ 0
P_POWER_GOOD
Text HLabel 6400 2200 2    60   Output ~ 0
P_PWM0
Text HLabel 6350 4450 2    60   Output ~ 0
P_PWM1
Text HLabel 6350 4350 2    60   Output ~ 0
P_PWM2
Text HLabel 6350 4250 2    60   Output ~ 0
P_PWM3
Text HLabel 6400 2300 2    60   Output ~ 0
P_PWM4
Text HLabel 6350 4550 2    60   Output ~ 0
P_PWM5
$Comp
L GND #PWR032
U 1 1 55641427
P 4850 2700
F 0 "#PWR032" H 4850 2700 30  0001 C CNN
F 1 "GND" H 4850 2630 30  0001 C CNN
F 2 "" H 4850 2700 60  0000 C CNN
F 3 "" H 4850 2700 60  0000 C CNN
	1    4850 2700
	1    0    0    -1  
$EndComp
$Comp
L GND #PWR033
U 1 1 55641436
P 4750 2000
F 0 "#PWR033" H 4750 2000 30  0001 C CNN
F 1 "GND" H 4750 1930 30  0001 C CNN
F 2 "" H 4750 2000 60  0000 C CNN
F 3 "" H 4750 2000 60  0000 C CNN
	1    4750 2000
	0    1    1    0   
$EndComp
$Comp
L VDD #PWR034
U 1 1 55641445
P 4750 1900
F 0 "#PWR034" H 4750 2000 30  0001 C CNN
F 1 "VDD" H 4750 2010 30  0000 C CNN
F 2 "" H 4750 1900 60  0000 C CNN
F 3 "" H 4750 1900 60  0000 C CNN
	1    4750 1900
	0    -1   -1   0   
$EndComp
Wire Wire Line
	4750 1900 4950 1900
Wire Wire Line
	4750 2000 4950 2000
Wire Wire Line
	4850 2700 4850 2600
Wire Wire Line
	4850 2600 4950 2600
$Comp
L VDD #PWR035
U 1 1 55641458
P 4750 2500
F 0 "#PWR035" H 4750 2600 30  0001 C CNN
F 1 "VDD" H 4750 2610 30  0000 C CNN
F 2 "" H 4750 2500 60  0000 C CNN
F 3 "" H 4750 2500 60  0000 C CNN
	1    4750 2500
	0    -1   -1   0   
$EndComp
Wire Wire Line
	4750 2500 4950 2500
$Comp
L GND #PWR036
U 1 1 55641678
P 4800 4850
F 0 "#PWR036" H 4800 4850 30  0001 C CNN
F 1 "GND" H 4800 4780 30  0001 C CNN
F 2 "" H 4800 4850 60  0000 C CNN
F 3 "" H 4800 4850 60  0000 C CNN
	1    4800 4850
	1    0    0    -1  
$EndComp
$Comp
L GND #PWR037
U 1 1 5564167E
P 4700 4150
F 0 "#PWR037" H 4700 4150 30  0001 C CNN
F 1 "GND" H 4700 4080 30  0001 C CNN
F 2 "" H 4700 4150 60  0000 C CNN
F 3 "" H 4700 4150 60  0000 C CNN
	1    4700 4150
	0    1    1    0   
$EndComp
$Comp
L VDD #PWR038
U 1 1 55641684
P 4700 4050
F 0 "#PWR038" H 4700 4150 30  0001 C CNN
F 1 "VDD" H 4700 4160 30  0000 C CNN
F 2 "" H 4700 4050 60  0000 C CNN
F 3 "" H 4700 4050 60  0000 C CNN
	1    4700 4050
	0    -1   -1   0   
$EndComp
Wire Wire Line
	4700 4050 4900 4050
Wire Wire Line
	4700 4150 4900 4150
Wire Wire Line
	4800 4850 4800 4750
Wire Wire Line
	4800 4750 4900 4750
$Comp
L AGND #PWR039
U 1 1 556416A6
P 6350 4850
F 0 "#PWR039" H 6350 4850 40  0001 C CNN
F 1 "AGND" H 6350 4780 50  0000 C CNN
F 2 "" H 6350 4850 60  0000 C CNN
F 3 "" H 6350 4850 60  0000 C CNN
	1    6350 4850
	1    0    0    -1  
$EndComp
Wire Wire Line
	6350 4850 6350 4750
Wire Wire Line
	6350 4750 6250 4750
$Comp
L AGND #PWR040
U 1 1 556416C2
P 6450 4150
F 0 "#PWR040" H 6450 4150 40  0001 C CNN
F 1 "AGND" H 6450 4080 50  0000 C CNN
F 2 "" H 6450 4150 60  0000 C CNN
F 3 "" H 6450 4150 60  0000 C CNN
	1    6450 4150
	0    -1   -1   0   
$EndComp
Wire Wire Line
	6450 4150 6250 4150
$Comp
L +5VA #PWR041
U 1 1 556416DB
P 6450 4050
F 0 "#PWR041" H 6450 4180 20  0001 C CNN
F 1 "+5VA" H 6450 4150 30  0000 C CNN
F 2 "" H 6450 4050 60  0000 C CNN
F 3 "" H 6450 4050 60  0000 C CNN
	1    6450 4050
	0    1    1    0   
$EndComp
Wire Wire Line
	6450 4050 6250 4050
$Comp
L +5VA #PWR042
U 1 1 556416FA
P 6450 4650
F 0 "#PWR042" H 6450 4780 20  0001 C CNN
F 1 "+5VA" H 6450 4750 30  0000 C CNN
F 2 "" H 6450 4650 60  0000 C CNN
F 3 "" H 6450 4650 60  0000 C CNN
	1    6450 4650
	0    1    1    0   
$EndComp
Wire Wire Line
	6450 4650 6250 4650
$Comp
L AGND #PWR043
U 1 1 5564171E
P 6400 2700
F 0 "#PWR043" H 6400 2700 40  0001 C CNN
F 1 "AGND" H 6400 2630 50  0000 C CNN
F 2 "" H 6400 2700 60  0000 C CNN
F 3 "" H 6400 2700 60  0000 C CNN
	1    6400 2700
	1    0    0    -1  
$EndComp
Wire Wire Line
	6400 2700 6400 2600
Wire Wire Line
	6400 2600 6300 2600
$Comp
L AGND #PWR044
U 1 1 55641726
P 6500 2000
F 0 "#PWR044" H 6500 2000 40  0001 C CNN
F 1 "AGND" H 6500 1930 50  0000 C CNN
F 2 "" H 6500 2000 60  0000 C CNN
F 3 "" H 6500 2000 60  0000 C CNN
	1    6500 2000
	0    -1   -1   0   
$EndComp
Wire Wire Line
	6500 2000 6300 2000
$Comp
L +5VA #PWR045
U 1 1 5564172D
P 6500 1900
F 0 "#PWR045" H 6500 2030 20  0001 C CNN
F 1 "+5VA" H 6500 2000 30  0000 C CNN
F 2 "" H 6500 1900 60  0000 C CNN
F 3 "" H 6500 1900 60  0000 C CNN
	1    6500 1900
	0    1    1    0   
$EndComp
Wire Wire Line
	6500 1900 6300 1900
$Comp
L +5VA #PWR046
U 1 1 55641734
P 6500 2500
F 0 "#PWR046" H 6500 2630 20  0001 C CNN
F 1 "+5VA" H 6500 2600 30  0000 C CNN
F 2 "" H 6500 2500 60  0000 C CNN
F 3 "" H 6500 2500 60  0000 C CNN
	1    6500 2500
	0    1    1    0   
$EndComp
Wire Wire Line
	6500 2500 6300 2500
$Comp
L C C501
U 1 1 5564173D
P 5150 1100
F 0 "C501" H 5150 1200 40  0000 L CNN
F 1 "0.1u" H 5156 1015 40  0000 L CNN
F 2 "SM0402" H 5188 950 30  0000 C CNN
F 3 "~" H 5150 1100 60  0000 C CNN
	1    5150 1100
	1    0    0    -1  
$EndComp
$Comp
L GND #PWR047
U 1 1 55641758
P 5150 1400
F 0 "#PWR047" H 5150 1400 30  0001 C CNN
F 1 "GND" H 5150 1330 30  0001 C CNN
F 2 "" H 5150 1400 60  0000 C CNN
F 3 "" H 5150 1400 60  0000 C CNN
	1    5150 1400
	1    0    0    -1  
$EndComp
$Comp
L VDD #PWR048
U 1 1 55641767
P 5150 800
F 0 "#PWR048" H 5150 900 30  0001 C CNN
F 1 "VDD" H 5150 910 30  0000 C CNN
F 2 "" H 5150 800 60  0000 C CNN
F 3 "" H 5150 800 60  0000 C CNN
	1    5150 800 
	1    0    0    -1  
$EndComp
Wire Wire Line
	5150 800  5150 900 
Wire Wire Line
	5150 1300 5150 1400
$Comp
L C C502
U 1 1 556417B1
P 6000 1100
F 0 "C502" H 6000 1200 40  0000 L CNN
F 1 "0.1u" H 6006 1015 40  0000 L CNN
F 2 "SM0402" H 6038 950 30  0000 C CNN
F 3 "~" H 6000 1100 60  0000 C CNN
	1    6000 1100
	1    0    0    -1  
$EndComp
Wire Wire Line
	6000 800  6000 900 
Wire Wire Line
	6000 1300 6000 1400
$Comp
L AGND #PWR049
U 1 1 556417C7
P 6000 1400
F 0 "#PWR049" H 6000 1400 40  0001 C CNN
F 1 "AGND" H 6000 1330 50  0000 C CNN
F 2 "" H 6000 1400 60  0000 C CNN
F 3 "" H 6000 1400 60  0000 C CNN
	1    6000 1400
	1    0    0    -1  
$EndComp
$Comp
L +5VA #PWR050
U 1 1 556417D6
P 6000 800
F 0 "#PWR050" H 6000 930 20  0001 C CNN
F 1 "+5VA" H 6000 900 30  0000 C CNN
F 2 "" H 6000 800 60  0000 C CNN
F 3 "" H 6000 800 60  0000 C CNN
	1    6000 800 
	1    0    0    -1  
$EndComp
Wire Notes Line
	5600 550  5600 1700
$Comp
L C C505
U 1 1 556418C3
P 5150 3450
F 0 "C505" H 5150 3550 40  0000 L CNN
F 1 "0.1u" H 5156 3365 40  0000 L CNN
F 2 "SM0402" H 5188 3300 30  0000 C CNN
F 3 "~" H 5150 3450 60  0000 C CNN
	1    5150 3450
	1    0    0    -1  
$EndComp
$Comp
L GND #PWR051
U 1 1 556418C9
P 5150 3750
F 0 "#PWR051" H 5150 3750 30  0001 C CNN
F 1 "GND" H 5150 3680 30  0001 C CNN
F 2 "" H 5150 3750 60  0000 C CNN
F 3 "" H 5150 3750 60  0000 C CNN
	1    5150 3750
	1    0    0    -1  
$EndComp
$Comp
L VDD #PWR052
U 1 1 556418CF
P 5150 3150
F 0 "#PWR052" H 5150 3250 30  0001 C CNN
F 1 "VDD" H 5150 3260 30  0000 C CNN
F 2 "" H 5150 3150 60  0000 C CNN
F 3 "" H 5150 3150 60  0000 C CNN
	1    5150 3150
	1    0    0    -1  
$EndComp
Wire Wire Line
	5150 3150 5150 3250
Wire Wire Line
	5150 3650 5150 3750
$Comp
L C C506
U 1 1 556418D7
P 5900 3450
F 0 "C506" H 5900 3550 40  0000 L CNN
F 1 "0.1u" H 5906 3365 40  0000 L CNN
F 2 "SM0402" H 5938 3300 30  0000 C CNN
F 3 "~" H 5900 3450 60  0000 C CNN
	1    5900 3450
	1    0    0    -1  
$EndComp
Wire Wire Line
	5900 3150 5900 3250
Wire Wire Line
	5900 3650 5900 3750
$Comp
L AGND #PWR053
U 1 1 556418DF
P 5900 3750
F 0 "#PWR053" H 5900 3750 40  0001 C CNN
F 1 "AGND" H 5900 3680 50  0000 C CNN
F 2 "" H 5900 3750 60  0000 C CNN
F 3 "" H 5900 3750 60  0000 C CNN
	1    5900 3750
	1    0    0    -1  
$EndComp
$Comp
L +5VA #PWR054
U 1 1 556418E5
P 5900 3150
F 0 "#PWR054" H 5900 3280 20  0001 C CNN
F 1 "+5VA" H 5900 3250 30  0000 C CNN
F 2 "" H 5900 3150 60  0000 C CNN
F 3 "" H 5900 3150 60  0000 C CNN
	1    5900 3150
	1    0    0    -1  
$EndComp
Wire Notes Line
	5600 2750 5600 3900
Wire Notes Line
	5600 4850 5600 7600
Wire Wire Line
	6400 2100 6300 2100
Wire Wire Line
	6400 2400 6300 2400
Wire Wire Line
	6350 4250 6250 4250
Wire Wire Line
	6250 4350 6350 4350
Wire Wire Line
	6350 4450 6250 4450
Wire Wire Line
	6250 4550 6350 4550
Wire Wire Line
	6400 2200 6300 2200
Wire Wire Line
	6300 2300 6400 2300
Wire Wire Line
	4750 4250 4900 4250
Wire Wire Line
	4750 4350 4900 4350
Wire Wire Line
	4750 4450 4900 4450
Wire Wire Line
	4750 4550 4900 4550
Wire Wire Line
	4800 2200 4950 2200
Wire Wire Line
	4950 2300 4800 2300
Wire Wire Line
	4800 2100 4950 2100
Wire Wire Line
	4800 2400 4950 2400
$EndSCHEMATC
