EESchema Schematic File Version 2
LIBS:power
LIBS:device
LIBS:transistors
LIBS:conn
LIBS:linear
LIBS:regul
LIBS:74xx
LIBS:cmos4000
LIBS:adc-dac
LIBS:memory
LIBS:xilinx
LIBS:special
LIBS:microcontrollers
LIBS:dsp
LIBS:microchip
LIBS:analog_switches
LIBS:motorola
LIBS:texas
LIBS:intel
LIBS:audio
LIBS:interface
LIBS:digital-audio
LIBS:philips
LIBS:display
LIBS:cypress
LIBS:siliconi
LIBS:opto
LIBS:atmel
LIBS:contrib
LIBS:valves
LIBS:crap
LIBS:canservoitf-cache
EELAYER 27 0
EELAYER END
$Descr A4 11693 8268
encoding utf-8
Sheet 4 7
Title ""
Date "25 may 2015"
Rev ""
Comp ""
Comment1 ""
Comment2 ""
Comment3 ""
Comment4 ""
$EndDescr
Text HLabel 6800 2950 2    60   BiDi ~ 0
CANL
Text HLabel 6800 3050 2    60   BiDi ~ 0
CANH
Wire Wire Line
	6800 3050 6650 3050
Wire Wire Line
	6650 2950 6800 2950
$Comp
L SN65HVD234 U401
U 1 1 556393E4
P 5950 3050
F 0 "U401" H 6500 2650 60  0000 C CNN
F 1 "SN65HVD234" H 5800 3400 60  0000 C CNN
F 2 "~" H 5900 2650 60  0000 C CNN
F 3 "~" H 5900 2650 60  0000 C CNN
	1    5950 3050
	1    0    0    -1  
$EndComp
Wire Wire Line
	5250 3450 5250 3350
Wire Wire Line
	5250 3350 5400 3350
Wire Wire Line
	6800 3350 6800 3200
Wire Wire Line
	6800 3200 6650 3200
Wire Wire Line
	5250 2700 5250 2850
Wire Wire Line
	5250 2850 5400 2850
Text HLabel 5100 3000 0    60   Input ~ 0
TX
Text HLabel 5100 3100 0    60   Output ~ 0
RX
Wire Wire Line
	5100 3100 5400 3100
Wire Wire Line
	5100 3000 5400 3000
Wire Wire Line
	5100 3250 5400 3250
$Comp
L C C401
U 1 1 5563940E
P 3950 3050
F 0 "C401" H 3950 3150 40  0000 L CNN
F 1 "0.1u" H 3956 2965 40  0000 L CNN
F 2 "~" H 3988 2900 30  0000 C CNN
F 3 "~" H 3950 3050 60  0000 C CNN
	1    3950 3050
	1    0    0    -1  
$EndComp
Wire Wire Line
	3950 2750 3950 2850
Wire Wire Line
	3950 3250 3950 3350
$Comp
L +5VA #PWR041
U 1 1 55641A4A
P 3950 2750
F 0 "#PWR041" H 3950 2880 20  0001 C CNN
F 1 "+5VA" H 3950 2850 30  0000 C CNN
F 2 "" H 3950 2750 60  0000 C CNN
F 3 "" H 3950 2750 60  0000 C CNN
	1    3950 2750
	1    0    0    -1  
$EndComp
$Comp
L +5VA #PWR042
U 1 1 55641A59
P 5250 2700
F 0 "#PWR042" H 5250 2830 20  0001 C CNN
F 1 "+5VA" H 5250 2800 30  0000 C CNN
F 2 "" H 5250 2700 60  0000 C CNN
F 3 "" H 5250 2700 60  0000 C CNN
	1    5250 2700
	1    0    0    -1  
$EndComp
Text HLabel 5100 3250 0    60   Input ~ 0
EN
$Comp
L AGND #PWR043
U 1 1 55641A68
P 3950 3350
F 0 "#PWR043" H 3950 3350 40  0001 C CNN
F 1 "AGND" H 3950 3280 50  0000 C CNN
F 2 "" H 3950 3350 60  0000 C CNN
F 3 "" H 3950 3350 60  0000 C CNN
	1    3950 3350
	1    0    0    -1  
$EndComp
$Comp
L AGND #PWR044
U 1 1 55641A77
P 5250 3450
F 0 "#PWR044" H 5250 3450 40  0001 C CNN
F 1 "AGND" H 5250 3380 50  0000 C CNN
F 2 "" H 5250 3450 60  0000 C CNN
F 3 "" H 5250 3450 60  0000 C CNN
	1    5250 3450
	1    0    0    -1  
$EndComp
$Comp
L AGND #PWR045
U 1 1 55641A93
P 6800 3350
F 0 "#PWR045" H 6800 3350 40  0001 C CNN
F 1 "AGND" H 6800 3280 50  0000 C CNN
F 2 "" H 6800 3350 60  0000 C CNN
F 3 "" H 6800 3350 60  0000 C CNN
	1    6800 3350
	1    0    0    -1  
$EndComp
$EndSCHEMATC
