EESchema Schematic File Version 2
LIBS:power
LIBS:device
LIBS:transistors
LIBS:conn
LIBS:linear
LIBS:regul
LIBS:74xx
LIBS:cmos4000
LIBS:adc-dac
LIBS:memory
LIBS:xilinx
LIBS:special
LIBS:microcontrollers
LIBS:dsp
LIBS:microchip
LIBS:analog_switches
LIBS:motorola
LIBS:texas
LIBS:intel
LIBS:audio
LIBS:interface
LIBS:digital-audio
LIBS:philips
LIBS:display
LIBS:cypress
LIBS:siliconi
LIBS:opto
LIBS:atmel
LIBS:contrib
LIBS:valves
LIBS:crap
LIBS:canservoitf-cache
EELAYER 27 0
EELAYER END
$Descr A4 11693 8268
encoding utf-8
Sheet 5 6
Title ""
Date "18 sep 2015"
Rev ""
Comp ""
Comment1 ""
Comment2 ""
Comment3 ""
Comment4 ""
$EndDescr
Text HLabel 3400 3700 0    60   Input ~ 0
EN
$Comp
L LMR14203 U701
U 1 1 556492EB
P 4850 1800
F 0 "U701" H 5150 1550 60  0000 C CNN
F 1 "LMR14203" H 4600 2050 60  0000 C CNN
F 2 "SOT-6L" H 4750 1550 60  0000 C CNN
F 3 "" H 4950 1550 60  0000 C CNN
	1    4850 1800
	1    0    0    -1  
$EndComp
$Comp
L +BATT #PWR064
U 1 1 55649EE1
P 4200 1600
F 0 "#PWR064" H 4200 1550 20  0001 C CNN
F 1 "+BATT" H 4200 1700 30  0000 C CNN
F 2 "" H 4200 1600 60  0000 C CNN
F 3 "" H 4200 1600 60  0000 C CNN
	1    4200 1600
	1    0    0    -1  
$EndComp
Wire Wire Line
	4200 1600 4200 1800
Wire Wire Line
	4200 1700 4300 1700
$Comp
L AGND #PWR065
U 1 1 55649EF1
P 4200 2000
F 0 "#PWR065" H 4200 2000 40  0001 C CNN
F 1 "AGND" H 4200 1930 50  0000 C CNN
F 2 "" H 4200 2000 60  0000 C CNN
F 3 "" H 4200 2000 60  0000 C CNN
	1    4200 2000
	1    0    0    -1  
$EndComp
Wire Wire Line
	4200 2000 4200 1900
Wire Wire Line
	4200 1900 4300 1900
Wire Wire Line
	4200 1800 4300 1800
Connection ~ 4200 1700
$Comp
L C C702
U 1 1 55649F08
P 3500 1800
F 0 "C702" H 3500 1900 40  0000 L CNN
F 1 "2.2u" H 3506 1715 40  0000 L CNN
F 2 "SM0805" H 3538 1650 30  0000 C CNN
F 3 "~" H 3500 1800 60  0000 C CNN
	1    3500 1800
	1    0    0    -1  
$EndComp
$Comp
L AGND #PWR066
U 1 1 55649F15
P 3500 2100
F 0 "#PWR066" H 3500 2100 40  0001 C CNN
F 1 "AGND" H 3500 2030 50  0000 C CNN
F 2 "" H 3500 2100 60  0000 C CNN
F 3 "" H 3500 2100 60  0000 C CNN
	1    3500 2100
	1    0    0    -1  
$EndComp
Wire Wire Line
	3500 2100 3500 2000
$Comp
L +BATT #PWR067
U 1 1 55649F22
P 3500 1500
F 0 "#PWR067" H 3500 1450 20  0001 C CNN
F 1 "+BATT" H 3500 1600 30  0000 C CNN
F 2 "" H 3500 1500 60  0000 C CNN
F 3 "" H 3500 1500 60  0000 C CNN
	1    3500 1500
	1    0    0    -1  
$EndComp
Wire Wire Line
	3500 1500 3500 1600
$Comp
L R R701
U 1 1 55649F32
P 7100 1800
F 0 "R701" V 7180 1800 40  0000 C CNN
F 1 "5.62k" V 7107 1801 40  0000 C CNN
F 2 "SM0402" V 7030 1800 30  0000 C CNN
F 3 "~" H 7100 1800 30  0000 C CNN
	1    7100 1800
	-1   0    0    1   
$EndComp
$Comp
L R R702
U 1 1 55649F3F
P 7100 2450
F 0 "R702" V 7180 2450 40  0000 C CNN
F 1 "1.02k" V 7107 2451 40  0000 C CNN
F 2 "SM0402" V 7030 2450 30  0000 C CNN
F 3 "~" H 7100 2450 30  0000 C CNN
	1    7100 2450
	-1   0    0    1   
$EndComp
$Comp
L AGND #PWR068
U 1 1 55649F64
P 7100 2800
F 0 "#PWR068" H 7100 2800 40  0001 C CNN
F 1 "AGND" H 7100 2730 50  0000 C CNN
F 2 "" H 7100 2800 60  0000 C CNN
F 3 "" H 7100 2800 60  0000 C CNN
	1    7100 2800
	1    0    0    -1  
$EndComp
Wire Wire Line
	7100 2800 7100 2700
$Comp
L C C703
U 1 1 55649F7F
P 7500 1850
F 0 "C703" H 7500 1950 40  0000 L CNN
F 1 "47u" H 7506 1765 40  0000 L CNN
F 2 "SM1210" H 7538 1700 30  0000 C CNN
F 3 "~" H 7500 1850 60  0000 C CNN
	1    7500 1850
	1    0    0    -1  
$EndComp
Wire Wire Line
	6900 1500 7800 1500
Wire Wire Line
	7500 1500 7500 1650
$Comp
L AGND #PWR069
U 1 1 55649F9B
P 7500 2200
F 0 "#PWR069" H 7500 2200 40  0001 C CNN
F 1 "AGND" H 7500 2130 50  0000 C CNN
F 2 "" H 7500 2200 60  0000 C CNN
F 3 "" H 7500 2200 60  0000 C CNN
	1    7500 2200
	1    0    0    -1  
$EndComp
Wire Wire Line
	7500 2200 7500 2050
$Comp
L C C701
U 1 1 55649FB9
P 5750 1500
F 0 "C701" H 5750 1600 40  0000 L CNN
F 1 "0.15u" H 5756 1415 40  0000 L CNN
F 2 "SM0603" H 5788 1350 30  0000 C CNN
F 3 "~" H 5750 1500 60  0000 C CNN
	1    5750 1500
	0    -1   -1   0   
$EndComp
Wire Wire Line
	5350 1700 5450 1700
Wire Wire Line
	5450 1700 5450 1500
Wire Wire Line
	5450 1500 5550 1500
Wire Wire Line
	6050 1800 5350 1800
Wire Wire Line
	6050 1500 6050 1800
Wire Wire Line
	5950 1500 6300 1500
$Comp
L INDUCTOR L701
U 1 1 55649FEF
P 6600 1500
F 0 "L701" V 6550 1500 40  0000 C CNN
F 1 "15u" V 6700 1500 40  0000 C CNN
F 2 "SM1812" V 6750 1500 60  0000 C CNN
F 3 "~" H 6600 1500 60  0000 C CNN
F 4 "2287065" V 6600 1500 60  0001 C CNN "ref farnell"
	1    6600 1500
	0    -1   -1   0   
$EndComp
Connection ~ 6050 1500
$Comp
L DIODESCH D701
U 1 1 5564A050
P 6200 1800
F 0 "D701" H 6200 1900 40  0000 C CNN
F 1 "DIODE" H 6200 1700 40  0000 C CNN
F 2 "SOD-123" H 6150 1600 60  0000 C CNN
F 3 "~" H 6200 1800 60  0000 C CNN
	1    6200 1800
	0    -1   -1   0   
$EndComp
Wire Wire Line
	6200 1500 6200 1600
Connection ~ 6200 1500
$Comp
L AGND #PWR070
U 1 1 5564A08C
P 6200 2100
F 0 "#PWR070" H 6200 2100 40  0001 C CNN
F 1 "AGND" H 6200 2030 50  0000 C CNN
F 2 "" H 6200 2100 60  0000 C CNN
F 3 "" H 6200 2100 60  0000 C CNN
	1    6200 2100
	1    0    0    -1  
$EndComp
Wire Wire Line
	6200 2100 6200 2000
Wire Wire Line
	7100 1500 7100 1550
Wire Wire Line
	7100 2050 7100 2200
Text Label 6950 2100 2    60   ~ 0
FB
Wire Wire Line
	6950 2100 7100 2100
Connection ~ 7100 2100
Text Label 5450 1900 0    60   ~ 0
FB
Wire Wire Line
	5450 1900 5350 1900
Connection ~ 7100 1500
Wire Wire Line
	7800 1500 7800 1400
Connection ~ 7500 1500
$Comp
L +5VA #PWR071
U 1 1 5564A159
P 7800 1400
F 0 "#PWR071" H 7800 1530 20  0001 C CNN
F 1 "+5VA" H 7800 1500 30  0000 C CNN
F 2 "" H 7800 1400 60  0000 C CNN
F 3 "" H 7800 1400 60  0000 C CNN
	1    7800 1400
	1    0    0    -1  
$EndComp
Text Notes 7700 3100 2    60   ~ 0
Vout = 0.765 * (1+R1/R2)\n
$Comp
L TPS54531 U702
U 1 1 5564A390
P 4550 4100
F 0 "U702" H 4950 4000 60  0000 C CNN
F 1 "TPS54531" H 4250 4750 60  0000 C CNN
F 2 "SO-POWERPAD-8" H 4450 3950 60  0000 C CNN
F 3 "" H 4550 4100 60  0000 C CNN
	1    4550 4100
	1    0    0    -1  
$EndComp
$Comp
L C C705
U 1 1 5564A3A1
P 1950 3800
F 0 "C705" H 1950 3900 40  0000 L CNN
F 1 "4.7u" H 1956 3715 40  0000 L CNN
F 2 "SM1206" H 1988 3650 30  0000 C CNN
F 3 "~" H 1950 3800 60  0000 C CNN
	1    1950 3800
	1    0    0    -1  
$EndComp
$Comp
L C C706
U 1 1 5564A3AE
P 2200 3800
F 0 "C706" H 2200 3900 40  0000 L CNN
F 1 "4.7u" H 2206 3715 40  0000 L CNN
F 2 "SM1206" H 2238 3650 30  0000 C CNN
F 3 "~" H 2200 3800 60  0000 C CNN
	1    2200 3800
	1    0    0    -1  
$EndComp
$Comp
L C C707
U 1 1 5564A3B4
P 2450 3800
F 0 "C707" H 2450 3900 40  0000 L CNN
F 1 "0.01u" H 2456 3715 40  0000 L CNN
F 2 "SM0402" H 2488 3650 30  0000 C CNN
F 3 "~" H 2450 3800 60  0000 C CNN
	1    2450 3800
	1    0    0    -1  
$EndComp
$Comp
L AGND #PWR072
U 1 1 5564A3BC
P 2200 4150
F 0 "#PWR072" H 2200 4150 40  0001 C CNN
F 1 "AGND" H 2200 4080 50  0000 C CNN
F 2 "" H 2200 4150 60  0000 C CNN
F 3 "" H 2200 4150 60  0000 C CNN
	1    2200 4150
	1    0    0    -1  
$EndComp
Wire Wire Line
	2200 4150 2200 4000
Wire Wire Line
	1950 4050 2450 4050
Wire Wire Line
	1950 4050 1950 4000
Connection ~ 2200 4050
Wire Wire Line
	2450 4050 2450 4000
$Comp
L +BATT #PWR073
U 1 1 5564A42D
P 2200 3500
F 0 "#PWR073" H 2200 3450 20  0001 C CNN
F 1 "+BATT" H 2200 3600 30  0000 C CNN
F 2 "" H 2200 3500 60  0000 C CNN
F 3 "" H 2200 3500 60  0000 C CNN
	1    2200 3500
	1    0    0    -1  
$EndComp
Wire Wire Line
	2200 3500 2200 3600
Wire Wire Line
	1950 3550 2450 3550
Wire Wire Line
	2450 3550 2450 3600
Connection ~ 2200 3550
Wire Wire Line
	1950 3550 1950 3600
$Comp
L +BATT #PWR074
U 1 1 5564A4D4
P 3800 3500
F 0 "#PWR074" H 3800 3450 20  0001 C CNN
F 1 "+BATT" H 3800 3600 30  0000 C CNN
F 2 "" H 3800 3500 60  0000 C CNN
F 3 "" H 3800 3500 60  0000 C CNN
	1    3800 3500
	1    0    0    -1  
$EndComp
Wire Wire Line
	3800 3500 3800 3600
Wire Wire Line
	3800 3600 3900 3600
$Comp
L AGND #PWR075
U 1 1 5564A505
P 3800 4150
F 0 "#PWR075" H 3800 4150 40  0001 C CNN
F 1 "AGND" H 3800 4080 50  0000 C CNN
F 2 "" H 3800 4150 60  0000 C CNN
F 3 "" H 3800 4150 60  0000 C CNN
	1    3800 4150
	1    0    0    -1  
$EndComp
Wire Wire Line
	3800 3950 3800 4150
Wire Wire Line
	3800 4050 3900 4050
Wire Wire Line
	3800 3950 3900 3950
Connection ~ 3800 4050
$Comp
L C C710
U 1 1 5564A56C
P 3400 4050
F 0 "C710" H 3400 4150 40  0000 L CNN
F 1 "0.01u" H 3406 3965 40  0000 L CNN
F 2 "SM0402" H 3438 3900 30  0000 C CNN
F 3 "~" H 3400 4050 60  0000 C CNN
	1    3400 4050
	1    0    0    -1  
$EndComp
$Comp
L AGND #PWR076
U 1 1 5564A579
P 3400 4350
F 0 "#PWR076" H 3400 4350 40  0001 C CNN
F 1 "AGND" H 3400 4280 50  0000 C CNN
F 2 "" H 3400 4350 60  0000 C CNN
F 3 "" H 3400 4350 60  0000 C CNN
	1    3400 4350
	1    0    0    -1  
$EndComp
Wire Wire Line
	3400 4350 3400 4250
Wire Wire Line
	3400 3850 3400 3800
Wire Wire Line
	3400 3800 3900 3800
$Comp
L C C704
U 1 1 5564A5EC
P 5500 3600
F 0 "C704" H 5500 3700 40  0000 L CNN
F 1 "0.1u" H 5506 3515 40  0000 L CNN
F 2 "SM0603" H 5538 3450 30  0000 C CNN
F 3 "~" H 5500 3600 60  0000 C CNN
	1    5500 3600
	0    -1   -1   0   
$EndComp
Wire Wire Line
	5150 3600 5300 3600
Wire Wire Line
	5700 3600 5700 3700
Wire Wire Line
	5700 3700 5150 3700
$Comp
L INDUCTOR L702
U 1 1 5564A66C
P 6300 3600
F 0 "L702" V 6250 3600 40  0000 C CNN
F 1 "4.7u" V 6400 3600 40  0000 C CNN
F 2 "WE_SMD_INDUCTOR_1040" V 6500 3450 60  0000 C CNN
F 3 "~" H 6300 3600 60  0000 C CNN
	1    6300 3600
	0    -1   -1   0   
$EndComp
$Comp
L DIODESCH D704
U 1 1 5564A698
P 5850 3900
F 0 "D704" H 5850 4000 40  0000 C CNN
F 1 "60V 0.5A" H 5850 3800 40  0000 C CNN
F 2 "DIODE_SMC_B520C" H 5650 3750 60  0000 C CNN
F 3 "~" H 5850 3900 60  0000 C CNN
	1    5850 3900
	0    -1   -1   0   
$EndComp
Wire Wire Line
	5700 3600 6000 3600
Wire Wire Line
	5850 3600 5850 3700
Connection ~ 5850 3600
$Comp
L R R705
U 1 1 5564A70A
P 7750 3900
F 0 "R705" V 7830 3900 40  0000 C CNN
F 1 "10.2k" V 7757 3901 40  0000 C CNN
F 2 "SM0402" V 7680 3900 30  0000 C CNN
F 3 "~" H 7750 3900 30  0000 C CNN
	1    7750 3900
	-1   0    0    1   
$EndComp
$Comp
L R R706
U 1 1 5564A710
P 7750 4550
F 0 "R706" V 7830 4550 40  0000 C CNN
F 1 "1.23k" V 7757 4551 40  0000 C CNN
F 2 "SM0402" V 7680 4550 30  0000 C CNN
F 3 "~" H 7750 4550 30  0000 C CNN
	1    7750 4550
	-1   0    0    1   
$EndComp
$Comp
L AGND #PWR077
U 1 1 5564A716
P 7750 4900
F 0 "#PWR077" H 7750 4900 40  0001 C CNN
F 1 "AGND" H 7750 4830 50  0000 C CNN
F 2 "" H 7750 4900 60  0000 C CNN
F 3 "" H 7750 4900 60  0000 C CNN
	1    7750 4900
	1    0    0    -1  
$EndComp
Wire Wire Line
	7750 4900 7750 4800
$Comp
L C C708
U 1 1 5564A71D
P 6800 3950
F 0 "C708" H 6800 4050 40  0000 L CNN
F 1 "47u" H 6806 3865 40  0000 L CNN
F 2 "SM1210" H 6838 3800 30  0000 C CNN
F 3 "~" H 6800 3950 60  0000 C CNN
	1    6800 3950
	1    0    0    -1  
$EndComp
Wire Wire Line
	6600 3600 8450 3600
$Comp
L AGND #PWR078
U 1 1 5564A725
P 6800 4300
F 0 "#PWR078" H 6800 4300 40  0001 C CNN
F 1 "AGND" H 6800 4230 50  0000 C CNN
F 2 "" H 6800 4300 60  0000 C CNN
F 3 "" H 6800 4300 60  0000 C CNN
	1    6800 4300
	1    0    0    -1  
$EndComp
Wire Wire Line
	6800 4300 6800 4150
Wire Wire Line
	7750 3600 7750 3650
Wire Wire Line
	7750 4150 7750 4300
Text Label 7600 4200 2    60   ~ 0
SENS
Wire Wire Line
	7600 4200 7750 4200
Connection ~ 7750 4200
Connection ~ 7750 3600
Wire Wire Line
	8450 3600 8450 3500
Text Label 5250 4000 0    60   ~ 0
SENS
Wire Wire Line
	5250 4000 5150 4000
$Comp
L C C709
U 1 1 5564A787
P 7050 3950
F 0 "C709" H 7050 4050 40  0000 L CNN
F 1 "47u" H 7056 3865 40  0000 L CNN
F 2 "SM1210" H 7088 3800 30  0000 C CNN
F 3 "~" H 7050 3950 60  0000 C CNN
	1    7050 3950
	1    0    0    -1  
$EndComp
Wire Wire Line
	6800 4200 7050 4200
Wire Wire Line
	7050 4200 7050 4150
Connection ~ 6800 4200
Wire Wire Line
	6800 3750 6800 3600
Wire Wire Line
	6800 3700 7050 3700
Wire Wire Line
	7050 3700 7050 3750
Connection ~ 6800 3700
Connection ~ 6800 3600
$Comp
L C C711
U 1 1 5564A8B5
P 5550 4500
F 0 "C711" H 5550 4600 40  0000 L CNN
F 1 "2200p" H 5556 4415 40  0000 L CNN
F 2 "SM0402" H 5588 4350 30  0000 C CNN
F 3 "~" H 5550 4500 60  0000 C CNN
	1    5550 4500
	1    0    0    -1  
$EndComp
$Comp
L C C712
U 1 1 5564A8C4
P 5200 4800
F 0 "C712" H 5200 4900 40  0000 L CNN
F 1 "22p" H 5206 4715 40  0000 L CNN
F 2 "SM0402" H 5238 4650 30  0000 C CNN
F 3 "~" H 5200 4800 60  0000 C CNN
	1    5200 4800
	1    0    0    -1  
$EndComp
$Comp
L R R707
U 1 1 5564A8D3
P 5550 5050
F 0 "R707" V 5630 5050 40  0000 C CNN
F 1 "37.4k" V 5557 5051 40  0000 C CNN
F 2 "SM0402" V 5480 5050 30  0000 C CNN
F 3 "~" H 5550 5050 30  0000 C CNN
	1    5550 5050
	1    0    0    -1  
$EndComp
$Comp
L AGND #PWR079
U 1 1 5564A8E0
P 5550 5400
F 0 "#PWR079" H 5550 5400 40  0001 C CNN
F 1 "AGND" H 5550 5330 50  0000 C CNN
F 2 "" H 5550 5400 60  0000 C CNN
F 3 "" H 5550 5400 60  0000 C CNN
	1    5550 5400
	1    0    0    -1  
$EndComp
Wire Wire Line
	5550 5400 5550 5300
Connection ~ 5550 5350
Wire Wire Line
	5550 4800 5550 4700
Wire Wire Line
	5550 3900 5550 4300
Wire Wire Line
	5550 3900 5150 3900
Connection ~ 5550 4200
Wire Wire Line
	5200 5350 5850 5350
Wire Wire Line
	5200 5350 5200 5000
Wire Wire Line
	5200 4600 5200 4200
Wire Wire Line
	5200 4200 5550 4200
Wire Wire Line
	5850 5350 5850 4100
Wire Wire Line
	3400 3700 3900 3700
Text Notes 7100 5150 0    60   ~ 0
Vout = 0.8 * (1 + R5/R6)\nVout = 7.4V
$Comp
L +6V #PWR080
U 1 1 5564ABFE
P 8450 3500
F 0 "#PWR080" H 8450 3630 20  0001 C CNN
F 1 "+6V" H 8450 3600 30  0000 C CNN
F 2 "" H 8450 3500 60  0000 C CNN
F 3 "" H 8450 3500 60  0000 C CNN
	1    8450 3500
	1    0    0    -1  
$EndComp
$Comp
L LED D702
U 1 1 5564AC17
P 9850 2150
F 0 "D702" H 9850 2250 50  0000 C CNN
F 1 "LED" H 9850 2050 50  0000 C CNN
F 2 "LED-0603" H 9850 1950 60  0000 C CNN
F 3 "~" H 9850 2150 60  0000 C CNN
	1    9850 2150
	0    1    1    0   
$EndComp
$Comp
L R R703
U 1 1 5564AC26
P 9850 2700
F 0 "R703" V 9930 2700 40  0000 C CNN
F 1 "1k" V 9857 2701 40  0000 C CNN
F 2 "SM0402" V 9780 2700 30  0000 C CNN
F 3 "~" H 9850 2700 30  0000 C CNN
	1    9850 2700
	1    0    0    -1  
$EndComp
$Comp
L AGND #PWR081
U 1 1 5564AC35
P 9850 3050
F 0 "#PWR081" H 9850 3050 40  0001 C CNN
F 1 "AGND" H 9850 2980 50  0000 C CNN
F 2 "" H 9850 3050 60  0000 C CNN
F 3 "" H 9850 3050 60  0000 C CNN
	1    9850 3050
	1    0    0    -1  
$EndComp
Wire Wire Line
	9850 3050 9850 2950
Wire Wire Line
	9850 2450 9850 2350
Wire Wire Line
	9850 1950 9850 1850
$Comp
L LED D703
U 1 1 5564AD48
P 10250 2150
F 0 "D703" H 10250 2250 50  0000 C CNN
F 1 "LED" H 10250 2050 50  0000 C CNN
F 2 "LED-0603" H 10250 2350 60  0000 C CNN
F 3 "~" H 10250 2150 60  0000 C CNN
	1    10250 2150
	0    1    1    0   
$EndComp
$Comp
L R R704
U 1 1 5564AD4E
P 10250 2700
F 0 "R704" V 10330 2700 40  0000 C CNN
F 1 "1k" V 10257 2701 40  0000 C CNN
F 2 "SM0402" V 10180 2700 30  0000 C CNN
F 3 "~" H 10250 2700 30  0000 C CNN
	1    10250 2700
	1    0    0    -1  
$EndComp
$Comp
L AGND #PWR082
U 1 1 5564AD54
P 10250 3050
F 0 "#PWR082" H 10250 3050 40  0001 C CNN
F 1 "AGND" H 10250 2980 50  0000 C CNN
F 2 "" H 10250 3050 60  0000 C CNN
F 3 "" H 10250 3050 60  0000 C CNN
	1    10250 3050
	1    0    0    -1  
$EndComp
Wire Wire Line
	10250 3050 10250 2950
Wire Wire Line
	10250 2450 10250 2350
Wire Wire Line
	10250 1950 10250 1850
$Comp
L +5VA #PWR083
U 1 1 5564AD5D
P 9850 1850
F 0 "#PWR083" H 9850 1980 20  0001 C CNN
F 1 "+5VA" H 9850 1950 30  0000 C CNN
F 2 "" H 9850 1850 60  0000 C CNN
F 3 "" H 9850 1850 60  0000 C CNN
	1    9850 1850
	1    0    0    -1  
$EndComp
$Comp
L +6V #PWR084
U 1 1 5564AD65
P 10250 1850
F 0 "#PWR084" H 10250 1980 20  0001 C CNN
F 1 "+6V" H 10250 1950 30  0000 C CNN
F 2 "" H 10250 1850 60  0000 C CNN
F 3 "" H 10250 1850 60  0000 C CNN
	1    10250 1850
	1    0    0    -1  
$EndComp
$Comp
L CONN_2 P501
U 1 1 55733F85
P 10100 4450
F 0 "P501" V 10050 4450 40  0000 C CNN
F 1 "CONN_2" V 10150 4450 40  0000 C CNN
F 2 "PIN_ARRAY_2X1" H 10150 4650 60  0000 C CNN
F 3 "" H 10100 4450 60  0000 C CNN
	1    10100 4450
	1    0    0    1   
$EndComp
$Comp
L AGND #PWR085
U 1 1 55733F94
P 9650 4650
F 0 "#PWR085" H 9650 4650 40  0001 C CNN
F 1 "AGND" H 9650 4580 50  0000 C CNN
F 2 "" H 9650 4650 60  0000 C CNN
F 3 "" H 9650 4650 60  0000 C CNN
	1    9650 4650
	1    0    0    -1  
$EndComp
Wire Wire Line
	9650 4650 9650 4550
Wire Wire Line
	9650 4550 9750 4550
$Comp
L +6V #PWR086
U 1 1 55733FFD
P 9650 4250
F 0 "#PWR086" H 9650 4380 20  0001 C CNN
F 1 "+6V" H 9650 4350 30  0000 C CNN
F 2 "" H 9650 4250 60  0000 C CNN
F 3 "" H 9650 4250 60  0000 C CNN
	1    9650 4250
	1    0    0    -1  
$EndComp
Wire Wire Line
	9650 4250 9650 4350
Wire Wire Line
	9650 4350 9750 4350
Text Notes 9400 4900 0    60   ~ 0
Extra connector\nfor capacitor or other use
$EndSCHEMATC
