EESchema Schematic File Version 2
LIBS:power
LIBS:device
LIBS:transistors
LIBS:conn
LIBS:linear
LIBS:regul
LIBS:74xx
LIBS:cmos4000
LIBS:adc-dac
LIBS:memory
LIBS:xilinx
LIBS:special
LIBS:microcontrollers
LIBS:dsp
LIBS:microchip
LIBS:analog_switches
LIBS:motorola
LIBS:texas
LIBS:intel
LIBS:audio
LIBS:interface
LIBS:digital-audio
LIBS:philips
LIBS:display
LIBS:cypress
LIBS:siliconi
LIBS:opto
LIBS:atmel
LIBS:contrib
LIBS:valves
LIBS:crap
LIBS:canservoitf-cache
EELAYER 27 0
EELAYER END
$Descr A4 11693 8268
encoding utf-8
Sheet 4 6
Title ""
Date "18 sep 2015"
Rev ""
Comp ""
Comment1 ""
Comment2 ""
Comment3 ""
Comment4 ""
$EndDescr
$Comp
L MCP1702 U601
U 1 1 556482D2
P 5700 3050
F 0 "U601" H 5800 2550 60  0000 C CNN
F 1 "MCP1702" H 5550 3000 60  0000 C CNN
F 2 "SOT23" H 5550 2500 60  0000 C CNN
F 3 "~" H 5700 3050 60  0000 C CNN
	1    5700 3050
	1    0    0    -1  
$EndComp
$Comp
L GND #PWR055
U 1 1 556482E1
P 5000 3500
F 0 "#PWR055" H 5000 3500 30  0001 C CNN
F 1 "GND" H 5000 3430 30  0001 C CNN
F 2 "" H 5000 3500 60  0000 C CNN
F 3 "" H 5000 3500 60  0000 C CNN
	1    5000 3500
	1    0    0    -1  
$EndComp
Wire Wire Line
	5000 3500 5000 3400
Wire Wire Line
	5000 3400 5100 3400
$Comp
L +5V #PWR056
U 1 1 556482F1
P 5000 3150
F 0 "#PWR056" H 5000 3240 20  0001 C CNN
F 1 "+5V" H 5000 3240 30  0000 C CNN
F 2 "" H 5000 3150 60  0000 C CNN
F 3 "" H 5000 3150 60  0000 C CNN
	1    5000 3150
	1    0    0    -1  
$EndComp
Wire Wire Line
	5000 3150 5000 3250
Wire Wire Line
	5000 3250 5100 3250
$Comp
L VDD #PWR057
U 1 1 55648303
P 6250 3150
F 0 "#PWR057" H 6250 3250 30  0001 C CNN
F 1 "VDD" H 6250 3260 30  0000 C CNN
F 2 "" H 6250 3150 60  0000 C CNN
F 3 "" H 6250 3150 60  0000 C CNN
	1    6250 3150
	1    0    0    -1  
$EndComp
Wire Wire Line
	6250 3150 6250 3250
Wire Wire Line
	6250 3250 6150 3250
$Comp
L C C601
U 1 1 55648317
P 4650 3300
F 0 "C601" H 4650 3400 40  0000 L CNN
F 1 "1u" H 4656 3215 40  0000 L CNN
F 2 "SM0603" H 4688 3150 30  0000 C CNN
F 3 "~" H 4650 3300 60  0000 C CNN
	1    4650 3300
	1    0    0    -1  
$EndComp
$Comp
L GND #PWR058
U 1 1 55648324
P 4650 3550
F 0 "#PWR058" H 4650 3550 30  0001 C CNN
F 1 "GND" H 4650 3480 30  0001 C CNN
F 2 "" H 4650 3550 60  0000 C CNN
F 3 "" H 4650 3550 60  0000 C CNN
	1    4650 3550
	1    0    0    -1  
$EndComp
Wire Wire Line
	4650 3550 4650 3500
$Comp
L +5V #PWR059
U 1 1 55648331
P 4650 3050
F 0 "#PWR059" H 4650 3140 20  0001 C CNN
F 1 "+5V" H 4650 3140 30  0000 C CNN
F 2 "" H 4650 3050 60  0000 C CNN
F 3 "" H 4650 3050 60  0000 C CNN
	1    4650 3050
	1    0    0    -1  
$EndComp
Wire Wire Line
	4650 3050 4650 3100
$Comp
L C C602
U 1 1 55648355
P 6550 3350
F 0 "C602" H 6550 3450 40  0000 L CNN
F 1 "10u" H 6556 3265 40  0000 L CNN
F 2 "SM0805" H 6588 3200 30  0000 C CNN
F 3 "~" H 6550 3350 60  0000 C CNN
	1    6550 3350
	1    0    0    -1  
$EndComp
$Comp
L GND #PWR060
U 1 1 5564835B
P 6550 3600
F 0 "#PWR060" H 6550 3600 30  0001 C CNN
F 1 "GND" H 6550 3530 30  0001 C CNN
F 2 "" H 6550 3600 60  0000 C CNN
F 3 "" H 6550 3600 60  0000 C CNN
	1    6550 3600
	1    0    0    -1  
$EndComp
Wire Wire Line
	6550 3600 6550 3550
Wire Wire Line
	6550 3100 6550 3150
$Comp
L VDD #PWR061
U 1 1 5564836E
P 6550 3100
F 0 "#PWR061" H 6550 3200 30  0001 C CNN
F 1 "VDD" H 6550 3210 30  0000 C CNN
F 2 "" H 6550 3100 60  0000 C CNN
F 3 "" H 6550 3100 60  0000 C CNN
	1    6550 3100
	1    0    0    -1  
$EndComp
$Comp
L LED D601
U 1 1 5564BA0D
P 7600 3250
F 0 "D601" H 7600 3350 50  0000 C CNN
F 1 "LED" H 7600 3150 50  0000 C CNN
F 2 "LED-0603" H 7600 3450 60  0000 C CNN
F 3 "~" H 7600 3250 60  0000 C CNN
	1    7600 3250
	0    1    1    0   
$EndComp
$Comp
L R R601
U 1 1 5564BA1C
P 7600 3750
F 0 "R601" V 7680 3750 40  0000 C CNN
F 1 "R" V 7607 3751 40  0000 C CNN
F 2 "SM0402" V 7530 3750 30  0000 C CNN
F 3 "~" H 7600 3750 30  0000 C CNN
	1    7600 3750
	1    0    0    -1  
$EndComp
$Comp
L GND #PWR062
U 1 1 5564BA2B
P 7600 4100
F 0 "#PWR062" H 7600 4100 30  0001 C CNN
F 1 "GND" H 7600 4030 30  0001 C CNN
F 2 "" H 7600 4100 60  0000 C CNN
F 3 "" H 7600 4100 60  0000 C CNN
	1    7600 4100
	1    0    0    -1  
$EndComp
Wire Wire Line
	7600 4100 7600 4000
Wire Wire Line
	7600 3500 7600 3450
$Comp
L VDD #PWR063
U 1 1 5564BA5D
P 7600 2950
F 0 "#PWR063" H 7600 3050 30  0001 C CNN
F 1 "VDD" H 7600 3060 30  0000 C CNN
F 2 "" H 7600 2950 60  0000 C CNN
F 3 "" H 7600 2950 60  0000 C CNN
	1    7600 2950
	1    0    0    -1  
$EndComp
Wire Wire Line
	7600 2950 7600 3050
$EndSCHEMATC
