EESchema Schematic File Version 2
LIBS:power
LIBS:device
LIBS:transistors
LIBS:conn
LIBS:linear
LIBS:regul
LIBS:74xx
LIBS:cmos4000
LIBS:adc-dac
LIBS:memory
LIBS:xilinx
LIBS:special
LIBS:microcontrollers
LIBS:dsp
LIBS:microchip
LIBS:analog_switches
LIBS:motorola
LIBS:texas
LIBS:intel
LIBS:audio
LIBS:interface
LIBS:digital-audio
LIBS:philips
LIBS:display
LIBS:cypress
LIBS:siliconi
LIBS:opto
LIBS:atmel
LIBS:contrib
LIBS:valves
LIBS:crap
LIBS:canservoitf-cache
EELAYER 27 0
EELAYER END
$Descr A4 11693 8268
encoding utf-8
Sheet 2 6
Title ""
Date "18 sep 2015"
Rev ""
Comp ""
Comment1 ""
Comment2 ""
Comment3 ""
Comment4 ""
$EndDescr
$Comp
L STM32F103TXU U201
U 1 1 5560C20B
P 5200 3800
F 0 "U201" H 5500 2600 60  0000 C CNN
F 1 "STM32F103TXU" H 4750 5450 60  0000 C CNN
F 2 "VFQFPN36" H 5100 2600 60  0000 C CNN
F 3 "" H 5200 3800 60  0000 C CNN
	1    5200 3800
	1    0    0    -1  
$EndComp
Text Label 6100 3650 0    60   ~ 0
SWDIO
Text Label 6100 3750 0    60   ~ 0
SWCLK
$Comp
L R R201
U 1 1 5560C3FE
P 3900 3700
F 0 "R201" V 3980 3700 40  0000 C CNN
F 1 "1k" V 3907 3701 40  0000 C CNN
F 2 "SM0402" V 3830 3700 30  0000 C CNN
F 3 "~" H 3900 3700 30  0000 C CNN
	1    3900 3700
	0    -1   -1   0   
$EndComp
$Comp
L GND #PWR017
U 1 1 5560C40D
P 3500 3700
F 0 "#PWR017" H 3500 3700 30  0001 C CNN
F 1 "GND" H 3500 3630 30  0001 C CNN
F 2 "" H 3500 3700 60  0000 C CNN
F 3 "" H 3500 3700 60  0000 C CNN
	1    3500 3700
	0    1    1    0   
$EndComp
Text Label 6100 2550 0    60   ~ 0
DBG_TX
Text Label 6100 2650 0    60   ~ 0
DBG_RX
Wire Wire Line
	6000 3450 6100 3450
Wire Wire Line
	6000 3550 6100 3550
Wire Wire Line
	6000 3650 6100 3650
Wire Wire Line
	6000 3750 6100 3750
Text Label 6100 4700 0    60   ~ 0
EXT_TX
Text Label 6100 4800 0    60   ~ 0
EXT_RX
Wire Wire Line
	6000 4700 6100 4700
Wire Wire Line
	6000 4800 6100 4800
Text Notes 6500 4700 0    60   ~ 0
USART1_TX / I2C1_SCL
Text Notes 6500 4800 0    60   ~ 0
USART1_RX / I2C1_SDA
Wire Wire Line
	6100 2550 6000 2550
Text Notes 6450 2550 0    60   ~ 0
USART2_TX
Wire Wire Line
	6000 2650 6100 2650
Text Notes 6450 2650 0    60   ~ 0
USART2_RX
Text Notes 6100 2350 0    60   ~ 0
TIM2_CH1
Text Notes 6100 2450 0    60   ~ 0
TIM2_CH2
Text Notes 6100 2950 0    60   ~ 0
TIM3_CH1
Text Notes 6100 3050 0    60   ~ 0
TIM3_CH2
Text Notes 6100 3150 0    60   ~ 0
TIM1_CH1
Text Notes 6100 3250 0    60   ~ 0
TIM1_CH2
Text Notes 6100 3350 0    60   ~ 0
TIM1_CH3
Text Notes 6100 3850 0    60   ~ 0
TIM2_CH1*
Text Notes 6100 4100 0    60   ~ 0
TIM3_CH3
Text Notes 6100 4200 0    60   ~ 0
TIM3_CH4
Text Notes 6100 4400 0    60   ~ 0
TIM2_CH2*
Text Notes 6100 4500 0    60   ~ 0
TIM3_CH1*
Text Notes 6100 4600 0    60   ~ 0
TIM3_CH2*
Wire Wire Line
	3500 3700 3650 3700
Wire Wire Line
	4150 3700 4300 3700
$Comp
L GND #PWR018
U 1 1 5560C462
P 4150 4700
F 0 "#PWR018" H 4150 4700 30  0001 C CNN
F 1 "GND" H 4150 4630 30  0001 C CNN
F 2 "" H 4150 4700 60  0000 C CNN
F 3 "" H 4150 4700 60  0000 C CNN
	1    4150 4700
	1    0    0    -1  
$EndComp
Wire Wire Line
	4150 4200 4150 4700
Wire Wire Line
	4150 4500 4300 4500
Wire Wire Line
	4150 4400 4300 4400
Connection ~ 4150 4500
Wire Wire Line
	4150 4300 4300 4300
Connection ~ 4150 4400
Wire Wire Line
	4150 4200 4300 4200
Connection ~ 4150 4300
$Comp
L VDD #PWR019
U 1 1 5560C4A9
P 4150 2350
F 0 "#PWR019" H 4150 2450 30  0001 C CNN
F 1 "VDD" H 4150 2460 30  0000 C CNN
F 2 "" H 4150 2350 60  0000 C CNN
F 3 "" H 4150 2350 60  0000 C CNN
	1    4150 2350
	1    0    0    -1  
$EndComp
Wire Wire Line
	4150 2350 4150 2750
Wire Wire Line
	4150 2450 4300 2450
Wire Wire Line
	4150 2550 4300 2550
Connection ~ 4150 2450
Wire Wire Line
	4150 2650 4300 2650
Connection ~ 4150 2550
Wire Wire Line
	4150 2750 4300 2750
Connection ~ 4150 2650
$Comp
L C C201
U 1 1 5560C52B
P 1400 4400
F 0 "C201" H 1400 4500 40  0000 L CNN
F 1 "1u" H 1406 4315 40  0000 L CNN
F 2 "SM0603" H 1438 4250 30  0000 C CNN
F 3 "~" H 1400 4400 60  0000 C CNN
	1    1400 4400
	1    0    0    -1  
$EndComp
$Comp
L C C202
U 1 1 5560C53A
P 1650 4400
F 0 "C202" H 1650 4500 40  0000 L CNN
F 1 "0.01u" H 1656 4315 40  0000 L CNN
F 2 "SM0402" H 1688 4250 30  0000 C CNN
F 3 "~" H 1650 4400 60  0000 C CNN
	1    1650 4400
	1    0    0    -1  
$EndComp
Text Notes 1850 4400 0    60   ~ 0
Close to VDDA
$Comp
L GND #PWR020
U 1 1 5560C568
P 1400 4700
F 0 "#PWR020" H 1400 4700 30  0001 C CNN
F 1 "GND" H 1400 4630 30  0001 C CNN
F 2 "" H 1400 4700 60  0000 C CNN
F 3 "" H 1400 4700 60  0000 C CNN
	1    1400 4700
	1    0    0    -1  
$EndComp
Wire Wire Line
	1400 4600 1400 4700
Wire Wire Line
	1400 4650 1650 4650
Wire Wire Line
	1650 4650 1650 4600
Connection ~ 1400 4650
$Comp
L VDD #PWR021
U 1 1 5560C5AE
P 1400 4100
F 0 "#PWR021" H 1400 4200 30  0001 C CNN
F 1 "VDD" H 1400 4210 30  0000 C CNN
F 2 "" H 1400 4100 60  0000 C CNN
F 3 "" H 1400 4100 60  0000 C CNN
	1    1400 4100
	1    0    0    -1  
$EndComp
Wire Wire Line
	1400 4100 1400 4200
Wire Wire Line
	1400 4150 1650 4150
Wire Wire Line
	1650 4150 1650 4200
Connection ~ 1400 4150
$Comp
L C C204
U 1 1 5560C61F
P 1400 5300
F 0 "C204" H 1400 5400 40  0000 L CNN
F 1 "0.1u" H 1406 5215 40  0000 L CNN
F 2 "SM0402" H 1438 5150 30  0000 C CNN
F 3 "~" H 1400 5300 60  0000 C CNN
	1    1400 5300
	1    0    0    -1  
$EndComp
$Comp
L C C206
U 1 1 5560C642
P 1950 5300
F 0 "C206" H 1950 5400 40  0000 L CNN
F 1 "4.7u" H 1956 5215 40  0000 L CNN
F 2 "SM0805" H 1988 5150 30  0000 C CNN
F 3 "~" H 1950 5300 60  0000 C CNN
	1    1950 5300
	1    0    0    -1  
$EndComp
$Comp
L C C203
U 1 1 5560C654
P 1150 5300
F 0 "C203" H 1150 5400 40  0000 L CNN
F 1 "0.1u" H 1156 5215 40  0000 L CNN
F 2 "SM0402" H 1188 5150 30  0000 C CNN
F 3 "~" H 1150 5300 60  0000 C CNN
	1    1150 5300
	1    0    0    -1  
$EndComp
$Comp
L C C205
U 1 1 5560C65A
P 1650 5300
F 0 "C205" H 1650 5400 40  0000 L CNN
F 1 "0.1u" H 1656 5215 40  0000 L CNN
F 2 "SM0402" H 1688 5150 30  0000 C CNN
F 3 "~" H 1650 5300 60  0000 C CNN
	1    1650 5300
	1    0    0    -1  
$EndComp
$Comp
L GND #PWR022
U 1 1 5560C678
P 1150 5600
F 0 "#PWR022" H 1150 5600 30  0001 C CNN
F 1 "GND" H 1150 5530 30  0001 C CNN
F 2 "" H 1150 5600 60  0000 C CNN
F 3 "" H 1150 5600 60  0000 C CNN
	1    1150 5600
	1    0    0    -1  
$EndComp
Wire Wire Line
	1150 5500 1150 5600
Wire Wire Line
	1150 5550 1950 5550
Wire Wire Line
	1400 5550 1400 5500
Connection ~ 1150 5550
Wire Wire Line
	1650 5550 1650 5500
Connection ~ 1400 5550
Wire Wire Line
	1950 5550 1950 5500
Connection ~ 1650 5550
$Comp
L VDD #PWR023
U 1 1 5560C71E
P 1150 5000
F 0 "#PWR023" H 1150 5100 30  0001 C CNN
F 1 "VDD" H 1150 5110 30  0000 C CNN
F 2 "" H 1150 5000 60  0000 C CNN
F 3 "" H 1150 5000 60  0000 C CNN
	1    1150 5000
	1    0    0    -1  
$EndComp
Wire Wire Line
	1150 5000 1150 5100
Wire Wire Line
	1150 5050 1950 5050
Wire Wire Line
	1400 5050 1400 5100
Connection ~ 1150 5050
Wire Wire Line
	1650 5050 1650 5100
Connection ~ 1400 5050
Wire Wire Line
	1950 5050 1950 5100
Connection ~ 1650 5050
Text Notes 2100 5250 0    60   ~ 0
Each 0.1u close to VDD_x\n4.7u close to VDD_3
Text HLabel 6100 3450 2    60   Input ~ 0
CANRX
Text HLabel 6100 3550 2    60   Output ~ 0
CANTX
Text HLabel 6200 4300 2    60   Output ~ 0
POWER_EN
Text HLabel 6600 3050 2    60   Input ~ 0
POWER_GOOD
Text HLabel 6650 4200 2    60   Output ~ 0
PWM_0
Text HLabel 6600 2350 2    60   Output ~ 0
PWM_1
Text HLabel 6600 2450 2    60   Output ~ 0
PWM_2
Text HLabel 6600 4500 2    60   Output ~ 0
PWM_3
Text HLabel 6650 4100 2    60   Output ~ 0
PWM_4
Text HLabel 6600 4600 2    60   Output ~ 0
PWM_5
$Comp
L GND #PWR024
U 1 1 5564BB8A
P 4350 6700
F 0 "#PWR024" H 4350 6700 30  0001 C CNN
F 1 "GND" H 4350 6630 30  0001 C CNN
F 2 "" H 4350 6700 60  0000 C CNN
F 3 "" H 4350 6700 60  0000 C CNN
	1    4350 6700
	1    0    0    -1  
$EndComp
Wire Wire Line
	4250 6600 4350 6600
Wire Wire Line
	4350 6600 4350 6700
$Comp
L VDD #PWR025
U 1 1 5564BC34
P 4350 6000
F 0 "#PWR025" H 4350 6100 30  0001 C CNN
F 1 "VDD" H 4350 6110 30  0000 C CNN
F 2 "" H 4350 6000 60  0000 C CNN
F 3 "" H 4350 6000 60  0000 C CNN
	1    4350 6000
	1    0    0    -1  
$EndComp
Wire Wire Line
	4350 6000 4350 6100
Wire Wire Line
	4350 6100 4250 6100
Text Label 4350 6500 0    60   ~ 0
SWCLK
Text Label 4350 6400 0    60   ~ 0
SWDIO
Text Label 4350 6300 0    60   ~ 0
DBG_RX
Text Label 4350 6200 0    60   ~ 0
DBG_TX
Wire Wire Line
	4350 6200 4250 6200
Wire Wire Line
	4250 6300 4350 6300
Wire Wire Line
	4350 6400 4250 6400
Wire Wire Line
	4250 6500 4350 6500
$Comp
L LED D201
U 1 1 5564BD5E
P 8450 5100
F 0 "D201" H 8450 5200 50  0000 C CNN
F 1 "LED" H 8450 5000 50  0000 C CNN
F 2 "LED-0603" H 8450 4900 60  0000 C CNN
F 3 "~" H 8450 5100 60  0000 C CNN
	1    8450 5100
	0    1    1    0   
$EndComp
$Comp
L R R202
U 1 1 5564BD6D
P 8450 5650
F 0 "R202" V 8530 5650 40  0000 C CNN
F 1 "1k" V 8457 5651 40  0000 C CNN
F 2 "SM0402" V 8380 5650 30  0000 C CNN
F 3 "~" H 8450 5650 30  0000 C CNN
	1    8450 5650
	1    0    0    -1  
$EndComp
$Comp
L VDD #PWR026
U 1 1 5564BD7C
P 8450 4800
F 0 "#PWR026" H 8450 4900 30  0001 C CNN
F 1 "VDD" H 8450 4910 30  0000 C CNN
F 2 "" H 8450 4800 60  0000 C CNN
F 3 "" H 8450 4800 60  0000 C CNN
	1    8450 4800
	1    0    0    -1  
$EndComp
Wire Wire Line
	8450 4800 8450 4900
Wire Wire Line
	8450 5300 8450 5400
$Comp
L LED D202
U 1 1 5564BE00
P 8700 5100
F 0 "D202" H 8700 5200 50  0000 C CNN
F 1 "LED" H 8700 5000 50  0000 C CNN
F 2 "LED-0603" H 8700 5300 60  0000 C CNN
F 3 "~" H 8700 5100 60  0000 C CNN
	1    8700 5100
	0    1    1    0   
$EndComp
$Comp
L R R203
U 1 1 5564BE06
P 8700 5650
F 0 "R203" V 8780 5650 40  0000 C CNN
F 1 "1k" V 8707 5651 40  0000 C CNN
F 2 "SM0402" V 8630 5650 30  0000 C CNN
F 3 "~" H 8700 5650 30  0000 C CNN
	1    8700 5650
	1    0    0    -1  
$EndComp
$Comp
L VDD #PWR027
U 1 1 5564BE0C
P 8700 4800
F 0 "#PWR027" H 8700 4900 30  0001 C CNN
F 1 "VDD" H 8700 4910 30  0000 C CNN
F 2 "" H 8700 4800 60  0000 C CNN
F 3 "" H 8700 4800 60  0000 C CNN
	1    8700 4800
	1    0    0    -1  
$EndComp
Wire Wire Line
	8700 4800 8700 4900
Wire Wire Line
	8700 5300 8700 5400
Text Label 8450 6000 3    60   ~ 0
LED0
Text Label 8700 6000 3    60   ~ 0
LED1
Wire Wire Line
	8700 6000 8700 5900
Wire Wire Line
	8450 6000 8450 5900
Wire Wire Line
	6650 4200 6000 4200
Wire Wire Line
	6000 2950 6600 2950
Wire Wire Line
	6000 3050 6600 3050
Wire Wire Line
	6000 4100 6650 4100
Wire Wire Line
	6000 2350 6600 2350
Wire Wire Line
	6000 2450 6600 2450
Wire Wire Line
	6000 3850 6650 3850
Wire Wire Line
	6200 4300 6000 4300
Wire Wire Line
	6000 2850 6200 2850
Wire Wire Line
	6000 3150 6600 3150
Wire Wire Line
	6000 3250 6600 3250
Wire Wire Line
	6000 3350 6600 3350
Wire Wire Line
	6000 4400 6600 4400
Wire Wire Line
	6000 4500 6600 4500
Wire Wire Line
	6000 4600 6600 4600
Wire Wire Line
	4150 4600 4300 4600
Connection ~ 4150 4600
Text Label 6600 3350 0    60   ~ 0
LED0
Text Label 6600 3250 0    60   ~ 0
LED1
Wire Notes Line
	2850 7000 4750 7000
Wire Notes Line
	4750 7000 4750 5750
Wire Notes Line
	4750 5750 2850 5750
Text Notes 3750 6950 0    60   ~ 0
Prog & Debug
$Comp
L GND #PWR028
U 1 1 55783702
P 5850 6700
F 0 "#PWR028" H 5850 6700 30  0001 C CNN
F 1 "GND" H 5850 6630 30  0001 C CNN
F 2 "" H 5850 6700 60  0000 C CNN
F 3 "" H 5850 6700 60  0000 C CNN
	1    5850 6700
	1    0    0    -1  
$EndComp
Wire Wire Line
	5750 6600 5850 6600
Wire Wire Line
	5850 6600 5850 6700
$Comp
L VDD #PWR029
U 1 1 5578370A
P 5950 6500
F 0 "#PWR029" H 5950 6600 30  0001 C CNN
F 1 "VDD" H 5950 6610 30  0000 C CNN
F 2 "" H 5950 6500 60  0000 C CNN
F 3 "" H 5950 6500 60  0000 C CNN
	1    5950 6500
	0    1    1    0   
$EndComp
Wire Notes Line
	5150 7000 6650 7000
Text Notes 5250 6950 0    60   ~ 0
I2C/UART just in case
$Comp
L CONN_4 P202
U 1 1 55783729
P 5400 6450
F 0 "P202" V 5350 6450 50  0000 C CNN
F 1 "CONN_4" V 5450 6450 50  0000 C CNN
F 2 "PIN_ARRAY_2X2" H 5350 6750 60  0000 C CNN
F 3 "" H 5400 6450 60  0000 C CNN
	1    5400 6450
	-1   0    0    1   
$EndComp
Text Label 5750 6400 0    60   ~ 0
EXT_TX
Text Label 5750 6300 0    60   ~ 0
EXT_RX
$Comp
L R R204
U 1 1 5578382F
P 5850 6050
F 0 "R204" V 5930 6050 40  0000 C CNN
F 1 "2.2k" V 5857 6051 40  0000 C CNN
F 2 "SM0402" V 5780 6050 30  0000 C CNN
F 3 "~" H 5850 6050 30  0000 C CNN
	1    5850 6050
	0    -1   -1   0   
$EndComp
$Comp
L R R205
U 1 1 5578383E
P 5850 5850
F 0 "R205" V 5930 5850 40  0000 C CNN
F 1 "2.2k" V 5857 5851 40  0000 C CNN
F 2 "SM0402" V 5780 5850 30  0000 C CNN
F 3 "~" H 5850 5850 30  0000 C CNN
	1    5850 5850
	0    -1   -1   0   
$EndComp
$Comp
L VDD #PWR030
U 1 1 55783909
P 5550 5950
F 0 "#PWR030" H 5550 6050 30  0001 C CNN
F 1 "VDD" H 5550 6060 30  0000 C CNN
F 2 "" H 5550 5950 60  0000 C CNN
F 3 "" H 5550 5950 60  0000 C CNN
	1    5550 5950
	0    -1   -1   0   
$EndComp
Wire Wire Line
	5550 6050 5550 5850
Wire Wire Line
	5550 6050 5600 6050
Wire Wire Line
	5550 5850 5600 5850
Connection ~ 5550 5950
Wire Notes Line
	5150 7000 5150 5700
Wire Notes Line
	5150 5700 6650 5700
Wire Notes Line
	6650 5700 6650 7000
Wire Wire Line
	6100 5850 6300 5850
Wire Wire Line
	6300 5850 6300 6400
Wire Wire Line
	6300 6400 5750 6400
Wire Wire Line
	5750 6300 6200 6300
Wire Wire Line
	6200 6300 6200 6050
Wire Wire Line
	6200 6050 6100 6050
Wire Wire Line
	5950 6500 5750 6500
$Comp
L JTAGCON P201
U 1 1 55786B6C
P 3550 6350
F 0 "P201" H 4050 6000 60  0000 C CNN
F 1 "JTAGCON" H 3300 6750 60  0000 C CNN
F 2 "BM06B-SRSS-TB" H 3550 5950 60  0000 C CNN
F 3 "" H 4000 6550 60  0000 C CNN
	1    3550 6350
	1    0    0    -1  
$EndComp
Wire Notes Line
	2850 5750 2850 7000
$Comp
L GND #PWR031
U 1 1 55786BEA
P 3000 6700
F 0 "#PWR031" H 3000 6700 30  0001 C CNN
F 1 "GND" H 3000 6630 30  0001 C CNN
F 2 "" H 3000 6700 60  0000 C CNN
F 3 "" H 3000 6700 60  0000 C CNN
	1    3000 6700
	1    0    0    -1  
$EndComp
Wire Wire Line
	3000 6500 3000 6700
Wire Wire Line
	3000 6600 3050 6600
Wire Wire Line
	3000 6500 3050 6500
Connection ~ 3000 6600
$EndSCHEMATC
