M48
;DRILL file {KiCad 4.0.1-4.201602110846+6195~38~ubuntu15.10.1-stable} date lun. 15 févr. 2016 13:23:42 CET
;FORMAT={-:-/ absolute / metric / decimal}
FMAT,2
METRIC,TZ
T1C0.800
T2C1.016
%
G90
G05
M71
T1
X10.048Y11.5
X10.048Y8.96
X10.048Y6.42
X20.048Y8.96
X20.048Y6.42
T2
X4.714Y10.484
X4.714Y7.944
X39.512Y10.484
X39.512Y7.944
T0
M30
