G04 #@! TF.FileFunction,Copper,L2,Bot,Signal*
%FSLAX46Y46*%
G04 Gerber Fmt 4.6, Leading zero omitted, Abs format (unit mm)*
G04 Created by KiCad (PCBNEW 4.0.1-4.201602110846+6195~38~ubuntu15.10.1-stable) date lun. 15 févr. 2016 13:23:48 CET*
%MOMM*%
G01*
G04 APERTURE LIST*
%ADD10C,0.100000*%
%ADD11O,1.600000X1.600000*%
%ADD12R,2.032000X2.032000*%
%ADD13O,2.032000X2.032000*%
G04 APERTURE END LIST*
D10*
D11*
X10048000Y11500000D03*
X10048000Y8960000D03*
X10048000Y6420000D03*
X20048000Y6420000D03*
X20048000Y8960000D03*
D12*
X39512000Y10484000D03*
D13*
X39512000Y7944000D03*
D12*
X4714000Y10484000D03*
D13*
X4714000Y7944000D03*
D10*
G36*
X43775000Y225000D02*
X225000Y225000D01*
X225000Y6420000D01*
X8977429Y6420000D01*
X9057355Y6018182D01*
X9284967Y5677538D01*
X9625611Y5449926D01*
X10027429Y5370000D01*
X10068571Y5370000D01*
X10470389Y5449926D01*
X10811033Y5677538D01*
X11038645Y6018182D01*
X11118571Y6420000D01*
X18977429Y6420000D01*
X19057355Y6018182D01*
X19284967Y5677538D01*
X19625611Y5449926D01*
X20027429Y5370000D01*
X20068571Y5370000D01*
X20470389Y5449926D01*
X20811033Y5677538D01*
X21038645Y6018182D01*
X21118571Y6420000D01*
X21038645Y6821818D01*
X20811033Y7162462D01*
X20470389Y7390074D01*
X20068571Y7470000D01*
X20027429Y7470000D01*
X19625611Y7390074D01*
X19284967Y7162462D01*
X19057355Y6821818D01*
X18977429Y6420000D01*
X11118571Y6420000D01*
X11038645Y6821818D01*
X10811033Y7162462D01*
X10470389Y7390074D01*
X10068571Y7470000D01*
X10027429Y7470000D01*
X9625611Y7390074D01*
X9284967Y7162462D01*
X9057355Y6821818D01*
X8977429Y6420000D01*
X225000Y6420000D01*
X225000Y10184000D01*
X3198000Y10184000D01*
X3198000Y9368544D01*
X3274121Y9184773D01*
X3414773Y9044120D01*
X3598544Y8968000D01*
X3986769Y8968000D01*
X3794001Y8839197D01*
X3519567Y8428477D01*
X3423198Y7944000D01*
X3519567Y7459523D01*
X3794001Y7048803D01*
X4204721Y6774369D01*
X4689198Y6678000D01*
X4738802Y6678000D01*
X5223279Y6774369D01*
X5633999Y7048803D01*
X5908433Y7459523D01*
X6004802Y7944000D01*
X5908433Y8428477D01*
X5633999Y8839197D01*
X5453204Y8960000D01*
X8977429Y8960000D01*
X9057355Y8558182D01*
X9284967Y8217538D01*
X9625611Y7989926D01*
X10027429Y7910000D01*
X10068571Y7910000D01*
X10470389Y7989926D01*
X10811033Y8217538D01*
X11038645Y8558182D01*
X11044106Y8585641D01*
X18803069Y8585641D01*
X18902976Y8344403D01*
X19225714Y7953081D01*
X19673638Y7715053D01*
X19873000Y7796817D01*
X19873000Y8785000D01*
X20223000Y8785000D01*
X20223000Y7796817D01*
X20422362Y7715053D01*
X20870286Y7953081D01*
X21193024Y8344403D01*
X21292931Y8585641D01*
X21209895Y8785000D01*
X20223000Y8785000D01*
X19873000Y8785000D01*
X18886105Y8785000D01*
X18803069Y8585641D01*
X11044106Y8585641D01*
X11118571Y8960000D01*
X11044107Y9334359D01*
X18803069Y9334359D01*
X18886105Y9135000D01*
X19873000Y9135000D01*
X19873000Y10123183D01*
X20223000Y10123183D01*
X20223000Y9135000D01*
X21209895Y9135000D01*
X21292931Y9334359D01*
X21193024Y9575597D01*
X20870286Y9966919D01*
X20461781Y10184000D01*
X37996000Y10184000D01*
X37996000Y9368544D01*
X38072121Y9184773D01*
X38212773Y9044120D01*
X38396544Y8968000D01*
X38784769Y8968000D01*
X38592001Y8839197D01*
X38317567Y8428477D01*
X38221198Y7944000D01*
X38317567Y7459523D01*
X38592001Y7048803D01*
X39002721Y6774369D01*
X39487198Y6678000D01*
X39536802Y6678000D01*
X40021279Y6774369D01*
X40431999Y7048803D01*
X40706433Y7459523D01*
X40802802Y7944000D01*
X40706433Y8428477D01*
X40431999Y8839197D01*
X40239231Y8968000D01*
X40627456Y8968000D01*
X40811227Y9044120D01*
X40951879Y9184773D01*
X41028000Y9368544D01*
X41028000Y10184000D01*
X40903000Y10309000D01*
X39687000Y10309000D01*
X39687000Y10289000D01*
X39337000Y10289000D01*
X39337000Y10309000D01*
X38121000Y10309000D01*
X37996000Y10184000D01*
X20461781Y10184000D01*
X20422362Y10204947D01*
X20223000Y10123183D01*
X19873000Y10123183D01*
X19673638Y10204947D01*
X19225714Y9966919D01*
X18902976Y9575597D01*
X18803069Y9334359D01*
X11044107Y9334359D01*
X11038645Y9361818D01*
X10811033Y9702462D01*
X10470389Y9930074D01*
X10068571Y10010000D01*
X10027429Y10010000D01*
X9625611Y9930074D01*
X9284967Y9702462D01*
X9057355Y9361818D01*
X8977429Y8960000D01*
X5453204Y8960000D01*
X5441231Y8968000D01*
X5829456Y8968000D01*
X6013227Y9044120D01*
X6153879Y9184773D01*
X6230000Y9368544D01*
X6230000Y10184000D01*
X6105000Y10309000D01*
X4889000Y10309000D01*
X4889000Y10289000D01*
X4539000Y10289000D01*
X4539000Y10309000D01*
X3323000Y10309000D01*
X3198000Y10184000D01*
X225000Y10184000D01*
X225000Y11599456D01*
X3198000Y11599456D01*
X3198000Y10784000D01*
X3323000Y10659000D01*
X4539000Y10659000D01*
X4539000Y11875000D01*
X4889000Y11875000D01*
X4889000Y10659000D01*
X6105000Y10659000D01*
X6230000Y10784000D01*
X6230000Y11500000D01*
X8977429Y11500000D01*
X9057355Y11098182D01*
X9284967Y10757538D01*
X9625611Y10529926D01*
X10027429Y10450000D01*
X10068571Y10450000D01*
X10470389Y10529926D01*
X10811033Y10757538D01*
X11038645Y11098182D01*
X11118571Y11500000D01*
X11098789Y11599456D01*
X37996000Y11599456D01*
X37996000Y10784000D01*
X38121000Y10659000D01*
X39337000Y10659000D01*
X39337000Y11875000D01*
X39687000Y11875000D01*
X39687000Y10659000D01*
X40903000Y10659000D01*
X41028000Y10784000D01*
X41028000Y11599456D01*
X40951879Y11783227D01*
X40811227Y11923880D01*
X40627456Y12000000D01*
X39812000Y12000000D01*
X39687000Y11875000D01*
X39337000Y11875000D01*
X39212000Y12000000D01*
X38396544Y12000000D01*
X38212773Y11923880D01*
X38072121Y11783227D01*
X37996000Y11599456D01*
X11098789Y11599456D01*
X11038645Y11901818D01*
X10811033Y12242462D01*
X10470389Y12470074D01*
X10068571Y12550000D01*
X10027429Y12550000D01*
X9625611Y12470074D01*
X9284967Y12242462D01*
X9057355Y11901818D01*
X8977429Y11500000D01*
X6230000Y11500000D01*
X6230000Y11599456D01*
X6153879Y11783227D01*
X6013227Y11923880D01*
X5829456Y12000000D01*
X5014000Y12000000D01*
X4889000Y11875000D01*
X4539000Y11875000D01*
X4414000Y12000000D01*
X3598544Y12000000D01*
X3414773Y11923880D01*
X3274121Y11783227D01*
X3198000Y11599456D01*
X225000Y11599456D01*
X225000Y16775000D01*
X43775000Y16775000D01*
X43775000Y225000D01*
X43775000Y225000D01*
G37*
X43775000Y225000D02*
X225000Y225000D01*
X225000Y6420000D01*
X8977429Y6420000D01*
X9057355Y6018182D01*
X9284967Y5677538D01*
X9625611Y5449926D01*
X10027429Y5370000D01*
X10068571Y5370000D01*
X10470389Y5449926D01*
X10811033Y5677538D01*
X11038645Y6018182D01*
X11118571Y6420000D01*
X18977429Y6420000D01*
X19057355Y6018182D01*
X19284967Y5677538D01*
X19625611Y5449926D01*
X20027429Y5370000D01*
X20068571Y5370000D01*
X20470389Y5449926D01*
X20811033Y5677538D01*
X21038645Y6018182D01*
X21118571Y6420000D01*
X21038645Y6821818D01*
X20811033Y7162462D01*
X20470389Y7390074D01*
X20068571Y7470000D01*
X20027429Y7470000D01*
X19625611Y7390074D01*
X19284967Y7162462D01*
X19057355Y6821818D01*
X18977429Y6420000D01*
X11118571Y6420000D01*
X11038645Y6821818D01*
X10811033Y7162462D01*
X10470389Y7390074D01*
X10068571Y7470000D01*
X10027429Y7470000D01*
X9625611Y7390074D01*
X9284967Y7162462D01*
X9057355Y6821818D01*
X8977429Y6420000D01*
X225000Y6420000D01*
X225000Y10184000D01*
X3198000Y10184000D01*
X3198000Y9368544D01*
X3274121Y9184773D01*
X3414773Y9044120D01*
X3598544Y8968000D01*
X3986769Y8968000D01*
X3794001Y8839197D01*
X3519567Y8428477D01*
X3423198Y7944000D01*
X3519567Y7459523D01*
X3794001Y7048803D01*
X4204721Y6774369D01*
X4689198Y6678000D01*
X4738802Y6678000D01*
X5223279Y6774369D01*
X5633999Y7048803D01*
X5908433Y7459523D01*
X6004802Y7944000D01*
X5908433Y8428477D01*
X5633999Y8839197D01*
X5453204Y8960000D01*
X8977429Y8960000D01*
X9057355Y8558182D01*
X9284967Y8217538D01*
X9625611Y7989926D01*
X10027429Y7910000D01*
X10068571Y7910000D01*
X10470389Y7989926D01*
X10811033Y8217538D01*
X11038645Y8558182D01*
X11044106Y8585641D01*
X18803069Y8585641D01*
X18902976Y8344403D01*
X19225714Y7953081D01*
X19673638Y7715053D01*
X19873000Y7796817D01*
X19873000Y8785000D01*
X20223000Y8785000D01*
X20223000Y7796817D01*
X20422362Y7715053D01*
X20870286Y7953081D01*
X21193024Y8344403D01*
X21292931Y8585641D01*
X21209895Y8785000D01*
X20223000Y8785000D01*
X19873000Y8785000D01*
X18886105Y8785000D01*
X18803069Y8585641D01*
X11044106Y8585641D01*
X11118571Y8960000D01*
X11044107Y9334359D01*
X18803069Y9334359D01*
X18886105Y9135000D01*
X19873000Y9135000D01*
X19873000Y10123183D01*
X20223000Y10123183D01*
X20223000Y9135000D01*
X21209895Y9135000D01*
X21292931Y9334359D01*
X21193024Y9575597D01*
X20870286Y9966919D01*
X20461781Y10184000D01*
X37996000Y10184000D01*
X37996000Y9368544D01*
X38072121Y9184773D01*
X38212773Y9044120D01*
X38396544Y8968000D01*
X38784769Y8968000D01*
X38592001Y8839197D01*
X38317567Y8428477D01*
X38221198Y7944000D01*
X38317567Y7459523D01*
X38592001Y7048803D01*
X39002721Y6774369D01*
X39487198Y6678000D01*
X39536802Y6678000D01*
X40021279Y6774369D01*
X40431999Y7048803D01*
X40706433Y7459523D01*
X40802802Y7944000D01*
X40706433Y8428477D01*
X40431999Y8839197D01*
X40239231Y8968000D01*
X40627456Y8968000D01*
X40811227Y9044120D01*
X40951879Y9184773D01*
X41028000Y9368544D01*
X41028000Y10184000D01*
X40903000Y10309000D01*
X39687000Y10309000D01*
X39687000Y10289000D01*
X39337000Y10289000D01*
X39337000Y10309000D01*
X38121000Y10309000D01*
X37996000Y10184000D01*
X20461781Y10184000D01*
X20422362Y10204947D01*
X20223000Y10123183D01*
X19873000Y10123183D01*
X19673638Y10204947D01*
X19225714Y9966919D01*
X18902976Y9575597D01*
X18803069Y9334359D01*
X11044107Y9334359D01*
X11038645Y9361818D01*
X10811033Y9702462D01*
X10470389Y9930074D01*
X10068571Y10010000D01*
X10027429Y10010000D01*
X9625611Y9930074D01*
X9284967Y9702462D01*
X9057355Y9361818D01*
X8977429Y8960000D01*
X5453204Y8960000D01*
X5441231Y8968000D01*
X5829456Y8968000D01*
X6013227Y9044120D01*
X6153879Y9184773D01*
X6230000Y9368544D01*
X6230000Y10184000D01*
X6105000Y10309000D01*
X4889000Y10309000D01*
X4889000Y10289000D01*
X4539000Y10289000D01*
X4539000Y10309000D01*
X3323000Y10309000D01*
X3198000Y10184000D01*
X225000Y10184000D01*
X225000Y11599456D01*
X3198000Y11599456D01*
X3198000Y10784000D01*
X3323000Y10659000D01*
X4539000Y10659000D01*
X4539000Y11875000D01*
X4889000Y11875000D01*
X4889000Y10659000D01*
X6105000Y10659000D01*
X6230000Y10784000D01*
X6230000Y11500000D01*
X8977429Y11500000D01*
X9057355Y11098182D01*
X9284967Y10757538D01*
X9625611Y10529926D01*
X10027429Y10450000D01*
X10068571Y10450000D01*
X10470389Y10529926D01*
X10811033Y10757538D01*
X11038645Y11098182D01*
X11118571Y11500000D01*
X11098789Y11599456D01*
X37996000Y11599456D01*
X37996000Y10784000D01*
X38121000Y10659000D01*
X39337000Y10659000D01*
X39337000Y11875000D01*
X39687000Y11875000D01*
X39687000Y10659000D01*
X40903000Y10659000D01*
X41028000Y10784000D01*
X41028000Y11599456D01*
X40951879Y11783227D01*
X40811227Y11923880D01*
X40627456Y12000000D01*
X39812000Y12000000D01*
X39687000Y11875000D01*
X39337000Y11875000D01*
X39212000Y12000000D01*
X38396544Y12000000D01*
X38212773Y11923880D01*
X38072121Y11783227D01*
X37996000Y11599456D01*
X11098789Y11599456D01*
X11038645Y11901818D01*
X10811033Y12242462D01*
X10470389Y12470074D01*
X10068571Y12550000D01*
X10027429Y12550000D01*
X9625611Y12470074D01*
X9284967Y12242462D01*
X9057355Y11901818D01*
X8977429Y11500000D01*
X6230000Y11500000D01*
X6230000Y11599456D01*
X6153879Y11783227D01*
X6013227Y11923880D01*
X5829456Y12000000D01*
X5014000Y12000000D01*
X4889000Y11875000D01*
X4539000Y11875000D01*
X4414000Y12000000D01*
X3598544Y12000000D01*
X3414773Y11923880D01*
X3274121Y11783227D01*
X3198000Y11599456D01*
X225000Y11599456D01*
X225000Y16775000D01*
X43775000Y16775000D01*
X43775000Y225000D01*
M02*
