EESchema Schematic File Version 2
LIBS:foxRX-rescue
LIBS:power
LIBS:device
LIBS:transistors
LIBS:conn
LIBS:linear
LIBS:regul
LIBS:74xx
LIBS:cmos4000
LIBS:adc-dac
LIBS:memory
LIBS:xilinx
LIBS:microcontrollers
LIBS:dsp
LIBS:microchip
LIBS:analog_switches
LIBS:motorola
LIBS:texas
LIBS:intel
LIBS:audio
LIBS:interface
LIBS:digital-audio
LIBS:philips
LIBS:display
LIBS:cypress
LIBS:siliconi
LIBS:opto
LIBS:atmel
LIBS:contrib
LIBS:valves
LIBS:crap
LIBS:foxRX-cache
EELAYER 25 0
EELAYER END
$Descr A4 11693 8268
encoding utf-8
Sheet 3 3
Title ""
Date "17 may 2016"
Rev ""
Comp ""
Comment1 ""
Comment2 ""
Comment3 ""
Comment4 ""
$EndDescr
Wire Wire Line
	5950 4100 5950 4200
$Comp
L GND-RESCUE-foxRX #PWR032
U 1 1 573B91F3
P 5950 4200
F 0 "#PWR032" H 5950 4200 30  0001 C CNN
F 1 "GND" H 5950 4130 30  0001 C CNN
F 2 "" H 5950 4200 60  0000 C CNN
F 3 "" H 5950 4200 60  0000 C CNN
	1    5950 4200
	1    0    0    -1  
$EndComp
$Comp
L +3.3V-RESCUE-foxRX #PWR306
U 1 1 573B91F9
P 5950 3400
AR Path="/573B91F9" Ref="#PWR306"  Part="1" 
AR Path="/573B9151/573B91F9" Ref="#PWR033"  Part="1" 
F 0 "#PWR033" H 5950 3360 30  0001 C CNN
F 1 "+3.3V" H 5950 3510 30  0000 C CNN
F 2 "" H 5950 3400 60  0000 C CNN
F 3 "" H 5950 3400 60  0000 C CNN
	1    5950 3400
	1    0    0    -1  
$EndComp
Wire Wire Line
	6750 2700 6750 4150
Wire Wire Line
	6750 4650 6750 4750
Wire Wire Line
	6750 5250 6750 5300
Connection ~ 6750 4700
$Comp
L VCOM #PWR034
U 1 1 573B9203
P 6750 5300
F 0 "#PWR034" H 6750 5500 40  0001 C CNN
F 1 "VCOM" H 6750 5450 40  0000 C CNN
F 2 "" H 6750 5300 60  0000 C CNN
F 3 "" H 6750 5300 60  0000 C CNN
	1    6750 5300
	-1   0    0    1   
$EndComp
$Comp
L R-RESCUE-foxRX Z301
U 1 1 573B9209
P 4300 3700
F 0 "Z301" V 4380 3700 40  0000 C CNN
F 1 "Z" V 4307 3701 40  0000 C CNN
F 2 "Resistors_ThroughHole:Resistor_Horizontal_RM10mm" V 4230 3700 30  0000 C CNN
F 3 "~" H 4300 3700 30  0000 C CNN
	1    4300 3700
	0    -1   -1   0   
$EndComp
$Comp
L C-RESCUE-foxRX C301
U 1 1 573B920F
P 3350 4850
F 0 "C301" H 3350 4950 40  0000 L CNN
F 1 "C" H 3356 4765 40  0000 L CNN
F 2 "Capacitors_SMD:C_0603_HandSoldering" H 3388 4700 30  0000 C CNN
F 3 "~" H 3350 4850 60  0000 C CNN
	1    3350 4850
	-1   0    0    1   
$EndComp
$Comp
L C-RESCUE-foxRX C302
U 1 1 573B9215
P 3350 5350
F 0 "C302" H 3350 5450 40  0000 L CNN
F 1 "C" H 3356 5265 40  0000 L CNN
F 2 "Capacitors_SMD:C_0603_HandSoldering" H 3388 5200 30  0000 C CNN
F 3 "~" H 3350 5350 60  0000 C CNN
	1    3350 5350
	-1   0    0    1   
$EndComp
Wire Wire Line
	4650 2700 4650 3800
Wire Wire Line
	4550 3700 4750 3700
Connection ~ 4650 3700
Wire Wire Line
	5250 3700 5550 3700
Wire Wire Line
	5350 3700 5350 3800
Connection ~ 5350 3700
Wire Wire Line
	4650 4300 4650 4400
$Comp
L VCOM #PWR035
U 1 1 573B9222
P 4650 4400
F 0 "#PWR035" H 4650 4600 40  0001 C CNN
F 1 "VCOM" H 4650 4550 40  0000 C CNN
F 2 "" H 4650 4400 60  0000 C CNN
F 3 "" H 4650 4400 60  0000 C CNN
	1    4650 4400
	-1   0    0    1   
$EndComp
Connection ~ 6750 3800
Wire Wire Line
	6350 3800 7150 3800
Wire Wire Line
	4050 3700 3650 3700
Text HLabel 3650 3700 0    60   Input ~ 0
IN
Text HLabel 7150 3800 2    60   Output ~ 0
OUT
Wire Wire Line
	3350 4600 3350 4650
Wire Wire Line
	3350 5050 3350 5150
Wire Wire Line
	3350 5550 3350 5600
Wire Wire Line
	3350 5100 3400 5100
Connection ~ 3350 5100
$Comp
L VCOM #PWR036
U 1 1 573B9232
P 3400 5100
F 0 "#PWR036" H 3400 5300 40  0001 C CNN
F 1 "VCOM" H 3400 5250 40  0000 C CNN
F 2 "" H 3400 5100 60  0000 C CNN
F 3 "" H 3400 5100 60  0000 C CNN
	1    3400 5100
	0    1    1    0   
$EndComp
$Comp
L GND-RESCUE-foxRX #PWR037
U 1 1 573B9238
P 3350 5600
F 0 "#PWR037" H 3350 5600 30  0001 C CNN
F 1 "GND" H 3350 5530 30  0001 C CNN
F 2 "" H 3350 5600 60  0000 C CNN
F 3 "" H 3350 5600 60  0000 C CNN
	1    3350 5600
	1    0    0    -1  
$EndComp
$Comp
L +3.3V-RESCUE-foxRX #PWR301
U 1 1 573B923E
P 3350 4600
AR Path="/573B923E" Ref="#PWR301"  Part="1" 
AR Path="/573B9151/573B923E" Ref="#PWR038"  Part="1" 
F 0 "#PWR038" H 3350 4560 30  0001 C CNN
F 1 "+3.3V" H 3350 4710 30  0000 C CNN
F 2 "" H 3350 4600 60  0000 C CNN
F 3 "" H 3350 4600 60  0000 C CNN
	1    3350 4600
	1    0    0    -1  
$EndComp
$Comp
L R-RESCUE-foxRX Z303
U 1 1 573B9244
P 5000 3700
F 0 "Z303" V 5080 3700 40  0000 C CNN
F 1 "Z" V 5007 3701 40  0000 C CNN
F 2 "Resistors_ThroughHole:Resistor_Horizontal_RM10mm" V 4930 3700 30  0000 C CNN
F 3 "~" H 5000 3700 30  0000 C CNN
	1    5000 3700
	0    -1   -1   0   
$EndComp
$Comp
L R-RESCUE-foxRX Z307
U 1 1 573B924A
P 6750 5000
F 0 "Z307" V 6830 5000 40  0000 C CNN
F 1 "Z" V 6757 5001 40  0000 C CNN
F 2 "Resistors_ThroughHole:Resistor_Horizontal_RM10mm" V 6680 5000 30  0000 C CNN
F 3 "~" H 6750 5000 30  0000 C CNN
	1    6750 5000
	-1   0    0    1   
$EndComp
$Comp
L R-RESCUE-foxRX Z305
U 1 1 573B9250
P 5900 2700
F 0 "Z305" V 5980 2700 40  0000 C CNN
F 1 "Z" V 5907 2701 40  0000 C CNN
F 2 "Resistors_ThroughHole:Resistor_Horizontal_RM10mm" V 5830 2700 30  0000 C CNN
F 3 "~" H 5900 2700 30  0000 C CNN
	1    5900 2700
	0    -1   -1   0   
$EndComp
$Comp
L R-RESCUE-foxRX Z306
U 1 1 573B9256
P 6750 4400
F 0 "Z306" V 6830 4400 40  0000 C CNN
F 1 "Z" V 6757 4401 40  0000 C CNN
F 2 "Resistors_ThroughHole:Resistor_Horizontal_RM10mm" V 6680 4400 30  0000 C CNN
F 3 "~" H 6750 4400 30  0000 C CNN
	1    6750 4400
	-1   0    0    1   
$EndComp
Wire Wire Line
	6150 2700 6750 2700
$Comp
L R-RESCUE-foxRX Z304
U 1 1 573B925D
P 5350 4050
F 0 "Z304" V 5430 4050 40  0000 C CNN
F 1 "Z" V 5357 4051 40  0000 C CNN
F 2 "Resistors_ThroughHole:Resistor_Horizontal_RM10mm" V 5280 4050 30  0000 C CNN
F 3 "~" H 5350 4050 30  0000 C CNN
	1    5350 4050
	-1   0    0    1   
$EndComp
$Comp
L R-RESCUE-foxRX Z302
U 1 1 573B9263
P 4650 4050
F 0 "Z302" V 4730 4050 40  0000 C CNN
F 1 "Z" V 4657 4051 40  0000 C CNN
F 2 "Resistors_ThroughHole:Resistor_Horizontal_RM10mm" V 4580 4050 30  0000 C CNN
F 3 "~" H 4650 4050 30  0000 C CNN
	1    4650 4050
	-1   0    0    1   
$EndComp
Wire Wire Line
	5350 4300 5350 4400
$Comp
L VCOM #PWR039
U 1 1 573B926A
P 5350 4400
F 0 "#PWR039" H 5350 4600 40  0001 C CNN
F 1 "VCOM" H 5350 4550 40  0000 C CNN
F 2 "" H 5350 4400 60  0000 C CNN
F 3 "" H 5350 4400 60  0000 C CNN
	1    5350 4400
	-1   0    0    1   
$EndComp
$Comp
L AOP_SINGLE_8_PINS U301
U 1 1 573B9270
P 5950 3800
F 0 "U301" H 6050 3950 60  0000 C CNN
F 1 "AD8031" H 6250 3650 35  0000 C CNN
F 2 "Housings_DIP:DIP-8_W7.62mm" H 5950 3800 60  0000 C CNN
F 3 "~" H 5950 3800 60  0000 C CNN
	1    5950 3800
	1    0    0    -1  
$EndComp
Wire Wire Line
	5950 3400 5950 3500
Wire Wire Line
	5650 2700 4650 2700
Wire Wire Line
	5550 3900 5500 3900
Wire Wire Line
	5500 3900 5500 4700
Wire Wire Line
	5500 4700 6750 4700
$EndSCHEMATC
