EESchema Schematic File Version 2
LIBS:foxRX-rescue
LIBS:power
LIBS:device
LIBS:transistors
LIBS:conn
LIBS:linear
LIBS:regul
LIBS:74xx
LIBS:cmos4000
LIBS:adc-dac
LIBS:memory
LIBS:xilinx
LIBS:microcontrollers
LIBS:dsp
LIBS:microchip
LIBS:analog_switches
LIBS:motorola
LIBS:texas
LIBS:intel
LIBS:audio
LIBS:interface
LIBS:digital-audio
LIBS:philips
LIBS:display
LIBS:cypress
LIBS:siliconi
LIBS:opto
LIBS:atmel
LIBS:contrib
LIBS:valves
LIBS:crap
LIBS:foxRX-cache
EELAYER 25 0
EELAYER END
$Descr A4 11693 8268
encoding utf-8
Sheet 2 3
Title ""
Date "17 may 2016"
Rev ""
Comp ""
Comment1 ""
Comment2 ""
Comment3 ""
Comment4 ""
$EndDescr
Wire Wire Line
	6200 4300 6200 4400
$Comp
L GND-RESCUE-foxRX #PWR024
U 1 1 5739F72B
P 6200 4400
F 0 "#PWR024" H 6200 4400 30  0001 C CNN
F 1 "GND" H 6200 4330 30  0001 C CNN
F 2 "" H 6200 4400 60  0000 C CNN
F 3 "" H 6200 4400 60  0000 C CNN
	1    6200 4400
	1    0    0    -1  
$EndComp
$Comp
L +3.3V-RESCUE-foxRX #PWR206
U 1 1 5739F731
P 6200 3600
AR Path="/5739F731" Ref="#PWR206"  Part="1" 
AR Path="/5739F66D/5739F731" Ref="#PWR025"  Part="1" 
F 0 "#PWR025" H 6200 3560 30  0001 C CNN
F 1 "+3.3V" H 6200 3710 30  0000 C CNN
F 2 "" H 6200 3600 60  0000 C CNN
F 3 "" H 6200 3600 60  0000 C CNN
	1    6200 3600
	1    0    0    -1  
$EndComp
Wire Wire Line
	7000 2900 7000 4350
Wire Wire Line
	7000 4850 7000 4950
Wire Wire Line
	7000 5450 7000 5500
Connection ~ 7000 4900
$Comp
L VCOM #PWR026
U 1 1 5739F753
P 7000 5500
F 0 "#PWR026" H 7000 5700 40  0001 C CNN
F 1 "VCOM" H 7000 5650 40  0000 C CNN
F 2 "" H 7000 5500 60  0000 C CNN
F 3 "" H 7000 5500 60  0000 C CNN
	1    7000 5500
	-1   0    0    1   
$EndComp
$Comp
L R-RESCUE-foxRX Z201
U 1 1 5739F759
P 4550 3900
F 0 "Z201" V 4630 3900 40  0000 C CNN
F 1 "Z" V 4557 3901 40  0000 C CNN
F 2 "Resistors_ThroughHole:Resistor_Horizontal_RM10mm" V 4480 3900 30  0000 C CNN
F 3 "~" H 4550 3900 30  0000 C CNN
	1    4550 3900
	0    -1   -1   0   
$EndComp
$Comp
L C-RESCUE-foxRX C202
U 1 1 5739F765
P 3600 5050
F 0 "C202" H 3600 5150 40  0000 L CNN
F 1 "C" H 3606 4965 40  0000 L CNN
F 2 "Capacitors_SMD:C_0603_HandSoldering" H 3638 4900 30  0000 C CNN
F 3 "~" H 3600 5050 60  0000 C CNN
	1    3600 5050
	-1   0    0    1   
$EndComp
$Comp
L C-RESCUE-foxRX C201
U 1 1 5739F76B
P 3600 5550
F 0 "C201" H 3600 5650 40  0000 L CNN
F 1 "C" H 3606 5465 40  0000 L CNN
F 2 "Capacitors_SMD:C_0603_HandSoldering" H 3638 5400 30  0000 C CNN
F 3 "~" H 3600 5550 60  0000 C CNN
	1    3600 5550
	-1   0    0    1   
$EndComp
Wire Wire Line
	4900 2900 4900 4000
Wire Wire Line
	4800 3900 5000 3900
Connection ~ 4900 3900
Wire Wire Line
	5500 3900 5800 3900
Wire Wire Line
	5600 3900 5600 4000
Connection ~ 5600 3900
Wire Wire Line
	4900 4500 4900 4600
$Comp
L VCOM #PWR027
U 1 1 5739F779
P 4900 4600
F 0 "#PWR027" H 4900 4800 40  0001 C CNN
F 1 "VCOM" H 4900 4750 40  0000 C CNN
F 2 "" H 4900 4600 60  0000 C CNN
F 3 "" H 4900 4600 60  0000 C CNN
	1    4900 4600
	-1   0    0    1   
$EndComp
Connection ~ 7000 4000
Wire Wire Line
	6600 4000 7400 4000
Wire Wire Line
	4300 3900 3900 3900
Text HLabel 3900 3900 0    60   Input ~ 0
IN
Text HLabel 7400 4000 2    60   Output ~ 0
OUT
Wire Wire Line
	3600 4800 3600 4850
Wire Wire Line
	3600 5250 3600 5350
Wire Wire Line
	3600 5750 3600 5800
Wire Wire Line
	3600 5300 3650 5300
Connection ~ 3600 5300
$Comp
L VCOM #PWR028
U 1 1 573A25FD
P 3650 5300
F 0 "#PWR028" H 3650 5500 40  0001 C CNN
F 1 "VCOM" H 3650 5450 40  0000 C CNN
F 2 "" H 3650 5300 60  0000 C CNN
F 3 "" H 3650 5300 60  0000 C CNN
	1    3650 5300
	0    1    1    0   
$EndComp
$Comp
L GND-RESCUE-foxRX #PWR029
U 1 1 573A2603
P 3600 5800
F 0 "#PWR029" H 3600 5800 30  0001 C CNN
F 1 "GND" H 3600 5730 30  0001 C CNN
F 2 "" H 3600 5800 60  0000 C CNN
F 3 "" H 3600 5800 60  0000 C CNN
	1    3600 5800
	1    0    0    -1  
$EndComp
$Comp
L +3.3V-RESCUE-foxRX #PWR201
U 1 1 573A2609
P 3600 4800
AR Path="/573A2609" Ref="#PWR201"  Part="1" 
AR Path="/5739F66D/573A2609" Ref="#PWR030"  Part="1" 
F 0 "#PWR030" H 3600 4760 30  0001 C CNN
F 1 "+3.3V" H 3600 4910 30  0000 C CNN
F 2 "" H 3600 4800 60  0000 C CNN
F 3 "" H 3600 4800 60  0000 C CNN
	1    3600 4800
	1    0    0    -1  
$EndComp
$Comp
L R-RESCUE-foxRX Z203
U 1 1 573B7925
P 5250 3900
F 0 "Z203" V 5330 3900 40  0000 C CNN
F 1 "Z" V 5257 3901 40  0000 C CNN
F 2 "Resistors_ThroughHole:Resistor_Horizontal_RM10mm" V 5180 3900 30  0000 C CNN
F 3 "~" H 5250 3900 30  0000 C CNN
	1    5250 3900
	0    -1   -1   0   
$EndComp
$Comp
L R-RESCUE-foxRX Z207
U 1 1 573B792B
P 7000 5200
F 0 "Z207" V 7080 5200 40  0000 C CNN
F 1 "Z" V 7007 5201 40  0000 C CNN
F 2 "Resistors_ThroughHole:Resistor_Horizontal_RM10mm" V 6930 5200 30  0000 C CNN
F 3 "~" H 7000 5200 30  0000 C CNN
	1    7000 5200
	-1   0    0    1   
$EndComp
$Comp
L R-RESCUE-foxRX Z205
U 1 1 573B7931
P 6150 2900
F 0 "Z205" V 6230 2900 40  0000 C CNN
F 1 "Z" V 6157 2901 40  0000 C CNN
F 2 "Resistors_ThroughHole:Resistor_Horizontal_RM10mm" V 6080 2900 30  0000 C CNN
F 3 "~" H 6150 2900 30  0000 C CNN
	1    6150 2900
	0    -1   -1   0   
$EndComp
$Comp
L R-RESCUE-foxRX Z206
U 1 1 573B7937
P 7000 4600
F 0 "Z206" V 7080 4600 40  0000 C CNN
F 1 "Z" V 7007 4601 40  0000 C CNN
F 2 "Resistors_ThroughHole:Resistor_Horizontal_RM10mm" V 6930 4600 30  0000 C CNN
F 3 "~" H 7000 4600 30  0000 C CNN
	1    7000 4600
	-1   0    0    1   
$EndComp
Wire Wire Line
	6400 2900 7000 2900
$Comp
L R-RESCUE-foxRX Z204
U 1 1 573B7963
P 5600 4250
F 0 "Z204" V 5680 4250 40  0000 C CNN
F 1 "Z" V 5607 4251 40  0000 C CNN
F 2 "Resistors_ThroughHole:Resistor_Horizontal_RM10mm" V 5530 4250 30  0000 C CNN
F 3 "~" H 5600 4250 30  0000 C CNN
	1    5600 4250
	-1   0    0    1   
$EndComp
$Comp
L R-RESCUE-foxRX Z202
U 1 1 573B7973
P 4900 4250
F 0 "Z202" V 4980 4250 40  0000 C CNN
F 1 "Z" V 4907 4251 40  0000 C CNN
F 2 "Resistors_ThroughHole:Resistor_Horizontal_RM10mm" V 4830 4250 30  0000 C CNN
F 3 "~" H 4900 4250 30  0000 C CNN
	1    4900 4250
	-1   0    0    1   
$EndComp
Wire Wire Line
	5600 4500 5600 4600
$Comp
L VCOM #PWR031
U 1 1 573B79B4
P 5600 4600
F 0 "#PWR031" H 5600 4800 40  0001 C CNN
F 1 "VCOM" H 5600 4750 40  0000 C CNN
F 2 "" H 5600 4600 60  0000 C CNN
F 3 "" H 5600 4600 60  0000 C CNN
	1    5600 4600
	-1   0    0    1   
$EndComp
$Comp
L AOP_SINGLE_8_PINS U201
U 1 1 573B868B
P 6200 4000
F 0 "U201" H 6300 4150 60  0000 C CNN
F 1 "AD8031" H 6500 3850 35  0000 C CNN
F 2 "Housings_DIP:DIP-8_W7.62mm" H 6200 4000 60  0000 C CNN
F 3 "~" H 6200 4000 60  0000 C CNN
	1    6200 4000
	1    0    0    -1  
$EndComp
Wire Wire Line
	6200 3600 6200 3700
Wire Wire Line
	5900 2900 4900 2900
Wire Wire Line
	5800 4100 5750 4100
Wire Wire Line
	5750 4100 5750 4900
Wire Wire Line
	5750 4900 7000 4900
$EndSCHEMATC
