EESchema Schematic File Version 2
LIBS:foxRX-rescue
LIBS:power
LIBS:device
LIBS:transistors
LIBS:conn
LIBS:linear
LIBS:regul
LIBS:74xx
LIBS:cmos4000
LIBS:adc-dac
LIBS:memory
LIBS:xilinx
LIBS:microcontrollers
LIBS:dsp
LIBS:microchip
LIBS:analog_switches
LIBS:motorola
LIBS:texas
LIBS:intel
LIBS:audio
LIBS:interface
LIBS:digital-audio
LIBS:philips
LIBS:display
LIBS:cypress
LIBS:siliconi
LIBS:opto
LIBS:atmel
LIBS:contrib
LIBS:valves
LIBS:crap
LIBS:foxRX-cache
EELAYER 25 0
EELAYER END
$Descr A4 11693 8268
encoding utf-8
Sheet 1 3
Title ""
Date "17 may 2016"
Rev ""
Comp ""
Comment1 ""
Comment2 ""
Comment3 ""
Comment4 ""
$EndDescr
Wire Wire Line
	2050 2150 2050 2250
$Comp
L GND-RESCUE-foxRX #PWR01
U 1 1 5739ED50
P 2050 2250
F 0 "#PWR01" H 2050 2250 30  0001 C CNN
F 1 "GND" H 2050 2180 30  0001 C CNN
F 2 "" H 2050 2250 60  0000 C CNN
F 3 "" H 2050 2250 60  0000 C CNN
	1    2050 2250
	1    0    0    -1  
$EndComp
$Comp
L +3.3V-RESCUE-foxRX #PWR02
U 1 1 5739ED56
P 2050 1450
F 0 "#PWR02" H 2050 1410 30  0001 C CNN
F 1 "+3.3V" H 2050 1560 30  0000 C CNN
F 2 "" H 2050 1450 60  0000 C CNN
F 3 "" H 2050 1450 60  0000 C CNN
	1    2050 1450
	1    0    0    -1  
$EndComp
Wire Wire Line
	2050 1450 2050 1550
Connection ~ 2050 1500
Wire Wire Line
	2450 1850 3150 1850
Wire Wire Line
	2850 1850 2850 2800
Connection ~ 2850 1850
$Comp
L VCOM #PWR03
U 1 1 5739ED90
P 3150 1850
F 0 "#PWR03" H 3150 2050 40  0001 C CNN
F 1 "VCOM" H 3150 2000 40  0000 C CNN
F 2 "" H 3150 1850 60  0000 C CNN
F 3 "" H 3150 1850 60  0000 C CNN
	1    3150 1850
	1    0    0    -1  
$EndComp
$Comp
L R-RESCUE-foxRX R101
U 1 1 5739ED9D
P 1350 1450
F 0 "R101" V 1430 1450 40  0000 C CNN
F 1 "10k" V 1357 1451 40  0000 C CNN
F 2 "Resistors_SMD:R_0603_HandSoldering" V 1280 1450 30  0000 C CNN
F 3 "~" H 1350 1450 30  0000 C CNN
	1    1350 1450
	-1   0    0    1   
$EndComp
$Comp
L R-RESCUE-foxRX R102
U 1 1 5739EDA3
P 1350 2050
F 0 "R102" V 1430 2050 40  0000 C CNN
F 1 "10k" V 1357 2051 40  0000 C CNN
F 2 "Resistors_SMD:R_0603_HandSoldering" V 1280 2050 30  0000 C CNN
F 3 "~" H 1350 2050 30  0000 C CNN
	1    1350 2050
	-1   0    0    1   
$EndComp
Wire Wire Line
	1650 1750 1350 1750
Wire Wire Line
	1350 1700 1350 1800
Connection ~ 1350 1750
Wire Wire Line
	1350 2300 1350 2350
Wire Wire Line
	1350 1200 1350 1150
$Comp
L +3.3V-RESCUE-foxRX #PWR04
U 1 1 5739EDFC
P 1350 1150
F 0 "#PWR04" H 1350 1110 30  0001 C CNN
F 1 "+3.3V" H 1350 1260 30  0000 C CNN
F 2 "" H 1350 1150 60  0000 C CNN
F 3 "" H 1350 1150 60  0000 C CNN
	1    1350 1150
	1    0    0    -1  
$EndComp
$Comp
L GND-RESCUE-foxRX #PWR05
U 1 1 5739EE02
P 1350 2350
F 0 "#PWR05" H 1350 2350 30  0001 C CNN
F 1 "GND" H 1350 2280 30  0001 C CNN
F 2 "" H 1350 2350 60  0000 C CNN
F 3 "" H 1350 2350 60  0000 C CNN
	1    1350 2350
	1    0    0    -1  
$EndComp
Wire Wire Line
	2600 5200 2600 5300
$Comp
L GND-RESCUE-foxRX #PWR06
U 1 1 5739EE41
P 2600 5300
F 0 "#PWR06" H 2600 5300 30  0001 C CNN
F 1 "GND" H 2600 5230 30  0001 C CNN
F 2 "" H 2600 5300 60  0000 C CNN
F 3 "" H 2600 5300 60  0000 C CNN
	1    2600 5300
	1    0    0    -1  
$EndComp
$Comp
L +3.3V-RESCUE-foxRX #PWR07
U 1 1 5739EE47
P 2600 4500
F 0 "#PWR07" H 2600 4460 30  0001 C CNN
F 1 "+3.3V" H 2600 4610 30  0000 C CNN
F 2 "" H 2600 4500 60  0000 C CNN
F 3 "" H 2600 4500 60  0000 C CNN
	1    2600 4500
	1    0    0    -1  
$EndComp
Wire Wire Line
	2600 4500 2600 4600
Connection ~ 2600 4550
$Comp
L CONN_2 P101
U 1 1 5739EE65
P 1100 4900
F 0 "P101" V 1050 4900 40  0000 C CNN
F 1 "CONN_2" V 1150 4900 40  0000 C CNN
F 2 "Pin_Headers:Pin_Header_Straight_1x02" H 1100 4900 60  0001 C CNN
F 3 "" H 1100 4900 60  0000 C CNN
	1    1100 4900
	-1   0    0    1   
$EndComp
$Comp
L R-RESCUE-foxRX R105
U 1 1 5739EE74
P 3400 6100
F 0 "R105" V 3480 6100 40  0000 C CNN
F 1 "R" V 3407 6101 40  0000 C CNN
F 2 "Resistors_ThroughHole:Resistor_Horizontal_RM10mm" V 3330 6100 30  0000 C CNN
F 3 "~" H 3400 6100 30  0000 C CNN
	1    3400 6100
	1    0    0    -1  
$EndComp
$Comp
L R-RESCUE-foxRX R104
U 1 1 5739EE95
P 3400 5450
F 0 "R104" V 3480 5450 40  0000 C CNN
F 1 "R" V 3407 5451 40  0000 C CNN
F 2 "Resistors_ThroughHole:Resistor_Horizontal_RM10mm" V 3330 5450 30  0000 C CNN
F 3 "~" H 3400 5450 30  0000 C CNN
	1    3400 5450
	-1   0    0    1   
$EndComp
Wire Wire Line
	1450 5000 1550 5000
Wire Wire Line
	3400 6350 3400 6450
$Comp
L VCOM #PWR08
U 1 1 5739EF76
P 1550 5000
F 0 "#PWR08" H 1550 5200 40  0001 C CNN
F 1 "VCOM" H 1550 5150 40  0000 C CNN
F 2 "" H 1550 5000 60  0000 C CNN
F 3 "" H 1550 5000 60  0000 C CNN
	1    1550 5000
	1    0    0    -1  
$EndComp
$Comp
L VCOM #PWR09
U 1 1 5739EF7C
P 3400 6450
F 0 "#PWR09" H 3400 6650 40  0001 C CNN
F 1 "VCOM" H 3400 6600 40  0000 C CNN
F 2 "" H 3400 6450 60  0000 C CNN
F 3 "" H 3400 6450 60  0000 C CNN
	1    3400 6450
	-1   0    0    1   
$EndComp
Wire Wire Line
	1450 4800 2200 4800
Wire Wire Line
	3400 4900 3400 5200
Wire Wire Line
	3400 5700 3400 5850
Wire Wire Line
	1850 5800 3400 5800
Wire Wire Line
	1850 5000 1850 5800
Connection ~ 3400 5800
Connection ~ 3400 4900
$Comp
L FOXTEST P102
U 1 1 5739F65A
P 9150 2300
F 0 "P102" H 9300 1200 60  0000 C CNN
F 1 "FOXTEST" H 9150 1900 60  0000 C CNN
F 2 "crap:FOXTEST" H 9300 1850 60  0000 C CNN
F 3 "~" H 9300 1850 60  0000 C CNN
	1    9150 2300
	1    0    0    -1  
$EndComp
$Sheet
S 3800 4750 700  250 
U 5739F66D
F0 "ampli2" 50
F1 "ampli2.sch" 50
F2 "IN" I L 3800 4900 60 
F3 "OUT" O R 4500 4900 60 
$EndSheet
Wire Wire Line
	3000 4900 3800 4900
Wire Wire Line
	9150 3550 9150 3650
Wire Wire Line
	9300 1050 9300 900 
$Comp
L GND-RESCUE-foxRX #PWR010
U 1 1 573A059B
P 9150 3650
F 0 "#PWR010" H 9150 3650 30  0001 C CNN
F 1 "GND" H 9150 3580 30  0001 C CNN
F 2 "" H 9150 3650 60  0000 C CNN
F 3 "" H 9150 3650 60  0000 C CNN
	1    9150 3650
	1    0    0    -1  
$EndComp
$Comp
L +3.3V-RESCUE-foxRX #PWR011
U 1 1 573A05AA
P 9300 900
F 0 "#PWR011" H 9300 860 30  0001 C CNN
F 1 "+3.3V" H 9300 1010 30  0000 C CNN
F 2 "" H 9300 900 60  0000 C CNN
F 3 "" H 9300 900 60  0000 C CNN
	1    9300 900 
	1    0    0    -1  
$EndComp
Wire Wire Line
	9800 1600 9950 1600
Wire Wire Line
	9800 1700 9950 1700
Wire Wire Line
	9800 1800 9950 1800
Text Label 9950 1700 0    60   ~ 0
STAGE1
Text Label 9950 1800 0    60   ~ 0
STAGE2
Text Label 3450 4900 0    60   ~ 0
STAGE1
Wire Wire Line
	4500 4900 5000 4900
Text Label 4600 4900 0    60   ~ 0
STAGE2
NoConn ~ 9000 1050
NoConn ~ 8550 1700
NoConn ~ 8550 1800
NoConn ~ 8550 2300
NoConn ~ 9800 3200
NoConn ~ 9800 3100
NoConn ~ 9800 2900
NoConn ~ 9800 2800
NoConn ~ 9800 2600
NoConn ~ 9800 2500
NoConn ~ 9800 2400
NoConn ~ 9800 2300
NoConn ~ 9800 2100
$Comp
L C-RESCUE-foxRX C101
U 1 1 573A085F
P 750 1650
F 0 "C101" H 750 1750 40  0000 L CNN
F 1 "10u" H 756 1565 40  0000 L CNN
F 2 "Capacitors_SMD:C_0805_HandSoldering" H 788 1500 30  0000 C CNN
F 3 "~" H 750 1650 60  0000 C CNN
	1    750  1650
	1    0    0    -1  
$EndComp
Wire Wire Line
	750  1450 750  1400
Wire Wire Line
	750  1850 750  1900
$Comp
L GND-RESCUE-foxRX #PWR012
U 1 1 573A0B20
P 750 1900
F 0 "#PWR012" H 750 1900 30  0001 C CNN
F 1 "GND" H 750 1830 30  0001 C CNN
F 2 "" H 750 1900 60  0000 C CNN
F 3 "" H 750 1900 60  0000 C CNN
	1    750  1900
	1    0    0    -1  
$EndComp
$Comp
L +3.3V-RESCUE-foxRX #PWR013
U 1 1 573A0B26
P 750 1400
F 0 "#PWR013" H 750 1360 30  0001 C CNN
F 1 "+3.3V" H 750 1510 30  0000 C CNN
F 2 "" H 750 1400 60  0000 C CNN
F 3 "" H 750 1400 60  0000 C CNN
	1    750  1400
	1    0    0    -1  
$EndComp
$Comp
L C-RESCUE-foxRX C102
U 1 1 573A0CA2
P 3600 2150
F 0 "C102" H 3600 2250 40  0000 L CNN
F 1 "10u" H 3606 2065 40  0000 L CNN
F 2 "Capacitors_SMD:C_0805_HandSoldering" H 3638 2000 30  0000 C CNN
F 3 "~" H 3600 2150 60  0000 C CNN
	1    3600 2150
	1    0    0    -1  
$EndComp
$Comp
L AOP_SINGLE_8_PINS U102
U 1 1 573B87F8
P 2600 4900
F 0 "U102" H 2700 5050 60  0000 C CNN
F 1 "AD8031" H 2900 4750 35  0000 C CNN
F 2 "Housings_DIP:DIP-8_W7.62mm" H 2600 4900 60  0000 C CNN
F 3 "~" H 2600 4900 60  0000 C CNN
	1    2600 4900
	1    0    0    -1  
$EndComp
Wire Wire Line
	2200 5000 1850 5000
$Comp
L AOP_SINGLE_8_PINS U101
U 1 1 573B88F7
P 2050 1850
F 0 "U101" H 2150 2000 60  0000 C CNN
F 1 "AD8031" H 2350 1700 35  0000 C CNN
F 2 "Housings_DIP:DIP-8_W7.62mm" H 2050 1850 60  0000 C CNN
F 3 "~" H 2050 1850 60  0000 C CNN
	1    2050 1850
	1    0    0    -1  
$EndComp
Wire Wire Line
	1650 1950 1550 1950
Wire Wire Line
	1550 1950 1550 2800
Wire Wire Line
	3600 1950 3600 1850
Wire Wire Line
	3600 2350 3600 2450
$Comp
L VCOM #PWR014
U 1 1 573B8AB7
P 3600 1850
F 0 "#PWR014" H 3600 2050 40  0001 C CNN
F 1 "VCOM" H 3600 2000 40  0000 C CNN
F 2 "" H 3600 1850 60  0000 C CNN
F 3 "" H 3600 1850 60  0000 C CNN
	1    3600 1850
	1    0    0    -1  
$EndComp
$Comp
L GND-RESCUE-foxRX #PWR015
U 1 1 573B8ABD
P 3600 2450
F 0 "#PWR015" H 3600 2450 30  0001 C CNN
F 1 "GND" H 3600 2380 30  0001 C CNN
F 2 "" H 3600 2450 60  0000 C CNN
F 3 "" H 3600 2450 60  0000 C CNN
	1    3600 2450
	1    0    0    -1  
$EndComp
$Comp
L R-RESCUE-foxRX R103
U 1 1 573B8B89
P 2250 2800
F 0 "R103" V 2330 2800 40  0000 C CNN
F 1 "5k" V 2257 2801 40  0000 C CNN
F 2 "Resistors_SMD:R_0603_HandSoldering" V 2180 2800 30  0000 C CNN
F 3 "~" H 2250 2800 30  0000 C CNN
	1    2250 2800
	0    -1   -1   0   
$EndComp
Wire Wire Line
	1550 2800 2000 2800
Wire Wire Line
	2850 2800 2500 2800
$Sheet
S 5000 4750 700  250 
U 573B9151
F0 "ampli3" 50
F1 "ampli3sch.sch" 50
F2 "IN" I L 5000 4900 60 
F3 "OUT" O R 5700 4900 60 
$EndSheet
Wire Wire Line
	5700 4900 5950 4900
Text Label 5950 4900 0    60   ~ 0
STAGE3
$Comp
L C-RESCUE-foxRX C103
U 1 1 573B943A
P 4150 5700
F 0 "C103" H 4150 5800 40  0000 L CNN
F 1 "C" H 4156 5615 40  0000 L CNN
F 2 "Capacitors_SMD:C_0603_HandSoldering" H 4188 5550 30  0000 C CNN
F 3 "~" H 4150 5700 60  0000 C CNN
	1    4150 5700
	-1   0    0    1   
$EndComp
$Comp
L C-RESCUE-foxRX C104
U 1 1 573B9440
P 4150 6200
F 0 "C104" H 4150 6300 40  0000 L CNN
F 1 "C" H 4156 6115 40  0000 L CNN
F 2 "Capacitors_SMD:C_0603_HandSoldering" H 4188 6050 30  0000 C CNN
F 3 "~" H 4150 6200 60  0000 C CNN
	1    4150 6200
	-1   0    0    1   
$EndComp
Wire Wire Line
	4150 5450 4150 5500
Wire Wire Line
	4150 5900 4150 6000
Wire Wire Line
	4150 6400 4150 6450
Wire Wire Line
	4150 5950 4200 5950
Connection ~ 4150 5950
$Comp
L VCOM #PWR016
U 1 1 573B944B
P 4200 5950
F 0 "#PWR016" H 4200 6150 40  0001 C CNN
F 1 "VCOM" H 4200 6100 40  0000 C CNN
F 2 "" H 4200 5950 60  0000 C CNN
F 3 "" H 4200 5950 60  0000 C CNN
	1    4200 5950
	0    1    1    0   
$EndComp
$Comp
L GND-RESCUE-foxRX #PWR017
U 1 1 573B9451
P 4150 6450
F 0 "#PWR017" H 4150 6450 30  0001 C CNN
F 1 "GND" H 4150 6380 30  0001 C CNN
F 2 "" H 4150 6450 60  0000 C CNN
F 3 "" H 4150 6450 60  0000 C CNN
	1    4150 6450
	1    0    0    -1  
$EndComp
$Comp
L +3.3V-RESCUE-foxRX #PWR018
U 1 1 573B9457
P 4150 5450
F 0 "#PWR018" H 4150 5410 30  0001 C CNN
F 1 "+3.3V" H 4150 5560 30  0000 C CNN
F 2 "" H 4150 5450 60  0000 C CNN
F 3 "" H 4150 5450 60  0000 C CNN
	1    4150 5450
	1    0    0    -1  
$EndComp
Text Label 9950 1600 0    60   ~ 0
STAGE3
$Comp
L R-RESCUE-foxRX S101
U 1 1 573B9E70
P 6700 1950
F 0 "S101" V 6780 1950 40  0000 C CNN
F 1 "0" V 6707 1951 40  0000 C CNN
F 2 "Resistors_ThroughHole:Resistor_Horizontal_RM7mm" V 6630 1950 30  0000 C CNN
F 3 "~" H 6700 1950 30  0000 C CNN
	1    6700 1950
	1    0    0    -1  
$EndComp
$Comp
L R-RESCUE-foxRX S102
U 1 1 573B9EA1
P 6850 1950
F 0 "S102" V 6930 1950 40  0000 C CNN
F 1 "0" V 6857 1951 40  0000 C CNN
F 2 "Resistors_ThroughHole:Resistor_Horizontal_RM7mm" V 6780 1950 30  0000 C CNN
F 3 "~" H 6850 1950 30  0000 C CNN
	1    6850 1950
	1    0    0    -1  
$EndComp
$Comp
L R-RESCUE-foxRX S103
U 1 1 573B9EA7
P 7000 1950
F 0 "S103" V 7080 1950 40  0000 C CNN
F 1 "0" V 7007 1951 40  0000 C CNN
F 2 "Resistors_ThroughHole:Resistor_Horizontal_RM7mm" V 6930 1950 30  0000 C CNN
F 3 "~" H 7000 1950 30  0000 C CNN
	1    7000 1950
	1    0    0    -1  
$EndComp
$Comp
L R-RESCUE-foxRX S104
U 1 1 573B9EAD
P 7150 1950
F 0 "S104" V 7230 1950 40  0000 C CNN
F 1 "0" V 7157 1951 40  0000 C CNN
F 2 "Resistors_ThroughHole:Resistor_Horizontal_RM7mm" V 7080 1950 30  0000 C CNN
F 3 "~" H 7150 1950 30  0000 C CNN
	1    7150 1950
	1    0    0    -1  
$EndComp
Wire Wire Line
	6700 1600 6700 1700
Wire Wire Line
	6700 1650 7150 1650
Wire Wire Line
	7150 1650 7150 1700
Wire Wire Line
	7000 1700 7000 1650
Connection ~ 7000 1650
Wire Wire Line
	6850 1700 6850 1650
Connection ~ 6850 1650
Wire Wire Line
	6700 2200 6700 2300
Wire Wire Line
	6700 2250 7150 2250
Wire Wire Line
	7150 2250 7150 2200
Wire Wire Line
	7000 2250 7000 2200
Connection ~ 7000 2250
Wire Wire Line
	6850 2250 6850 2200
Connection ~ 6850 2250
Connection ~ 6700 1650
Connection ~ 6700 2250
$Comp
L +3.3V-RESCUE-foxRX #PWR019
U 1 1 573BA11F
P 6700 1600
F 0 "#PWR019" H 6700 1560 30  0001 C CNN
F 1 "+3.3V" H 6700 1710 30  0000 C CNN
F 2 "" H 6700 1600 60  0000 C CNN
F 3 "" H 6700 1600 60  0000 C CNN
	1    6700 1600
	1    0    0    -1  
$EndComp
$Comp
L +3.3V-RESCUE-foxRX #PWR020
U 1 1 573BA125
P 6700 2300
F 0 "#PWR020" H 6700 2260 30  0001 C CNN
F 1 "+3.3V" H 6700 2410 30  0000 C CNN
F 2 "" H 6700 2300 60  0000 C CNN
F 3 "" H 6700 2300 60  0000 C CNN
	1    6700 2300
	-1   0    0    1   
$EndComp
$Comp
L CONN_1 T101
U 1 1 573BA3BA
P 10600 4200
F 0 "T101" H 10680 4200 40  0000 L CNN
F 1 "CONN_1" H 10600 4255 30  0001 C CNN
F 2 "Pin_Headers:Pin_Header_Straight_1x01" H 10600 4200 60  0001 C CNN
F 3 "" H 10600 4200 60  0000 C CNN
	1    10600 4200
	1    0    0    -1  
$EndComp
$Comp
L CONN_1 T102
U 1 1 573BA43F
P 10600 4350
F 0 "T102" H 10680 4350 40  0000 L CNN
F 1 "CONN_1" H 10600 4405 30  0001 C CNN
F 2 "Pin_Headers:Pin_Header_Straight_1x01" H 10600 4350 60  0001 C CNN
F 3 "" H 10600 4350 60  0000 C CNN
	1    10600 4350
	1    0    0    -1  
$EndComp
$Comp
L CONN_1 T103
U 1 1 573BA445
P 10600 4500
F 0 "T103" H 10680 4500 40  0000 L CNN
F 1 "CONN_1" H 10600 4555 30  0001 C CNN
F 2 "Pin_Headers:Pin_Header_Straight_1x01" H 10600 4500 60  0001 C CNN
F 3 "" H 10600 4500 60  0000 C CNN
	1    10600 4500
	1    0    0    -1  
$EndComp
Wire Wire Line
	10450 4200 10400 4200
Wire Wire Line
	10400 4350 10450 4350
Wire Wire Line
	10400 4500 10450 4500
$Comp
L GND-RESCUE-foxRX #PWR021
U 1 1 573BA52D
P 10400 4500
F 0 "#PWR021" H 10400 4500 30  0001 C CNN
F 1 "GND" H 10400 4430 30  0001 C CNN
F 2 "" H 10400 4500 60  0000 C CNN
F 3 "" H 10400 4500 60  0000 C CNN
	1    10400 4500
	0    1    1    0   
$EndComp
$Comp
L +3.3V-RESCUE-foxRX #PWR022
U 1 1 573BA54B
P 10400 4200
F 0 "#PWR022" H 10400 4160 30  0001 C CNN
F 1 "+3.3V" H 10400 4310 30  0000 C CNN
F 2 "" H 10400 4200 60  0000 C CNN
F 3 "" H 10400 4200 60  0000 C CNN
	1    10400 4200
	0    -1   -1   0   
$EndComp
$Comp
L VCOM #PWR023
U 1 1 573BA599
P 10400 4350
F 0 "#PWR023" H 10400 4550 40  0001 C CNN
F 1 "VCOM" H 10400 4500 40  0000 C CNN
F 2 "" H 10400 4350 60  0000 C CNN
F 3 "" H 10400 4350 60  0000 C CNN
	1    10400 4350
	0    -1   -1   0   
$EndComp
$EndSCHEMATC
