EESchema Schematic File Version 2
LIBS:canindus-rescue
LIBS:power
LIBS:device
LIBS:transistors
LIBS:conn
LIBS:linear
LIBS:regul
LIBS:74xx
LIBS:cmos4000
LIBS:adc-dac
LIBS:memory
LIBS:xilinx
LIBS:microcontrollers
LIBS:dsp
LIBS:microchip
LIBS:analog_switches
LIBS:motorola
LIBS:texas
LIBS:intel
LIBS:audio
LIBS:interface
LIBS:digital-audio
LIBS:philips
LIBS:display
LIBS:cypress
LIBS:siliconi
LIBS:opto
LIBS:atmel
LIBS:contrib
LIBS:valves
LIBS:crap
LIBS:canindus-cache
EELAYER 25 0
EELAYER END
$Descr A4 11693 8268
encoding utf-8
Sheet 2 5
Title ""
Date "29 jul 2015"
Rev ""
Comp ""
Comment1 ""
Comment2 ""
Comment3 ""
Comment4 ""
$EndDescr
Text HLabel 6800 3650 2    60   BiDi ~ 0
CANL
Text HLabel 6800 3750 2    60   BiDi ~ 0
CANH
Wire Wire Line
	6800 3750 6650 3750
Wire Wire Line
	6650 3650 6800 3650
$Comp
L SN65HVD234 U201
U 1 1 5561DF03
P 5950 3750
F 0 "U201" H 6500 3350 60  0000 C CNN
F 1 "SN65HVD234" H 5800 4100 60  0000 C CNN
F 2 "SOIC-8_N" H 5900 3350 60  0000 C CNN
F 3 "~" H 5900 3350 60  0000 C CNN
	1    5950 3750
	1    0    0    -1  
$EndComp
$Comp
L GND-RESCUE-canindus #PWR205
U 1 1 5561DF22
P 6800 4050
F 0 "#PWR205" H 6800 4050 30  0001 C CNN
F 1 "GND" H 6800 3980 30  0001 C CNN
F 2 "" H 6800 4050 60  0000 C CNN
F 3 "" H 6800 4050 60  0000 C CNN
	1    6800 4050
	1    0    0    -1  
$EndComp
$Comp
L GND-RESCUE-canindus #PWR206
U 1 1 5561DF4F
P 5250 4150
F 0 "#PWR206" H 5250 4150 30  0001 C CNN
F 1 "GND" H 5250 4080 30  0001 C CNN
F 2 "" H 5250 4150 60  0000 C CNN
F 3 "" H 5250 4150 60  0000 C CNN
	1    5250 4150
	1    0    0    -1  
$EndComp
Wire Wire Line
	5250 4150 5250 4050
Wire Wire Line
	5250 4050 5400 4050
Wire Wire Line
	6800 4050 6800 3900
Wire Wire Line
	6800 3900 6650 3900
Wire Wire Line
	5250 3400 5250 3550
Wire Wire Line
	5250 3550 5400 3550
Text Notes 5550 3250 0    60   ~ 0
Local CAN, always active, connected to STM
Text HLabel 5100 3700 0    60   Input ~ 0
TX
Text HLabel 5100 3800 0    60   Output ~ 0
RX
Wire Wire Line
	5100 3800 5400 3800
Wire Wire Line
	5100 3700 5400 3700
Wire Wire Line
	5200 3950 5400 3950
$Comp
L C-RESCUE-canindus C201
U 1 1 5561E02D
P 3500 3750
AR Path="/5561E02D" Ref="C201"  Part="1" 
AR Path="/5560CA91/5561E02D" Ref="C201"  Part="1" 
F 0 "C201" H 3500 3850 40  0000 L CNN
F 1 "0.1u" H 3506 3665 40  0000 L CNN
F 2 "SM0402" H 3538 3600 30  0000 C CNN
F 3 "~" H 3500 3750 60  0000 C CNN
	1    3500 3750
	1    0    0    -1  
$EndComp
$Comp
L GND-RESCUE-canindus #PWR204
U 1 1 5561E046
P 3500 4050
F 0 "#PWR204" H 3500 4050 30  0001 C CNN
F 1 "GND" H 3500 3980 30  0001 C CNN
F 2 "" H 3500 4050 60  0000 C CNN
F 3 "" H 3500 4050 60  0000 C CNN
	1    3500 4050
	1    0    0    -1  
$EndComp
Wire Wire Line
	3500 3450 3500 3550
Wire Wire Line
	3500 3950 3500 4050
$Comp
L R-RESCUE-canindus R201
U 1 1 556464B6
P 4950 3950
F 0 "R201" V 5030 3950 40  0000 C CNN
F 1 "1k" V 4957 3951 40  0000 C CNN
F 2 "SM0402" V 4880 3950 30  0000 C CNN
F 3 "~" H 4950 3950 30  0000 C CNN
	1    4950 3950
	0    -1   -1   0   
$EndComp
Wire Wire Line
	4550 3950 4700 3950
$Comp
L VDD #PWR201
U 1 1 55698E93
P 5250 3400
F 0 "#PWR201" H 5250 3500 30  0001 C CNN
F 1 "VDD" H 5250 3510 30  0000 C CNN
F 2 "" H 5250 3400 60  0000 C CNN
F 3 "" H 5250 3400 60  0000 C CNN
	1    5250 3400
	1    0    0    -1  
$EndComp
$Comp
L VDD #PWR202
U 1 1 55698D52
P 3500 3450
F 0 "#PWR202" H 3500 3550 30  0001 C CNN
F 1 "VDD" H 3500 3560 30  0000 C CNN
F 2 "" H 3500 3450 60  0000 C CNN
F 3 "" H 3500 3450 60  0000 C CNN
	1    3500 3450
	1    0    0    -1  
$EndComp
$Comp
L VDD #PWR203
U 1 1 5569923A
P 4550 3950
F 0 "#PWR203" H 4550 4050 30  0001 C CNN
F 1 "VDD" H 4550 4060 30  0000 C CNN
F 2 "" H 4550 3950 60  0000 C CNN
F 3 "" H 4550 3950 60  0000 C CNN
	1    4550 3950
	0    -1   -1   0   
$EndComp
$EndSCHEMATC
