EESchema Schematic File Version 2
LIBS:canindus-rescue
LIBS:power
LIBS:device
LIBS:transistors
LIBS:conn
LIBS:linear
LIBS:regul
LIBS:74xx
LIBS:cmos4000
LIBS:adc-dac
LIBS:memory
LIBS:xilinx
LIBS:microcontrollers
LIBS:dsp
LIBS:microchip
LIBS:analog_switches
LIBS:motorola
LIBS:texas
LIBS:intel
LIBS:audio
LIBS:interface
LIBS:digital-audio
LIBS:philips
LIBS:display
LIBS:cypress
LIBS:siliconi
LIBS:opto
LIBS:atmel
LIBS:contrib
LIBS:valves
LIBS:crap
LIBS:canindus-cache
EELAYER 25 0
EELAYER END
$Descr A4 11693 8268
encoding utf-8
Sheet 1 5
Title ""
Date "29 jul 2015"
Rev ""
Comp ""
Comment1 ""
Comment2 ""
Comment3 ""
Comment4 ""
$EndDescr
$Comp
L GND-RESCUE-canindus #PWR102
U 1 1 558009AE
P 1600 1850
F 0 "#PWR102" H 1600 1850 30  0001 C CNN
F 1 "GND" H 1600 1780 30  0001 C CNN
F 2 "" H 1600 1850 60  0000 C CNN
F 3 "" H 1600 1850 60  0000 C CNN
	1    1600 1850
	1    0    0    -1  
$EndComp
$Comp
L +5V #PWR101
U 1 1 558009B4
P 1600 1150
F 0 "#PWR101" H 1600 1240 20  0001 C CNN
F 1 "+5V" H 1600 1240 30  0000 C CNN
F 2 "" H 1600 1150 60  0000 C CNN
F 3 "" H 1600 1150 60  0000 C CNN
	1    1600 1150
	1    0    0    -1  
$EndComp
Text Label 1500 1550 0    60   ~ 0
CANL
Text Label 1500 1450 0    60   ~ 0
CANH
Text Label 2800 1450 2    60   ~ 0
CANH
Text Label 2800 1350 2    60   ~ 0
CANL
Text Label 3900 1300 0    60   ~ 0
CAN_TX
Text Label 3900 1400 0    60   ~ 0
CAN_RX
$Sheet
S 2900 1200 900  600 
U 5560CA91
F0 "CAN" 50
F1 "CAN.sch" 50
F2 "CANL" B L 2900 1350 60 
F3 "CANH" B L 2900 1450 60 
F4 "TX" I R 3800 1300 60 
F5 "RX" O R 3800 1400 60 
$EndSheet
$Comp
L CONN_6 P101
U 1 1 558009DE
P 1150 1500
F 0 "P101" V 1100 1500 60  0000 C CNN
F 1 "CONN_6" V 1200 1500 60  0000 C CNN
F 2 "TE_MICROMATCH_SMD_FEM_6PIN" H 850 2100 60  0000 C CNN
F 3 "" H 1150 1500 60  0000 C CNN
	1    1150 1500
	-1   0    0    1   
$EndComp
Text Label 6250 3250 2    60   ~ 0
CAN_TX
Text Label 6250 3150 2    60   ~ 0
CAN_RX
Text Label 8050 3200 0    60   ~ 0
POWER_EN
Text Label 5250 1200 2    60   ~ 0
POWER_EN
$Comp
L CONN_3 K101
U 1 1 5580296F
P 1500 3900
F 0 "K101" V 1450 3900 50  0000 C CNN
F 1 "CONN_3" V 1550 3900 40  0000 C CNN
F 2 "PIN_ARRAY_3_BLUE" H 2050 3900 60  0000 C CNN
F 3 "" H 1500 3900 60  0000 C CNN
	1    1500 3900
	-1   0    0    1   
$EndComp
$Comp
L GND-RESCUE-canindus #PWR103
U 1 1 558036FE
P 1950 4100
F 0 "#PWR103" H 1950 4100 30  0001 C CNN
F 1 "GND" H 1950 4030 30  0001 C CNN
F 2 "" H 1950 4100 60  0000 C CNN
F 3 "" H 1950 4100 60  0000 C CNN
	1    1950 4100
	1    0    0    -1  
$EndComp
Text Label 1950 3800 0    60   ~ 0
IN1
Text Label 1950 3900 0    60   ~ 0
V_1
$Comp
L CONN_3 K102
U 1 1 55804635
P 1500 4450
F 0 "K102" V 1450 4450 50  0000 C CNN
F 1 "CONN_3" V 1550 4450 40  0000 C CNN
F 2 "PIN_ARRAY_3_BLUE" H 2050 4450 60  0000 C CNN
F 3 "" H 1500 4450 60  0000 C CNN
	1    1500 4450
	-1   0    0    1   
$EndComp
$Comp
L GND-RESCUE-canindus #PWR104
U 1 1 5580463B
P 1950 4650
F 0 "#PWR104" H 1950 4650 30  0001 C CNN
F 1 "GND" H 1950 4580 30  0001 C CNN
F 2 "" H 1950 4650 60  0000 C CNN
F 3 "" H 1950 4650 60  0000 C CNN
	1    1950 4650
	1    0    0    -1  
$EndComp
Text Label 1950 4350 0    60   ~ 0
IN2
Text Label 1950 4450 0    60   ~ 0
V_2
$Comp
L CONN_3 K103
U 1 1 558046A7
P 1500 4950
F 0 "K103" V 1450 4950 50  0000 C CNN
F 1 "CONN_3" V 1550 4950 40  0000 C CNN
F 2 "PIN_ARRAY_3_BLUE" H 2050 4950 60  0000 C CNN
F 3 "" H 1500 4950 60  0000 C CNN
	1    1500 4950
	-1   0    0    1   
$EndComp
$Comp
L GND-RESCUE-canindus #PWR105
U 1 1 558046AD
P 1950 5150
F 0 "#PWR105" H 1950 5150 30  0001 C CNN
F 1 "GND" H 1950 5080 30  0001 C CNN
F 2 "" H 1950 5150 60  0000 C CNN
F 3 "" H 1950 5150 60  0000 C CNN
	1    1950 5150
	1    0    0    -1  
$EndComp
Text Label 1950 4850 0    60   ~ 0
IN3
Text Label 1950 4950 0    60   ~ 0
V_3
$Comp
L CONN_3 K104
U 1 1 55806AB3
P 1500 6150
F 0 "K104" V 1450 6150 50  0000 C CNN
F 1 "CONN_3" V 1550 6150 40  0000 C CNN
F 2 "PIN_ARRAY_3_BLUE" H 2000 6150 60  0000 C CNN
F 3 "" H 1500 6150 60  0000 C CNN
	1    1500 6150
	-1   0    0    1   
$EndComp
$Comp
L GND-RESCUE-canindus #PWR107
U 1 1 55806AB9
P 1950 6350
F 0 "#PWR107" H 1950 6350 30  0001 C CNN
F 1 "GND" H 1950 6280 30  0001 C CNN
F 2 "" H 1950 6350 60  0000 C CNN
F 3 "" H 1950 6350 60  0000 C CNN
	1    1950 6350
	1    0    0    -1  
$EndComp
Text Label 1950 6050 0    60   ~ 0
AN_IN1
Text Label 1950 6150 0    60   ~ 0
V_AN_1
Text Notes 950  2000 0    60   ~ 0
CAN connector
Text Notes 1350 5800 0    60   ~ 0
PNP/NPN inputs
Text Label 6500 1300 0    60   ~ 0
V_1
Text Label 6500 1400 0    60   ~ 0
V_2
Text Label 6500 1500 0    60   ~ 0
V_3
Text Label 6500 1700 0    60   ~ 0
V_AN_1
Text Label 8050 3700 0    60   ~ 0
EN_IN_1
Text Label 8050 3800 0    60   ~ 0
EN_IN_2
Text Label 8050 3900 0    60   ~ 0
EN_IN_3
Text Label 8050 4150 0    60   ~ 0
EN_AN_IN_1
Text Label 5250 1300 2    60   ~ 0
EN_IN_1
Text Label 5250 1500 2    60   ~ 0
EN_IN_3
Text Label 5250 1700 2    60   ~ 0
EN_AN_IN_1
$Sheet
S 5350 1100 1050 850 
U 557F2778
F0 "Power" 50
F1 "power.sch" 50
F2 "EN" I L 5350 1200 60 
F3 "24V_1" O R 6400 1300 60 
F4 "24V_2" O R 6400 1400 60 
F5 "24V_3" O R 6400 1500 60 
F6 "24V_4" O R 6400 1600 60 
F7 "EN_24V_1" I L 5350 1300 60 
F8 "EN_24V_2" I L 5350 1400 60 
F9 "EN_24V_3" I L 5350 1500 60 
F10 "EN_24V_4" I L 5350 1600 60 
F11 "EN_24V_5" I L 5350 1700 60 
F12 "EN_24V_6" I L 5350 1800 60 
F13 "24V_5" O R 6400 1700 60 
F14 "24V_6" O R 6400 1800 60 
$EndSheet
$Sheet
S 3800 3300 1150 1250
U 557F2781
F0 "inputs" 50
F1 "inputs.sch" 50
F2 "IN_1" I L 3800 3450 60 
F3 "IN_2" I L 3800 3600 60 
F4 "IN_3" I L 3800 3750 60 
F5 "AN_IN_1" I L 3800 4100 60 
F6 "IN_4" I L 3800 3900 60 
F7 "OUT_4" O R 4950 3900 60 
F8 "~OUT_3" O R 4950 3750 60 
F9 "AN_IN_2" I L 3800 4250 60 
F10 "AN_OUT_1" O R 4950 4100 60 
F11 "AN_OUT_2" O R 4950 4250 60 
F12 "OUT_2" O R 4950 3600 60 
F13 "~OUT_1" O R 4950 3450 60 
$EndSheet
$Sheet
S 6350 3000 1600 1600
U 557F258F
F0 "MCU" 50
F1 "MCU.sch" 50
F2 "CANRX" I L 6350 3150 60 
F3 "CANTX" O L 6350 3250 60 
F4 "IN_1" I L 6350 3700 60 
F5 "IN_2" I L 6350 3800 60 
F6 "IN_3" I L 6350 3900 60 
F7 "AN_IN_1" I L 6350 4150 60 
F8 "POWER_EN" O R 7950 3200 60 
F9 "EN_IN_1" O R 7950 3700 60 
F10 "EN_IN_2" O R 7950 3800 60 
F11 "EN_IN_3" O R 7950 3900 60 
F12 "EN_AN_IN_1" O R 7950 4150 60 
F13 "AN_IN_2" I L 6350 4250 60 
F14 "IN_4" I L 6350 4000 60 
F15 "EN_IN_4" O R 7950 4000 60 
F16 "EN_AN_IN_2" O R 7950 4250 60 
$EndSheet
Text Label 5250 1400 2    60   ~ 0
EN_IN_2
Wire Wire Line
	1600 1150 1600 1350
Wire Wire Line
	1600 1250 1500 1250
Wire Wire Line
	1600 1350 1500 1350
Connection ~ 1600 1250
Wire Wire Line
	1500 1750 1600 1750
Wire Wire Line
	1600 1650 1600 1850
Wire Wire Line
	1500 1650 1600 1650
Connection ~ 1600 1750
Wire Notes Line
	1800 2000 950  2000
Wire Wire Line
	2800 1450 2900 1450
Wire Wire Line
	2800 1350 2900 1350
Wire Wire Line
	3800 1300 3900 1300
Wire Wire Line
	3800 1400 3900 1400
Wire Notes Line
	1800 2000 1800 950 
Wire Notes Line
	1800 950  950  950 
Wire Notes Line
	950  950  950  2000
Wire Wire Line
	6250 3150 6350 3150
Wire Wire Line
	6350 3250 6250 3250
Wire Wire Line
	8050 3200 7950 3200
Wire Wire Line
	5250 1200 5350 1200
Wire Wire Line
	4950 3450 6050 3450
Wire Wire Line
	6050 3450 6050 3700
Wire Wire Line
	6050 3700 6350 3700
Wire Wire Line
	4950 3600 5950 3600
Wire Wire Line
	5950 3600 5950 3800
Wire Wire Line
	5950 3800 6350 3800
Wire Wire Line
	4950 3750 5850 3750
Wire Wire Line
	5850 3750 5850 3900
Wire Wire Line
	5850 3900 6350 3900
Wire Wire Line
	1850 3800 1950 3800
Wire Wire Line
	1850 3900 1950 3900
Wire Wire Line
	1850 4000 1950 4000
Wire Wire Line
	1950 4000 1950 4100
Wire Wire Line
	1850 4350 1950 4350
Wire Wire Line
	1850 4450 1950 4450
Wire Wire Line
	1850 4550 1950 4550
Wire Wire Line
	1950 4550 1950 4650
Wire Wire Line
	1850 4850 1950 4850
Wire Wire Line
	1850 4950 1950 4950
Wire Wire Line
	1850 5050 1950 5050
Wire Wire Line
	1950 5050 1950 5150
Wire Wire Line
	1850 6050 1950 6050
Wire Wire Line
	1850 6150 1950 6150
Wire Wire Line
	1850 6250 1950 6250
Wire Wire Line
	1950 6250 1950 6350
Wire Notes Line
	1350 5800 1350 3650
Wire Wire Line
	6500 1300 6400 1300
Wire Wire Line
	6500 1400 6400 1400
Wire Wire Line
	6400 1500 6500 1500
Wire Wire Line
	6400 1600 6500 1600
Wire Wire Line
	7950 3700 8050 3700
Wire Wire Line
	7950 3900 8050 3900
Wire Wire Line
	7950 4150 8050 4150
Wire Wire Line
	5250 1700 5350 1700
Wire Wire Line
	5250 1500 5350 1500
Wire Wire Line
	5250 1300 5350 1300
Wire Wire Line
	3800 4100 3700 4100
Wire Wire Line
	3700 3450 3800 3450
Wire Wire Line
	3800 3600 3700 3600
Wire Wire Line
	3700 3750 3800 3750
Wire Notes Line
	1350 3650 2300 3650
Wire Wire Line
	7950 3800 8050 3800
Wire Wire Line
	5250 1400 5350 1400
Text Label 3700 4100 2    60   ~ 0
AN_IN1
Text Label 3700 3450 2    60   ~ 0
IN1
Text Label 3700 3600 2    60   ~ 0
IN2
Text Label 3700 3750 2    60   ~ 0
IN3
$Comp
L CONN_3 K105
U 1 1 5583F0FE
P 1500 5450
F 0 "K105" V 1450 5450 50  0000 C CNN
F 1 "CONN_3" V 1550 5450 40  0000 C CNN
F 2 "PIN_ARRAY_3_BLUE" H 2050 5450 60  0000 C CNN
F 3 "" H 1500 5450 60  0000 C CNN
	1    1500 5450
	-1   0    0    1   
$EndComp
$Comp
L GND-RESCUE-canindus #PWR106
U 1 1 5583F104
P 1950 5650
F 0 "#PWR106" H 1950 5650 30  0001 C CNN
F 1 "GND" H 1950 5580 30  0001 C CNN
F 2 "" H 1950 5650 60  0000 C CNN
F 3 "" H 1950 5650 60  0000 C CNN
	1    1950 5650
	1    0    0    -1  
$EndComp
Text Label 1950 5350 0    60   ~ 0
IN4
Text Label 1950 5450 0    60   ~ 0
V_4
Wire Wire Line
	1850 5350 1950 5350
Wire Wire Line
	1850 5450 1950 5450
Wire Wire Line
	1850 5550 1950 5550
Wire Wire Line
	1950 5550 1950 5650
Wire Notes Line
	1350 5800 2300 5800
Wire Notes Line
	2300 5800 2300 3650
$Comp
L CONN_3 K106
U 1 1 55840001
P 1500 6650
F 0 "K106" V 1450 6650 50  0000 C CNN
F 1 "CONN_3" V 1550 6650 40  0000 C CNN
F 2 "PIN_ARRAY_3_BLUE" H 2000 6650 60  0000 C CNN
F 3 "" H 1500 6650 60  0000 C CNN
	1    1500 6650
	-1   0    0    1   
$EndComp
$Comp
L GND-RESCUE-canindus #PWR108
U 1 1 55840007
P 1950 6850
F 0 "#PWR108" H 1950 6850 30  0001 C CNN
F 1 "GND" H 1950 6780 30  0001 C CNN
F 2 "" H 1950 6850 60  0000 C CNN
F 3 "" H 1950 6850 60  0000 C CNN
	1    1950 6850
	1    0    0    -1  
$EndComp
Text Label 1950 6550 0    60   ~ 0
AN_IN2
Text Label 1950 6650 0    60   ~ 0
V_AN_2
Wire Wire Line
	1850 6550 1950 6550
Wire Wire Line
	1850 6650 1950 6650
Wire Wire Line
	1850 6750 1950 6750
Wire Wire Line
	1950 6750 1950 6850
Text Label 5250 1600 2    60   ~ 0
EN_IN_4
Wire Wire Line
	5250 1600 5350 1600
Text Label 5250 1800 2    60   ~ 0
EN_AN_IN_2
Wire Wire Line
	5250 1800 5350 1800
Text Label 6500 1800 0    60   ~ 0
V_AN_2
Text Label 6500 1600 0    60   ~ 0
V_4
Wire Wire Line
	6400 1700 6500 1700
Wire Wire Line
	6500 1800 6400 1800
Text Label 3700 3900 2    60   ~ 0
IN4
Wire Wire Line
	3700 3900 3800 3900
Wire Wire Line
	3800 4250 3700 4250
Text Label 3700 4250 2    60   ~ 0
AN_IN2
Wire Wire Line
	4950 4100 6100 4100
Wire Wire Line
	6100 4100 6100 4150
Wire Wire Line
	6100 4150 6350 4150
Wire Wire Line
	4950 4250 6350 4250
Text Label 8050 4250 0    60   ~ 0
EN_AN_IN_2
Wire Wire Line
	7950 4250 8050 4250
Wire Notes Line
	1350 5900 2300 5900
Wire Notes Line
	2300 5900 2300 7050
Wire Notes Line
	2300 7050 1350 7050
Wire Notes Line
	1350 7050 1350 5900
Text Notes 1350 7050 0    60   ~ 0
AN inputs
Wire Wire Line
	4950 3900 5650 3900
Wire Wire Line
	5650 3900 5650 4000
Wire Wire Line
	5650 4000 6350 4000
Text Label 8050 4000 0    60   ~ 0
EN_IN_4
Wire Wire Line
	7950 4000 8050 4000
$EndSCHEMATC
