EESchema Schematic File Version 2
LIBS:canindus-rescue
LIBS:power
LIBS:device
LIBS:transistors
LIBS:conn
LIBS:linear
LIBS:regul
LIBS:74xx
LIBS:cmos4000
LIBS:adc-dac
LIBS:memory
LIBS:xilinx
LIBS:microcontrollers
LIBS:dsp
LIBS:microchip
LIBS:analog_switches
LIBS:motorola
LIBS:texas
LIBS:intel
LIBS:audio
LIBS:interface
LIBS:digital-audio
LIBS:philips
LIBS:display
LIBS:cypress
LIBS:siliconi
LIBS:opto
LIBS:atmel
LIBS:contrib
LIBS:valves
LIBS:crap
LIBS:canindus-cache
EELAYER 25 0
EELAYER END
$Descr A4 11693 8268
encoding utf-8
Sheet 4 5
Title ""
Date "29 jul 2015"
Rev ""
Comp ""
Comment1 ""
Comment2 ""
Comment3 ""
Comment4 ""
$EndDescr
$Comp
L TPS3701 U401
U 1 1 557FC961
P 6700 2950
F 0 "U401" H 7100 2600 60  0000 C CNN
F 1 "TPS3701" H 6400 3300 60  0000 C CNN
F 2 "R-PDSO-G6" H 6700 2950 60  0000 C CNN
F 3 "" H 6700 2950 60  0000 C CNN
	1    6700 2950
	1    0    0    -1  
$EndComp
$Comp
L TPS3701 U402
U 1 1 557FC96E
P 6700 4250
F 0 "U402" H 7100 3900 60  0000 C CNN
F 1 "TPS3701" H 6400 4600 60  0000 C CNN
F 2 "R-PDSO-G6" H 6700 4250 60  0000 C CNN
F 3 "" H 6700 4250 60  0000 C CNN
	1    6700 4250
	1    0    0    -1  
$EndComp
$Comp
L C-RESCUE-canindus C401
U 1 1 557FC976
P 8450 2950
F 0 "C401" H 8450 3050 40  0000 L CNN
F 1 "C" H 8456 2865 40  0000 L CNN
F 2 "SM0402" H 8488 2800 30  0000 C CNN
F 3 "~" H 8450 2950 60  0000 C CNN
	1    8450 2950
	1    0    0    -1  
$EndComp
$Comp
L C-RESCUE-canindus C402
U 1 1 557FC983
P 8450 4250
F 0 "C402" H 8450 4350 40  0000 L CNN
F 1 "C" H 8456 4165 40  0000 L CNN
F 2 "SM0402" H 8488 4100 30  0000 C CNN
F 3 "~" H 8450 4250 60  0000 C CNN
	1    8450 4250
	1    0    0    -1  
$EndComp
$Comp
L VDD #PWR403
U 1 1 557FC9A9
P 8450 2650
F 0 "#PWR403" H 8450 2750 30  0001 C CNN
F 1 "VDD" H 8450 2760 30  0000 C CNN
F 2 "" H 8450 2650 60  0000 C CNN
F 3 "" H 8450 2650 60  0000 C CNN
	1    8450 2650
	1    0    0    -1  
$EndComp
$Comp
L VDD #PWR402
U 1 1 557FC9B6
P 6050 2650
F 0 "#PWR402" H 6050 2750 30  0001 C CNN
F 1 "VDD" H 6050 2760 30  0000 C CNN
F 2 "" H 6050 2650 60  0000 C CNN
F 3 "" H 6050 2650 60  0000 C CNN
	1    6050 2650
	1    0    0    -1  
$EndComp
$Comp
L VDD #PWR410
U 1 1 557FC9C0
P 8450 3950
F 0 "#PWR410" H 8450 4050 30  0001 C CNN
F 1 "VDD" H 8450 4060 30  0000 C CNN
F 2 "" H 8450 3950 60  0000 C CNN
F 3 "" H 8450 3950 60  0000 C CNN
	1    8450 3950
	1    0    0    -1  
$EndComp
$Comp
L GND-RESCUE-canindus #PWR414
U 1 1 557FC9CC
P 8450 4550
F 0 "#PWR414" H 8450 4550 30  0001 C CNN
F 1 "GND" H 8450 4480 30  0001 C CNN
F 2 "" H 8450 4550 60  0000 C CNN
F 3 "" H 8450 4550 60  0000 C CNN
	1    8450 4550
	1    0    0    -1  
$EndComp
$Comp
L GND-RESCUE-canindus #PWR413
U 1 1 557FC9DE
P 6050 4550
F 0 "#PWR413" H 6050 4550 30  0001 C CNN
F 1 "GND" H 6050 4480 30  0001 C CNN
F 2 "" H 6050 4550 60  0000 C CNN
F 3 "" H 6050 4550 60  0000 C CNN
	1    6050 4550
	1    0    0    -1  
$EndComp
$Comp
L GND-RESCUE-canindus #PWR404
U 1 1 557FC9EA
P 6050 3250
F 0 "#PWR404" H 6050 3250 30  0001 C CNN
F 1 "GND" H 6050 3180 30  0001 C CNN
F 2 "" H 6050 3250 60  0000 C CNN
F 3 "" H 6050 3250 60  0000 C CNN
	1    6050 3250
	1    0    0    -1  
$EndComp
$Comp
L GND-RESCUE-canindus #PWR405
U 1 1 557FC9F8
P 8450 3250
F 0 "#PWR405" H 8450 3250 30  0001 C CNN
F 1 "GND" H 8450 3180 30  0001 C CNN
F 2 "" H 8450 3250 60  0000 C CNN
F 3 "" H 8450 3250 60  0000 C CNN
	1    8450 3250
	1    0    0    -1  
$EndComp
Text Notes 6350 2400 0    60   ~ 0
400mV comparators
Text HLabel 3050 2650 0    60   Input ~ 0
IN_1
Text HLabel 4500 2650 0    60   Input ~ 0
IN_2
Text HLabel 3050 3700 0    60   Input ~ 0
IN_3
$Comp
L R-RESCUE-canindus R403
U 1 1 557FCA1F
P 3400 2650
F 0 "R403" V 3480 2650 40  0000 C CNN
F 1 "47k" V 3407 2651 40  0000 C CNN
F 2 "SM0402" V 3330 2650 30  0000 C CNN
F 3 "~" H 3400 2650 30  0000 C CNN
	1    3400 2650
	0    -1   -1   0   
$EndComp
$Comp
L R-RESCUE-canindus R405
U 1 1 557FCA2E
P 3750 3000
F 0 "R405" V 3830 3000 40  0000 C CNN
F 1 "3.5k" V 3757 3001 40  0000 C CNN
F 2 "SM0402" V 3680 3000 30  0000 C CNN
F 3 "~" H 3750 3000 30  0000 C CNN
	1    3750 3000
	1    0    0    -1  
$EndComp
$Comp
L GND-RESCUE-canindus #PWR406
U 1 1 557FCA3D
P 3750 3350
F 0 "#PWR406" H 3750 3350 30  0001 C CNN
F 1 "GND" H 3750 3280 30  0001 C CNN
F 2 "" H 3750 3350 60  0000 C CNN
F 3 "" H 3750 3350 60  0000 C CNN
	1    3750 3350
	1    0    0    -1  
$EndComp
$Comp
L R-RESCUE-canindus R404
U 1 1 557FCA79
P 4850 2650
F 0 "R404" V 4930 2650 40  0000 C CNN
F 1 "47k" V 4857 2651 40  0000 C CNN
F 2 "SM0402" V 4780 2650 30  0000 C CNN
F 3 "~" H 4850 2650 30  0000 C CNN
	1    4850 2650
	0    -1   -1   0   
$EndComp
$Comp
L R-RESCUE-canindus R406
U 1 1 557FCA7F
P 5200 3000
F 0 "R406" V 5280 3000 40  0000 C CNN
F 1 "3.5k" V 5207 3001 40  0000 C CNN
F 2 "SM0402" V 5130 3000 30  0000 C CNN
F 3 "~" H 5200 3000 30  0000 C CNN
	1    5200 3000
	1    0    0    -1  
$EndComp
$Comp
L GND-RESCUE-canindus #PWR407
U 1 1 557FCA85
P 5200 3350
F 0 "#PWR407" H 5200 3350 30  0001 C CNN
F 1 "GND" H 5200 3280 30  0001 C CNN
F 2 "" H 5200 3350 60  0000 C CNN
F 3 "" H 5200 3350 60  0000 C CNN
	1    5200 3350
	1    0    0    -1  
$EndComp
$Comp
L R-RESCUE-canindus R407
U 1 1 557FCA8F
P 3400 3700
F 0 "R407" V 3480 3700 40  0000 C CNN
F 1 "47k" V 3407 3701 40  0000 C CNN
F 2 "SM0402" V 3330 3700 30  0000 C CNN
F 3 "~" H 3400 3700 30  0000 C CNN
	1    3400 3700
	0    -1   -1   0   
$EndComp
$Comp
L R-RESCUE-canindus R411
U 1 1 557FCA95
P 3750 4050
F 0 "R411" V 3830 4050 40  0000 C CNN
F 1 "3.5k" V 3757 4051 40  0000 C CNN
F 2 "SM0402" V 3680 4050 30  0000 C CNN
F 3 "~" H 3750 4050 30  0000 C CNN
	1    3750 4050
	1    0    0    -1  
$EndComp
$Comp
L GND-RESCUE-canindus #PWR411
U 1 1 557FCA9B
P 3750 4400
F 0 "#PWR411" H 3750 4400 30  0001 C CNN
F 1 "GND" H 3750 4330 30  0001 C CNN
F 2 "" H 3750 4400 60  0000 C CNN
F 3 "" H 3750 4400 60  0000 C CNN
	1    3750 4400
	1    0    0    -1  
$EndComp
Text Label 3750 2650 0    60   ~ 0
A
Text Label 5200 2650 0    60   ~ 0
B
Text Label 3750 3700 0    60   ~ 0
C
Text Label 6050 3000 2    60   ~ 0
A
Text Label 6050 2900 2    60   ~ 0
B
Text Label 6050 4300 2    60   ~ 0
C
$Comp
L VDD #PWR409
U 1 1 557FCB2D
P 6050 3950
F 0 "#PWR409" H 6050 4050 30  0001 C CNN
F 1 "VDD" H 6050 4060 30  0000 C CNN
F 2 "" H 6050 3950 60  0000 C CNN
F 3 "" H 6050 3950 60  0000 C CNN
	1    6050 3950
	1    0    0    -1  
$EndComp
$Comp
L R-RESCUE-canindus R401
U 1 1 557FCB37
P 7350 2550
F 0 "R401" V 7430 2550 40  0000 C CNN
F 1 "10k" V 7357 2551 40  0000 C CNN
F 2 "SM0402" V 7280 2550 30  0000 C CNN
F 3 "~" H 7350 2550 30  0000 C CNN
	1    7350 2550
	1    0    0    -1  
$EndComp
$Comp
L R-RESCUE-canindus R402
U 1 1 557FCB46
P 7550 2550
F 0 "R402" V 7630 2550 40  0000 C CNN
F 1 "10k" V 7557 2551 40  0000 C CNN
F 2 "SM0402" V 7480 2550 30  0000 C CNN
F 3 "~" H 7550 2550 30  0000 C CNN
	1    7550 2550
	1    0    0    -1  
$EndComp
$Comp
L VDD #PWR401
U 1 1 557FCB97
P 7450 2150
F 0 "#PWR401" H 7450 2250 30  0001 C CNN
F 1 "VDD" H 7450 2260 30  0000 C CNN
F 2 "" H 7450 2150 60  0000 C CNN
F 3 "" H 7450 2150 60  0000 C CNN
	1    7450 2150
	1    0    0    -1  
$EndComp
$Comp
L R-RESCUE-canindus R409
U 1 1 557FCBE9
P 7600 3950
F 0 "R409" V 7680 3950 40  0000 C CNN
F 1 "10k" V 7607 3951 40  0000 C CNN
F 2 "SM0402" V 7530 3950 30  0000 C CNN
F 3 "~" H 7600 3950 30  0000 C CNN
	1    7600 3950
	1    0    0    -1  
$EndComp
$Comp
L VDD #PWR408
U 1 1 557FCBF9
P 7600 3450
F 0 "#PWR408" H 7600 3550 30  0001 C CNN
F 1 "VDD" H 7600 3560 30  0000 C CNN
F 2 "" H 7600 3450 60  0000 C CNN
F 3 "" H 7600 3450 60  0000 C CNN
	1    7600 3450
	1    0    0    -1  
$EndComp
Text HLabel 7700 2900 2    60   Output ~ 0
OUT_2
Text HLabel 7700 4300 2    60   Output ~ 0
~OUT_3
Wire Wire Line
	6050 2650 6050 2750
Wire Wire Line
	6050 2750 6150 2750
Wire Wire Line
	8450 2650 8450 2750
Wire Wire Line
	8450 3950 8450 4050
Wire Wire Line
	8450 4550 8450 4450
Wire Wire Line
	6050 4550 6050 4450
Wire Wire Line
	6050 4450 6150 4450
Wire Wire Line
	6050 3250 6050 3150
Wire Wire Line
	6050 3150 6150 3150
Wire Wire Line
	8450 3250 8450 3150
Wire Wire Line
	3750 3350 3750 3250
Wire Wire Line
	3750 2750 3750 2650
Wire Wire Line
	3750 2650 3650 2650
Wire Wire Line
	3050 2650 3150 2650
Wire Wire Line
	5200 3350 5200 3250
Wire Wire Line
	5200 2750 5200 2650
Wire Wire Line
	5200 2650 5100 2650
Wire Wire Line
	4500 2650 4600 2650
Wire Wire Line
	3750 4400 3750 4300
Wire Wire Line
	3750 3800 3750 3700
Wire Wire Line
	3750 3700 3650 3700
Wire Wire Line
	3050 3700 3150 3700
Wire Wire Line
	6050 3000 6150 3000
Wire Wire Line
	6050 2900 6150 2900
Wire Wire Line
	6050 3950 6050 4050
Wire Wire Line
	6050 4050 6150 4050
Wire Wire Line
	7250 2900 7700 2900
Wire Wire Line
	7350 2900 7350 2800
Wire Wire Line
	7250 3000 7700 3000
Wire Wire Line
	7550 3000 7550 2800
Wire Wire Line
	7350 2150 7550 2150
Wire Wire Line
	7350 2150 7350 2300
Wire Wire Line
	7550 2150 7550 2300
Connection ~ 7450 2150
Wire Wire Line
	7600 4300 7600 4200
Wire Wire Line
	7600 3450 7600 3700
Connection ~ 7550 3000
Connection ~ 7350 2900
Connection ~ 7600 4300
Text HLabel 3050 5250 0    60   Input ~ 0
AN_IN_1
Text Notes 2850 2400 0    60   ~ 0
En cas de NPN,  IN doit etre relié à +24V avec 47kOhm
$Comp
L R-RESCUE-canindus R413
U 1 1 557FDE41
P 3400 5250
F 0 "R413" V 3480 5250 40  0000 C CNN
F 1 "4.7k" V 3407 5251 40  0000 C CNN
F 2 "SM0402" V 3330 5250 30  0000 C CNN
F 3 "~" H 3400 5250 30  0000 C CNN
	1    3400 5250
	0    -1   -1   0   
$EndComp
$Comp
L R-RESCUE-canindus R414
U 1 1 557FDE47
P 3750 5600
F 0 "R414" V 3830 5600 40  0000 C CNN
F 1 "2.2k" V 3757 5601 40  0000 C CNN
F 2 "SM0402" V 3680 5600 30  0000 C CNN
F 3 "~" H 3750 5600 30  0000 C CNN
	1    3750 5600
	1    0    0    -1  
$EndComp
$Comp
L GND-RESCUE-canindus #PWR415
U 1 1 557FDE4D
P 3750 5950
F 0 "#PWR415" H 3750 5950 30  0001 C CNN
F 1 "GND" H 3750 5880 30  0001 C CNN
F 2 "" H 3750 5950 60  0000 C CNN
F 3 "" H 3750 5950 60  0000 C CNN
	1    3750 5950
	1    0    0    -1  
$EndComp
Wire Wire Line
	3750 5950 3750 5850
Wire Wire Line
	3750 5350 3750 5250
Wire Wire Line
	3750 5250 3650 5250
Wire Wire Line
	3050 5250 3150 5250
Text HLabel 7700 3000 2    60   Output ~ 0
~OUT_1
Text HLabel 3750 5250 2    60   Output ~ 0
AN_OUT_1
Wire Wire Line
	6150 4300 6050 4300
Text HLabel 4500 3700 0    60   Input ~ 0
IN_4
$Comp
L R-RESCUE-canindus R408
U 1 1 55841E35
P 4850 3700
F 0 "R408" V 4930 3700 40  0000 C CNN
F 1 "47k" V 4857 3701 40  0000 C CNN
F 2 "SM0402" V 4780 3700 30  0000 C CNN
F 3 "~" H 4850 3700 30  0000 C CNN
	1    4850 3700
	0    -1   -1   0   
$EndComp
$Comp
L R-RESCUE-canindus R412
U 1 1 55841E3B
P 5200 4050
F 0 "R412" V 5280 4050 40  0000 C CNN
F 1 "3.5k" V 5207 4051 40  0000 C CNN
F 2 "SM0402" V 5130 4050 30  0000 C CNN
F 3 "~" H 5200 4050 30  0000 C CNN
	1    5200 4050
	1    0    0    -1  
$EndComp
$Comp
L GND-RESCUE-canindus #PWR412
U 1 1 55841E41
P 5200 4400
F 0 "#PWR412" H 5200 4400 30  0001 C CNN
F 1 "GND" H 5200 4330 30  0001 C CNN
F 2 "" H 5200 4400 60  0000 C CNN
F 3 "" H 5200 4400 60  0000 C CNN
	1    5200 4400
	1    0    0    -1  
$EndComp
Text Label 5200 3700 0    60   ~ 0
D
Wire Wire Line
	5200 4400 5200 4300
Wire Wire Line
	5200 3800 5200 3700
Wire Wire Line
	5200 3700 5100 3700
Wire Wire Line
	4500 3700 4600 3700
Text Label 6050 4200 2    60   ~ 0
D
Wire Wire Line
	6050 4200 6150 4200
$Comp
L R-RESCUE-canindus R410
U 1 1 55841EB5
P 7350 3850
F 0 "R410" V 7430 3850 40  0000 C CNN
F 1 "10k" V 7357 3851 40  0000 C CNN
F 2 "SM0402" V 7280 3850 30  0000 C CNN
F 3 "~" H 7350 3850 30  0000 C CNN
	1    7350 3850
	1    0    0    -1  
$EndComp
Wire Wire Line
	7250 4200 7700 4200
Wire Wire Line
	7350 4200 7350 4100
Connection ~ 7350 4200
Text HLabel 7700 4200 2    60   Output ~ 0
OUT_4
Wire Wire Line
	7250 4300 7700 4300
Wire Wire Line
	7350 3600 7350 3500
Wire Wire Line
	7350 3500 7600 3500
Connection ~ 7600 3500
Text HLabel 4500 5450 0    60   Input ~ 0
AN_IN_2
$Comp
L R-RESCUE-canindus R415
U 1 1 55841F7A
P 4850 5450
F 0 "R415" V 4930 5450 40  0000 C CNN
F 1 "4.7k" V 4857 5451 40  0000 C CNN
F 2 "SM0402" V 4780 5450 30  0000 C CNN
F 3 "~" H 4850 5450 30  0000 C CNN
	1    4850 5450
	0    -1   -1   0   
$EndComp
$Comp
L R-RESCUE-canindus R416
U 1 1 55841F80
P 5200 5800
F 0 "R416" V 5280 5800 40  0000 C CNN
F 1 "2.2k" V 5207 5801 40  0000 C CNN
F 2 "SM0402" V 5130 5800 30  0000 C CNN
F 3 "~" H 5200 5800 30  0000 C CNN
	1    5200 5800
	1    0    0    -1  
$EndComp
$Comp
L GND-RESCUE-canindus #PWR416
U 1 1 55841F86
P 5200 6150
F 0 "#PWR416" H 5200 6150 30  0001 C CNN
F 1 "GND" H 5200 6080 30  0001 C CNN
F 2 "" H 5200 6150 60  0000 C CNN
F 3 "" H 5200 6150 60  0000 C CNN
	1    5200 6150
	1    0    0    -1  
$EndComp
Wire Wire Line
	5200 6150 5200 6050
Wire Wire Line
	5200 5550 5200 5450
Wire Wire Line
	5200 5450 5100 5450
Wire Wire Line
	4500 5450 4600 5450
Text HLabel 5200 5450 2    60   Output ~ 0
AN_OUT_2
$EndSCHEMATC
