EESchema Schematic File Version 2
LIBS:canindus-rescue
LIBS:power
LIBS:device
LIBS:transistors
LIBS:conn
LIBS:linear
LIBS:regul
LIBS:74xx
LIBS:cmos4000
LIBS:adc-dac
LIBS:memory
LIBS:xilinx
LIBS:microcontrollers
LIBS:dsp
LIBS:microchip
LIBS:analog_switches
LIBS:motorola
LIBS:texas
LIBS:intel
LIBS:audio
LIBS:interface
LIBS:digital-audio
LIBS:philips
LIBS:display
LIBS:cypress
LIBS:siliconi
LIBS:opto
LIBS:atmel
LIBS:contrib
LIBS:valves
LIBS:crap
LIBS:canindus-cache
EELAYER 25 0
EELAYER END
$Descr A4 11693 8268
encoding utf-8
Sheet 5 5
Title ""
Date "29 jul 2015"
Rev ""
Comp ""
Comment1 ""
Comment2 ""
Comment3 ""
Comment4 ""
$EndDescr
Text Label 6200 3050 0    60   ~ 0
SWDIO
Text Label 6200 3150 0    60   ~ 0
SWCLK
$Comp
L R-RESCUE-canindus R501
U 1 1 557F287E
P 3800 4150
F 0 "R501" V 3880 4150 40  0000 C CNN
F 1 "1k" V 3807 4151 40  0000 C CNN
F 2 "SM0402" V 3730 4150 30  0000 C CNN
F 3 "~" H 3800 4150 30  0000 C CNN
	1    3800 4150
	0    -1   -1   0   
$EndComp
$Comp
L GND-RESCUE-canindus #PWR508
U 1 1 557F2884
P 3400 4150
F 0 "#PWR508" H 3400 4150 30  0001 C CNN
F 1 "GND" H 3400 4080 30  0001 C CNN
F 2 "" H 3400 4150 60  0000 C CNN
F 3 "" H 3400 4150 60  0000 C CNN
	1    3400 4150
	0    1    1    0   
$EndComp
Text Label 7250 4450 0    60   ~ 0
DBG_TX
Text Label 7250 4550 0    60   ~ 0
DBG_RX
Text Notes 6200 1950 0    60   ~ 0
ADC_IN1/USART2_TX
Text Notes 6200 2050 0    60   ~ 0
ADC_IN3/USART2_RX
Text Notes 6200 1750 0    60   ~ 0
ADC_IN0
Text Notes 6200 1850 0    60   ~ 0
ADC_IN2
Text Notes 6200 2350 0    60   ~ 0
ADC_IN6
Text Notes 6200 2450 0    60   ~ 0
ADC_IN7
Text Notes 6200 2650 0    60   ~ 0
USART1_TX
Text Notes 6200 2750 0    60   ~ 0
USART1_RX
Text Notes 6200 3450 0    60   ~ 0
ADC_IN8
Text Notes 6200 3550 0    60   ~ 0
ADC_IN9
$Comp
L GND-RESCUE-canindus #PWR510
U 1 1 557F28A5
P 4050 4950
F 0 "#PWR510" H 4050 4950 30  0001 C CNN
F 1 "GND" H 4050 4880 30  0001 C CNN
F 2 "" H 4050 4950 60  0000 C CNN
F 3 "" H 4050 4950 60  0000 C CNN
	1    4050 4950
	1    0    0    -1  
$EndComp
$Comp
L VDD #PWR501
U 1 1 557F28B1
P 4050 1650
F 0 "#PWR501" H 4050 1750 30  0001 C CNN
F 1 "VDD" H 4050 1760 30  0000 C CNN
F 2 "" H 4050 1650 60  0000 C CNN
F 3 "" H 4050 1650 60  0000 C CNN
	1    4050 1650
	1    0    0    -1  
$EndComp
$Comp
L C-RESCUE-canindus C501
U 1 1 557F28BE
P 1150 3550
F 0 "C501" H 1150 3650 40  0000 L CNN
F 1 "1u" H 1156 3465 40  0000 L CNN
F 2 "SM0603" H 1188 3400 30  0000 C CNN
F 3 "~" H 1150 3550 60  0000 C CNN
	1    1150 3550
	1    0    0    -1  
$EndComp
$Comp
L C-RESCUE-canindus C502
U 1 1 557F28C4
P 1400 3550
F 0 "C502" H 1400 3650 40  0000 L CNN
F 1 "0.01u" H 1406 3465 40  0000 L CNN
F 2 "SM0402" H 1438 3400 30  0000 C CNN
F 3 "~" H 1400 3550 60  0000 C CNN
	1    1400 3550
	1    0    0    -1  
$EndComp
Text Notes 1600 3550 0    60   ~ 0
Close to VDDA
$Comp
L GND-RESCUE-canindus #PWR505
U 1 1 557F28CB
P 1150 3850
F 0 "#PWR505" H 1150 3850 30  0001 C CNN
F 1 "GND" H 1150 3780 30  0001 C CNN
F 2 "" H 1150 3850 60  0000 C CNN
F 3 "" H 1150 3850 60  0000 C CNN
	1    1150 3850
	1    0    0    -1  
$EndComp
$Comp
L VDD #PWR503
U 1 1 557F28D5
P 1150 3250
F 0 "#PWR503" H 1150 3350 30  0001 C CNN
F 1 "VDD" H 1150 3360 30  0000 C CNN
F 2 "" H 1150 3250 60  0000 C CNN
F 3 "" H 1150 3250 60  0000 C CNN
	1    1150 3250
	1    0    0    -1  
$EndComp
$Comp
L C-RESCUE-canindus C504
U 1 1 557F28DF
P 1150 4450
F 0 "C504" H 1150 4550 40  0000 L CNN
F 1 "0.1u" H 1156 4365 40  0000 L CNN
F 2 "SM0402" H 1188 4300 30  0000 C CNN
F 3 "~" H 1150 4450 60  0000 C CNN
	1    1150 4450
	1    0    0    -1  
$EndComp
$Comp
L C-RESCUE-canindus C506
U 1 1 557F28E5
P 1700 4450
F 0 "C506" H 1700 4550 40  0000 L CNN
F 1 "4.7u" H 1706 4365 40  0000 L CNN
F 2 "SM0805" H 1738 4300 30  0000 C CNN
F 3 "~" H 1700 4450 60  0000 C CNN
	1    1700 4450
	1    0    0    -1  
$EndComp
$Comp
L C-RESCUE-canindus C503
U 1 1 557F28EB
P 900 4450
F 0 "C503" H 900 4550 40  0000 L CNN
F 1 "0.1u" H 906 4365 40  0000 L CNN
F 2 "SM0402" H 938 4300 30  0000 C CNN
F 3 "~" H 900 4450 60  0000 C CNN
	1    900  4450
	1    0    0    -1  
$EndComp
$Comp
L C-RESCUE-canindus C505
U 1 1 557F28F1
P 1400 4450
F 0 "C505" H 1400 4550 40  0000 L CNN
F 1 "0.1u" H 1406 4365 40  0000 L CNN
F 2 "SM0402" H 1438 4300 30  0000 C CNN
F 3 "~" H 1400 4450 60  0000 C CNN
	1    1400 4450
	1    0    0    -1  
$EndComp
$Comp
L GND-RESCUE-canindus #PWR509
U 1 1 557F28F7
P 900 4750
F 0 "#PWR509" H 900 4750 30  0001 C CNN
F 1 "GND" H 900 4680 30  0001 C CNN
F 2 "" H 900 4750 60  0000 C CNN
F 3 "" H 900 4750 60  0000 C CNN
	1    900  4750
	1    0    0    -1  
$EndComp
$Comp
L VDD #PWR507
U 1 1 557F2905
P 900 4150
F 0 "#PWR507" H 900 4250 30  0001 C CNN
F 1 "VDD" H 900 4260 30  0000 C CNN
F 2 "" H 900 4150 60  0000 C CNN
F 3 "" H 900 4150 60  0000 C CNN
	1    900  4150
	1    0    0    -1  
$EndComp
Text Notes 1850 4400 0    60   ~ 0
Each 0.1u close to VDD_x\n4.7u close to VDD_3
Text HLabel 6200 2850 2    60   Input ~ 0
CANRX
Text HLabel 6200 2950 2    60   Output ~ 0
CANTX
$Comp
L GND-RESCUE-canindus #PWR513
U 1 1 557F2918
P 3000 6850
F 0 "#PWR513" H 3000 6850 30  0001 C CNN
F 1 "GND" H 3000 6780 30  0001 C CNN
F 2 "" H 3000 6850 60  0000 C CNN
F 3 "" H 3000 6850 60  0000 C CNN
	1    3000 6850
	1    0    0    -1  
$EndComp
$Comp
L VDD #PWR511
U 1 1 557F2920
P 3000 6150
F 0 "#PWR511" H 3000 6250 30  0001 C CNN
F 1 "VDD" H 3000 6260 30  0000 C CNN
F 2 "" H 3000 6150 60  0000 C CNN
F 3 "" H 3000 6150 60  0000 C CNN
	1    3000 6150
	1    0    0    -1  
$EndComp
Text Label 3000 6650 0    60   ~ 0
SWCLK
Text Label 3000 6550 0    60   ~ 0
SWDIO
Text Label 3000 6450 0    60   ~ 0
DBG_RX
Text Label 3000 6350 0    60   ~ 0
DBG_TX
$Comp
L LED-RESCUE-canindus D501
U 1 1 557F2930
P 5050 5950
F 0 "D501" H 5050 6050 50  0000 C CNN
F 1 "LED" H 5050 5850 50  0000 C CNN
F 2 "LED-0603" H 5050 5950 60  0000 C CNN
F 3 "~" H 5050 5950 60  0000 C CNN
	1    5050 5950
	0    1    1    0   
$EndComp
$Comp
L R-RESCUE-canindus R502
U 1 1 557F2936
P 5050 6500
F 0 "R502" V 5130 6500 40  0000 C CNN
F 1 "800" V 5057 6501 40  0000 C CNN
F 2 "SM0402" V 4980 6500 30  0000 C CNN
F 3 "~" H 5050 6500 30  0000 C CNN
	1    5050 6500
	1    0    0    -1  
$EndComp
$Comp
L LED-RESCUE-canindus D502
U 1 1 557F293E
P 5300 5950
F 0 "D502" H 5300 6050 50  0000 C CNN
F 1 "LED" H 5300 5850 50  0000 C CNN
F 2 "LED-0603" H 5300 5950 60  0000 C CNN
F 3 "~" H 5300 5950 60  0000 C CNN
	1    5300 5950
	0    1    1    0   
$EndComp
$Comp
L R-RESCUE-canindus R503
U 1 1 557F2944
P 5300 6500
F 0 "R503" V 5380 6500 40  0000 C CNN
F 1 "800" V 5307 6501 40  0000 C CNN
F 2 "SM0402" V 5230 6500 30  0000 C CNN
F 3 "~" H 5300 6500 30  0000 C CNN
	1    5300 6500
	1    0    0    -1  
$EndComp
Text Label 5050 5650 1    60   ~ 0
LED0
Text Label 5300 5650 1    60   ~ 0
LED1
Text Label 6700 2650 0    60   ~ 0
LED0
Text Label 6700 2750 0    60   ~ 0
LED1
Text Notes 2400 7100 0    60   ~ 0
Prog & Debug
$Comp
L JTAGCON-RESCUE-canindus P501
U 1 1 557F2977
P 2200 6500
F 0 "P501" H 2700 6150 60  0000 C CNN
F 1 "JTAGCON" H 1950 6900 60  0000 C CNN
F 2 "BM06B-SRSS-TB" H 2650 6700 60  0000 C CNN
F 3 "~" H 2650 6700 60  0000 C CNN
	1    2200 6500
	1    0    0    -1  
$EndComp
$Comp
L GND-RESCUE-canindus #PWR512
U 1 1 557F297E
P 1600 6850
F 0 "#PWR512" H 1600 6850 30  0001 C CNN
F 1 "GND" H 1600 6780 30  0001 C CNN
F 2 "" H 1600 6850 60  0000 C CNN
F 3 "" H 1600 6850 60  0000 C CNN
	1    1600 6850
	1    0    0    -1  
$EndComp
$Comp
L STM32F103CX-RESCUE-canindus U501
U 1 1 557F298A
P 5150 3350
F 0 "U501" H 5550 1600 60  0000 C CNN
F 1 "STM32F103CX" H 5150 4950 60  0000 C CNN
F 2 "LQFP48" H 5150 3350 60  0000 C CNN
F 3 "~" H 5150 3350 60  0000 C CNN
	1    5150 3350
	1    0    0    -1  
$EndComp
Text Notes 6200 4050 0    60   ~ 0
USART1_TX/I2C1_SCL
Text Notes 6200 4150 0    60   ~ 0
USART1_RX/I2C1_SDA
Text Notes 6200 4450 0    60   ~ 0
USART3_TX
Text Notes 6200 4550 0    60   ~ 0
USART3_RX
$Comp
L GND-RESCUE-canindus #PWR514
U 1 1 557F299B
P 5150 6950
F 0 "#PWR514" H 5150 6950 30  0001 C CNN
F 1 "GND" H 5150 6880 30  0001 C CNN
F 2 "" H 5150 6950 60  0000 C CNN
F 3 "" H 5150 6950 60  0000 C CNN
	1    5150 6950
	1    0    0    -1  
$EndComp
Text HLabel 7250 1950 2    60   Input ~ 0
IN_1
Text HLabel 7250 1850 2    60   Input ~ 0
IN_2
Text HLabel 7250 4350 2    60   Input ~ 0
IN_3
Text HLabel 6750 3550 2    60   Input ~ 0
AN_IN_1
Text HLabel 6700 2450 2    60   Output ~ 0
POWER_EN
Text HLabel 6700 2350 2    60   Output ~ 0
EN_IN_1
Text HLabel 7250 1750 2    60   Output ~ 0
EN_IN_2
Text HLabel 4050 3050 0    60   Output ~ 0
EN_IN_3
Text HLabel 6700 3850 2    60   Output ~ 0
EN_AN_IN_1
Text Notes 6200 2150 0    60   ~ 0
ADC_IN4
Text Notes 6200 2250 0    60   ~ 0
ADC_IN5
Text Notes 6200 4250 0    60   ~ 0
I2C1_SCL
Text Notes 6200 4350 0    60   ~ 0
I2C1_SDA
Wire Wire Line
	6100 2850 6200 2850
Wire Wire Line
	6100 2950 6200 2950
Wire Wire Line
	6100 3050 6200 3050
Wire Wire Line
	6100 3150 6200 3150
Wire Wire Line
	6100 1950 7250 1950
Wire Wire Line
	6100 2050 7250 2050
Wire Wire Line
	3400 4150 3550 4150
Wire Wire Line
	4050 4150 4200 4150
Wire Wire Line
	4050 4450 4050 4950
Wire Wire Line
	4050 4650 4200 4650
Wire Wire Line
	4050 4550 4200 4550
Connection ~ 4050 4650
Wire Wire Line
	4050 4450 4200 4450
Connection ~ 4050 4550
Wire Wire Line
	4050 1650 4050 2450
Wire Wire Line
	4050 2050 4200 2050
Wire Wire Line
	4050 2150 4200 2150
Connection ~ 4050 2050
Wire Wire Line
	4050 2250 4200 2250
Connection ~ 4050 2150
Connection ~ 4050 2250
Wire Wire Line
	1150 3750 1150 3850
Wire Wire Line
	1150 3800 1400 3800
Wire Wire Line
	1400 3800 1400 3750
Connection ~ 1150 3800
Wire Wire Line
	1150 3250 1150 3350
Wire Wire Line
	1150 3300 1400 3300
Wire Wire Line
	1400 3300 1400 3350
Connection ~ 1150 3300
Wire Wire Line
	900  4650 900  4750
Wire Wire Line
	900  4700 1700 4700
Wire Wire Line
	1150 4700 1150 4650
Connection ~ 900  4700
Wire Wire Line
	1400 4700 1400 4650
Connection ~ 1150 4700
Wire Wire Line
	1700 4700 1700 4650
Connection ~ 1400 4700
Wire Wire Line
	900  4150 900  4250
Wire Wire Line
	900  4200 1700 4200
Wire Wire Line
	1150 4200 1150 4250
Connection ~ 900  4200
Wire Wire Line
	1400 4200 1400 4250
Connection ~ 1150 4200
Wire Wire Line
	1700 4200 1700 4250
Connection ~ 1400 4200
Wire Wire Line
	2900 6750 3000 6750
Wire Wire Line
	3000 6750 3000 6850
Wire Wire Line
	3000 6150 3000 6250
Wire Wire Line
	3000 6250 2900 6250
Wire Wire Line
	3000 6350 2900 6350
Wire Wire Line
	2900 6450 3000 6450
Wire Wire Line
	3000 6550 2900 6550
Wire Wire Line
	2900 6650 3000 6650
Wire Wire Line
	5050 5650 5050 5750
Wire Wire Line
	5050 6150 5050 6250
Wire Wire Line
	5300 5650 5300 5750
Wire Wire Line
	5300 6150 5300 6250
Wire Wire Line
	5300 6850 5300 6750
Wire Wire Line
	5050 6850 5050 6750
Wire Wire Line
	6750 3550 6100 3550
Wire Wire Line
	6100 2350 6700 2350
Wire Wire Line
	6100 2450 6700 2450
Wire Wire Line
	6100 3450 6750 3450
Wire Wire Line
	6100 1750 7250 1750
Wire Wire Line
	6100 1850 7250 1850
Wire Wire Line
	6300 3650 6100 3650
Wire Wire Line
	6100 2250 6700 2250
Wire Wire Line
	6100 2650 6700 2650
Wire Wire Line
	6100 2750 6700 2750
Wire Wire Line
	6100 3750 6700 3750
Wire Wire Line
	6100 3950 6700 3950
Wire Wire Line
	4050 4850 4200 4850
Connection ~ 4050 4850
Wire Notes Line
	1450 7150 3400 7150
Wire Notes Line
	3400 7150 3400 5900
Wire Notes Line
	3400 5900 1450 5900
Wire Notes Line
	1450 5900 1450 7150
Wire Wire Line
	1600 6650 1600 6850
Wire Wire Line
	1600 6750 1700 6750
Wire Wire Line
	1600 6650 1700 6650
Connection ~ 1600 6750
Wire Wire Line
	6100 2150 6700 2150
Wire Wire Line
	4050 2450 4200 2450
Wire Wire Line
	4050 1850 4200 1850
Connection ~ 4050 1850
Wire Wire Line
	7250 4450 6100 4450
Wire Wire Line
	6100 4550 7250 4550
Wire Wire Line
	5150 6950 5150 6850
Wire Wire Line
	5050 6850 5300 6850
Connection ~ 5150 6850
Wire Wire Line
	4050 3450 4200 3450
Wire Wire Line
	4050 3550 4200 3550
Wire Wire Line
	6700 3850 6100 3850
Wire Wire Line
	6100 4050 7250 4050
Wire Wire Line
	6100 4150 7250 4150
Wire Wire Line
	6100 4250 7250 4250
Wire Wire Line
	6100 4350 7250 4350
Wire Wire Line
	6100 3250 6750 3250
Text HLabel 6750 3450 2    60   Input ~ 0
AN_IN_2
Text HLabel 7250 4250 2    60   Input ~ 0
IN_4
Text HLabel 4050 2750 0    60   Output ~ 0
EN_IN_4
Text HLabel 6700 3950 2    60   Output ~ 0
EN_AN_IN_2
Wire Wire Line
	4050 3150 4200 3150
Wire Wire Line
	4200 3050 4050 3050
Wire Wire Line
	4200 2750 4050 2750
$Comp
L LED-RESCUE-canindus D503
U 1 1 559E2445
P 7100 5950
F 0 "D503" H 7100 6050 50  0000 C CNN
F 1 "LED" H 7100 5850 50  0000 C CNN
F 2 "LED-0603" H 7100 5950 60  0000 C CNN
F 3 "~" H 7100 5950 60  0000 C CNN
	1    7100 5950
	0    1    1    0   
$EndComp
$Comp
L R-RESCUE-canindus R504
U 1 1 559E244B
P 7100 6500
F 0 "R504" V 7180 6500 40  0000 C CNN
F 1 "800" V 7107 6501 40  0000 C CNN
F 2 "SM0402" V 7030 6500 30  0000 C CNN
F 3 "~" H 7100 6500 30  0000 C CNN
	1    7100 6500
	1    0    0    -1  
$EndComp
$Comp
L LED-RESCUE-canindus D504
U 1 1 559E2451
P 7350 5950
F 0 "D504" H 7350 6050 50  0000 C CNN
F 1 "LED" H 7350 5850 50  0000 C CNN
F 2 "LED-0603" H 7350 5950 60  0000 C CNN
F 3 "~" H 7350 5950 60  0000 C CNN
	1    7350 5950
	0    1    1    0   
$EndComp
$Comp
L R-RESCUE-canindus R505
U 1 1 559E2457
P 7350 6500
F 0 "R505" V 7430 6500 40  0000 C CNN
F 1 "800" V 7357 6501 40  0000 C CNN
F 2 "SM0402" V 7280 6500 30  0000 C CNN
F 3 "~" H 7350 6500 30  0000 C CNN
	1    7350 6500
	1    0    0    -1  
$EndComp
Text Label 7850 5650 1    60   ~ 0
LED_IN4
Text Label 7100 5650 1    60   ~ 0
LED_IN1
$Comp
L GND-RESCUE-canindus #PWR515
U 1 1 559E245F
P 7750 6950
F 0 "#PWR515" H 7750 6950 30  0001 C CNN
F 1 "GND" H 7750 6880 30  0001 C CNN
F 2 "" H 7750 6950 60  0000 C CNN
F 3 "" H 7750 6950 60  0000 C CNN
	1    7750 6950
	1    0    0    -1  
$EndComp
Wire Wire Line
	7100 5650 7100 5750
Wire Wire Line
	7100 6150 7100 6250
Wire Wire Line
	7350 5650 7350 5750
Wire Wire Line
	7350 6150 7350 6250
$Comp
L LED-RESCUE-canindus D505
U 1 1 559E247E
P 7600 5950
F 0 "D505" H 7600 6050 50  0000 C CNN
F 1 "LED" H 7600 5850 50  0000 C CNN
F 2 "LED-0603" H 7600 5950 60  0000 C CNN
F 3 "~" H 7600 5950 60  0000 C CNN
	1    7600 5950
	0    1    1    0   
$EndComp
$Comp
L R-RESCUE-canindus R506
U 1 1 559E2484
P 7600 6500
F 0 "R506" V 7680 6500 40  0000 C CNN
F 1 "800" V 7607 6501 40  0000 C CNN
F 2 "SM0402" V 7530 6500 30  0000 C CNN
F 3 "~" H 7600 6500 30  0000 C CNN
	1    7600 6500
	1    0    0    -1  
$EndComp
Text Label 7350 5650 1    60   ~ 0
LED_IN2
Wire Wire Line
	7600 5650 7600 5750
Wire Wire Line
	7600 6150 7600 6250
$Comp
L LED-RESCUE-canindus D506
U 1 1 559E248D
P 7850 5950
F 0 "D506" H 7850 6050 50  0000 C CNN
F 1 "LED" H 7850 5850 50  0000 C CNN
F 2 "LED-0603" H 7850 5950 60  0000 C CNN
F 3 "~" H 7850 5950 60  0000 C CNN
	1    7850 5950
	0    1    1    0   
$EndComp
$Comp
L R-RESCUE-canindus R507
U 1 1 559E2493
P 7850 6500
F 0 "R507" V 7930 6500 40  0000 C CNN
F 1 "800" V 7857 6501 40  0000 C CNN
F 2 "SM0402" V 7780 6500 30  0000 C CNN
F 3 "~" H 7850 6500 30  0000 C CNN
	1    7850 6500
	1    0    0    -1  
$EndComp
$Comp
L LED-RESCUE-canindus D507
U 1 1 559E2499
P 8100 5950
F 0 "D507" H 8100 6050 50  0000 C CNN
F 1 "LED" H 8100 5850 50  0000 C CNN
F 2 "LED-0603" H 8100 5950 60  0000 C CNN
F 3 "~" H 8100 5950 60  0000 C CNN
	1    8100 5950
	0    1    1    0   
$EndComp
$Comp
L R-RESCUE-canindus R508
U 1 1 559E249F
P 8100 6500
F 0 "R508" V 8180 6500 40  0000 C CNN
F 1 "800" V 8107 6501 40  0000 C CNN
F 2 "SM0402" V 8030 6500 30  0000 C CNN
F 3 "~" H 8100 6500 30  0000 C CNN
	1    8100 6500
	1    0    0    -1  
$EndComp
Text Label 7600 5650 1    60   ~ 0
LED_IN3
Text Label 8100 5650 1    60   ~ 0
LED_AN_IN_1
Wire Wire Line
	7850 5650 7850 5750
Wire Wire Line
	7850 6150 7850 6250
Wire Wire Line
	8100 5650 8100 5750
Wire Wire Line
	8100 6150 8100 6250
$Comp
L LED-RESCUE-canindus D508
U 1 1 559E24AB
P 8350 5950
F 0 "D508" H 8350 6050 50  0000 C CNN
F 1 "LED" H 8350 5850 50  0000 C CNN
F 2 "LED-0603" H 8350 5950 60  0000 C CNN
F 3 "~" H 8350 5950 60  0000 C CNN
	1    8350 5950
	0    1    1    0   
$EndComp
$Comp
L R-RESCUE-canindus R509
U 1 1 559E24B1
P 8350 6500
F 0 "R509" V 8430 6500 40  0000 C CNN
F 1 "800" V 8357 6501 40  0000 C CNN
F 2 "SM0402" V 8280 6500 30  0000 C CNN
F 3 "~" H 8350 6500 30  0000 C CNN
	1    8350 6500
	1    0    0    -1  
$EndComp
Text Label 8350 5650 1    60   ~ 0
LED_AN_IN_2
Wire Wire Line
	8350 5650 8350 5750
Wire Wire Line
	8350 6150 8350 6250
Wire Wire Line
	7100 6750 7100 6900
Wire Wire Line
	7100 6900 8350 6900
Wire Wire Line
	7750 6900 7750 6950
Wire Wire Line
	8350 6900 8350 6750
Connection ~ 7750 6900
Wire Wire Line
	7350 6750 7350 6900
Connection ~ 7350 6900
Wire Wire Line
	7600 6750 7600 6900
Connection ~ 7600 6900
Wire Wire Line
	7850 6750 7850 6900
Connection ~ 7850 6900
Wire Wire Line
	8100 6750 8100 6900
Connection ~ 8100 6900
Text Label 6700 2250 0    60   ~ 0
LED_IN1
Text Label 4050 3550 2    60   ~ 0
LED_IN2
Text Label 4050 3450 2    60   ~ 0
LED_IN3
Text Label 6700 3750 0    60   ~ 0
LED_AN_IN_2
Text Notes 6200 3250 0    60   ~ 0
TIM2_CH1
Text Notes 6200 3750 0    60   ~ 0
TIM2_CH2
Text Notes 6200 4750 0    60   ~ 0
TIM1_CH1N
Text Notes 6200 4850 0    60   ~ 0
TIM1_CH2N
Wire Wire Line
	6100 4750 6750 4750
Wire Wire Line
	6100 4850 6750 4850
Text Notes 6200 4950 0    60   ~ 0
TIM1_CH2N
Wire Wire Line
	6100 4950 6750 4950
Text Label 6750 3250 0    60   ~ 0
LED_AN_IN_1
Text Label 4050 3150 2    60   ~ 0
LED_IN4
$Comp
L GND-RESCUE-canindus #PWR506
U 1 1 559FBB2E
P 9250 3850
F 0 "#PWR506" H 9250 3850 30  0001 C CNN
F 1 "GND" H 9250 3780 30  0001 C CNN
F 2 "" H 9250 3850 60  0000 C CNN
F 3 "" H 9250 3850 60  0000 C CNN
	1    9250 3850
	1    0    0    -1  
$EndComp
Wire Wire Line
	9150 3750 9250 3750
Wire Wire Line
	9250 3750 9250 3850
$Comp
L VDD #PWR504
U 1 1 559FBB36
P 9350 3650
F 0 "#PWR504" H 9350 3750 30  0001 C CNN
F 1 "VDD" H 9350 3760 30  0000 C CNN
F 2 "" H 9350 3650 60  0000 C CNN
F 3 "" H 9350 3650 60  0000 C CNN
	1    9350 3650
	0    1    1    0   
$EndComp
Wire Notes Line
	8550 4150 10050 4150
Text Notes 8650 4100 0    60   ~ 0
I2C/UART just in case
$Comp
L CONN_4 P502
U 1 1 559FBB3E
P 8800 3600
F 0 "P502" V 8750 3600 50  0000 C CNN
F 1 "CONN_4" V 8850 3600 50  0000 C CNN
F 2 "PIN_ARRAY_2X2" H 8750 3900 60  0000 C CNN
F 3 "" H 8800 3600 60  0000 C CNN
	1    8800 3600
	-1   0    0    1   
$EndComp
Text Label 9150 3550 0    60   ~ 0
EXT_TX
Text Label 9150 3450 0    60   ~ 0
EXT_RX
$Comp
L R-RESCUE-canindus R511
U 1 1 559FBB46
P 9250 3200
F 0 "R511" V 9330 3200 40  0000 C CNN
F 1 "2.2k" V 9257 3201 40  0000 C CNN
F 2 "SM0402" V 9180 3200 30  0000 C CNN
F 3 "~" H 9250 3200 30  0000 C CNN
	1    9250 3200
	0    -1   -1   0   
$EndComp
$Comp
L R-RESCUE-canindus R510
U 1 1 559FBB4C
P 9250 3000
F 0 "R510" V 9330 3000 40  0000 C CNN
F 1 "2.2k" V 9257 3001 40  0000 C CNN
F 2 "SM0402" V 9180 3000 30  0000 C CNN
F 3 "~" H 9250 3000 30  0000 C CNN
	1    9250 3000
	0    -1   -1   0   
$EndComp
$Comp
L VDD #PWR502
U 1 1 559FBB52
P 8950 3100
F 0 "#PWR502" H 8950 3200 30  0001 C CNN
F 1 "VDD" H 8950 3210 30  0000 C CNN
F 2 "" H 8950 3100 60  0000 C CNN
F 3 "" H 8950 3100 60  0000 C CNN
	1    8950 3100
	0    -1   -1   0   
$EndComp
Wire Wire Line
	8950 3200 8950 3000
Wire Wire Line
	8950 3200 9000 3200
Wire Wire Line
	8950 3000 9000 3000
Connection ~ 8950 3100
Wire Notes Line
	8550 4150 8550 2850
Wire Notes Line
	8550 2850 10050 2850
Wire Notes Line
	10050 2850 10050 4150
Wire Wire Line
	9500 3000 9700 3000
Wire Wire Line
	9700 3000 9700 3550
Wire Wire Line
	9700 3550 9150 3550
Wire Wire Line
	9150 3450 9600 3450
Wire Wire Line
	9600 3450 9600 3200
Wire Wire Line
	9600 3200 9500 3200
Wire Wire Line
	9350 3650 9150 3650
Text Label 7250 4150 0    60   ~ 0
EXT_RX
Text Label 7250 4050 0    60   ~ 0
EXT_TX
$EndSCHEMATC
