EESchema Schematic File Version 2
LIBS:canindus-rescue
LIBS:power
LIBS:device
LIBS:transistors
LIBS:conn
LIBS:linear
LIBS:regul
LIBS:74xx
LIBS:cmos4000
LIBS:adc-dac
LIBS:memory
LIBS:xilinx
LIBS:microcontrollers
LIBS:dsp
LIBS:microchip
LIBS:analog_switches
LIBS:motorola
LIBS:texas
LIBS:intel
LIBS:audio
LIBS:interface
LIBS:digital-audio
LIBS:philips
LIBS:display
LIBS:cypress
LIBS:siliconi
LIBS:opto
LIBS:atmel
LIBS:contrib
LIBS:valves
LIBS:crap
LIBS:canindus-cache
EELAYER 25 0
EELAYER END
$Descr A4 11693 8268
encoding utf-8
Sheet 3 5
Title ""
Date "29 jul 2015"
Rev ""
Comp ""
Comment1 ""
Comment2 ""
Comment3 ""
Comment4 ""
$EndDescr
$Comp
L MCP1702 U301
U 1 1 5580134A
P 2250 950
F 0 "U301" H 2350 450 60  0000 C CNN
F 1 "MCP1702T-2802E/CB" H 2100 900 60  0000 C CNN
F 2 "SOT23" H 1950 400 60  0000 C CNN
F 3 "http://fr.farnell.com/microchip/mcp1702t-3002e-cb/regulateur-ldo-250ma-cms/dp/1331489RL" H 2250 950 60  0001 C CNN
	1    2250 950 
	1    0    0    -1  
$EndComp
$Comp
L GND-RESCUE-canindus #PWR310
U 1 1 55801350
P 1550 1400
F 0 "#PWR310" H 1550 1400 30  0001 C CNN
F 1 "GND" H 1550 1330 30  0001 C CNN
F 2 "" H 1550 1400 60  0000 C CNN
F 3 "" H 1550 1400 60  0000 C CNN
	1    1550 1400
	1    0    0    -1  
$EndComp
$Comp
L VDD #PWR304
U 1 1 55801358
P 2850 1000
F 0 "#PWR304" H 2850 1100 30  0001 C CNN
F 1 "VDD" H 2850 1110 30  0000 C CNN
F 2 "" H 2850 1000 60  0000 C CNN
F 3 "" H 2850 1000 60  0000 C CNN
	1    2850 1000
	1    0    0    -1  
$EndComp
$Comp
L C-RESCUE-canindus C302
U 1 1 55801361
P 1000 1200
AR Path="/55801361" Ref="C302"  Part="1" 
AR Path="/557F2778/55801361" Ref="C302"  Part="1" 
F 0 "C302" H 1000 1300 40  0000 L CNN
F 1 "1u" H 1006 1115 40  0000 L CNN
F 2 "SM0603" H 900 1100 30  0000 C CNN
F 3 "~" H 1000 1200 60  0000 C CNN
F 4 "16V" H 1000 1200 60  0001 C CNN "Voltage"
	1    1000 1200
	1    0    0    -1  
$EndComp
$Comp
L C-RESCUE-canindus C303
U 1 1 55801368
P 3400 1250
AR Path="/55801368" Ref="C303"  Part="1" 
AR Path="/557F2778/55801368" Ref="C303"  Part="1" 
F 0 "C303" H 3400 1350 40  0000 L CNN
F 1 "1u" H 3406 1165 40  0000 L CNN
F 2 "SM0603" H 3600 1150 30  0000 C CNN
F 3 "~" H 3400 1250 60  0000 C CNN
F 4 "16V" H 3400 1250 60  0001 C CNN "Voltage"
	1    3400 1250
	1    0    0    -1  
$EndComp
$Comp
L VDD #PWR303
U 1 1 5580136E
P 3400 950
F 0 "#PWR303" H 3400 1050 30  0001 C CNN
F 1 "VDD" H 3400 1060 30  0000 C CNN
F 2 "" H 3400 950 60  0000 C CNN
F 3 "" H 3400 950 60  0000 C CNN
	1    3400 950 
	1    0    0    -1  
$EndComp
$Comp
L GND-RESCUE-canindus #PWR313
U 1 1 55801374
P 3400 1550
F 0 "#PWR313" H 3400 1550 30  0001 C CNN
F 1 "GND" H 3400 1480 30  0001 C CNN
F 2 "" H 3400 1550 60  0000 C CNN
F 3 "" H 3400 1550 60  0000 C CNN
	1    3400 1550
	1    0    0    -1  
$EndComp
$Comp
L GND-RESCUE-canindus #PWR311
U 1 1 5580137C
P 1000 1500
F 0 "#PWR311" H 1000 1500 30  0001 C CNN
F 1 "GND" H 1000 1430 30  0001 C CNN
F 2 "" H 1000 1500 60  0000 C CNN
F 3 "" H 1000 1500 60  0000 C CNN
	1    1000 1500
	1    0    0    -1  
$EndComp
$Comp
L LM27313 U302
U 1 1 55801392
P 6200 1350
F 0 "U302" H 6650 1050 60  0000 C CNN
F 1 "LM27313" H 5950 1650 60  0000 C CNN
F 2 "CRAP-SOT23-5" H 6050 1050 60  0000 C CNN
F 3 "" H 6200 1350 60  0000 C CNN
	1    6200 1350
	1    0    0    -1  
$EndComp
$Comp
L GND-RESCUE-canindus #PWR314
U 1 1 55801398
P 6900 1600
F 0 "#PWR314" H 6900 1600 30  0001 C CNN
F 1 "GND" H 6900 1530 30  0001 C CNN
F 2 "" H 6900 1600 60  0000 C CNN
F 3 "" H 6900 1600 60  0000 C CNN
	1    6900 1600
	1    0    0    -1  
$EndComp
$Comp
L C-RESCUE-canindus C304
U 1 1 558013AB
P 4700 1400
AR Path="/558013AB" Ref="C304"  Part="1" 
AR Path="/557F2778/558013AB" Ref="C304"  Part="1" 
F 0 "C304" H 4700 1500 40  0000 L CNN
F 1 "2.2u" H 4706 1315 40  0000 L CNN
F 2 "SM0603" H 4550 1300 30  0000 C CNN
F 3 "~" H 4700 1400 60  0000 C CNN
F 4 "25V" H 4700 1400 60  0001 C CNN "Voltage"
	1    4700 1400
	1    0    0    -1  
$EndComp
$Comp
L GND-RESCUE-canindus #PWR315
U 1 1 558013B1
P 4700 1700
F 0 "#PWR315" H 4700 1700 30  0001 C CNN
F 1 "GND" H 4700 1630 30  0001 C CNN
F 2 "" H 4700 1700 60  0000 C CNN
F 3 "" H 4700 1700 60  0000 C CNN
	1    4700 1700
	1    0    0    -1  
$EndComp
$Comp
L INDUCTOR L301
U 1 1 558013BF
P 6200 850
F 0 "L301" V 6150 850 40  0000 C CNN
F 1 "10u" V 6300 850 40  0000 C CNN
F 2 "SM1210L" V 6100 550 60  0000 C CNN
F 3 "~" H 6200 850 60  0000 C CNN
	1    6200 850 
	0    -1   -1   0   
$EndComp
$Comp
L DIODESCH D301
U 1 1 558013C5
P 7150 1200
F 0 "D301" H 7150 1300 40  0000 C CNN
F 1 "DIODESCH" H 7150 1100 40  0000 C CNN
F 2 "SOD-123" H 7200 1400 60  0000 C CNN
F 3 "~" H 7150 1200 60  0000 C CNN
	1    7150 1200
	1    0    0    -1  
$EndComp
$Comp
L +24V #PWR307
U 1 1 558013D1
P 7450 1100
F 0 "#PWR307" H 7450 1050 20  0001 C CNN
F 1 "+24V" H 7450 1200 30  0000 C CNN
F 2 "" H 7450 1100 60  0000 C CNN
F 3 "" H 7450 1100 60  0000 C CNN
	1    7450 1100
	1    0    0    -1  
$EndComp
$Comp
L C-RESCUE-canindus C301
U 1 1 558013D8
P 8300 1150
AR Path="/558013D8" Ref="C301"  Part="1" 
AR Path="/557F2778/558013D8" Ref="C301"  Part="1" 
F 0 "C301" H 8300 1250 40  0000 L CNN
F 1 "4.7u" H 8306 1065 40  0000 L CNN
F 2 "SM1206" H 8450 1000 30  0000 C CNN
F 3 "~" H 8300 1150 60  0000 C CNN
F 4 "50V" H 8300 1150 60  0001 C CNN "Voltage"
	1    8300 1150
	1    0    0    -1  
$EndComp
$Comp
L +24V #PWR301
U 1 1 558013DE
P 8300 850
F 0 "#PWR301" H 8300 800 20  0001 C CNN
F 1 "+24V" H 8300 950 30  0000 C CNN
F 2 "" H 8300 850 60  0000 C CNN
F 3 "" H 8300 850 60  0000 C CNN
	1    8300 850 
	1    0    0    -1  
$EndComp
$Comp
L GND-RESCUE-canindus #PWR312
U 1 1 558013E4
P 8300 1500
F 0 "#PWR312" H 8300 1500 30  0001 C CNN
F 1 "GND" H 8300 1430 30  0001 C CNN
F 2 "" H 8300 1500 60  0000 C CNN
F 3 "" H 8300 1500 60  0000 C CNN
	1    8300 1500
	1    0    0    -1  
$EndComp
$Comp
L R-RESCUE-canindus R302
U 1 1 558013EC
P 7100 1950
F 0 "R302" V 7180 1950 40  0000 C CNN
F 1 "13.3k" V 7107 1951 40  0000 C CNN
F 2 "SM0402" V 7030 1950 30  0000 C CNN
F 3 "~" H 7100 1950 30  0000 C CNN
	1    7100 1950
	1    0    0    -1  
$EndComp
$Comp
L R-RESCUE-canindus R301
U 1 1 558013F2
P 7400 1400
F 0 "R301" V 7480 1400 40  0000 C CNN
F 1 "246k" V 7407 1401 40  0000 C CNN
F 2 "SM0402" V 7500 1250 30  0000 C CNN
F 3 "~" H 7400 1400 30  0000 C CNN
	1    7400 1400
	0    -1   -1   0   
$EndComp
$Comp
L +24V #PWR309
U 1 1 558013FC
P 7750 1300
F 0 "#PWR309" H 7750 1250 20  0001 C CNN
F 1 "+24V" H 7750 1400 30  0000 C CNN
F 2 "" H 7750 1300 60  0000 C CNN
F 3 "" H 7750 1300 60  0000 C CNN
	1    7750 1300
	1    0    0    -1  
$EndComp
$Comp
L GND-RESCUE-canindus #PWR316
U 1 1 55801402
P 7100 2350
F 0 "#PWR316" H 7100 2350 30  0001 C CNN
F 1 "GND" H 7100 2280 30  0001 C CNN
F 2 "" H 7100 2350 60  0000 C CNN
F 3 "" H 7100 2350 60  0000 C CNN
	1    7100 2350
	1    0    0    -1  
$EndComp
$Comp
L C-RESCUE-canindus C305
U 1 1 5580140E
P 7450 1600
AR Path="/5580140E" Ref="C305"  Part="1" 
AR Path="/557F2778/5580140E" Ref="C305"  Part="1" 
F 0 "C305" H 7450 1700 40  0000 L CNN
F 1 "120p" H 7456 1515 40  0000 L CNN
F 2 "SM0402" V 7300 1600 30  0000 C CNN
F 3 "~" H 7450 1600 60  0000 C CNN
F 4 "50V" H 7450 1600 60  0001 C CNN "Voltage"
	1    7450 1600
	0    -1   -1   0   
$EndComp
Text HLabel 5300 1400 0    60   Input ~ 0
EN
Text Notes 4350 2450 0    60   ~ 0
out=24V  => R1=246k\nout=15V => R1=148k
Text Notes 700  1700 0    60   ~ 0
3.3V LDO
Text HLabel 2100 4150 2    60   Output ~ 0
24V_2
Text HLabel 4500 3250 2    60   Output ~ 0
24V_3
Text HLabel 4500 4200 2    60   Output ~ 0
24V_4
Text HLabel 1200 4400 0    60   Input ~ 0
EN_24V_2
Text HLabel 3600 3500 0    60   Input ~ 0
EN_24V_3
Text HLabel 3600 4450 0    60   Input ~ 0
EN_24V_4
$Comp
L +5V #PWR302
U 1 1 55804FF4
P 1000 900
F 0 "#PWR302" H 1000 990 20  0001 C CNN
F 1 "+5V" H 1000 990 30  0000 C CNN
F 2 "" H 1000 900 60  0000 C CNN
F 3 "" H 1000 900 60  0000 C CNN
	1    1000 900 
	1    0    0    -1  
$EndComp
$Comp
L +5V #PWR305
U 1 1 55805001
P 1550 1050
F 0 "#PWR305" H 1550 1140 20  0001 C CNN
F 1 "+5V" H 1550 1140 30  0000 C CNN
F 2 "" H 1550 1050 60  0000 C CNN
F 3 "" H 1550 1050 60  0000 C CNN
	1    1550 1050
	1    0    0    -1  
$EndComp
$Comp
L +5V #PWR306
U 1 1 55805007
P 4700 1100
F 0 "#PWR306" H 4700 1190 20  0001 C CNN
F 1 "+5V" H 4700 1190 30  0000 C CNN
F 2 "" H 4700 1100 60  0000 C CNN
F 3 "" H 4700 1100 60  0000 C CNN
	1    4700 1100
	1    0    0    -1  
$EndComp
$Comp
L +5V #PWR308
U 1 1 55805017
P 5250 1150
F 0 "#PWR308" H 5250 1240 20  0001 C CNN
F 1 "+5V" H 5250 1240 30  0000 C CNN
F 2 "" H 5250 1150 60  0000 C CNN
F 3 "" H 5250 1150 60  0000 C CNN
	1    5250 1150
	1    0    0    -1  
$EndComp
Wire Wire Line
	1550 1400 1550 1300
Wire Wire Line
	1550 1300 1650 1300
Wire Wire Line
	2850 1000 2850 1150
Wire Wire Line
	2850 1150 2700 1150
Wire Wire Line
	3400 1550 3400 1450
Wire Wire Line
	3400 1050 3400 950 
Wire Wire Line
	1000 1500 1000 1400
Wire Wire Line
	1000 900  1000 1000
Wire Wire Line
	1550 1050 1550 1150
Wire Wire Line
	1550 1150 1650 1150
Wire Wire Line
	6900 1600 6900 1500
Wire Wire Line
	6900 1500 6800 1500
Wire Wire Line
	5250 1250 5550 1250
Wire Wire Line
	5300 1400 5550 1400
Connection ~ 5450 1250
Wire Wire Line
	4700 1700 4700 1600
Wire Wire Line
	4700 1100 4700 1200
Wire Wire Line
	6800 1200 6950 1200
Wire Wire Line
	6900 1200 6900 850 
Wire Wire Line
	6900 850  6500 850 
Connection ~ 6900 1200
Wire Wire Line
	5450 850  5900 850 
Wire Wire Line
	5250 1150 5250 1250
Wire Wire Line
	8300 1500 8300 1350
Wire Wire Line
	8300 950  8300 850 
Wire Wire Line
	7100 1350 7100 1700
Wire Wire Line
	7100 1400 7150 1400
Wire Wire Line
	7100 1350 6800 1350
Connection ~ 7100 1400
Wire Wire Line
	7100 2350 7100 2200
Wire Wire Line
	7650 1400 7750 1400
Wire Wire Line
	7750 1300 7750 1600
Wire Wire Line
	7350 1200 7450 1200
Wire Wire Line
	7450 1200 7450 1100
Wire Wire Line
	7750 1600 7650 1600
Connection ~ 7750 1400
Wire Wire Line
	7100 1600 7250 1600
Connection ~ 7100 1600
Wire Wire Line
	5450 850  5450 1250
Wire Notes Line
	650  650  650  1750
Wire Notes Line
	650  1750 3700 1750
Wire Notes Line
	3700 1750 3700 650 
Wire Notes Line
	3700 650  650  650 
Wire Notes Line
	4300 650  8600 650 
Wire Notes Line
	8600 650  8600 2500
Wire Notes Line
	8600 2500 4300 2500
Wire Notes Line
	4300 2500 4300 650 
Text HLabel 6050 3500 0    60   Input ~ 0
EN_24V_5
Text HLabel 6050 4450 0    60   Input ~ 0
EN_24V_6
Text HLabel 6950 3250 2    60   Output ~ 0
24V_5
Text HLabel 6950 4200 2    60   Output ~ 0
24V_6
$Comp
L R-RESCUE-canindus R306
U 1 1 558420FD
P 2400 3450
F 0 "R306" V 2480 3450 40  0000 C CNN
F 1 "100k" V 2407 3451 40  0000 C CNN
F 2 "SM0402" V 2330 3450 30  0000 C CNN
F 3 "~" H 2400 3450 30  0000 C CNN
	1    2400 3450
	0    -1   -1   0   
$EndComp
$Comp
L R-RESCUE-canindus R303
U 1 1 5584210C
P 2700 3150
F 0 "R303" V 2780 3150 40  0000 C CNN
F 1 "100k" V 2707 3151 40  0000 C CNN
F 2 "SM0402" V 2630 3150 30  0000 C CNN
F 3 "~" H 2700 3150 30  0000 C CNN
	1    2700 3150
	-1   0    0    1   
$EndComp
$Comp
L GND-RESCUE-canindus #PWR323
U 1 1 55842125
P 2100 3650
F 0 "#PWR323" H 2100 3650 30  0001 C CNN
F 1 "GND" H 2100 3580 30  0001 C CNN
F 2 "" H 2100 3650 60  0000 C CNN
F 3 "" H 2100 3650 60  0000 C CNN
	1    2100 3650
	1    0    0    -1  
$EndComp
$Comp
L +24V #PWR320
U 1 1 55842352
P 1250 3100
F 0 "#PWR320" H 1250 3050 20  0001 C CNN
F 1 "+24V" H 1250 3200 30  0000 C CNN
F 2 "" H 1250 3100 60  0000 C CNN
F 3 "" H 1250 3100 60  0000 C CNN
	1    1250 3100
	1    0    0    -1  
$EndComp
Text HLabel 2100 3200 2    60   Output ~ 0
24V_1
$Comp
L NX3008CBKS U303
U 1 1 55842A19
P 1700 3350
F 0 "U303" H 1900 3000 60  0000 C CNN
F 1 "NX3008CBKS" H 1700 3650 60  0000 C CNN
F 2 "CRAP-SOT363" H 1700 3350 60  0000 C CNN
F 3 "" H 1700 3350 60  0000 C CNN
	1    1700 3350
	1    0    0    -1  
$EndComp
Text HLabel 1200 3450 0    60   Input ~ 0
EN_24V_1
Wire Wire Line
	1250 3100 1250 3200
Wire Wire Line
	1250 3200 1300 3200
Wire Wire Line
	2100 3200 2050 3200
Wire Wire Line
	1200 3450 1300 3450
Wire Wire Line
	2050 3550 2100 3550
Wire Wire Line
	2100 3550 2100 3650
Wire Wire Line
	2050 3450 2150 3450
$Comp
L +24V #PWR317
U 1 1 55844309
P 2700 2800
F 0 "#PWR317" H 2700 2750 20  0001 C CNN
F 1 "+24V" H 2700 2900 30  0000 C CNN
F 2 "" H 2700 2800 60  0000 C CNN
F 3 "" H 2700 2800 60  0000 C CNN
	1    2700 2800
	1    0    0    -1  
$EndComp
Wire Wire Line
	2700 2800 2700 2900
Wire Wire Line
	2650 3450 2750 3450
Wire Wire Line
	2700 3450 2700 3400
Connection ~ 2700 3450
Text Label 2750 3450 0    60   ~ 0
x1
Text Label 1250 3300 2    60   ~ 0
x1
Wire Wire Line
	1250 3300 1300 3300
$Comp
L R-RESCUE-canindus R312
U 1 1 55844495
P 2400 4400
F 0 "R312" V 2480 4400 40  0000 C CNN
F 1 "100k" V 2407 4401 40  0000 C CNN
F 2 "SM0402" V 2330 4400 30  0000 C CNN
F 3 "~" H 2400 4400 30  0000 C CNN
	1    2400 4400
	0    -1   -1   0   
$EndComp
$Comp
L R-RESCUE-canindus R309
U 1 1 5584449B
P 2700 4100
F 0 "R309" V 2780 4100 40  0000 C CNN
F 1 "100k" V 2707 4101 40  0000 C CNN
F 2 "SM0402" V 2630 4100 30  0000 C CNN
F 3 "~" H 2700 4100 30  0000 C CNN
	1    2700 4100
	-1   0    0    1   
$EndComp
$Comp
L GND-RESCUE-canindus #PWR332
U 1 1 558444A1
P 2100 4600
F 0 "#PWR332" H 2100 4600 30  0001 C CNN
F 1 "GND" H 2100 4530 30  0001 C CNN
F 2 "" H 2100 4600 60  0000 C CNN
F 3 "" H 2100 4600 60  0000 C CNN
	1    2100 4600
	1    0    0    -1  
$EndComp
$Comp
L +24V #PWR329
U 1 1 558444A7
P 1250 4050
F 0 "#PWR329" H 1250 4000 20  0001 C CNN
F 1 "+24V" H 1250 4150 30  0000 C CNN
F 2 "" H 1250 4050 60  0000 C CNN
F 3 "" H 1250 4050 60  0000 C CNN
	1    1250 4050
	1    0    0    -1  
$EndComp
$Comp
L NX3008CBKS U306
U 1 1 558444AE
P 1700 4300
F 0 "U306" H 1900 3950 60  0000 C CNN
F 1 "NX3008CBKS" H 1700 4600 60  0000 C CNN
F 2 "CRAP-SOT363" H 1700 4300 60  0000 C CNN
F 3 "" H 1700 4300 60  0000 C CNN
	1    1700 4300
	1    0    0    -1  
$EndComp
Wire Wire Line
	1250 4050 1250 4150
Wire Wire Line
	1250 4150 1300 4150
Wire Wire Line
	2100 4150 2050 4150
Wire Wire Line
	1200 4400 1300 4400
Wire Wire Line
	2050 4500 2100 4500
Wire Wire Line
	2100 4500 2100 4600
Wire Wire Line
	2050 4400 2150 4400
$Comp
L +24V #PWR326
U 1 1 558444BC
P 2700 3750
F 0 "#PWR326" H 2700 3700 20  0001 C CNN
F 1 "+24V" H 2700 3850 30  0000 C CNN
F 2 "" H 2700 3750 60  0000 C CNN
F 3 "" H 2700 3750 60  0000 C CNN
	1    2700 3750
	1    0    0    -1  
$EndComp
Wire Wire Line
	2700 3750 2700 3850
Wire Wire Line
	2650 4400 2750 4400
Wire Wire Line
	2700 4400 2700 4350
Connection ~ 2700 4400
Text Label 2750 4400 0    60   ~ 0
x2
Text Label 1250 4250 2    60   ~ 0
x2
Wire Wire Line
	1250 4250 1300 4250
$Comp
L R-RESCUE-canindus R307
U 1 1 558444D0
P 4800 3500
F 0 "R307" V 4880 3500 40  0000 C CNN
F 1 "100k" V 4807 3501 40  0000 C CNN
F 2 "SM0402" V 4730 3500 30  0000 C CNN
F 3 "~" H 4800 3500 30  0000 C CNN
	1    4800 3500
	0    -1   -1   0   
$EndComp
$Comp
L R-RESCUE-canindus R304
U 1 1 558444D6
P 5100 3200
F 0 "R304" V 5180 3200 40  0000 C CNN
F 1 "100k" V 5107 3201 40  0000 C CNN
F 2 "SM0402" V 5030 3200 30  0000 C CNN
F 3 "~" H 5100 3200 30  0000 C CNN
	1    5100 3200
	-1   0    0    1   
$EndComp
$Comp
L GND-RESCUE-canindus #PWR324
U 1 1 558444DC
P 4500 3700
F 0 "#PWR324" H 4500 3700 30  0001 C CNN
F 1 "GND" H 4500 3630 30  0001 C CNN
F 2 "" H 4500 3700 60  0000 C CNN
F 3 "" H 4500 3700 60  0000 C CNN
	1    4500 3700
	1    0    0    -1  
$EndComp
$Comp
L +24V #PWR321
U 1 1 558444E2
P 3650 3150
F 0 "#PWR321" H 3650 3100 20  0001 C CNN
F 1 "+24V" H 3650 3250 30  0000 C CNN
F 2 "" H 3650 3150 60  0000 C CNN
F 3 "" H 3650 3150 60  0000 C CNN
	1    3650 3150
	1    0    0    -1  
$EndComp
$Comp
L NX3008CBKS U304
U 1 1 558444E9
P 4100 3400
F 0 "U304" H 4300 3050 60  0000 C CNN
F 1 "NX3008CBKS" H 4100 3700 60  0000 C CNN
F 2 "CRAP-SOT363" H 4100 3400 60  0000 C CNN
F 3 "" H 4100 3400 60  0000 C CNN
	1    4100 3400
	1    0    0    -1  
$EndComp
Wire Wire Line
	3650 3150 3650 3250
Wire Wire Line
	3650 3250 3700 3250
Wire Wire Line
	4500 3250 4450 3250
Wire Wire Line
	3600 3500 3700 3500
Wire Wire Line
	4450 3600 4500 3600
Wire Wire Line
	4500 3600 4500 3700
Wire Wire Line
	4450 3500 4550 3500
$Comp
L +24V #PWR318
U 1 1 558444F7
P 5100 2850
F 0 "#PWR318" H 5100 2800 20  0001 C CNN
F 1 "+24V" H 5100 2950 30  0000 C CNN
F 2 "" H 5100 2850 60  0000 C CNN
F 3 "" H 5100 2850 60  0000 C CNN
	1    5100 2850
	1    0    0    -1  
$EndComp
Wire Wire Line
	5100 2850 5100 2950
Wire Wire Line
	5050 3500 5150 3500
Wire Wire Line
	5100 3500 5100 3450
Connection ~ 5100 3500
Text Label 5150 3500 0    60   ~ 0
x3
Text Label 3650 3350 2    60   ~ 0
x3
Wire Wire Line
	3650 3350 3700 3350
$Comp
L R-RESCUE-canindus R313
U 1 1 55844505
P 4800 4450
F 0 "R313" V 4880 4450 40  0000 C CNN
F 1 "100k" V 4807 4451 40  0000 C CNN
F 2 "SM0402" V 4730 4450 30  0000 C CNN
F 3 "~" H 4800 4450 30  0000 C CNN
	1    4800 4450
	0    -1   -1   0   
$EndComp
$Comp
L R-RESCUE-canindus R310
U 1 1 5584450B
P 5100 4150
F 0 "R310" V 5180 4150 40  0000 C CNN
F 1 "100k" V 5107 4151 40  0000 C CNN
F 2 "SM0402" V 5030 4150 30  0000 C CNN
F 3 "~" H 5100 4150 30  0000 C CNN
	1    5100 4150
	-1   0    0    1   
$EndComp
$Comp
L GND-RESCUE-canindus #PWR333
U 1 1 55844511
P 4500 4650
F 0 "#PWR333" H 4500 4650 30  0001 C CNN
F 1 "GND" H 4500 4580 30  0001 C CNN
F 2 "" H 4500 4650 60  0000 C CNN
F 3 "" H 4500 4650 60  0000 C CNN
	1    4500 4650
	1    0    0    -1  
$EndComp
$Comp
L +24V #PWR330
U 1 1 55844517
P 3650 4100
F 0 "#PWR330" H 3650 4050 20  0001 C CNN
F 1 "+24V" H 3650 4200 30  0000 C CNN
F 2 "" H 3650 4100 60  0000 C CNN
F 3 "" H 3650 4100 60  0000 C CNN
	1    3650 4100
	1    0    0    -1  
$EndComp
$Comp
L NX3008CBKS U307
U 1 1 5584451E
P 4100 4350
F 0 "U307" H 4300 4000 60  0000 C CNN
F 1 "NX3008CBKS" H 4100 4650 60  0000 C CNN
F 2 "CRAP-SOT363" H 4100 4350 60  0000 C CNN
F 3 "" H 4100 4350 60  0000 C CNN
	1    4100 4350
	1    0    0    -1  
$EndComp
Wire Wire Line
	3650 4100 3650 4200
Wire Wire Line
	3650 4200 3700 4200
Wire Wire Line
	4500 4200 4450 4200
Wire Wire Line
	3600 4450 3700 4450
Wire Wire Line
	4450 4550 4500 4550
Wire Wire Line
	4500 4550 4500 4650
Wire Wire Line
	4450 4450 4550 4450
$Comp
L +24V #PWR327
U 1 1 5584452C
P 5100 3800
F 0 "#PWR327" H 5100 3750 20  0001 C CNN
F 1 "+24V" H 5100 3900 30  0000 C CNN
F 2 "" H 5100 3800 60  0000 C CNN
F 3 "" H 5100 3800 60  0000 C CNN
	1    5100 3800
	1    0    0    -1  
$EndComp
Wire Wire Line
	5100 3800 5100 3900
Wire Wire Line
	5050 4450 5150 4450
Wire Wire Line
	5100 4450 5100 4400
Connection ~ 5100 4450
Text Label 5150 4450 0    60   ~ 0
x4
Text Label 3650 4300 2    60   ~ 0
x4
Wire Wire Line
	3650 4300 3700 4300
$Comp
L R-RESCUE-canindus R308
U 1 1 5584453A
P 7250 3500
F 0 "R308" V 7330 3500 40  0000 C CNN
F 1 "100k" V 7257 3501 40  0000 C CNN
F 2 "SM0402" V 7180 3500 30  0000 C CNN
F 3 "~" H 7250 3500 30  0000 C CNN
	1    7250 3500
	0    -1   -1   0   
$EndComp
$Comp
L R-RESCUE-canindus R305
U 1 1 55844540
P 7550 3200
F 0 "R305" V 7630 3200 40  0000 C CNN
F 1 "100k" V 7557 3201 40  0000 C CNN
F 2 "SM0402" V 7480 3200 30  0000 C CNN
F 3 "~" H 7550 3200 30  0000 C CNN
	1    7550 3200
	-1   0    0    1   
$EndComp
$Comp
L GND-RESCUE-canindus #PWR325
U 1 1 55844546
P 6950 3700
F 0 "#PWR325" H 6950 3700 30  0001 C CNN
F 1 "GND" H 6950 3630 30  0001 C CNN
F 2 "" H 6950 3700 60  0000 C CNN
F 3 "" H 6950 3700 60  0000 C CNN
	1    6950 3700
	1    0    0    -1  
$EndComp
$Comp
L +24V #PWR322
U 1 1 5584454C
P 6100 3150
F 0 "#PWR322" H 6100 3100 20  0001 C CNN
F 1 "+24V" H 6100 3250 30  0000 C CNN
F 2 "" H 6100 3150 60  0000 C CNN
F 3 "" H 6100 3150 60  0000 C CNN
	1    6100 3150
	1    0    0    -1  
$EndComp
$Comp
L NX3008CBKS U305
U 1 1 55844553
P 6550 3400
F 0 "U305" H 6750 3050 60  0000 C CNN
F 1 "NX3008CBKS" H 6550 3700 60  0000 C CNN
F 2 "CRAP-SOT363" H 6550 3400 60  0000 C CNN
F 3 "" H 6550 3400 60  0000 C CNN
	1    6550 3400
	1    0    0    -1  
$EndComp
Wire Wire Line
	6100 3150 6100 3250
Wire Wire Line
	6100 3250 6150 3250
Wire Wire Line
	6950 3250 6900 3250
Wire Wire Line
	6050 3500 6150 3500
Wire Wire Line
	6900 3600 6950 3600
Wire Wire Line
	6950 3600 6950 3700
Wire Wire Line
	6900 3500 7000 3500
$Comp
L +24V #PWR319
U 1 1 55844561
P 7550 2850
F 0 "#PWR319" H 7550 2800 20  0001 C CNN
F 1 "+24V" H 7550 2950 30  0000 C CNN
F 2 "" H 7550 2850 60  0000 C CNN
F 3 "" H 7550 2850 60  0000 C CNN
	1    7550 2850
	1    0    0    -1  
$EndComp
Wire Wire Line
	7550 2850 7550 2950
Wire Wire Line
	7500 3500 7600 3500
Wire Wire Line
	7550 3500 7550 3450
Connection ~ 7550 3500
Text Label 7600 3500 0    60   ~ 0
x5
Text Label 6100 3350 2    60   ~ 0
x5
Wire Wire Line
	6100 3350 6150 3350
$Comp
L R-RESCUE-canindus R314
U 1 1 5584456F
P 7250 4450
F 0 "R314" V 7330 4450 40  0000 C CNN
F 1 "100k" V 7257 4451 40  0000 C CNN
F 2 "SM0402" V 7180 4450 30  0000 C CNN
F 3 "~" H 7250 4450 30  0000 C CNN
	1    7250 4450
	0    -1   -1   0   
$EndComp
$Comp
L R-RESCUE-canindus R311
U 1 1 55844575
P 7550 4150
F 0 "R311" V 7630 4150 40  0000 C CNN
F 1 "100k" V 7557 4151 40  0000 C CNN
F 2 "SM0402" V 7480 4150 30  0000 C CNN
F 3 "~" H 7550 4150 30  0000 C CNN
	1    7550 4150
	-1   0    0    1   
$EndComp
$Comp
L GND-RESCUE-canindus #PWR334
U 1 1 5584457B
P 6950 4650
F 0 "#PWR334" H 6950 4650 30  0001 C CNN
F 1 "GND" H 6950 4580 30  0001 C CNN
F 2 "" H 6950 4650 60  0000 C CNN
F 3 "" H 6950 4650 60  0000 C CNN
	1    6950 4650
	1    0    0    -1  
$EndComp
$Comp
L +24V #PWR331
U 1 1 55844581
P 6100 4100
F 0 "#PWR331" H 6100 4050 20  0001 C CNN
F 1 "+24V" H 6100 4200 30  0000 C CNN
F 2 "" H 6100 4100 60  0000 C CNN
F 3 "" H 6100 4100 60  0000 C CNN
	1    6100 4100
	1    0    0    -1  
$EndComp
$Comp
L NX3008CBKS U308
U 1 1 55844588
P 6550 4350
F 0 "U308" H 6750 4000 60  0000 C CNN
F 1 "NX3008CBKS" H 6550 4650 60  0000 C CNN
F 2 "CRAP-SOT363" H 6550 4350 60  0000 C CNN
F 3 "" H 6550 4350 60  0000 C CNN
	1    6550 4350
	1    0    0    -1  
$EndComp
Wire Wire Line
	6100 4100 6100 4200
Wire Wire Line
	6100 4200 6150 4200
Wire Wire Line
	6950 4200 6900 4200
Wire Wire Line
	6050 4450 6150 4450
Wire Wire Line
	6900 4550 6950 4550
Wire Wire Line
	6950 4550 6950 4650
Wire Wire Line
	6900 4450 7000 4450
$Comp
L +24V #PWR328
U 1 1 55844596
P 7550 3800
F 0 "#PWR328" H 7550 3750 20  0001 C CNN
F 1 "+24V" H 7550 3900 30  0000 C CNN
F 2 "" H 7550 3800 60  0000 C CNN
F 3 "" H 7550 3800 60  0000 C CNN
	1    7550 3800
	1    0    0    -1  
$EndComp
Wire Wire Line
	7550 3800 7550 3900
Wire Wire Line
	7500 4450 7600 4450
Wire Wire Line
	7550 4450 7550 4400
Connection ~ 7550 4450
Text Label 7600 4450 0    60   ~ 0
x6
Text Label 6100 4300 2    60   ~ 0
x6
Wire Wire Line
	6100 4300 6150 4300
$Comp
L C-RESCUE-canindus C306
U 1 1 559E2BC2
P 1150 6600
AR Path="/559E2BC2" Ref="C306"  Part="1" 
AR Path="/557F2778/559E2BC2" Ref="C306"  Part="1" 
F 0 "C306" H 1150 6700 40  0000 L CNN
F 1 "100u" H 1156 6515 40  0000 L CNN
F 2 "C1" H 1050 6500 30  0000 C CNN
F 3 "~" H 1150 6600 60  0000 C CNN
F 4 "16V" H 1150 6600 60  0001 C CNN "Voltage"
	1    1150 6600
	1    0    0    -1  
$EndComp
$Comp
L GND-RESCUE-canindus #PWR336
U 1 1 559E2BC8
P 1150 6900
F 0 "#PWR336" H 1150 6900 30  0001 C CNN
F 1 "GND" H 1150 6830 30  0001 C CNN
F 2 "" H 1150 6900 60  0000 C CNN
F 3 "" H 1150 6900 60  0000 C CNN
	1    1150 6900
	1    0    0    -1  
$EndComp
$Comp
L +5V #PWR335
U 1 1 559E2BCE
P 1150 6300
F 0 "#PWR335" H 1150 6390 20  0001 C CNN
F 1 "+5V" H 1150 6390 30  0000 C CNN
F 2 "" H 1150 6300 60  0000 C CNN
F 3 "" H 1150 6300 60  0000 C CNN
	1    1150 6300
	1    0    0    -1  
$EndComp
Wire Wire Line
	1150 6900 1150 6800
Wire Wire Line
	1150 6300 1150 6400
Text Notes 800  6100 0    60   ~ 0
Board Decoupling
Text Notes 4400 2200 0    60   ~ 0
R1 = R2 x ( (V OUT / V FB ) − 1 )\nR2=13.3k\nV FB=1.23
$EndSCHEMATC
