EESchema Schematic File Version 2
LIBS:power
LIBS:device
LIBS:transistors
LIBS:conn
LIBS:linear
LIBS:regul
LIBS:74xx
LIBS:cmos4000
LIBS:adc-dac
LIBS:memory
LIBS:xilinx
LIBS:special
LIBS:microcontrollers
LIBS:dsp
LIBS:microchip
LIBS:analog_switches
LIBS:motorola
LIBS:texas
LIBS:intel
LIBS:audio
LIBS:interface
LIBS:digital-audio
LIBS:philips
LIBS:display
LIBS:cypress
LIBS:siliconi
LIBS:opto
LIBS:atmel
LIBS:contrib
LIBS:valves
LIBS:crap
LIBS:canfutaba-cache
EELAYER 27 0
EELAYER END
$Descr A4 11693 8268
encoding utf-8
Sheet 6 6
Title ""
Date "9 oct 2015"
Rev ""
Comp ""
Comment1 ""
Comment2 ""
Comment3 ""
Comment4 ""
$EndDescr
Text HLabel 6750 3700 2    60   BiDi ~ 0
CANL
Text HLabel 6750 3800 2    60   BiDi ~ 0
CANH
Wire Wire Line
	6750 3800 6600 3800
Wire Wire Line
	6600 3700 6750 3700
$Comp
L SN65HVD234 U601
U 1 1 55EEBCAF
P 5900 3800
F 0 "U601" H 6450 3400 60  0000 C CNN
F 1 "SN65HVD234" H 5750 4150 60  0000 C CNN
F 2 "SOIC-8_N" H 5850 3400 60  0000 C CNN
F 3 "~" H 5850 3400 60  0000 C CNN
	1    5900 3800
	1    0    0    -1  
$EndComp
$Comp
L GND #PWR065
U 1 1 55EEBCB5
P 6750 4100
F 0 "#PWR065" H 6750 4100 30  0001 C CNN
F 1 "GND" H 6750 4030 30  0001 C CNN
F 2 "" H 6750 4100 60  0000 C CNN
F 3 "" H 6750 4100 60  0000 C CNN
	1    6750 4100
	1    0    0    -1  
$EndComp
$Comp
L GND #PWR066
U 1 1 55EEBCBB
P 5200 4200
F 0 "#PWR066" H 5200 4200 30  0001 C CNN
F 1 "GND" H 5200 4130 30  0001 C CNN
F 2 "" H 5200 4200 60  0000 C CNN
F 3 "" H 5200 4200 60  0000 C CNN
	1    5200 4200
	1    0    0    -1  
$EndComp
Wire Wire Line
	5200 4200 5200 4100
Wire Wire Line
	5200 4100 5350 4100
Wire Wire Line
	6750 4100 6750 3950
Wire Wire Line
	6750 3950 6600 3950
Wire Wire Line
	5200 3450 5200 3600
Wire Wire Line
	5200 3600 5350 3600
Text Notes 5500 3300 0    60   ~ 0
Local CAN, always active, connected to STM
Text HLabel 5050 3750 0    60   Input ~ 0
TX
Text HLabel 5050 3850 0    60   Output ~ 0
RX
Wire Wire Line
	5050 3850 5350 3850
Wire Wire Line
	5050 3750 5350 3750
Wire Wire Line
	5150 4000 5350 4000
$Comp
L C C601
U 1 1 55EEBCCD
P 3450 3800
F 0 "C601" H 3450 3900 40  0000 L CNN
F 1 "0.1u" H 3456 3715 40  0000 L CNN
F 2 "SM0402" H 3488 3650 30  0000 C CNN
F 3 "~" H 3450 3800 60  0000 C CNN
	1    3450 3800
	1    0    0    -1  
$EndComp
$Comp
L GND #PWR067
U 1 1 55EEBCD3
P 3450 4100
F 0 "#PWR067" H 3450 4100 30  0001 C CNN
F 1 "GND" H 3450 4030 30  0001 C CNN
F 2 "" H 3450 4100 60  0000 C CNN
F 3 "" H 3450 4100 60  0000 C CNN
	1    3450 4100
	1    0    0    -1  
$EndComp
Wire Wire Line
	3450 3500 3450 3600
Wire Wire Line
	3450 4000 3450 4100
$Comp
L R R601
U 1 1 55EEBCDB
P 4900 4000
F 0 "R601" V 4980 4000 40  0000 C CNN
F 1 "R" V 4907 4001 40  0000 C CNN
F 2 "SM0402" V 4830 4000 30  0000 C CNN
F 3 "~" H 4900 4000 30  0000 C CNN
	1    4900 4000
	0    -1   -1   0   
$EndComp
Wire Wire Line
	4500 4000 4650 4000
$Comp
L VDD #PWR068
U 1 1 55EEBCE2
P 5200 3450
F 0 "#PWR068" H 5200 3550 30  0001 C CNN
F 1 "VDD" H 5200 3560 30  0000 C CNN
F 2 "" H 5200 3450 60  0000 C CNN
F 3 "" H 5200 3450 60  0000 C CNN
	1    5200 3450
	1    0    0    -1  
$EndComp
$Comp
L VDD #PWR069
U 1 1 55EEBCE8
P 3450 3500
F 0 "#PWR069" H 3450 3600 30  0001 C CNN
F 1 "VDD" H 3450 3610 30  0000 C CNN
F 2 "" H 3450 3500 60  0000 C CNN
F 3 "" H 3450 3500 60  0000 C CNN
	1    3450 3500
	1    0    0    -1  
$EndComp
$Comp
L VDD #PWR070
U 1 1 55EEBCEE
P 4500 4000
F 0 "#PWR070" H 4500 4100 30  0001 C CNN
F 1 "VDD" H 4500 4110 30  0000 C CNN
F 2 "" H 4500 4000 60  0000 C CNN
F 3 "" H 4500 4000 60  0000 C CNN
	1    4500 4000
	0    -1   -1   0   
$EndComp
$EndSCHEMATC
