EESchema Schematic File Version 2
LIBS:power
LIBS:device
LIBS:transistors
LIBS:conn
LIBS:linear
LIBS:regul
LIBS:74xx
LIBS:cmos4000
LIBS:adc-dac
LIBS:memory
LIBS:xilinx
LIBS:special
LIBS:microcontrollers
LIBS:dsp
LIBS:microchip
LIBS:analog_switches
LIBS:motorola
LIBS:texas
LIBS:intel
LIBS:audio
LIBS:interface
LIBS:digital-audio
LIBS:philips
LIBS:display
LIBS:cypress
LIBS:siliconi
LIBS:opto
LIBS:atmel
LIBS:contrib
LIBS:valves
LIBS:crap
LIBS:canfutaba-cache
EELAYER 27 0
EELAYER END
$Descr A4 11693 8268
encoding utf-8
Sheet 1 6
Title ""
Date "9 oct 2015"
Rev ""
Comp ""
Comment1 ""
Comment2 ""
Comment3 ""
Comment4 ""
$EndDescr
$Sheet
S 3650 2100 1000 700 
U 55EEB388
F0 "power logical" 50
F1 "power_logical.sch" 50
$EndSheet
$Sheet
S 5400 2100 950  700 
U 55EEB3A2
F0 "power" 50
F1 "power.sch" 50
$EndSheet
$Sheet
S 4400 3700 1400 700 
U 55EEB3B6
F0 "MCU" 50
F1 "mcu.sch" 50
F2 "UART_RX" I R 5800 4200 60 
F3 "UART_TX" O R 5800 4050 60 
F4 "RS485_SELECT" O R 5800 3900 60 
F5 "CAN_TX" O L 4400 3950 60 
F6 "CAN_RX" I L 4400 4100 60 
$EndSheet
$Sheet
S 6750 3700 1000 750 
U 55EEB3BE
F0 "Isolation" 50
F1 "iso.sch" 50
F2 "RX" O L 6750 4200 60 
F3 "TX" I L 6750 4050 60 
F4 "TX_EN" I L 6750 3900 60 
F5 "RS485_A" B R 7750 3950 60 
F6 "RS485_B" B R 7750 4100 60 
$EndSheet
$Sheet
S 2550 3700 1050 750 
U 55EEB3AB
F0 "CAN" 50
F1 "can.sch" 50
F2 "CANL" B L 2550 4100 60 
F3 "CANH" B L 2550 3950 60 
F4 "TX" I R 3600 3950 60 
F5 "RX" O R 3600 4100 60 
$EndSheet
$Comp
L AGND #PWR01
U 1 1 55EED3A1
P 10400 5650
F 0 "#PWR01" H 10400 5650 40  0001 C CNN
F 1 "AGND" H 10400 5580 50  0000 C CNN
F 2 "" H 10400 5650 60  0000 C CNN
F 3 "" H 10400 5650 60  0000 C CNN
	1    10400 5650
	0    -1   -1   0   
$EndComp
$Comp
L +6V #PWR02
U 1 1 55EED3A7
P 9600 5650
F 0 "#PWR02" H 9600 5780 20  0001 C CNN
F 1 "+6V" H 9600 5750 30  0000 C CNN
F 2 "" H 9600 5650 60  0000 C CNN
F 3 "" H 9600 5650 60  0000 C CNN
	1    9600 5650
	0    -1   -1   0   
$EndComp
Text Label 10400 5550 0    60   ~ 0
RS485_A
Text Label 9600 5550 2    60   ~ 0
RS485_B
$Comp
L CONN_2X2 P104
U 1 1 55EED3AF
P 10000 5600
F 0 "P104" H 10000 5750 50  0000 C CNN
F 1 "CONN_2X2" H 10010 5470 40  0000 C CNN
F 2 "PIN_ARRAY_2X2_FUTABA" H 10000 5600 60  0000 C CNN
F 3 "" H 10000 5600 60  0000 C CNN
	1    10000 5600
	-1   0    0    -1  
$EndComp
Wire Wire Line
	5800 3900 6750 3900
Wire Wire Line
	5800 4050 6750 4050
Wire Wire Line
	5800 4200 6750 4200
Text Label 7900 3950 0    60   ~ 0
RS485_A
Text Label 7900 4100 0    60   ~ 0
RS485_B
Wire Wire Line
	7900 4100 7750 4100
Wire Wire Line
	7750 3950 7900 3950
Wire Wire Line
	3600 3950 4400 3950
Wire Wire Line
	4400 4100 3600 4100
$Comp
L GND #PWR03
U 1 1 55EEEB13
P 1650 6450
F 0 "#PWR03" H 1650 6450 30  0001 C CNN
F 1 "GND" H 1650 6380 30  0001 C CNN
F 2 "" H 1650 6450 60  0000 C CNN
F 3 "" H 1650 6450 60  0000 C CNN
	1    1650 6450
	1    0    0    -1  
$EndComp
$Comp
L +5V #PWR04
U 1 1 55EEEB19
P 1650 5750
F 0 "#PWR04" H 1650 5840 20  0001 C CNN
F 1 "+5V" H 1650 5840 30  0000 C CNN
F 2 "" H 1650 5750 60  0000 C CNN
F 3 "" H 1650 5750 60  0000 C CNN
	1    1650 5750
	1    0    0    -1  
$EndComp
Text Label 1550 6150 0    60   ~ 0
CANL
Text Label 1550 6050 0    60   ~ 0
CANH
Wire Wire Line
	1650 5750 1650 5950
Wire Wire Line
	1650 5850 1550 5850
Wire Wire Line
	1650 5950 1550 5950
Connection ~ 1650 5850
Wire Wire Line
	1550 6350 1650 6350
Wire Wire Line
	1650 6250 1650 6450
Wire Wire Line
	1550 6250 1650 6250
Connection ~ 1650 6350
Wire Notes Line
	1850 6600 1000 6600
$Comp
L CONN_6 P101
U 1 1 55EEEB2A
P 1200 6100
F 0 "P101" V 1150 6100 60  0000 C CNN
F 1 "CONN_6" V 1250 6100 60  0000 C CNN
F 2 "TE_MICROMATCH_SMD_FEM_6PIN" H 950 6650 60  0000 C CNN
F 3 "" H 1200 6100 60  0000 C CNN
	1    1200 6100
	-1   0    0    1   
$EndComp
Wire Notes Line
	1850 6600 1850 5550
Wire Notes Line
	1850 5550 1000 5550
Wire Notes Line
	1000 5550 1000 6600
Text Label 2400 3950 2    60   ~ 0
CANH
Wire Wire Line
	2400 3950 2550 3950
Text Label 2400 4100 2    60   ~ 0
CANL
Wire Wire Line
	2400 4100 2550 4100
Wire Notes Line
	9100 4950 10850 4950
Wire Notes Line
	10850 4950 10850 7000
Wire Notes Line
	10850 7000 9100 7000
Wire Notes Line
	9100 7000 9100 4950
$Comp
L CONN_2 P102
U 1 1 55EEC6AD
P 9800 2950
F 0 "P102" V 9750 2950 40  0000 C CNN
F 1 "CONN_2" V 9850 2950 40  0000 C CNN
F 2 "WE_CONN_3.81_vertical_2way" H 9700 3350 60  0000 C CNN
F 3 "" H 9800 2950 60  0000 C CNN
	1    9800 2950
	1    0    0    1   
$EndComp
$Comp
L AGND #PWR05
U 1 1 55EEC6B3
P 9350 3150
F 0 "#PWR05" H 9350 3150 40  0001 C CNN
F 1 "AGND" H 9350 3080 50  0000 C CNN
F 2 "" H 9350 3150 60  0000 C CNN
F 3 "" H 9350 3150 60  0000 C CNN
	1    9350 3150
	1    0    0    -1  
$EndComp
Wire Wire Line
	9350 3150 9350 3050
Wire Wire Line
	9350 3050 9450 3050
$Comp
L +BATT #PWR06
U 1 1 55EEC6BB
P 9350 2750
F 0 "#PWR06" H 9350 2700 20  0001 C CNN
F 1 "+BATT" H 9350 2850 30  0000 C CNN
F 2 "" H 9350 2750 60  0000 C CNN
F 3 "" H 9350 2750 60  0000 C CNN
	1    9350 2750
	1    0    0    -1  
$EndComp
Wire Wire Line
	9350 2750 9350 2850
Wire Wire Line
	9350 2850 9450 2850
Wire Notes Line
	8950 2500 10400 2500
Wire Notes Line
	10400 2500 10400 3450
Wire Notes Line
	10400 3450 8950 3450
Wire Notes Line
	8950 3450 8950 2500
$Comp
L AGND #PWR07
U 1 1 55EFE668
P 10400 5300
F 0 "#PWR07" H 10400 5300 40  0001 C CNN
F 1 "AGND" H 10400 5230 50  0000 C CNN
F 2 "" H 10400 5300 60  0000 C CNN
F 3 "" H 10400 5300 60  0000 C CNN
	1    10400 5300
	0    -1   -1   0   
$EndComp
$Comp
L +6V #PWR08
U 1 1 55EFE66E
P 9600 5300
F 0 "#PWR08" H 9600 5430 20  0001 C CNN
F 1 "+6V" H 9600 5400 30  0000 C CNN
F 2 "" H 9600 5300 60  0000 C CNN
F 3 "" H 9600 5300 60  0000 C CNN
	1    9600 5300
	0    -1   -1   0   
$EndComp
Text Label 10400 5200 0    60   ~ 0
RS485_A
Text Label 9600 5200 2    60   ~ 0
RS485_B
$Comp
L CONN_2X2 P103
U 1 1 55EFE676
P 10000 5250
F 0 "P103" H 10000 5400 50  0000 C CNN
F 1 "CONN_2X2" H 10010 5120 40  0000 C CNN
F 2 "PIN_ARRAY_2X2_FUTABA" H 10000 5250 60  0000 C CNN
F 3 "" H 10000 5250 60  0000 C CNN
	1    10000 5250
	-1   0    0    -1  
$EndComp
$Comp
L AGND #PWR09
U 1 1 55EFE724
P 10400 6350
F 0 "#PWR09" H 10400 6350 40  0001 C CNN
F 1 "AGND" H 10400 6280 50  0000 C CNN
F 2 "" H 10400 6350 60  0000 C CNN
F 3 "" H 10400 6350 60  0000 C CNN
	1    10400 6350
	0    -1   -1   0   
$EndComp
$Comp
L +6V #PWR010
U 1 1 55EFE72A
P 9600 6350
F 0 "#PWR010" H 9600 6480 20  0001 C CNN
F 1 "+6V" H 9600 6450 30  0000 C CNN
F 2 "" H 9600 6350 60  0000 C CNN
F 3 "" H 9600 6350 60  0000 C CNN
	1    9600 6350
	0    -1   -1   0   
$EndComp
Text Label 10400 6250 0    60   ~ 0
RS485_A
Text Label 9600 6250 2    60   ~ 0
RS485_B
$Comp
L CONN_2X2 P106
U 1 1 55EFE732
P 10000 6300
F 0 "P106" H 10000 6450 50  0000 C CNN
F 1 "CONN_2X2" H 10010 6170 40  0000 C CNN
F 2 "PIN_ARRAY_2X2_FUTABA" H 10000 6300 60  0000 C CNN
F 3 "" H 10000 6300 60  0000 C CNN
	1    10000 6300
	-1   0    0    -1  
$EndComp
$Comp
L AGND #PWR011
U 1 1 55EFE738
P 10400 6000
F 0 "#PWR011" H 10400 6000 40  0001 C CNN
F 1 "AGND" H 10400 5930 50  0000 C CNN
F 2 "" H 10400 6000 60  0000 C CNN
F 3 "" H 10400 6000 60  0000 C CNN
	1    10400 6000
	0    -1   -1   0   
$EndComp
$Comp
L +6V #PWR012
U 1 1 55EFE73E
P 9600 6000
F 0 "#PWR012" H 9600 6130 20  0001 C CNN
F 1 "+6V" H 9600 6100 30  0000 C CNN
F 2 "" H 9600 6000 60  0000 C CNN
F 3 "" H 9600 6000 60  0000 C CNN
	1    9600 6000
	0    -1   -1   0   
$EndComp
Text Label 10400 5900 0    60   ~ 0
RS485_A
Text Label 9600 5900 2    60   ~ 0
RS485_B
$Comp
L CONN_2X2 P105
U 1 1 55EFE746
P 10000 5950
F 0 "P105" H 10000 6100 50  0000 C CNN
F 1 "CONN_2X2" H 10010 5820 40  0000 C CNN
F 2 "PIN_ARRAY_2X2_FUTABA" H 10000 5950 60  0000 C CNN
F 3 "" H 10000 5950 60  0000 C CNN
	1    10000 5950
	-1   0    0    -1  
$EndComp
$Comp
L AGND #PWR013
U 1 1 55EFE776
P 10400 6700
F 0 "#PWR013" H 10400 6700 40  0001 C CNN
F 1 "AGND" H 10400 6630 50  0000 C CNN
F 2 "" H 10400 6700 60  0000 C CNN
F 3 "" H 10400 6700 60  0000 C CNN
	1    10400 6700
	0    -1   -1   0   
$EndComp
$Comp
L +6V #PWR014
U 1 1 55EFE77C
P 9600 6700
F 0 "#PWR014" H 9600 6830 20  0001 C CNN
F 1 "+6V" H 9600 6800 30  0000 C CNN
F 2 "" H 9600 6700 60  0000 C CNN
F 3 "" H 9600 6700 60  0000 C CNN
	1    9600 6700
	0    -1   -1   0   
$EndComp
Text Label 10400 6600 0    60   ~ 0
RS485_A
Text Label 9600 6600 2    60   ~ 0
RS485_B
$Comp
L CONN_2X2 P107
U 1 1 55EFE784
P 10000 6650
F 0 "P107" H 10000 6800 50  0000 C CNN
F 1 "CONN_2X2" H 10010 6520 40  0000 C CNN
F 2 "PIN_ARRAY_2X2_FUTABA" H 10000 6650 60  0000 C CNN
F 3 "" H 10000 6650 60  0000 C CNN
	1    10000 6650
	-1   0    0    -1  
$EndComp
$EndSCHEMATC
