EESchema Schematic File Version 2
LIBS:power
LIBS:device
LIBS:transistors
LIBS:conn
LIBS:linear
LIBS:regul
LIBS:74xx
LIBS:cmos4000
LIBS:adc-dac
LIBS:memory
LIBS:xilinx
LIBS:special
LIBS:microcontrollers
LIBS:dsp
LIBS:microchip
LIBS:analog_switches
LIBS:motorola
LIBS:texas
LIBS:intel
LIBS:audio
LIBS:interface
LIBS:digital-audio
LIBS:philips
LIBS:display
LIBS:cypress
LIBS:siliconi
LIBS:opto
LIBS:atmel
LIBS:contrib
LIBS:valves
LIBS:crap
LIBS:canfutaba-cache
EELAYER 27 0
EELAYER END
$Descr A4 11693 8268
encoding utf-8
Sheet 5 6
Title ""
Date "9 oct 2015"
Rev ""
Comp ""
Comment1 ""
Comment2 ""
Comment3 ""
Comment4 ""
$EndDescr
$Comp
L ISO3082 U501
U 1 1 55EED0EF
P 5500 4100
F 0 "U501" H 5900 3700 60  0000 C CNN
F 1 "ISO3082" H 5250 4850 60  0000 C CNN
F 2 "SO16L" H 5500 4100 60  0000 C CNN
F 3 "" H 5500 4100 60  0000 C CNN
	1    5500 4100
	1    0    0    -1  
$EndComp
$Comp
L AGND #PWR057
U 1 1 55EED107
P 6200 4500
F 0 "#PWR057" H 6200 4500 40  0001 C CNN
F 1 "AGND" H 6200 4430 50  0000 C CNN
F 2 "" H 6200 4500 60  0000 C CNN
F 3 "" H 6200 4500 60  0000 C CNN
	1    6200 4500
	1    0    0    -1  
$EndComp
Wire Wire Line
	6200 4200 6200 4500
Wire Wire Line
	6200 4400 6100 4400
$Comp
L +5VA #PWR058
U 1 1 55EED10F
P 6200 3400
F 0 "#PWR058" H 6200 3530 20  0001 C CNN
F 1 "+5VA" H 6200 3500 30  0000 C CNN
F 2 "" H 6200 3400 60  0000 C CNN
F 3 "" H 6200 3400 60  0000 C CNN
	1    6200 3400
	1    0    0    -1  
$EndComp
Wire Wire Line
	6200 3400 6200 3500
Wire Wire Line
	6200 3500 6100 3500
Wire Wire Line
	6200 4300 6100 4300
Connection ~ 6200 4400
Wire Wire Line
	6100 4200 6200 4200
Connection ~ 6200 4300
$Comp
L VDD #PWR059
U 1 1 55EED11B
P 4800 3400
F 0 "#PWR059" H 4800 3500 30  0001 C CNN
F 1 "VDD" H 4800 3510 30  0000 C CNN
F 2 "" H 4800 3400 60  0000 C CNN
F 3 "" H 4800 3400 60  0000 C CNN
	1    4800 3400
	1    0    0    -1  
$EndComp
Wire Wire Line
	4800 3400 4800 3500
Wire Wire Line
	4800 3500 4900 3500
$Comp
L GND #PWR060
U 1 1 55EED123
P 4800 4500
F 0 "#PWR060" H 4800 4500 30  0001 C CNN
F 1 "GND" H 4800 4430 30  0001 C CNN
F 2 "" H 4800 4500 60  0000 C CNN
F 3 "" H 4800 4500 60  0000 C CNN
	1    4800 4500
	1    0    0    -1  
$EndComp
Wire Wire Line
	4800 4200 4800 4500
Wire Wire Line
	4800 4400 4900 4400
Wire Wire Line
	4800 4300 4900 4300
Connection ~ 4800 4400
Wire Wire Line
	4800 4200 4900 4200
Connection ~ 4800 4300
Wire Wire Line
	4800 3900 4900 3900
Wire Wire Line
	4800 4000 4900 4000
Wire Wire Line
	4900 3650 4800 3650
Wire Wire Line
	4800 3650 4800 3750
Wire Wire Line
	4800 3750 4900 3750
$Comp
L C C501
U 1 1 55EED137
P 4300 2700
F 0 "C501" H 4300 2800 40  0000 L CNN
F 1 "0.1u" H 4306 2615 40  0000 L CNN
F 2 "SM0402" H 4338 2550 30  0000 C CNN
F 3 "~" H 4300 2700 60  0000 C CNN
	1    4300 2700
	1    0    0    -1  
$EndComp
$Comp
L VDD #PWR061
U 1 1 55EED13D
P 4300 2400
F 0 "#PWR061" H 4300 2500 30  0001 C CNN
F 1 "VDD" H 4300 2510 30  0000 C CNN
F 2 "" H 4300 2400 60  0000 C CNN
F 3 "" H 4300 2400 60  0000 C CNN
	1    4300 2400
	1    0    0    -1  
$EndComp
Wire Wire Line
	4300 2400 4300 2500
$Comp
L GND #PWR062
U 1 1 55EED144
P 4300 3000
F 0 "#PWR062" H 4300 3000 30  0001 C CNN
F 1 "GND" H 4300 2930 30  0001 C CNN
F 2 "" H 4300 3000 60  0000 C CNN
F 3 "" H 4300 3000 60  0000 C CNN
	1    4300 3000
	1    0    0    -1  
$EndComp
Wire Wire Line
	4300 3000 4300 2900
$Comp
L C C502
U 1 1 55EED14B
P 6550 2650
F 0 "C502" H 6550 2750 40  0000 L CNN
F 1 "0.1u" H 6556 2565 40  0000 L CNN
F 2 "SM0402" H 6588 2500 30  0000 C CNN
F 3 "~" H 6550 2650 60  0000 C CNN
	1    6550 2650
	1    0    0    -1  
$EndComp
$Comp
L +5VA #PWR063
U 1 1 55EED151
P 6550 2350
F 0 "#PWR063" H 6550 2480 20  0001 C CNN
F 1 "+5VA" H 6550 2450 30  0000 C CNN
F 2 "" H 6550 2350 60  0000 C CNN
F 3 "" H 6550 2350 60  0000 C CNN
	1    6550 2350
	1    0    0    -1  
$EndComp
Wire Wire Line
	6550 2350 6550 2450
$Comp
L AGND #PWR064
U 1 1 55EED158
P 6550 2950
F 0 "#PWR064" H 6550 2950 40  0001 C CNN
F 1 "AGND" H 6550 2880 50  0000 C CNN
F 2 "" H 6550 2950 60  0000 C CNN
F 3 "" H 6550 2950 60  0000 C CNN
	1    6550 2950
	1    0    0    -1  
$EndComp
Wire Wire Line
	6550 2950 6550 2850
$Comp
L R R501
U 1 1 55EED17B
P 6600 3800
F 0 "R501" V 6680 3800 40  0000 C CNN
F 1 "120" V 6607 3801 40  0000 C CNN
F 2 "SM0402" V 6530 3800 30  0000 C CNN
F 3 "~" H 6600 3800 30  0000 C CNN
	1    6600 3800
	-1   0    0    1   
$EndComp
Text HLabel 4800 3900 0    60   Output ~ 0
RX
Text HLabel 4800 4000 0    60   Input ~ 0
TX
Text HLabel 4600 3700 0    60   Input ~ 0
TX_EN
Wire Wire Line
	4600 3700 4800 3700
Connection ~ 4800 3700
Text HLabel 6750 3550 2    60   BiDi ~ 0
RS485_A
Text HLabel 6750 4050 2    60   BiDi ~ 0
RS485_B
Wire Wire Line
	6100 3750 6400 3750
Wire Wire Line
	6400 3750 6400 3550
Wire Wire Line
	6400 3550 6750 3550
Wire Wire Line
	6100 3850 6400 3850
Wire Wire Line
	6400 3850 6400 4050
Wire Wire Line
	6400 4050 6750 4050
Connection ~ 6600 3550
Connection ~ 6600 4050
$EndSCHEMATC
