EESchema Schematic File Version 2
LIBS:power
LIBS:device
LIBS:transistors
LIBS:conn
LIBS:linear
LIBS:regul
LIBS:74xx
LIBS:cmos4000
LIBS:adc-dac
LIBS:memory
LIBS:xilinx
LIBS:special
LIBS:microcontrollers
LIBS:dsp
LIBS:microchip
LIBS:analog_switches
LIBS:motorola
LIBS:texas
LIBS:intel
LIBS:audio
LIBS:interface
LIBS:digital-audio
LIBS:philips
LIBS:display
LIBS:cypress
LIBS:siliconi
LIBS:opto
LIBS:atmel
LIBS:contrib
LIBS:valves
LIBS:crap
LIBS:canfutaba-cache
EELAYER 27 0
EELAYER END
$Descr A4 11693 8268
encoding utf-8
Sheet 4 6
Title ""
Date "9 oct 2015"
Rev ""
Comp ""
Comment1 ""
Comment2 ""
Comment3 ""
Comment4 ""
$EndDescr
Text HLabel 6650 4000 2    60   Input ~ 0
UART_RX
Text HLabel 6650 3900 2    60   Output ~ 0
UART_TX
$Comp
L R R401
U 1 1 55EEC5F7
P 3700 4000
F 0 "R401" V 3780 4000 40  0000 C CNN
F 1 "100k" V 3707 4001 40  0000 C CNN
F 2 "SM0402" V 3630 4000 30  0000 C CNN
F 3 "~" H 3700 4000 30  0000 C CNN
	1    3700 4000
	0    -1   -1   0   
$EndComp
$Comp
L GND #PWR046
U 1 1 55EEC5FD
P 3300 4000
F 0 "#PWR046" H 3300 4000 30  0001 C CNN
F 1 "GND" H 3300 3930 30  0001 C CNN
F 2 "" H 3300 4000 60  0000 C CNN
F 3 "" H 3300 4000 60  0000 C CNN
	1    3300 4000
	0    1    1    0   
$EndComp
Text Label 7150 4300 0    60   ~ 0
DBG_TX
Text Label 7150 4400 0    60   ~ 0
DBG_RX
$Comp
L GND #PWR047
U 1 1 55EEC613
P 3950 4800
F 0 "#PWR047" H 3950 4800 30  0001 C CNN
F 1 "GND" H 3950 4730 30  0001 C CNN
F 2 "" H 3950 4800 60  0000 C CNN
F 3 "" H 3950 4800 60  0000 C CNN
	1    3950 4800
	1    0    0    -1  
$EndComp
$Comp
L VDD #PWR048
U 1 1 55EEC61F
P 3950 1500
F 0 "#PWR048" H 3950 1600 30  0001 C CNN
F 1 "VDD" H 3950 1610 30  0000 C CNN
F 2 "" H 3950 1500 60  0000 C CNN
F 3 "" H 3950 1500 60  0000 C CNN
	1    3950 1500
	1    0    0    -1  
$EndComp
$Comp
L C C402
U 1 1 55EEC62C
P 1050 3400
F 0 "C402" H 1050 3500 40  0000 L CNN
F 1 "1u" H 1056 3315 40  0000 L CNN
F 2 "SM0603" H 1088 3250 30  0000 C CNN
F 3 "~" H 1050 3400 60  0000 C CNN
	1    1050 3400
	1    0    0    -1  
$EndComp
$Comp
L C C404
U 1 1 55EEC632
P 1300 3400
F 0 "C404" H 1300 3500 40  0000 L CNN
F 1 "0.01u" H 1306 3315 40  0000 L CNN
F 2 "SM0402" H 1338 3250 30  0000 C CNN
F 3 "~" H 1300 3400 60  0000 C CNN
	1    1300 3400
	1    0    0    -1  
$EndComp
Text Notes 1500 3400 0    60   ~ 0
Close to VDDA
$Comp
L GND #PWR049
U 1 1 55EEC639
P 1050 3700
F 0 "#PWR049" H 1050 3700 30  0001 C CNN
F 1 "GND" H 1050 3630 30  0001 C CNN
F 2 "" H 1050 3700 60  0000 C CNN
F 3 "" H 1050 3700 60  0000 C CNN
	1    1050 3700
	1    0    0    -1  
$EndComp
$Comp
L VDD #PWR050
U 1 1 55EEC643
P 1050 3100
F 0 "#PWR050" H 1050 3200 30  0001 C CNN
F 1 "VDD" H 1050 3210 30  0000 C CNN
F 2 "" H 1050 3100 60  0000 C CNN
F 3 "" H 1050 3100 60  0000 C CNN
	1    1050 3100
	1    0    0    -1  
$EndComp
$Comp
L C C403
U 1 1 55EEC64D
P 1050 4300
F 0 "C403" H 1050 4400 40  0000 L CNN
F 1 "0.1u" H 1056 4215 40  0000 L CNN
F 2 "SM0402" H 1088 4150 30  0000 C CNN
F 3 "~" H 1050 4300 60  0000 C CNN
	1    1050 4300
	1    0    0    -1  
$EndComp
$Comp
L C C406
U 1 1 55EEC653
P 1600 4300
F 0 "C406" H 1600 4400 40  0000 L CNN
F 1 "4.7u" H 1606 4215 40  0000 L CNN
F 2 "SM0805" H 1638 4150 30  0000 C CNN
F 3 "~" H 1600 4300 60  0000 C CNN
	1    1600 4300
	1    0    0    -1  
$EndComp
$Comp
L C C401
U 1 1 55EEC659
P 800 4300
F 0 "C401" H 800 4400 40  0000 L CNN
F 1 "0.1u" H 806 4215 40  0000 L CNN
F 2 "SM0402" H 838 4150 30  0000 C CNN
F 3 "~" H 800 4300 60  0000 C CNN
	1    800  4300
	1    0    0    -1  
$EndComp
$Comp
L C C405
U 1 1 55EEC65F
P 1300 4300
F 0 "C405" H 1300 4400 40  0000 L CNN
F 1 "0.1u" H 1306 4215 40  0000 L CNN
F 2 "SM0402" H 1338 4150 30  0000 C CNN
F 3 "~" H 1300 4300 60  0000 C CNN
	1    1300 4300
	1    0    0    -1  
$EndComp
$Comp
L GND #PWR051
U 1 1 55EEC665
P 800 4600
F 0 "#PWR051" H 800 4600 30  0001 C CNN
F 1 "GND" H 800 4530 30  0001 C CNN
F 2 "" H 800 4600 60  0000 C CNN
F 3 "" H 800 4600 60  0000 C CNN
	1    800  4600
	1    0    0    -1  
$EndComp
$Comp
L VDD #PWR052
U 1 1 55EEC673
P 800 4000
F 0 "#PWR052" H 800 4100 30  0001 C CNN
F 1 "VDD" H 800 4110 30  0000 C CNN
F 2 "" H 800 4000 60  0000 C CNN
F 3 "" H 800 4000 60  0000 C CNN
	1    800  4000
	1    0    0    -1  
$EndComp
Text Notes 1750 4250 0    60   ~ 0
Each 0.1u close to VDD_x\n4.7u close to VDD_3
$Comp
L GND #PWR053
U 1 1 55EEC686
P 2900 6700
F 0 "#PWR053" H 2900 6700 30  0001 C CNN
F 1 "GND" H 2900 6630 30  0001 C CNN
F 2 "" H 2900 6700 60  0000 C CNN
F 3 "" H 2900 6700 60  0000 C CNN
	1    2900 6700
	1    0    0    -1  
$EndComp
$Comp
L VDD #PWR054
U 1 1 55EEC68E
P 2900 6000
F 0 "#PWR054" H 2900 6100 30  0001 C CNN
F 1 "VDD" H 2900 6110 30  0000 C CNN
F 2 "" H 2900 6000 60  0000 C CNN
F 3 "" H 2900 6000 60  0000 C CNN
	1    2900 6000
	1    0    0    -1  
$EndComp
Text Label 2900 6500 0    60   ~ 0
SWCLK
Text Label 2900 6400 0    60   ~ 0
SWDIO
Text Label 2900 6300 0    60   ~ 0
DBG_RX
Text Label 2900 6200 0    60   ~ 0
DBG_TX
$Comp
L LED D401
U 1 1 55EEC69E
P 9000 5300
F 0 "D401" H 9000 5400 50  0000 C CNN
F 1 "LED" H 9000 5200 50  0000 C CNN
F 2 "LED-0603" H 9000 5300 60  0000 C CNN
F 3 "~" H 9000 5300 60  0000 C CNN
	1    9000 5300
	0    1    1    0   
$EndComp
$Comp
L R R402
U 1 1 55EEC6A4
P 9000 5850
F 0 "R402" V 9080 5850 40  0000 C CNN
F 1 "1k" V 9007 5851 40  0000 C CNN
F 2 "SM0402" V 8930 5850 30  0000 C CNN
F 3 "~" H 9000 5850 30  0000 C CNN
	1    9000 5850
	1    0    0    -1  
$EndComp
$Comp
L LED D402
U 1 1 55EEC6AC
P 9250 5300
F 0 "D402" H 9250 5400 50  0000 C CNN
F 1 "LED" H 9250 5200 50  0000 C CNN
F 2 "LED-0603" H 9250 5300 60  0000 C CNN
F 3 "~" H 9250 5300 60  0000 C CNN
	1    9250 5300
	0    1    1    0   
$EndComp
$Comp
L R R403
U 1 1 55EEC6B2
P 9250 5850
F 0 "R403" V 9330 5850 40  0000 C CNN
F 1 "1k" V 9257 5851 40  0000 C CNN
F 2 "SM0402" V 9180 5850 30  0000 C CNN
F 3 "~" H 9250 5850 30  0000 C CNN
	1    9250 5850
	1    0    0    -1  
$EndComp
Text Label 9000 5000 1    60   ~ 0
LED0
Text Label 9250 5000 1    60   ~ 0
LED1
Text Label 3950 3000 2    60   ~ 0
LED0
Text Label 4000 2900 2    60   ~ 0
LED1
Text Notes 2300 6950 0    60   ~ 0
Prog & Debug
$Comp
L JTAGCON P401
U 1 1 55EEC6DD
P 2100 6350
F 0 "P401" H 2600 6000 60  0000 C CNN
F 1 "JTAGCON" H 1850 6750 60  0000 C CNN
F 2 "BM06B-SRSS-TB" H 2050 5950 60  0000 C CNN
F 3 "~" H 2550 6550 60  0000 C CNN
	1    2100 6350
	1    0    0    -1  
$EndComp
$Comp
L GND #PWR055
U 1 1 55EEC6E4
P 1500 6700
F 0 "#PWR055" H 1500 6700 30  0001 C CNN
F 1 "GND" H 1500 6630 30  0001 C CNN
F 2 "" H 1500 6700 60  0000 C CNN
F 3 "" H 1500 6700 60  0000 C CNN
	1    1500 6700
	1    0    0    -1  
$EndComp
$Comp
L STM32F103CX U401
U 1 1 55EEC6EF
P 5050 3200
F 0 "U401" H 5450 1450 60  0000 C CNN
F 1 "STM32F103CX" H 5050 4800 60  0000 C CNN
F 2 "LQFP48" H 5050 3200 60  0000 C CNN
F 3 "~" H 5050 3200 60  0000 C CNN
	1    5050 3200
	1    0    0    -1  
$EndComp
Text Notes 6100 4300 0    60   ~ 0
USART3_TX
Text Notes 6100 4400 0    60   ~ 0
USART3_RX
$Comp
L GND #PWR056
U 1 1 55EEC6FC
P 9100 6300
F 0 "#PWR056" H 9100 6300 30  0001 C CNN
F 1 "GND" H 9100 6230 30  0001 C CNN
F 2 "" H 9100 6300 60  0000 C CNN
F 3 "" H 9100 6300 60  0000 C CNN
	1    9100 6300
	1    0    0    -1  
$EndComp
Text HLabel 6800 3800 2    60   Output ~ 0
RS485_SELECT
Wire Wire Line
	6000 3800 6800 3800
Connection ~ 9100 6200
Wire Wire Line
	9000 6200 9250 6200
Wire Wire Line
	9100 6300 9100 6200
Wire Wire Line
	6000 4400 7150 4400
Wire Wire Line
	7150 4300 6000 4300
Connection ~ 3950 1700
Wire Wire Line
	3950 1700 4100 1700
Wire Wire Line
	3950 2300 4100 2300
Connection ~ 1500 6600
Wire Wire Line
	1500 6500 1600 6500
Wire Wire Line
	1500 6600 1600 6600
Wire Wire Line
	1500 6500 1500 6700
Wire Notes Line
	1350 5750 1350 7000
Wire Notes Line
	3300 5750 1350 5750
Wire Notes Line
	3300 7000 3300 5750
Wire Notes Line
	1350 7000 3300 7000
Connection ~ 3950 4700
Wire Wire Line
	3950 4700 4100 4700
Wire Wire Line
	9000 6200 9000 6100
Wire Wire Line
	9250 6200 9250 6100
Wire Wire Line
	9250 5500 9250 5600
Wire Wire Line
	9250 5000 9250 5100
Wire Wire Line
	9000 5500 9000 5600
Wire Wire Line
	9000 5000 9000 5100
Wire Wire Line
	2800 6500 2900 6500
Wire Wire Line
	2900 6400 2800 6400
Wire Wire Line
	2800 6300 2900 6300
Wire Wire Line
	2900 6200 2800 6200
Wire Wire Line
	2900 6100 2800 6100
Wire Wire Line
	2900 6000 2900 6100
Wire Wire Line
	2900 6600 2900 6700
Wire Wire Line
	2800 6600 2900 6600
Connection ~ 1300 4050
Wire Wire Line
	1600 4050 1600 4100
Connection ~ 1050 4050
Wire Wire Line
	1300 4050 1300 4100
Connection ~ 800  4050
Wire Wire Line
	1050 4050 1050 4100
Wire Wire Line
	800  4050 1600 4050
Wire Wire Line
	800  4000 800  4100
Connection ~ 1300 4550
Wire Wire Line
	1600 4550 1600 4500
Connection ~ 1050 4550
Wire Wire Line
	1300 4550 1300 4500
Connection ~ 800  4550
Wire Wire Line
	1050 4550 1050 4500
Wire Wire Line
	800  4550 1600 4550
Wire Wire Line
	800  4500 800  4600
Connection ~ 1050 3150
Wire Wire Line
	1300 3150 1300 3200
Wire Wire Line
	1050 3150 1300 3150
Wire Wire Line
	1050 3100 1050 3200
Connection ~ 1050 3650
Wire Wire Line
	1300 3650 1300 3600
Wire Wire Line
	1050 3650 1300 3650
Wire Wire Line
	1050 3600 1050 3700
Connection ~ 3950 2100
Connection ~ 3950 2000
Wire Wire Line
	3950 2100 4100 2100
Connection ~ 3950 1900
Wire Wire Line
	3950 2000 4100 2000
Wire Wire Line
	3950 1900 4100 1900
Wire Wire Line
	3950 1500 3950 2300
Connection ~ 3950 4400
Wire Wire Line
	3950 4300 4100 4300
Connection ~ 3950 4500
Wire Wire Line
	3950 4400 4100 4400
Wire Wire Line
	3950 4500 4100 4500
Wire Wire Line
	3950 4300 3950 4800
Wire Wire Line
	3950 4000 4100 4000
Wire Wire Line
	3300 4000 3450 4000
Text HLabel 6100 2800 2    60   Output ~ 0
CAN_TX
Text HLabel 6100 2700 2    60   Input ~ 0
CAN_RX
Text Label 6100 2900 0    60   ~ 0
SWDIO
Text Label 6100 3000 0    60   ~ 0
SWCLK
Text Notes 6100 2500 0    60   ~ 0
USART1_TX
Text Notes 6100 2600 0    60   ~ 0
USART1_RX
Wire Wire Line
	6000 2700 6100 2700
Wire Wire Line
	6000 2800 6100 2800
Wire Wire Line
	6000 2900 6100 2900
Wire Wire Line
	6000 3000 6100 3000
Wire Wire Line
	6000 2500 6600 2500
Wire Wire Line
	6000 2600 6600 2600
Text Notes 6100 1800 0    60   ~ 0
USART2_TX
Text Notes 6100 1900 0    60   ~ 0
USART2_RX
Text Notes 6100 3900 0    60   ~ 0
USART1_TX*
Text Notes 6100 4000 0    60   ~ 0
USART1_RX*
Wire Wire Line
	6650 3900 6000 3900
Wire Wire Line
	6000 4000 6650 4000
Wire Wire Line
	4000 2900 4100 2900
Wire Wire Line
	4100 3000 3950 3000
$EndSCHEMATC
