EESchema Schematic File Version 2
LIBS:power
LIBS:device
LIBS:transistors
LIBS:conn
LIBS:linear
LIBS:regul
LIBS:74xx
LIBS:cmos4000
LIBS:adc-dac
LIBS:memory
LIBS:xilinx
LIBS:special
LIBS:microcontrollers
LIBS:dsp
LIBS:microchip
LIBS:analog_switches
LIBS:motorola
LIBS:texas
LIBS:intel
LIBS:audio
LIBS:interface
LIBS:digital-audio
LIBS:philips
LIBS:display
LIBS:cypress
LIBS:siliconi
LIBS:opto
LIBS:atmel
LIBS:contrib
LIBS:valves
LIBS:crap
LIBS:canfutaba-cache
EELAYER 27 0
EELAYER END
$Descr A4 11693 8268
encoding utf-8
Sheet 3 6
Title ""
Date "9 oct 2015"
Rev ""
Comp ""
Comment1 ""
Comment2 ""
Comment3 ""
Comment4 ""
$EndDescr
$Comp
L +5VA #PWR024
U 1 1 55EEB95D
P 3750 4250
F 0 "#PWR024" H 3750 4380 20  0001 C CNN
F 1 "+5VA" H 3750 4350 30  0000 C CNN
F 2 "" H 3750 4250 60  0000 C CNN
F 3 "" H 3750 4250 60  0000 C CNN
	1    3750 4250
	1    0    0    -1  
$EndComp
$Comp
L TPS54531 U301
U 1 1 55EEB964
P 3550 2000
F 0 "U301" H 3950 1900 60  0000 C CNN
F 1 "TPS54531" H 3250 2650 60  0000 C CNN
F 2 "SO-POWERPAD-8" H 3450 1850 60  0000 C CNN
F 3 "" H 3550 2000 60  0000 C CNN
	1    3550 2000
	1    0    0    -1  
$EndComp
$Comp
L C C301
U 1 1 55EEB96A
P 950 1700
F 0 "C301" H 950 1800 40  0000 L CNN
F 1 "4.7u" H 956 1615 40  0000 L CNN
F 2 "SM1206" H 988 1550 30  0000 C CNN
F 3 "~" H 950 1700 60  0000 C CNN
F 4 "50" H 950 1700 60  0001 C CNN "Voltage"
	1    950  1700
	1    0    0    -1  
$EndComp
$Comp
L C C303
U 1 1 55EEB976
P 1450 1700
F 0 "C303" H 1450 1800 40  0000 L CNN
F 1 "0.01u" H 1456 1615 40  0000 L CNN
F 2 "SM0402" H 1488 1550 30  0000 C CNN
F 3 "~" H 1450 1700 60  0000 C CNN
F 4 "50" H 1450 1700 60  0001 C CNN "Voltage"
	1    1450 1700
	1    0    0    -1  
$EndComp
Wire Wire Line
	950  1950 1450 1950
Wire Wire Line
	950  1950 950  1900
Wire Wire Line
	1450 1950 1450 1900
$Comp
L +BATT #PWR025
U 1 1 55EEB987
P 1200 1400
F 0 "#PWR025" H 1200 1350 20  0001 C CNN
F 1 "+BATT" H 1200 1500 30  0000 C CNN
F 2 "" H 1200 1400 60  0000 C CNN
F 3 "" H 1200 1400 60  0000 C CNN
	1    1200 1400
	1    0    0    -1  
$EndComp
Wire Wire Line
	950  1450 1450 1450
Wire Wire Line
	1450 1450 1450 1500
Wire Wire Line
	950  1450 950  1500
$Comp
L +BATT #PWR026
U 1 1 55EEB992
P 2800 1400
F 0 "#PWR026" H 2800 1350 20  0001 C CNN
F 1 "+BATT" H 2800 1500 30  0000 C CNN
F 2 "" H 2800 1400 60  0000 C CNN
F 3 "" H 2800 1400 60  0000 C CNN
	1    2800 1400
	1    0    0    -1  
$EndComp
Wire Wire Line
	2800 1400 2800 1600
Wire Wire Line
	2800 1500 2900 1500
$Comp
L AGND #PWR027
U 1 1 55EEB99A
P 2800 2050
F 0 "#PWR027" H 2800 2050 40  0001 C CNN
F 1 "AGND" H 2800 1980 50  0000 C CNN
F 2 "" H 2800 2050 60  0000 C CNN
F 3 "" H 2800 2050 60  0000 C CNN
	1    2800 2050
	1    0    0    -1  
$EndComp
Wire Wire Line
	2800 1850 2800 2050
Wire Wire Line
	2800 1950 2900 1950
Wire Wire Line
	2800 1850 2900 1850
Connection ~ 2800 1950
$Comp
L C C304
U 1 1 55EEB9A4
P 2400 1950
F 0 "C304" H 2400 2050 40  0000 L CNN
F 1 "0.01u" H 2406 1865 40  0000 L CNN
F 2 "SM0402" H 2438 1800 30  0000 C CNN
F 3 "~" H 2400 1950 60  0000 C CNN
	1    2400 1950
	1    0    0    -1  
$EndComp
$Comp
L AGND #PWR028
U 1 1 55EEB9AA
P 2400 2250
F 0 "#PWR028" H 2400 2250 40  0001 C CNN
F 1 "AGND" H 2400 2180 50  0000 C CNN
F 2 "" H 2400 2250 60  0000 C CNN
F 3 "" H 2400 2250 60  0000 C CNN
	1    2400 2250
	1    0    0    -1  
$EndComp
Wire Wire Line
	2400 2250 2400 2150
Wire Wire Line
	2400 1750 2400 1700
Wire Wire Line
	2400 1700 2900 1700
$Comp
L C C307
U 1 1 55EEB9B3
P 4500 1500
F 0 "C307" H 4500 1600 40  0000 L CNN
F 1 "0.1u" H 4506 1415 40  0000 L CNN
F 2 "SM0603" H 4538 1350 30  0000 C CNN
F 3 "~" H 4500 1500 60  0000 C CNN
F 4 "50" H 4500 1500 60  0001 C CNN "Voltage"
	1    4500 1500
	0    -1   -1   0   
$EndComp
Wire Wire Line
	4150 1500 4300 1500
Wire Wire Line
	4700 1500 4700 1600
Wire Wire Line
	4700 1600 4150 1600
$Comp
L INDUCTOR L301
U 1 1 55EEB9BC
P 5300 1500
F 0 "L301" V 5250 1500 40  0000 C CNN
F 1 "4.7u" V 5400 1500 40  0000 C CNN
F 2 "WE_SMD_INDUCTOR_1040" V 5500 1350 60  0000 C CNN
F 3 "~" H 5300 1500 60  0000 C CNN
	1    5300 1500
	0    -1   -1   0   
$EndComp
$Comp
L DIODESCH D301
U 1 1 55EEB9C2
P 4850 1800
F 0 "D301" H 4850 1900 40  0000 C CNN
F 1 "60V 0.5A" H 4850 1700 40  0000 C CNN
F 2 "DIODE_SMC_B520C" H 4650 1650 60  0000 C CNN
F 3 "~" H 4850 1800 60  0000 C CNN
	1    4850 1800
	0    -1   -1   0   
$EndComp
Wire Wire Line
	4700 1500 5000 1500
Wire Wire Line
	4850 1500 4850 1600
Connection ~ 4850 1500
$Comp
L R R304
U 1 1 55EEB9CB
P 6750 1800
F 0 "R304" V 6830 1800 40  0000 C CNN
F 1 "10.2k" V 6757 1801 40  0000 C CNN
F 2 "SM0402" V 6680 1800 30  0000 C CNN
F 3 "~" H 6750 1800 30  0000 C CNN
	1    6750 1800
	-1   0    0    1   
$EndComp
$Comp
L R R305
U 1 1 55EEB9D1
P 6750 2450
F 0 "R305" V 6830 2450 40  0000 C CNN
F 1 "1.23k" V 6757 2451 40  0000 C CNN
F 2 "SM0402" V 6680 2450 30  0000 C CNN
F 3 "~" H 6750 2450 30  0000 C CNN
	1    6750 2450
	-1   0    0    1   
$EndComp
$Comp
L AGND #PWR029
U 1 1 55EEB9D7
P 6750 2800
F 0 "#PWR029" H 6750 2800 40  0001 C CNN
F 1 "AGND" H 6750 2730 50  0000 C CNN
F 2 "" H 6750 2800 60  0000 C CNN
F 3 "" H 6750 2800 60  0000 C CNN
	1    6750 2800
	1    0    0    -1  
$EndComp
Wire Wire Line
	6750 2800 6750 2700
$Comp
L C C310
U 1 1 55EEB9DE
P 5800 1850
F 0 "C310" H 5800 1950 40  0000 L CNN
F 1 "47u" H 5806 1765 40  0000 L CNN
F 2 "SM1210" H 5838 1700 30  0000 C CNN
F 3 "~" H 5800 1850 60  0000 C CNN
F 4 "16" H 5800 1850 60  0001 C CNN "Voltage"
	1    5800 1850
	1    0    0    -1  
$EndComp
Wire Wire Line
	5600 1500 7450 1500
$Comp
L AGND #PWR030
U 1 1 55EEB9E5
P 5800 2200
F 0 "#PWR030" H 5800 2200 40  0001 C CNN
F 1 "AGND" H 5800 2130 50  0000 C CNN
F 2 "" H 5800 2200 60  0000 C CNN
F 3 "" H 5800 2200 60  0000 C CNN
	1    5800 2200
	1    0    0    -1  
$EndComp
Wire Wire Line
	5800 2200 5800 2050
Wire Wire Line
	6750 1500 6750 1550
Wire Wire Line
	6750 2050 6750 2200
Text Label 6600 2100 2    60   ~ 0
SENS
Wire Wire Line
	6600 2100 6750 2100
Connection ~ 6750 2100
Connection ~ 6750 1500
Wire Wire Line
	7450 1500 7450 1400
Text Label 4250 1900 0    60   ~ 0
SENS
Wire Wire Line
	4250 1900 4150 1900
$Comp
L C C311
U 1 1 55EEB9F5
P 6050 1850
F 0 "C311" H 6050 1950 40  0000 L CNN
F 1 "47u" H 6056 1765 40  0000 L CNN
F 2 "SM1210" H 6088 1700 30  0000 C CNN
F 3 "~" H 6050 1850 60  0000 C CNN
F 4 "16" H 6050 1850 60  0001 C CNN "Voltage"
	1    6050 1850
	1    0    0    -1  
$EndComp
Wire Wire Line
	5800 2100 6050 2100
Wire Wire Line
	6050 2100 6050 2050
Connection ~ 5800 2100
Wire Wire Line
	5800 1650 5800 1500
Wire Wire Line
	5800 1600 6050 1600
Wire Wire Line
	6050 1600 6050 1650
Connection ~ 5800 1600
Connection ~ 5800 1500
$Comp
L C C308
U 1 1 55EEBA03
P 4550 2400
F 0 "C308" H 4550 2500 40  0000 L CNN
F 1 "2200p" H 4556 2315 40  0000 L CNN
F 2 "SM0402" H 4588 2250 30  0000 C CNN
F 3 "~" H 4550 2400 60  0000 C CNN
	1    4550 2400
	1    0    0    -1  
$EndComp
$Comp
L C C306
U 1 1 55EEBA09
P 4200 2700
F 0 "C306" H 4200 2800 40  0000 L CNN
F 1 "22p" H 4206 2615 40  0000 L CNN
F 2 "SM0402" H 4238 2550 30  0000 C CNN
F 3 "~" H 4200 2700 60  0000 C CNN
	1    4200 2700
	1    0    0    -1  
$EndComp
$Comp
L R R301
U 1 1 55EEBA0F
P 4550 2950
F 0 "R301" V 4630 2950 40  0000 C CNN
F 1 "37.4k" V 4557 2951 40  0000 C CNN
F 2 "SM0402" V 4480 2950 30  0000 C CNN
F 3 "~" H 4550 2950 30  0000 C CNN
	1    4550 2950
	1    0    0    -1  
$EndComp
$Comp
L AGND #PWR031
U 1 1 55EEBA15
P 4550 3300
F 0 "#PWR031" H 4550 3300 40  0001 C CNN
F 1 "AGND" H 4550 3230 50  0000 C CNN
F 2 "" H 4550 3300 60  0000 C CNN
F 3 "" H 4550 3300 60  0000 C CNN
	1    4550 3300
	1    0    0    -1  
$EndComp
Wire Wire Line
	4550 3300 4550 3200
Connection ~ 4550 3250
Wire Wire Line
	4550 2700 4550 2600
Wire Wire Line
	4550 1800 4550 2200
Wire Wire Line
	4550 1800 4150 1800
Connection ~ 4550 2100
Wire Wire Line
	4200 3250 4850 3250
Wire Wire Line
	4200 3250 4200 2900
Wire Wire Line
	4200 2500 4200 2100
Wire Wire Line
	4200 2100 4550 2100
Wire Wire Line
	4850 3250 4850 2000
Text Notes 6100 3050 0    60   ~ 0
Vout = 0.8 * (1 + R5/R6)\nVout = 7.4V
$Comp
L +6V #PWR032
U 1 1 55EEBA28
P 7450 1400
F 0 "#PWR032" H 7450 1530 20  0001 C CNN
F 1 "+6V" H 7450 1500 30  0000 C CNN
F 2 "" H 7450 1400 60  0000 C CNN
F 3 "" H 7450 1400 60  0000 C CNN
	1    7450 1400
	1    0    0    -1  
$EndComp
$Comp
L LED D303
U 1 1 55EEBA2E
P 9450 2700
F 0 "D303" H 9450 2800 50  0000 C CNN
F 1 "LED" H 9450 2600 50  0000 C CNN
F 2 "LED-0603" H 9450 2500 60  0000 C CNN
F 3 "~" H 9450 2700 60  0000 C CNN
	1    9450 2700
	0    1    1    0   
$EndComp
$Comp
L R R306
U 1 1 55EEBA34
P 9450 3250
F 0 "R306" V 9530 3250 40  0000 C CNN
F 1 "1k" V 9457 3251 40  0000 C CNN
F 2 "SM0402" V 9380 3250 30  0000 C CNN
F 3 "~" H 9450 3250 30  0000 C CNN
	1    9450 3250
	1    0    0    -1  
$EndComp
$Comp
L AGND #PWR033
U 1 1 55EEBA3A
P 9450 3600
F 0 "#PWR033" H 9450 3600 40  0001 C CNN
F 1 "AGND" H 9450 3530 50  0000 C CNN
F 2 "" H 9450 3600 60  0000 C CNN
F 3 "" H 9450 3600 60  0000 C CNN
	1    9450 3600
	1    0    0    -1  
$EndComp
Wire Wire Line
	9450 3600 9450 3500
Wire Wire Line
	9450 3000 9450 2900
Wire Wire Line
	9450 2500 9450 2400
$Comp
L LED D304
U 1 1 55EEBA43
P 9850 2700
F 0 "D304" H 9850 2800 50  0000 C CNN
F 1 "LED" H 9850 2600 50  0000 C CNN
F 2 "LED-0603" H 9850 2900 60  0000 C CNN
F 3 "~" H 9850 2700 60  0000 C CNN
	1    9850 2700
	0    1    1    0   
$EndComp
$Comp
L R R307
U 1 1 55EEBA49
P 9850 3250
F 0 "R307" V 9930 3250 40  0000 C CNN
F 1 "1k" V 9857 3251 40  0000 C CNN
F 2 "SM0402" V 9780 3250 30  0000 C CNN
F 3 "~" H 9850 3250 30  0000 C CNN
	1    9850 3250
	1    0    0    -1  
$EndComp
$Comp
L AGND #PWR034
U 1 1 55EEBA4F
P 9850 3600
F 0 "#PWR034" H 9850 3600 40  0001 C CNN
F 1 "AGND" H 9850 3530 50  0000 C CNN
F 2 "" H 9850 3600 60  0000 C CNN
F 3 "" H 9850 3600 60  0000 C CNN
	1    9850 3600
	1    0    0    -1  
$EndComp
Wire Wire Line
	9850 3600 9850 3500
Wire Wire Line
	9850 3000 9850 2900
Wire Wire Line
	9850 2500 9850 2400
$Comp
L +5VA #PWR035
U 1 1 55EEBA58
P 9450 2400
F 0 "#PWR035" H 9450 2530 20  0001 C CNN
F 1 "+5VA" H 9450 2500 30  0000 C CNN
F 2 "" H 9450 2400 60  0000 C CNN
F 3 "" H 9450 2400 60  0000 C CNN
	1    9450 2400
	1    0    0    -1  
$EndComp
$Comp
L +6V #PWR036
U 1 1 55EEBA5E
P 9850 2400
F 0 "#PWR036" H 9850 2530 20  0001 C CNN
F 1 "+6V" H 9850 2500 30  0000 C CNN
F 2 "" H 9850 2400 60  0000 C CNN
F 3 "" H 9850 2400 60  0000 C CNN
	1    9850 2400
	1    0    0    -1  
$EndComp
$Comp
L CONN_2 P301
U 1 1 55EEBA64
P 9700 5000
F 0 "P301" V 9650 5000 40  0000 C CNN
F 1 "CONN_2" V 9750 5000 40  0000 C CNN
F 2 "PIN_ARRAY_2X1" H 9750 5200 60  0000 C CNN
F 3 "" H 9700 5000 60  0000 C CNN
	1    9700 5000
	1    0    0    1   
$EndComp
$Comp
L AGND #PWR037
U 1 1 55EEBA6A
P 9250 5200
F 0 "#PWR037" H 9250 5200 40  0001 C CNN
F 1 "AGND" H 9250 5130 50  0000 C CNN
F 2 "" H 9250 5200 60  0000 C CNN
F 3 "" H 9250 5200 60  0000 C CNN
	1    9250 5200
	1    0    0    -1  
$EndComp
Wire Wire Line
	9250 5200 9250 5100
Wire Wire Line
	9250 5100 9350 5100
$Comp
L +6V #PWR038
U 1 1 55EEBA72
P 9250 4800
F 0 "#PWR038" H 9250 4930 20  0001 C CNN
F 1 "+6V" H 9250 4900 30  0000 C CNN
F 2 "" H 9250 4800 60  0000 C CNN
F 3 "" H 9250 4800 60  0000 C CNN
	1    9250 4800
	1    0    0    -1  
$EndComp
Wire Wire Line
	9250 4800 9250 4900
Wire Wire Line
	9250 4900 9350 4900
Text Notes 9000 5450 0    60   ~ 0
Extra connector\nfor capacitor or other use
Wire Wire Line
	2800 1600 2900 1600
Connection ~ 2800 1500
$Comp
L MCP1702 U302
U 1 1 55EF4818
P 3200 4150
F 0 "U302" H 3300 3650 60  0000 C CNN
F 1 "MCP1702" H 3050 4100 60  0000 C CNN
F 2 "SOT23" H 3050 3600 60  0000 C CNN
F 3 "~" H 3200 4150 60  0000 C CNN
	1    3200 4150
	1    0    0    -1  
$EndComp
Wire Wire Line
	2500 4600 2500 4500
Wire Wire Line
	2500 4500 2600 4500
Wire Wire Line
	2500 4250 2500 4350
Wire Wire Line
	2500 4350 2600 4350
Wire Wire Line
	3750 4250 3750 4350
Wire Wire Line
	3750 4350 3650 4350
$Comp
L C C305
U 1 1 55EF4836
P 2150 4400
F 0 "C305" H 2150 4500 40  0000 L CNN
F 1 "1u" H 2156 4315 40  0000 L CNN
F 2 "SM0603" H 2188 4250 30  0000 C CNN
F 3 "~" H 2150 4400 60  0000 C CNN
	1    2150 4400
	1    0    0    -1  
$EndComp
Wire Wire Line
	2150 4650 2150 4600
Wire Wire Line
	2150 4150 2150 4200
$Comp
L C C309
U 1 1 55EF484A
P 4050 4450
F 0 "C309" H 4050 4550 40  0000 L CNN
F 1 "2.2u" H 4056 4365 40  0000 L CNN
F 2 "SM0805" H 4088 4300 30  0000 C CNN
F 3 "~" H 4050 4450 60  0000 C CNN
	1    4050 4450
	1    0    0    -1  
$EndComp
Wire Wire Line
	4050 4700 4050 4650
Wire Wire Line
	4050 4200 4050 4250
$Comp
L +5VA #PWR039
U 1 1 55EF4877
P 4050 4200
F 0 "#PWR039" H 4050 4330 20  0001 C CNN
F 1 "+5VA" H 4050 4300 30  0000 C CNN
F 2 "" H 4050 4200 60  0000 C CNN
F 3 "" H 4050 4200 60  0000 C CNN
	1    4050 4200
	1    0    0    -1  
$EndComp
$Comp
L +6V #PWR040
U 1 1 55EF4882
P 2500 4250
F 0 "#PWR040" H 2500 4380 20  0001 C CNN
F 1 "+6V" H 2500 4350 30  0000 C CNN
F 2 "" H 2500 4250 60  0000 C CNN
F 3 "" H 2500 4250 60  0000 C CNN
	1    2500 4250
	1    0    0    -1  
$EndComp
$Comp
L +6V #PWR041
U 1 1 55EF4892
P 2150 4150
F 0 "#PWR041" H 2150 4280 20  0001 C CNN
F 1 "+6V" H 2150 4250 30  0000 C CNN
F 2 "" H 2150 4150 60  0000 C CNN
F 3 "" H 2150 4150 60  0000 C CNN
	1    2150 4150
	1    0    0    -1  
$EndComp
$Comp
L AGND #PWR042
U 1 1 55EF493D
P 2150 4650
F 0 "#PWR042" H 2150 4650 40  0001 C CNN
F 1 "AGND" H 2150 4580 50  0000 C CNN
F 2 "" H 2150 4650 60  0000 C CNN
F 3 "" H 2150 4650 60  0000 C CNN
	1    2150 4650
	1    0    0    -1  
$EndComp
$Comp
L AGND #PWR043
U 1 1 55EF494D
P 2500 4600
F 0 "#PWR043" H 2500 4600 40  0001 C CNN
F 1 "AGND" H 2500 4530 50  0000 C CNN
F 2 "" H 2500 4600 60  0000 C CNN
F 3 "" H 2500 4600 60  0000 C CNN
	1    2500 4600
	1    0    0    -1  
$EndComp
$Comp
L AGND #PWR044
U 1 1 55EF4953
P 4050 4700
F 0 "#PWR044" H 4050 4700 40  0001 C CNN
F 1 "AGND" H 4050 4630 50  0000 C CNN
F 2 "" H 4050 4700 60  0000 C CNN
F 3 "" H 4050 4700 60  0000 C CNN
	1    4050 4700
	1    0    0    -1  
$EndComp
$Comp
L AGND #PWR045
U 1 1 55EEB97C
P 1200 2050
F 0 "#PWR045" H 1200 2050 40  0001 C CNN
F 1 "AGND" H 1200 1980 50  0000 C CNN
F 2 "" H 1200 2050 60  0000 C CNN
F 3 "" H 1200 2050 60  0000 C CNN
	1    1200 2050
	1    0    0    -1  
$EndComp
Wire Wire Line
	1200 1400 1200 1450
Connection ~ 1200 1450
Wire Wire Line
	1200 1950 1200 2050
Connection ~ 1200 1950
$EndSCHEMATC
