EESchema Schematic File Version 2
LIBS:power
LIBS:device
LIBS:transistors
LIBS:conn
LIBS:linear
LIBS:regul
LIBS:74xx
LIBS:cmos4000
LIBS:adc-dac
LIBS:memory
LIBS:xilinx
LIBS:special
LIBS:microcontrollers
LIBS:dsp
LIBS:microchip
LIBS:analog_switches
LIBS:motorola
LIBS:texas
LIBS:intel
LIBS:audio
LIBS:interface
LIBS:digital-audio
LIBS:philips
LIBS:display
LIBS:cypress
LIBS:siliconi
LIBS:opto
LIBS:atmel
LIBS:contrib
LIBS:valves
LIBS:crap
LIBS:canfutaba-cache
EELAYER 27 0
EELAYER END
$Descr A4 11693 8268
encoding utf-8
Sheet 2 6
Title ""
Date "9 oct 2015"
Rev ""
Comp ""
Comment1 ""
Comment2 ""
Comment3 ""
Comment4 ""
$EndDescr
$Comp
L MCP1702 U201
U 1 1 55EEB4E8
P 5200 3350
F 0 "U201" H 5300 2850 60  0000 C CNN
F 1 "MCP1702" H 5050 3300 60  0000 C CNN
F 2 "SOT23" H 5050 2800 60  0000 C CNN
F 3 "~" H 5200 3350 60  0000 C CNN
	1    5200 3350
	1    0    0    -1  
$EndComp
$Comp
L GND #PWR015
U 1 1 55EEB4EE
P 4500 3800
F 0 "#PWR015" H 4500 3800 30  0001 C CNN
F 1 "GND" H 4500 3730 30  0001 C CNN
F 2 "" H 4500 3800 60  0000 C CNN
F 3 "" H 4500 3800 60  0000 C CNN
	1    4500 3800
	1    0    0    -1  
$EndComp
Wire Wire Line
	4500 3800 4500 3700
Wire Wire Line
	4500 3700 4600 3700
$Comp
L +5V #PWR016
U 1 1 55EEB4F6
P 4500 3450
F 0 "#PWR016" H 4500 3540 20  0001 C CNN
F 1 "+5V" H 4500 3540 30  0000 C CNN
F 2 "" H 4500 3450 60  0000 C CNN
F 3 "" H 4500 3450 60  0000 C CNN
	1    4500 3450
	1    0    0    -1  
$EndComp
Wire Wire Line
	4500 3450 4500 3550
Wire Wire Line
	4500 3550 4600 3550
$Comp
L VDD #PWR017
U 1 1 55EEB4FE
P 5750 3450
F 0 "#PWR017" H 5750 3550 30  0001 C CNN
F 1 "VDD" H 5750 3560 30  0000 C CNN
F 2 "" H 5750 3450 60  0000 C CNN
F 3 "" H 5750 3450 60  0000 C CNN
	1    5750 3450
	1    0    0    -1  
$EndComp
Wire Wire Line
	5750 3450 5750 3550
Wire Wire Line
	5750 3550 5650 3550
$Comp
L C C201
U 1 1 55EEB506
P 4150 3600
F 0 "C201" H 4150 3700 40  0000 L CNN
F 1 "1u" H 4156 3515 40  0000 L CNN
F 2 "SM0603" H 4188 3450 30  0000 C CNN
F 3 "~" H 4150 3600 60  0000 C CNN
F 4 "16" H 4150 3600 60  0001 C CNN "Voltage"
	1    4150 3600
	1    0    0    -1  
$EndComp
$Comp
L GND #PWR018
U 1 1 55EEB50C
P 4150 3850
F 0 "#PWR018" H 4150 3850 30  0001 C CNN
F 1 "GND" H 4150 3780 30  0001 C CNN
F 2 "" H 4150 3850 60  0000 C CNN
F 3 "" H 4150 3850 60  0000 C CNN
	1    4150 3850
	1    0    0    -1  
$EndComp
Wire Wire Line
	4150 3850 4150 3800
$Comp
L +5V #PWR019
U 1 1 55EEB513
P 4150 3350
F 0 "#PWR019" H 4150 3440 20  0001 C CNN
F 1 "+5V" H 4150 3440 30  0000 C CNN
F 2 "" H 4150 3350 60  0000 C CNN
F 3 "" H 4150 3350 60  0000 C CNN
	1    4150 3350
	1    0    0    -1  
$EndComp
Wire Wire Line
	4150 3350 4150 3400
$Comp
L C C202
U 1 1 55EEB51A
P 6050 3650
F 0 "C202" H 6050 3750 40  0000 L CNN
F 1 "10u" H 6056 3565 40  0000 L CNN
F 2 "SM0805" H 6088 3500 30  0000 C CNN
F 3 "~" H 6050 3650 60  0000 C CNN
F 4 "10" H 6050 3650 60  0001 C CNN "Voltage"
	1    6050 3650
	1    0    0    -1  
$EndComp
$Comp
L GND #PWR020
U 1 1 55EEB520
P 6050 3900
F 0 "#PWR020" H 6050 3900 30  0001 C CNN
F 1 "GND" H 6050 3830 30  0001 C CNN
F 2 "" H 6050 3900 60  0000 C CNN
F 3 "" H 6050 3900 60  0000 C CNN
	1    6050 3900
	1    0    0    -1  
$EndComp
Wire Wire Line
	6050 3900 6050 3850
Wire Wire Line
	6050 3400 6050 3450
$Comp
L VDD #PWR021
U 1 1 55EEB528
P 6050 3400
F 0 "#PWR021" H 6050 3500 30  0001 C CNN
F 1 "VDD" H 6050 3510 30  0000 C CNN
F 2 "" H 6050 3400 60  0000 C CNN
F 3 "" H 6050 3400 60  0000 C CNN
	1    6050 3400
	1    0    0    -1  
$EndComp
$Comp
L LED D201
U 1 1 55EEB52E
P 7100 3550
F 0 "D201" H 7100 3650 50  0000 C CNN
F 1 "LED" H 7100 3450 50  0000 C CNN
F 2 "LED-0603" H 7100 3750 60  0000 C CNN
F 3 "~" H 7100 3550 60  0000 C CNN
	1    7100 3550
	0    1    1    0   
$EndComp
$Comp
L R R201
U 1 1 55EEB534
P 7100 4050
F 0 "R201" V 7180 4050 40  0000 C CNN
F 1 "R" V 7107 4051 40  0000 C CNN
F 2 "SM0402" V 7030 4050 30  0000 C CNN
F 3 "~" H 7100 4050 30  0000 C CNN
	1    7100 4050
	1    0    0    -1  
$EndComp
$Comp
L GND #PWR022
U 1 1 55EEB53A
P 7100 4400
F 0 "#PWR022" H 7100 4400 30  0001 C CNN
F 1 "GND" H 7100 4330 30  0001 C CNN
F 2 "" H 7100 4400 60  0000 C CNN
F 3 "" H 7100 4400 60  0000 C CNN
	1    7100 4400
	1    0    0    -1  
$EndComp
Wire Wire Line
	7100 4400 7100 4300
Wire Wire Line
	7100 3800 7100 3750
$Comp
L VDD #PWR023
U 1 1 55EEB542
P 7100 3250
F 0 "#PWR023" H 7100 3350 30  0001 C CNN
F 1 "VDD" H 7100 3360 30  0000 C CNN
F 2 "" H 7100 3250 60  0000 C CNN
F 3 "" H 7100 3250 60  0000 C CNN
	1    7100 3250
	1    0    0    -1  
$EndComp
Wire Wire Line
	7100 3250 7100 3350
$EndSCHEMATC
