EESchema Schematic File Version 2
LIBS:canservo-rescue
LIBS:power
LIBS:device
LIBS:transistors
LIBS:conn
LIBS:linear
LIBS:regul
LIBS:74xx
LIBS:cmos4000
LIBS:adc-dac
LIBS:memory
LIBS:xilinx
LIBS:microcontrollers
LIBS:dsp
LIBS:microchip
LIBS:analog_switches
LIBS:motorola
LIBS:texas
LIBS:intel
LIBS:audio
LIBS:interface
LIBS:digital-audio
LIBS:philips
LIBS:display
LIBS:cypress
LIBS:siliconi
LIBS:opto
LIBS:atmel
LIBS:contrib
LIBS:valves
LIBS:crap
LIBS:canservo-cache
EELAYER 25 0
EELAYER END
$Descr A4 11693 8268
encoding utf-8
Sheet 5 6
Title ""
Date "1 oct 2015"
Rev ""
Comp ""
Comment1 ""
Comment2 ""
Comment3 ""
Comment4 ""
$EndDescr
Text HLabel 4750 3800 0    60   Input ~ 0
SENSE_A
Text HLabel 4750 3700 0    60   Input ~ 0
SENSE_B
$Comp
L GND-RESCUE-canservo #PWR034
U 1 1 55EC412F
P 6350 4400
F 0 "#PWR034" H 6350 4400 30  0001 C CNN
F 1 "GND" H 6350 4330 30  0001 C CNN
F 2 "" H 6350 4400 60  0000 C CNN
F 3 "" H 6350 4400 60  0000 C CNN
	1    6350 4400
	1    0    0    -1  
$EndComp
$Comp
L VDD #PWR035
U 1 1 55EC4135
P 4700 4300
F 0 "#PWR035" H 4700 4400 30  0001 C CNN
F 1 "VDD" H 4700 4410 30  0000 C CNN
F 2 "" H 4700 4300 60  0000 C CNN
F 3 "" H 4700 4300 60  0000 C CNN
	1    4700 4300
	0    -1   -1   0   
$EndComp
$Comp
L AD8418-RESCUE-canservo U501
U 1 1 55EC84B4
P 5550 4000
AR Path="/55EC84B4" Ref="U501"  Part="1" 
AR Path="/55EC3F49/55EC84B4" Ref="U501"  Part="1" 
F 0 "U501" H 6100 3550 60  0000 C CNN
F 1 "AD8418" H 5250 4450 60  0000 C CNN
F 2 "MSOP_8" H 5450 3550 60  0000 C CNN
F 3 "~" H 5550 4650 60  0000 C CNN
	1    5550 4000
	1    0    0    -1  
$EndComp
$Comp
L VDD #PWR036
U 1 1 55EC4142
P 7000 3750
F 0 "#PWR036" H 7000 3850 30  0001 C CNN
F 1 "VDD" H 7000 3860 30  0000 C CNN
F 2 "" H 7000 3750 60  0000 C CNN
F 3 "" H 7000 3750 60  0000 C CNN
	1    7000 3750
	1    0    0    -1  
$EndComp
$Comp
L GND-RESCUE-canservo #PWR037
U 1 1 55EC4148
P 7000 4350
F 0 "#PWR037" H 7000 4350 30  0001 C CNN
F 1 "GND" H 7000 4280 30  0001 C CNN
F 2 "" H 7000 4350 60  0000 C CNN
F 3 "" H 7000 4350 60  0000 C CNN
	1    7000 4350
	1    0    0    -1  
$EndComp
Wire Wire Line
	4700 4300 4950 4300
Wire Wire Line
	4750 4000 4950 4000
Wire Wire Line
	4750 4100 4950 4100
Wire Wire Line
	6250 4300 6350 4300
Wire Wire Line
	6350 4300 6350 4400
$Comp
L C-RESCUE-canservo C501
U 1 1 55EC3E02
P 7000 4050
F 0 "C501" H 7000 4150 40  0000 L CNN
F 1 "0.1u" H 7006 3965 40  0000 L CNN
F 2 "SM0402" H 7038 3900 30  0000 C CNN
F 3 "~" H 7000 4050 60  0000 C CNN
	1    7000 4050
	1    0    0    -1  
$EndComp
Wire Wire Line
	7000 3750 7000 3850
Wire Wire Line
	7000 4250 7000 4350
$Comp
L GND-RESCUE-canservo #PWR038
U 1 1 55EC3E3E
P 4750 4100
F 0 "#PWR038" H 4750 4100 30  0001 C CNN
F 1 "GND" H 4750 4030 30  0001 C CNN
F 2 "" H 4750 4100 60  0000 C CNN
F 3 "" H 4750 4100 60  0000 C CNN
	1    4750 4100
	0    1    1    0   
$EndComp
$Comp
L VDD #PWR039
U 1 1 55EC3E4D
P 4750 4000
F 0 "#PWR039" H 4750 4100 30  0001 C CNN
F 1 "VDD" H 4750 4110 30  0000 C CNN
F 2 "" H 4750 4000 60  0000 C CNN
F 3 "" H 4750 4000 60  0000 C CNN
	1    4750 4000
	0    -1   -1   0   
$EndComp
Text HLabel 6350 3750 2    60   Output ~ 0
CUR
Wire Wire Line
	6350 3750 6250 3750
Wire Wire Line
	4750 3700 4950 3700
Wire Wire Line
	4750 3800 4950 3800
$EndSCHEMATC
