EESchema Schematic File Version 2
LIBS:canservo-rescue
LIBS:power
LIBS:device
LIBS:transistors
LIBS:conn
LIBS:linear
LIBS:regul
LIBS:74xx
LIBS:cmos4000
LIBS:adc-dac
LIBS:memory
LIBS:xilinx
LIBS:microcontrollers
LIBS:dsp
LIBS:microchip
LIBS:analog_switches
LIBS:motorola
LIBS:texas
LIBS:intel
LIBS:audio
LIBS:interface
LIBS:digital-audio
LIBS:philips
LIBS:display
LIBS:cypress
LIBS:siliconi
LIBS:opto
LIBS:atmel
LIBS:contrib
LIBS:valves
LIBS:crap
LIBS:canservo-cache
EELAYER 25 0
EELAYER END
$Descr A4 11693 8268
encoding utf-8
Sheet 6 6
Title ""
Date "1 oct 2015"
Rev ""
Comp ""
Comment1 ""
Comment2 ""
Comment3 ""
Comment4 ""
$EndDescr
Text HLabel 6850 3800 2    60   BiDi ~ 0
CANL
Text HLabel 6850 3900 2    60   BiDi ~ 0
CANH
Wire Wire Line
	6850 3900 6700 3900
Wire Wire Line
	6700 3800 6850 3800
$Comp
L SN65HVD234-RESCUE-canservo U601
U 1 1 55EC7EAD
P 6000 3900
F 0 "U601" H 6550 3500 60  0000 C CNN
F 1 "SN65HVD234" H 5850 4250 60  0000 C CNN
F 2 "SOIC-8_N" H 5950 3500 60  0000 C CNN
F 3 "~" H 5950 3500 60  0000 C CNN
	1    6000 3900
	1    0    0    -1  
$EndComp
$Comp
L GND-RESCUE-canservo #PWR040
U 1 1 55EC7EB3
P 6850 4200
F 0 "#PWR040" H 6850 4200 30  0001 C CNN
F 1 "GND" H 6850 4130 30  0001 C CNN
F 2 "" H 6850 4200 60  0000 C CNN
F 3 "" H 6850 4200 60  0000 C CNN
	1    6850 4200
	1    0    0    -1  
$EndComp
$Comp
L GND-RESCUE-canservo #PWR041
U 1 1 55EC7EB9
P 5300 4300
F 0 "#PWR041" H 5300 4300 30  0001 C CNN
F 1 "GND" H 5300 4230 30  0001 C CNN
F 2 "" H 5300 4300 60  0000 C CNN
F 3 "" H 5300 4300 60  0000 C CNN
	1    5300 4300
	1    0    0    -1  
$EndComp
Wire Wire Line
	5300 4300 5300 4200
Wire Wire Line
	5300 4200 5450 4200
Wire Wire Line
	6850 4200 6850 4050
Wire Wire Line
	6850 4050 6700 4050
Wire Wire Line
	5300 3550 5300 3700
Wire Wire Line
	5300 3700 5450 3700
Text HLabel 5150 3850 0    60   Input ~ 0
TX
Text HLabel 5150 3950 0    60   Output ~ 0
RX
Wire Wire Line
	5150 3950 5450 3950
Wire Wire Line
	5150 3850 5450 3850
$Comp
L C-RESCUE-canservo C601
U 1 1 55EC7ECB
P 4650 3950
F 0 "C601" H 4650 4050 40  0000 L CNN
F 1 "0.1u" H 4656 3865 40  0000 L CNN
F 2 "SM0402" H 4688 3800 30  0000 C CNN
F 3 "~" H 4650 3950 60  0000 C CNN
	1    4650 3950
	1    0    0    -1  
$EndComp
$Comp
L GND-RESCUE-canservo #PWR042
U 1 1 55EC7ED1
P 4650 4250
F 0 "#PWR042" H 4650 4250 30  0001 C CNN
F 1 "GND" H 4650 4180 30  0001 C CNN
F 2 "" H 4650 4250 60  0000 C CNN
F 3 "" H 4650 4250 60  0000 C CNN
	1    4650 4250
	1    0    0    -1  
$EndComp
Wire Wire Line
	4650 3650 4650 3750
Wire Wire Line
	4650 4150 4650 4250
$Comp
L VDD #PWR043
U 1 1 55EC7EE0
P 5300 3550
F 0 "#PWR043" H 5300 3650 30  0001 C CNN
F 1 "VDD" H 5300 3660 30  0000 C CNN
F 2 "" H 5300 3550 60  0000 C CNN
F 3 "" H 5300 3550 60  0000 C CNN
	1    5300 3550
	1    0    0    -1  
$EndComp
$Comp
L VDD #PWR044
U 1 1 55EC7EE6
P 4650 3650
F 0 "#PWR044" H 4650 3750 30  0001 C CNN
F 1 "VDD" H 4650 3760 30  0000 C CNN
F 2 "" H 4650 3650 60  0000 C CNN
F 3 "" H 4650 3650 60  0000 C CNN
	1    4650 3650
	1    0    0    -1  
$EndComp
NoConn ~ 5450 4100
NoConn ~ 4050 2550
$EndSCHEMATC
