EESchema Schematic File Version 2
LIBS:canservo-rescue
LIBS:power
LIBS:device
LIBS:transistors
LIBS:conn
LIBS:linear
LIBS:regul
LIBS:74xx
LIBS:cmos4000
LIBS:adc-dac
LIBS:memory
LIBS:xilinx
LIBS:microcontrollers
LIBS:dsp
LIBS:microchip
LIBS:analog_switches
LIBS:motorola
LIBS:texas
LIBS:intel
LIBS:audio
LIBS:interface
LIBS:digital-audio
LIBS:philips
LIBS:display
LIBS:cypress
LIBS:siliconi
LIBS:opto
LIBS:atmel
LIBS:contrib
LIBS:valves
LIBS:crap
LIBS:canservo-cache
EELAYER 25 0
EELAYER END
$Descr A4 11693 8268
encoding utf-8
Sheet 1 6
Title ""
Date "1 oct 2015"
Rev ""
Comp ""
Comment1 ""
Comment2 ""
Comment3 ""
Comment4 ""
$EndDescr
$Comp
L CONN_4 P101
U 1 1 55EB3725
P 1500 2800
F 0 "P101" V 1450 2800 50  0000 C CNN
F 1 "CONN_4" V 1550 2800 50  0000 C CNN
F 2 "CRAP_4SMD" H 1500 2800 60  0000 C CNN
F 3 "" H 1500 2800 60  0000 C CNN
	1    1500 2800
	-1   0    0    1   
$EndComp
$Comp
L GND-RESCUE-canservo #PWR01
U 1 1 55EB3748
P 1950 3050
F 0 "#PWR01" H 1950 3050 30  0001 C CNN
F 1 "GND" H 1950 2980 30  0001 C CNN
F 2 "" H 1950 3050 60  0000 C CNN
F 3 "" H 1950 3050 60  0000 C CNN
	1    1950 3050
	1    0    0    -1  
$EndComp
Text Label 1950 2850 0    60   ~ 0
CAN_L
Text Label 1950 2750 0    60   ~ 0
CAN_H
Text Notes 1200 3350 0    60   ~ 0
CAN & power input
$Sheet
S 3200 1450 850  500 
U 55EB37DE
F0 "Sheet55EB37DE" 50
F1 "power.sch" 50
$EndSheet
$Comp
L +BATT #PWR02
U 1 1 55EC3978
P 1950 2550
F 0 "#PWR02" H 1950 2500 20  0001 C CNN
F 1 "+BATT" H 1950 2650 30  0000 C CNN
F 2 "" H 1950 2550 60  0000 C CNN
F 3 "" H 1950 2550 60  0000 C CNN
	1    1950 2550
	1    0    0    -1  
$EndComp
$Sheet
S 3750 4200 1350 950 
U 55EC3981
F0 "stm" 50
F1 "stm.sch" 50
F2 "CANRX" I L 3750 4300 60 
F3 "CANTX" O L 3750 4400 60 
F4 "MOT_PH" O R 5100 4450 60 
F5 "MOT_EN" O R 5100 4550 60 
F6 "~MOT_SLEEP" O R 5100 4850 60 
F7 "MOT_CUR" I L 3750 4850 60 
F8 "MOT_POT" I L 3750 4950 60 
$EndSheet
$Sheet
S 6050 4200 1350 1000
U 55EC3BF6
F0 "motor" 50
F1 "motor.sch" 50
F2 "Mot_A" O R 7400 4550 60 
F3 "Mot_B" O R 7400 4700 60 
F4 "PH" I L 6050 4450 60 
F5 "EN" I L 6050 4550 60 
F6 "~SLEEP" I L 6050 4850 60 
$EndSheet
$Sheet
S 8500 4200 1400 1000
U 55EC3F49
F0 "analog" 50
F1 "analog.sch" 50
F2 "SENSE_A" I L 8500 4550 60 
F3 "SENSE_B" I L 8500 4700 60 
F4 "CUR" O R 9900 4650 60 
$EndSheet
$Comp
L R-RESCUE-canservo R101
U 1 1 55EC41AF
P 7950 4800
F 0 "R101" V 8030 4800 40  0000 C CNN
F 1 "0.043" V 7957 4801 40  0000 C CNN
F 2 "SM0805" V 7880 4800 30  0000 C CNN
F 3 "~" H 7950 4800 30  0000 C CNN
	1    7950 4800
	1    0    0    -1  
$EndComp
Text Label 10000 4650 0    60   ~ 0
MOT_CUR
Text Label 3650 4850 2    60   ~ 0
MOT_CUR
Text Label 3650 4950 2    60   ~ 0
MOT_POT
$Comp
L CONN_3 K101
U 1 1 55EC74E1
P 1350 5300
F 0 "K101" V 1300 5300 50  0000 C CNN
F 1 "CONN_3" V 1400 5300 40  0000 C CNN
F 2 "CRAP_3SMD" H 1350 5300 60  0000 C CNN
F 3 "" H 1350 5300 60  0000 C CNN
	1    1350 5300
	-1   0    0    1   
$EndComp
Text Label 1800 5300 0    60   ~ 0
MOT_POT
$Comp
L VDD #PWR03
U 1 1 55EC7618
P 1800 5100
F 0 "#PWR03" H 1800 5200 30  0001 C CNN
F 1 "VDD" H 1800 5210 30  0000 C CNN
F 2 "" H 1800 5100 60  0000 C CNN
F 3 "" H 1800 5100 60  0000 C CNN
	1    1800 5100
	1    0    0    -1  
$EndComp
$Comp
L GND-RESCUE-canservo #PWR04
U 1 1 55EC76C8
P 1800 5500
F 0 "#PWR04" H 1800 5500 30  0001 C CNN
F 1 "GND" H 1800 5430 30  0001 C CNN
F 2 "" H 1800 5500 60  0000 C CNN
F 3 "" H 1800 5500 60  0000 C CNN
	1    1800 5500
	1    0    0    -1  
$EndComp
Text Notes 1150 5800 0    60   ~ 0
Servo potentiometer input
$Sheet
S 3850 2500 900  650 
U 55EC7C59
F0 "can" 50
F1 "can.sch" 50
F2 "CANL" B L 3850 2900 60 
F3 "CANH" B L 3850 2800 60 
F4 "TX" I R 4750 2900 60 
F5 "RX" O R 4750 2800 60 
$EndSheet
Text Label 3700 2900 2    60   ~ 0
CAN_L
Text Label 3700 2800 2    60   ~ 0
CAN_H
Wire Wire Line
	1850 2850 1950 2850
Wire Wire Line
	1950 2750 1850 2750
Wire Wire Line
	1950 2650 1850 2650
Wire Wire Line
	1950 2550 1950 2650
Wire Wire Line
	1950 2950 1850 2950
Wire Wire Line
	1950 3050 1950 2950
Wire Notes Line
	1150 2350 2350 2350
Wire Notes Line
	2350 2350 2350 3350
Wire Notes Line
	2350 3350 1150 3350
Wire Notes Line
	1150 3350 1150 2350
Wire Wire Line
	7400 4550 8500 4550
Connection ~ 7950 4550
Wire Wire Line
	7950 5050 8200 5050
Wire Wire Line
	8200 5050 8200 4700
Wire Wire Line
	8200 4700 8500 4700
Wire Wire Line
	7950 5050 7950 5200
Wire Wire Line
	7750 5200 7750 4700
Wire Wire Line
	7750 4700 7400 4700
Wire Wire Line
	5100 4450 6050 4450
Wire Wire Line
	5100 4550 6050 4550
Wire Wire Line
	10000 4650 9900 4650
Wire Wire Line
	3650 4850 3750 4850
Wire Wire Line
	3650 4950 3750 4950
Wire Wire Line
	1800 5300 1700 5300
Wire Wire Line
	1800 5100 1800 5200
Wire Wire Line
	1800 5200 1700 5200
Wire Wire Line
	1800 5500 1800 5400
Wire Wire Line
	1800 5400 1700 5400
Wire Notes Line
	1150 4900 2300 4900
Wire Notes Line
	2300 4900 2300 5800
Wire Notes Line
	2300 5800 1150 5800
Wire Notes Line
	1150 5800 1150 4900
Wire Wire Line
	3700 2900 3850 2900
Wire Wire Line
	3850 2800 3700 2800
Text Label 4850 2900 0    60   ~ 0
CAN_TX
Text Label 4850 2800 0    60   ~ 0
CAN_RX
Wire Wire Line
	4850 2800 4750 2800
Wire Wire Line
	4750 2900 4850 2900
Text Label 3650 4400 2    60   ~ 0
CAN_TX
Wire Wire Line
	3650 4400 3750 4400
Text Label 3650 4300 2    60   ~ 0
CAN_RX
Wire Wire Line
	3650 4300 3750 4300
$Comp
L CONN_1 P103
U 1 1 55ED8019
P 7950 5350
F 0 "P103" H 8030 5350 40  0000 L CNN
F 1 "CONN_1" H 7950 5405 30  0001 C CNN
F 2 "1PIN_SMD" H 7950 5350 60  0000 C CNN
F 3 "" H 7950 5350 60  0000 C CNN
	1    7950 5350
	0    1    1    0   
$EndComp
$Comp
L CONN_1 P102
U 1 1 55ED8028
P 7750 5350
F 0 "P102" H 7830 5350 40  0000 L CNN
F 1 "CONN_1" H 7750 5405 30  0001 C CNN
F 2 "1PIN_SMD" H 7750 5350 60  0000 C CNN
F 3 "" H 7750 5350 60  0000 C CNN
	1    7750 5350
	0    1    1    0   
$EndComp
Text Notes 7500 5700 0    60   ~ 0
Motor Connection
Wire Wire Line
	5100 4850 6050 4850
$EndSCHEMATC
