EESchema Schematic File Version 2
LIBS:canservo-rescue
LIBS:power
LIBS:device
LIBS:transistors
LIBS:conn
LIBS:linear
LIBS:regul
LIBS:74xx
LIBS:cmos4000
LIBS:adc-dac
LIBS:memory
LIBS:xilinx
LIBS:microcontrollers
LIBS:dsp
LIBS:microchip
LIBS:analog_switches
LIBS:motorola
LIBS:texas
LIBS:intel
LIBS:audio
LIBS:interface
LIBS:digital-audio
LIBS:philips
LIBS:display
LIBS:cypress
LIBS:siliconi
LIBS:opto
LIBS:atmel
LIBS:contrib
LIBS:valves
LIBS:crap
LIBS:canservo-cache
EELAYER 25 0
EELAYER END
$Descr A4 11693 8268
encoding utf-8
Sheet 4 6
Title ""
Date "1 oct 2015"
Rev ""
Comp ""
Comment1 ""
Comment2 ""
Comment3 ""
Comment4 ""
$EndDescr
Text HLabel 6500 3050 2    60   Output ~ 0
Mot_A
Text HLabel 6500 2800 2    60   Output ~ 0
Mot_B
Text HLabel 4400 2950 0    60   Input ~ 0
PH
Text HLabel 4400 2850 0    60   Input ~ 0
EN
$Comp
L DRV8838 U401
U 1 1 55EC3D4B
P 5550 3100
F 0 "U401" H 6050 2700 60  0000 C CNN
F 1 "DRV8838" H 5200 3500 60  0000 C CNN
F 2 "S-PWSON-N8" H 5450 2700 60  0000 C CNN
F 3 "" H 5550 4000 60  0000 C CNN
	1    5550 3100
	1    0    0    -1  
$EndComp
$Comp
L GND-RESCUE-canservo #PWR027
U 1 1 55EC3D51
P 6300 3450
F 0 "#PWR027" H 6300 3450 30  0001 C CNN
F 1 "GND" H 6300 3380 30  0001 C CNN
F 2 "" H 6300 3450 60  0000 C CNN
F 3 "" H 6300 3450 60  0000 C CNN
	1    6300 3450
	1    0    0    -1  
$EndComp
Wire Wire Line
	6300 3250 6300 3450
Wire Wire Line
	6300 3350 6200 3350
Wire Wire Line
	6300 3250 6200 3250
Connection ~ 6300 3350
Wire Wire Line
	6500 2800 6400 2800
Wire Wire Line
	6400 2800 6400 2900
Wire Wire Line
	6400 2900 6200 2900
Wire Wire Line
	6200 3000 6400 3000
Wire Wire Line
	6400 3000 6400 3050
Wire Wire Line
	6400 3050 6500 3050
Wire Wire Line
	4400 2850 4900 2850
Wire Wire Line
	4900 2950 4400 2950
$Comp
L VDD #PWR028
U 1 1 55EC3D63
P 4050 3350
F 0 "#PWR028" H 4050 3450 30  0001 C CNN
F 1 "VDD" H 4050 3460 30  0000 C CNN
F 2 "" H 4050 3350 60  0000 C CNN
F 3 "" H 4050 3350 60  0000 C CNN
	1    4050 3350
	0    -1   -1   0   
$EndComp
Wire Wire Line
	4050 3350 4900 3350
$Comp
L +BATT #PWR029
U 1 1 55EC3D6A
P 4700 3250
F 0 "#PWR029" H 4700 3200 20  0001 C CNN
F 1 "+BATT" H 4700 3350 30  0000 C CNN
F 2 "" H 4700 3250 60  0000 C CNN
F 3 "" H 4700 3250 60  0000 C CNN
	1    4700 3250
	0    -1   -1   0   
$EndComp
Wire Wire Line
	4700 3250 4900 3250
$Comp
L C-RESCUE-canservo C401
U 1 1 55EC3D72
P 3150 3100
F 0 "C401" H 3150 3200 40  0000 L CNN
F 1 "0.1u" H 3156 3015 40  0000 L CNN
F 2 "SM0402" H 3188 2950 30  0000 C CNN
F 3 "~" H 3150 3100 60  0000 C CNN
F 4 "16V" H 3150 3100 60  0001 C CNN "Voltage"
	1    3150 3100
	1    0    0    -1  
$EndComp
$Comp
L C-RESCUE-canservo C402
U 1 1 55EC3D79
P 3400 3100
F 0 "C402" H 3400 3200 40  0000 L CNN
F 1 "0.1u" H 3406 3015 40  0000 L CNN
F 2 "SM0402" H 3438 2950 30  0000 C CNN
F 3 "~" H 3400 3100 60  0000 C CNN
F 4 "16V" H 3400 3100 60  0001 C CNN "Voltage"
	1    3400 3100
	1    0    0    -1  
$EndComp
$Comp
L GND-RESCUE-canservo #PWR030
U 1 1 55EC3D7F
P 3150 3450
F 0 "#PWR030" H 3150 3450 30  0001 C CNN
F 1 "GND" H 3150 3380 30  0001 C CNN
F 2 "" H 3150 3450 60  0000 C CNN
F 3 "" H 3150 3450 60  0000 C CNN
	1    3150 3450
	1    0    0    -1  
$EndComp
$Comp
L GND-RESCUE-canservo #PWR031
U 1 1 55EC3D85
P 3400 3450
F 0 "#PWR031" H 3400 3450 30  0001 C CNN
F 1 "GND" H 3400 3380 30  0001 C CNN
F 2 "" H 3400 3450 60  0000 C CNN
F 3 "" H 3400 3450 60  0000 C CNN
	1    3400 3450
	1    0    0    -1  
$EndComp
Wire Wire Line
	3400 3450 3400 3300
Wire Wire Line
	3150 3450 3150 3300
$Comp
L +BATT #PWR032
U 1 1 55EC3D8D
P 3150 2800
F 0 "#PWR032" H 3150 2750 20  0001 C CNN
F 1 "+BATT" H 3150 2900 30  0000 C CNN
F 2 "" H 3150 2800 60  0000 C CNN
F 3 "" H 3150 2800 60  0000 C CNN
	1    3150 2800
	1    0    0    -1  
$EndComp
Wire Wire Line
	3150 2800 3150 2900
$Comp
L VDD #PWR033
U 1 1 55EC3D94
P 3400 2800
F 0 "#PWR033" H 3400 2900 30  0001 C CNN
F 1 "VDD" H 3400 2910 30  0000 C CNN
F 2 "" H 3400 2800 60  0000 C CNN
F 3 "" H 3400 2800 60  0000 C CNN
	1    3400 2800
	1    0    0    -1  
$EndComp
Wire Wire Line
	3400 2800 3400 2900
Text HLabel 4400 3050 0    60   Input ~ 0
~SLEEP
Wire Wire Line
	4400 3050 4900 3050
$EndSCHEMATC
