EESchema Schematic File Version 2
LIBS:canservo-rescue
LIBS:power
LIBS:device
LIBS:transistors
LIBS:conn
LIBS:linear
LIBS:regul
LIBS:74xx
LIBS:cmos4000
LIBS:adc-dac
LIBS:memory
LIBS:xilinx
LIBS:microcontrollers
LIBS:dsp
LIBS:microchip
LIBS:analog_switches
LIBS:motorola
LIBS:texas
LIBS:intel
LIBS:audio
LIBS:interface
LIBS:digital-audio
LIBS:philips
LIBS:display
LIBS:cypress
LIBS:siliconi
LIBS:opto
LIBS:atmel
LIBS:contrib
LIBS:valves
LIBS:crap
LIBS:canservo-cache
EELAYER 25 0
EELAYER END
$Descr A4 11693 8268
encoding utf-8
Sheet 1 6
Title ""
Date "1 oct 2015"
Rev ""
Comp ""
Comment1 ""
Comment2 ""
Comment3 ""
Comment4 ""
$EndDescr
Text Notes 3900 1700 0    60   ~ 0
3V conversion from 7v input
$Comp
L MCP1702 U201
U 1 1 55EB394B
P 5100 2450
F 0 "U201" H 5200 1950 60  0000 C CNN
F 1 "MCP1702" H 4950 2400 60  0000 C CNN
F 2 "SOT23" H 4800 1950 60  0000 C CNN
F 3 "~" H 5100 2450 60  0000 C CNN
	1    5100 2450
	1    0    0    -1  
$EndComp
$Comp
L GND-RESCUE-canservo #PWR05
U 1 1 55EB3951
P 4400 2900
F 0 "#PWR05" H 4400 2900 30  0001 C CNN
F 1 "GND" H 4400 2830 30  0001 C CNN
F 2 "" H 4400 2900 60  0000 C CNN
F 3 "" H 4400 2900 60  0000 C CNN
	1    4400 2900
	1    0    0    -1  
$EndComp
$Comp
L +BATT #PWR06
U 1 1 55EB3957
P 4400 2550
F 0 "#PWR06" H 4400 2500 20  0001 C CNN
F 1 "+BATT" H 4400 2650 30  0000 C CNN
F 2 "" H 4400 2550 60  0000 C CNN
F 3 "" H 4400 2550 60  0000 C CNN
	1    4400 2550
	1    0    0    -1  
$EndComp
$Comp
L VDD #PWR07
U 1 1 55EB395D
P 5650 2550
F 0 "#PWR07" H 5650 2650 30  0001 C CNN
F 1 "VDD" H 5650 2660 30  0000 C CNN
F 2 "" H 5650 2550 60  0000 C CNN
F 3 "" H 5650 2550 60  0000 C CNN
	1    5650 2550
	1    0    0    -1  
$EndComp
Wire Wire Line
	4400 2550 4400 2650
Wire Wire Line
	4400 2650 4500 2650
Wire Wire Line
	4400 2900 4400 2800
Wire Wire Line
	4400 2800 4500 2800
Wire Wire Line
	5550 2650 5650 2650
Wire Wire Line
	5650 2650 5650 2550
$Comp
L +BATT #PWR08
U 1 1 55EB3969
P 3800 2350
F 0 "#PWR08" H 3800 2300 20  0001 C CNN
F 1 "+BATT" H 3800 2450 30  0000 C CNN
F 2 "" H 3800 2350 60  0000 C CNN
F 3 "" H 3800 2350 60  0000 C CNN
	1    3800 2350
	1    0    0    -1  
$EndComp
$Comp
L GND-RESCUE-canservo #PWR09
U 1 1 55EB396F
P 3800 3050
F 0 "#PWR09" H 3800 3050 30  0001 C CNN
F 1 "GND" H 3800 2980 30  0001 C CNN
F 2 "" H 3800 3050 60  0000 C CNN
F 3 "" H 3800 3050 60  0000 C CNN
	1    3800 3050
	1    0    0    -1  
$EndComp
$Comp
L GND-RESCUE-canservo #PWR010
U 1 1 55EB3975
P 6150 3000
F 0 "#PWR010" H 6150 3000 30  0001 C CNN
F 1 "GND" H 6150 2930 30  0001 C CNN
F 2 "" H 6150 3000 60  0000 C CNN
F 3 "" H 6150 3000 60  0000 C CNN
	1    6150 3000
	1    0    0    -1  
$EndComp
$Comp
L C-RESCUE-canservo C201
U 1 1 55EB397B
P 3800 2700
F 0 "C201" H 3800 2800 40  0000 L CNN
F 1 "1u" H 3806 2615 40  0000 L CNN
F 2 "SM0805" H 3838 2550 30  0000 C CNN
F 3 "~" H 3800 2700 60  0000 C CNN
	1    3800 2700
	1    0    0    -1  
$EndComp
$Comp
L C-RESCUE-canservo C202
U 1 1 55EB3981
P 6150 2650
F 0 "C202" H 6150 2750 40  0000 L CNN
F 1 "1u" H 6156 2565 40  0000 L CNN
F 2 "SM0603" H 6188 2500 30  0000 C CNN
F 3 "~" H 6150 2650 60  0000 C CNN
	1    6150 2650
	1    0    0    -1  
$EndComp
$Comp
L VDD #PWR011
U 1 1 55EB3987
P 6150 2350
F 0 "#PWR011" H 6150 2450 30  0001 C CNN
F 1 "VDD" H 6150 2460 30  0000 C CNN
F 2 "" H 6150 2350 60  0000 C CNN
F 3 "" H 6150 2350 60  0000 C CNN
	1    6150 2350
	1    0    0    -1  
$EndComp
Wire Wire Line
	3800 2350 3800 2500
Wire Wire Line
	3800 2900 3800 3050
Wire Wire Line
	6150 2450 6150 2350
Wire Wire Line
	6150 2850 6150 3000
$EndSCHEMATC
