EESchema Schematic File Version 2
LIBS:canservo-rescue
LIBS:power
LIBS:device
LIBS:transistors
LIBS:conn
LIBS:linear
LIBS:regul
LIBS:74xx
LIBS:cmos4000
LIBS:adc-dac
LIBS:memory
LIBS:xilinx
LIBS:microcontrollers
LIBS:dsp
LIBS:microchip
LIBS:analog_switches
LIBS:motorola
LIBS:texas
LIBS:intel
LIBS:audio
LIBS:interface
LIBS:digital-audio
LIBS:philips
LIBS:display
LIBS:cypress
LIBS:siliconi
LIBS:opto
LIBS:atmel
LIBS:contrib
LIBS:valves
LIBS:crap
LIBS:canservo-cache
EELAYER 25 0
EELAYER END
$Descr A4 11693 8268
encoding utf-8
Sheet 3 6
Title ""
Date "1 oct 2015"
Rev ""
Comp ""
Comment1 ""
Comment2 ""
Comment3 ""
Comment4 ""
$EndDescr
$Comp
L STM32F103TXU U301
U 1 1 55EC3FFA
P 5600 2750
F 0 "U301" H 5900 1550 60  0000 C CNN
F 1 "STM32F103TXU" H 5150 4400 60  0000 C CNN
F 2 "VFQFPN36" H 5500 1550 60  0000 C CNN
F 3 "" H 5600 2750 60  0000 C CNN
	1    5600 2750
	1    0    0    -1  
$EndComp
Text Label 6500 2600 0    60   ~ 0
SWDIO
Text Label 6500 2700 0    60   ~ 0
SWCLK
$Comp
L R-RESCUE-canservo R301
U 1 1 55EC4002
P 4300 2650
F 0 "R301" V 4380 2650 40  0000 C CNN
F 1 "1k" V 4307 2651 40  0000 C CNN
F 2 "SM0402" V 4230 2650 30  0000 C CNN
F 3 "~" H 4300 2650 30  0000 C CNN
	1    4300 2650
	0    -1   -1   0   
$EndComp
$Comp
L GND-RESCUE-canservo #PWR012
U 1 1 55EC4008
P 3900 2650
F 0 "#PWR012" H 3900 2650 30  0001 C CNN
F 1 "GND" H 3900 2580 30  0001 C CNN
F 2 "" H 3900 2650 60  0000 C CNN
F 3 "" H 3900 2650 60  0000 C CNN
	1    3900 2650
	0    1    1    0   
$EndComp
Text Label 7000 2200 0    60   ~ 0
DBG_TX
Text Label 7000 2300 0    60   ~ 0
DBG_RX
Wire Wire Line
	6400 2400 6500 2400
Wire Wire Line
	6400 2500 6500 2500
Wire Wire Line
	6400 2600 6500 2600
Wire Wire Line
	6400 2700 6500 2700
Wire Wire Line
	6400 3650 6500 3650
Wire Wire Line
	6400 3750 6500 3750
Text Notes 6500 3650 0    60   ~ 0
USART1_TX*
Text Notes 6500 3750 0    60   ~ 0
USART1_RX*
Wire Wire Line
	6400 1500 7550 1500
Wire Wire Line
	6400 1600 6500 1600
Text Notes 6500 1900 0    60   ~ 0
TIM3_CH1
Text Notes 6500 2000 0    60   ~ 0
TIM3_CH2
Text Notes 6500 2100 0    60   ~ 0
TIM1_CH1
Text Notes 6500 2800 0    60   ~ 0
TIM2_CH1*
Text Notes 6500 3350 0    60   ~ 0
TIM2_CH2*
Text Notes 6500 3450 0    60   ~ 0
TIM3_CH1*
Text Notes 6500 3550 0    60   ~ 0
TIM3_CH2*
Wire Wire Line
	3900 2650 4050 2650
Wire Wire Line
	4550 2650 4700 2650
$Comp
L GND-RESCUE-canservo #PWR013
U 1 1 55EC402D
P 4550 3650
F 0 "#PWR013" H 4550 3650 30  0001 C CNN
F 1 "GND" H 4550 3580 30  0001 C CNN
F 2 "" H 4550 3650 60  0000 C CNN
F 3 "" H 4550 3650 60  0000 C CNN
	1    4550 3650
	1    0    0    -1  
$EndComp
Wire Wire Line
	4550 3150 4550 3650
Wire Wire Line
	4550 3450 4700 3450
Wire Wire Line
	4550 3350 4700 3350
Connection ~ 4550 3450
Wire Wire Line
	4550 3250 4700 3250
Connection ~ 4550 3350
Wire Wire Line
	4550 3150 4700 3150
Connection ~ 4550 3250
$Comp
L VDD #PWR014
U 1 1 55EC403B
P 4550 1300
F 0 "#PWR014" H 4550 1400 30  0001 C CNN
F 1 "VDD" H 4550 1410 30  0000 C CNN
F 2 "" H 4550 1300 60  0000 C CNN
F 3 "" H 4550 1300 60  0000 C CNN
	1    4550 1300
	1    0    0    -1  
$EndComp
Wire Wire Line
	4550 1300 4550 1700
Wire Wire Line
	4550 1400 4700 1400
Wire Wire Line
	4550 1500 4700 1500
Connection ~ 4550 1400
Wire Wire Line
	4550 1600 4700 1600
Connection ~ 4550 1500
Wire Wire Line
	4550 1700 4700 1700
Connection ~ 4550 1600
$Comp
L C-RESCUE-canservo C302
U 1 1 55EC4049
P 1800 3350
F 0 "C302" H 1800 3450 40  0000 L CNN
F 1 "1u" H 1806 3265 40  0000 L CNN
F 2 "SM0603" H 1838 3200 30  0000 C CNN
F 3 "~" H 1800 3350 60  0000 C CNN
	1    1800 3350
	1    0    0    -1  
$EndComp
$Comp
L C-RESCUE-canservo C304
U 1 1 55EC404F
P 2050 3350
F 0 "C304" H 2050 3450 40  0000 L CNN
F 1 "0.01u" H 2056 3265 40  0000 L CNN
F 2 "SM0402" H 2088 3200 30  0000 C CNN
F 3 "~" H 2050 3350 60  0000 C CNN
	1    2050 3350
	1    0    0    -1  
$EndComp
Text Notes 2250 3350 0    60   ~ 0
Close to VDDA
$Comp
L GND-RESCUE-canservo #PWR015
U 1 1 55EC4056
P 1800 3650
F 0 "#PWR015" H 1800 3650 30  0001 C CNN
F 1 "GND" H 1800 3580 30  0001 C CNN
F 2 "" H 1800 3650 60  0000 C CNN
F 3 "" H 1800 3650 60  0000 C CNN
	1    1800 3650
	1    0    0    -1  
$EndComp
Wire Wire Line
	1800 3550 1800 3650
Wire Wire Line
	1800 3600 2050 3600
Wire Wire Line
	2050 3600 2050 3550
Connection ~ 1800 3600
$Comp
L VDD #PWR016
U 1 1 55EC4060
P 1800 3050
F 0 "#PWR016" H 1800 3150 30  0001 C CNN
F 1 "VDD" H 1800 3160 30  0000 C CNN
F 2 "" H 1800 3050 60  0000 C CNN
F 3 "" H 1800 3050 60  0000 C CNN
	1    1800 3050
	1    0    0    -1  
$EndComp
Wire Wire Line
	1800 3050 1800 3150
Wire Wire Line
	1800 3100 2050 3100
Wire Wire Line
	2050 3100 2050 3150
Connection ~ 1800 3100
$Comp
L C-RESCUE-canservo C303
U 1 1 55EC406A
P 1800 4250
F 0 "C303" H 1800 4350 40  0000 L CNN
F 1 "0.1u" H 1806 4165 40  0000 L CNN
F 2 "SM0402" H 1838 4100 30  0000 C CNN
F 3 "~" H 1800 4250 60  0000 C CNN
	1    1800 4250
	1    0    0    -1  
$EndComp
$Comp
L C-RESCUE-canservo C306
U 1 1 55EC4070
P 2350 4250
F 0 "C306" H 2350 4350 40  0000 L CNN
F 1 "4.7u" H 2356 4165 40  0000 L CNN
F 2 "SM0805" H 2388 4100 30  0000 C CNN
F 3 "~" H 2350 4250 60  0000 C CNN
	1    2350 4250
	1    0    0    -1  
$EndComp
$Comp
L C-RESCUE-canservo C301
U 1 1 55EC4076
P 1550 4250
F 0 "C301" H 1550 4350 40  0000 L CNN
F 1 "0.1u" H 1556 4165 40  0000 L CNN
F 2 "SM0402" H 1588 4100 30  0000 C CNN
F 3 "~" H 1550 4250 60  0000 C CNN
	1    1550 4250
	1    0    0    -1  
$EndComp
$Comp
L C-RESCUE-canservo C305
U 1 1 55EC407C
P 2050 4250
F 0 "C305" H 2050 4350 40  0000 L CNN
F 1 "0.1u" H 2056 4165 40  0000 L CNN
F 2 "SM0402" H 2088 4100 30  0000 C CNN
F 3 "~" H 2050 4250 60  0000 C CNN
	1    2050 4250
	1    0    0    -1  
$EndComp
$Comp
L GND-RESCUE-canservo #PWR017
U 1 1 55EC4082
P 1550 4550
F 0 "#PWR017" H 1550 4550 30  0001 C CNN
F 1 "GND" H 1550 4480 30  0001 C CNN
F 2 "" H 1550 4550 60  0000 C CNN
F 3 "" H 1550 4550 60  0000 C CNN
	1    1550 4550
	1    0    0    -1  
$EndComp
Wire Wire Line
	1550 4450 1550 4550
Wire Wire Line
	1550 4500 2350 4500
Wire Wire Line
	1800 4500 1800 4450
Connection ~ 1550 4500
Wire Wire Line
	2050 4500 2050 4450
Connection ~ 1800 4500
Wire Wire Line
	2350 4500 2350 4450
Connection ~ 2050 4500
$Comp
L VDD #PWR018
U 1 1 55EC4090
P 1550 3950
F 0 "#PWR018" H 1550 4050 30  0001 C CNN
F 1 "VDD" H 1550 4060 30  0000 C CNN
F 2 "" H 1550 3950 60  0000 C CNN
F 3 "" H 1550 3950 60  0000 C CNN
	1    1550 3950
	1    0    0    -1  
$EndComp
Wire Wire Line
	1550 3950 1550 4050
Wire Wire Line
	1550 4000 2350 4000
Wire Wire Line
	1800 4000 1800 4050
Connection ~ 1550 4000
Wire Wire Line
	2050 4000 2050 4050
Connection ~ 1800 4000
Wire Wire Line
	2350 4000 2350 4050
Connection ~ 2050 4000
Text Notes 2500 4200 0    60   ~ 0
Each 0.1u close to VDD_x\n4.7u close to VDD_3
Text HLabel 6500 2400 2    60   Input ~ 0
CANRX
Text HLabel 6500 2500 2    60   Output ~ 0
CANTX
$Comp
L GND-RESCUE-canservo #PWR019
U 1 1 55EC40A9
P 4750 5650
F 0 "#PWR019" H 4750 5650 30  0001 C CNN
F 1 "GND" H 4750 5580 30  0001 C CNN
F 2 "" H 4750 5650 60  0000 C CNN
F 3 "" H 4750 5650 60  0000 C CNN
	1    4750 5650
	1    0    0    -1  
$EndComp
Wire Wire Line
	4650 5550 4750 5550
Wire Wire Line
	4750 5550 4750 5650
$Comp
L VDD #PWR020
U 1 1 55EC40B1
P 4750 4950
F 0 "#PWR020" H 4750 5050 30  0001 C CNN
F 1 "VDD" H 4750 5060 30  0000 C CNN
F 2 "" H 4750 4950 60  0000 C CNN
F 3 "" H 4750 4950 60  0000 C CNN
	1    4750 4950
	1    0    0    -1  
$EndComp
Wire Wire Line
	4750 4950 4750 5050
Wire Wire Line
	4750 5050 4650 5050
Text Label 4750 5450 0    60   ~ 0
SWCLK
Text Label 4750 5350 0    60   ~ 0
SWDIO
Text Label 4750 5250 0    60   ~ 0
DBG_RX
Text Label 4750 5150 0    60   ~ 0
DBG_TX
Wire Wire Line
	4750 5150 4650 5150
Wire Wire Line
	4650 5250 4750 5250
Wire Wire Line
	4750 5350 4650 5350
Wire Wire Line
	4650 5450 4750 5450
$Comp
L LED-RESCUE-canservo D302
U 1 1 55EC40C1
P 8000 5300
F 0 "D302" H 8000 5400 50  0000 C CNN
F 1 "LED" H 8000 5200 50  0000 C CNN
F 2 "LED-0603" H 8000 5100 60  0000 C CNN
F 3 "~" H 8000 5300 60  0000 C CNN
	1    8000 5300
	0    1    1    0   
$EndComp
$Comp
L R-RESCUE-canservo R305
U 1 1 55EC40C7
P 8000 5850
F 0 "R305" V 8080 5850 40  0000 C CNN
F 1 "1k" V 8007 5851 40  0000 C CNN
F 2 "SM0402" V 7930 5850 30  0000 C CNN
F 3 "~" H 8000 5850 30  0000 C CNN
	1    8000 5850
	1    0    0    -1  
$EndComp
$Comp
L VDD #PWR021
U 1 1 55EC40CD
P 8000 5000
F 0 "#PWR021" H 8000 5100 30  0001 C CNN
F 1 "VDD" H 8000 5110 30  0000 C CNN
F 2 "" H 8000 5000 60  0000 C CNN
F 3 "" H 8000 5000 60  0000 C CNN
	1    8000 5000
	1    0    0    -1  
$EndComp
Wire Wire Line
	8000 5000 8000 5100
Wire Wire Line
	8000 5500 8000 5600
$Comp
L LED-RESCUE-canservo D303
U 1 1 55EC40D5
P 8250 5300
F 0 "D303" H 8250 5400 50  0000 C CNN
F 1 "LED" H 8250 5200 50  0000 C CNN
F 2 "LED-0603" H 8250 5500 60  0000 C CNN
F 3 "~" H 8250 5300 60  0000 C CNN
	1    8250 5300
	0    1    1    0   
$EndComp
$Comp
L R-RESCUE-canservo R306
U 1 1 55EC40DB
P 8250 5850
F 0 "R306" V 8330 5850 40  0000 C CNN
F 1 "1k" V 8257 5851 40  0000 C CNN
F 2 "SM0402" V 8180 5850 30  0000 C CNN
F 3 "~" H 8250 5850 30  0000 C CNN
	1    8250 5850
	1    0    0    -1  
$EndComp
$Comp
L VDD #PWR022
U 1 1 55EC40E1
P 8250 5000
F 0 "#PWR022" H 8250 5100 30  0001 C CNN
F 1 "VDD" H 8250 5110 30  0000 C CNN
F 2 "" H 8250 5000 60  0000 C CNN
F 3 "" H 8250 5000 60  0000 C CNN
	1    8250 5000
	1    0    0    -1  
$EndComp
Wire Wire Line
	8250 5000 8250 5100
Wire Wire Line
	8250 5500 8250 5600
Text Label 8000 6200 3    60   ~ 0
LED0
Text Label 8250 6200 3    60   ~ 0
LED1
Wire Wire Line
	8250 6200 8250 6100
Wire Wire Line
	8000 6200 8000 6100
Wire Wire Line
	7050 3150 6400 3150
Wire Wire Line
	6400 1900 7000 1900
Wire Wire Line
	6400 2000 7000 2000
Wire Wire Line
	6400 3050 7050 3050
Wire Wire Line
	6400 1300 7550 1300
Wire Wire Line
	6400 1400 7550 1400
Wire Wire Line
	6400 2800 7050 2800
Wire Wire Line
	6400 3250 7050 3250
Wire Wire Line
	6400 1800 6600 1800
Wire Wire Line
	6400 2100 7000 2100
Wire Wire Line
	6400 2200 7000 2200
Wire Wire Line
	6400 2300 7000 2300
Wire Wire Line
	6400 3350 7000 3350
Wire Wire Line
	6400 3450 7000 3450
Wire Wire Line
	6400 3550 7000 3550
Wire Wire Line
	4550 3550 4700 3550
Connection ~ 4550 3550
Wire Notes Line
	3250 5950 5150 5950
Wire Notes Line
	5150 5950 5150 4700
Wire Notes Line
	5150 4700 3250 4700
Text Notes 4150 5900 0    60   ~ 0
Prog & Debug
$Comp
L JTAGCON P301
U 1 1 55EC413C
P 3950 5300
F 0 "P301" H 4450 4950 60  0000 C CNN
F 1 "JTAGCON" H 3700 5700 60  0000 C CNN
F 2 "BM06B-SRSS-TB" H 3950 4900 60  0000 C CNN
F 3 "" H 4400 5500 60  0000 C CNN
	1    3950 5300
	1    0    0    -1  
$EndComp
Wire Notes Line
	3250 4700 3250 5950
$Comp
L GND-RESCUE-canservo #PWR023
U 1 1 55EC4143
P 3400 5650
F 0 "#PWR023" H 3400 5650 30  0001 C CNN
F 1 "GND" H 3400 5580 30  0001 C CNN
F 2 "" H 3400 5650 60  0000 C CNN
F 3 "" H 3400 5650 60  0000 C CNN
	1    3400 5650
	1    0    0    -1  
$EndComp
Wire Wire Line
	3400 5450 3400 5650
Wire Wire Line
	3400 5550 3450 5550
Wire Wire Line
	3400 5450 3450 5450
Connection ~ 3400 5550
Text HLabel 7050 3150 2    60   Output ~ 0
MOT_PH
Text HLabel 7050 3050 2    60   Output ~ 0
MOT_EN
Text HLabel 7050 3250 2    60   Output ~ 0
~MOT_SLEEP
Text HLabel 9900 1350 2    60   Input ~ 0
MOT_CUR
Text HLabel 10600 1600 1    60   Input ~ 0
MOT_POT
$Comp
L LED_RGB-RESCUE-canservo D301
U 1 1 55EC7F8C
P 7200 5250
F 0 "D301" H 7200 4900 50  0000 L CNN
F 1 "LED_RGB" H 7200 5500 50  0000 C CNN
F 2 "PLCC6" H 7200 5250 60  0000 C CNN
F 3 "~" H 7200 5250 60  0000 C CNN
	1    7200 5250
	0    1    1    0   
$EndComp
$Comp
L VDD #PWR024
U 1 1 55EC7F99
P 7150 4950
F 0 "#PWR024" H 7150 5050 30  0001 C CNN
F 1 "VDD" H 7150 5060 30  0000 C CNN
F 2 "" H 7150 4950 60  0000 C CNN
F 3 "" H 7150 4950 60  0000 C CNN
	1    7150 4950
	1    0    0    -1  
$EndComp
Wire Wire Line
	7000 4950 7300 4950
Wire Wire Line
	7000 4950 7000 5050
Wire Wire Line
	7150 4950 7150 5050
Wire Wire Line
	7300 4950 7300 5050
Connection ~ 7150 4950
$Comp
L R-RESCUE-canservo R302
U 1 1 55EC80B4
P 7000 5800
F 0 "R302" V 7080 5800 40  0000 C CNN
F 1 "1k" V 7007 5801 40  0000 C CNN
F 2 "SM0402" V 6930 5800 30  0000 C CNN
F 3 "~" H 7000 5800 30  0000 C CNN
	1    7000 5800
	1    0    0    -1  
$EndComp
$Comp
L R-RESCUE-canservo R303
U 1 1 55EC80C1
P 7150 5800
F 0 "R303" V 7230 5800 40  0000 C CNN
F 1 "1k" V 7157 5801 40  0000 C CNN
F 2 "SM0402" V 7080 5800 30  0000 C CNN
F 3 "~" H 7150 5800 30  0000 C CNN
	1    7150 5800
	1    0    0    -1  
$EndComp
$Comp
L R-RESCUE-canservo R304
U 1 1 55EC80C7
P 7300 5800
F 0 "R304" V 7380 5800 40  0000 C CNN
F 1 "1k" V 7307 5801 40  0000 C CNN
F 2 "SM0402" V 7230 5800 30  0000 C CNN
F 3 "~" H 7300 5800 30  0000 C CNN
	1    7300 5800
	1    0    0    -1  
$EndComp
Wire Wire Line
	7000 5550 7000 5450
Wire Wire Line
	7150 5450 7150 5550
Wire Wire Line
	7300 5450 7300 5550
Text Label 7000 6150 3    60   ~ 0
LED_B
Text Label 7150 6150 3    60   ~ 0
LED_G
Text Label 7300 6150 3    60   ~ 0
LED_R
Wire Wire Line
	7000 6150 7000 6050
Wire Wire Line
	7150 6150 7150 6050
Wire Wire Line
	7300 6150 7300 6050
Text Label 7000 3550 0    60   ~ 0
LED_B
Text Label 7000 3450 0    60   ~ 0
LED_G
Text Label 7000 3350 0    60   ~ 0
LED_R
Text Label 7550 1300 0    60   ~ 0
LED1
Text Label 4550 2100 2    60   ~ 0
LED0
$Comp
L C-RESCUE-canservo C308
U 1 1 55EC74CB
P 10600 1900
F 0 "C308" H 10600 2000 40  0000 L CNN
F 1 "C" H 10606 1815 40  0000 L CNN
F 2 "SM0603" H 10638 1750 30  0000 C CNN
F 3 "~" H 10600 1900 60  0000 C CNN
	1    10600 1900
	1    0    0    -1  
$EndComp
Wire Wire Line
	10600 1600 10600 1700
$Comp
L GND-RESCUE-canservo #PWR025
U 1 1 55EC753F
P 10600 2200
F 0 "#PWR025" H 10600 2200 30  0001 C CNN
F 1 "GND" H 10600 2130 30  0001 C CNN
F 2 "" H 10600 2200 60  0000 C CNN
F 3 "" H 10600 2200 60  0000 C CNN
	1    10600 2200
	1    0    0    -1  
$EndComp
Wire Wire Line
	10600 2200 10600 2100
$Comp
L C-RESCUE-canservo C307
U 1 1 55EC75B4
P 9300 1650
F 0 "C307" H 9300 1750 40  0000 L CNN
F 1 "C" H 9306 1565 40  0000 L CNN
F 2 "SM0603" H 9338 1500 30  0000 C CNN
F 3 "~" H 9300 1650 60  0000 C CNN
	1    9300 1650
	1    0    0    -1  
$EndComp
Wire Wire Line
	9300 1350 9300 1450
$Comp
L GND-RESCUE-canservo #PWR026
U 1 1 55EC75BB
P 9300 1950
F 0 "#PWR026" H 9300 1950 30  0001 C CNN
F 1 "GND" H 9300 1880 30  0001 C CNN
F 2 "" H 9300 1950 60  0000 C CNN
F 3 "" H 9300 1950 60  0000 C CNN
	1    9300 1950
	1    0    0    -1  
$EndComp
Wire Wire Line
	9300 1950 9300 1850
$Comp
L R-RESCUE-canservo R307
U 1 1 55EC75C4
P 9600 1350
F 0 "R307" V 9680 1350 40  0000 C CNN
F 1 "1k" V 9607 1351 40  0000 C CNN
F 2 "SM0402" V 9530 1350 30  0000 C CNN
F 3 "~" H 9600 1350 30  0000 C CNN
	1    9600 1350
	0    -1   -1   0   
$EndComp
Wire Wire Line
	9250 1350 9350 1350
Wire Wire Line
	9850 1350 9900 1350
Text Label 9250 1350 2    60   ~ 0
CUR
Connection ~ 9300 1350
Text Label 10500 1650 2    60   ~ 0
POT
Wire Wire Line
	10500 1650 10600 1650
Connection ~ 10600 1650
Wire Notes Line
	9000 1000 10800 1000
Wire Notes Line
	10800 1000 10800 2650
Wire Notes Line
	10800 2650 9000 2650
Wire Notes Line
	9000 2650 9000 1000
Text Notes 9050 2600 0    60   ~ 0
Low pass filtering analog input
Text Notes 6500 1400 0    60   ~ 0
ADC_IN1
Text Notes 6500 1500 0    60   ~ 0
ADC_IN2
Text Notes 6500 1600 0    60   ~ 0
ADC_IN3
Text Notes 6500 1700 0    60   ~ 0
ADC_IN4
Text Notes 6500 1800 0    60   ~ 0
ADC_IN5
Text Notes 7000 1900 0    60   ~ 0
ADC_IN6
Text Notes 7000 2000 0    60   ~ 0
ADC_IN7
Text Notes 6500 2200 0    60   ~ 0
USART1_TX*
Text Notes 6500 2300 0    60   ~ 0
USART1_RX*
Wire Wire Line
	4550 2000 4700 2000
Wire Wire Line
	4550 2100 4700 2100
Text Label 7550 1500 0    60   ~ 0
CUR
Text Label 7550 1400 0    60   ~ 0
POT
$Comp
L CONN_1 TP301
U 1 1 55EE7E1A
P 9950 3000
F 0 "TP301" H 10030 3000 40  0000 L CNN
F 1 "CONN_1" H 9950 3055 30  0001 C CNN
F 2 "1PIN_SMD" H 9950 3000 60  0000 C CNN
F 3 "" H 9950 3000 60  0000 C CNN
	1    9950 3000
	1    0    0    -1  
$EndComp
$Comp
L CONN_1 TP302
U 1 1 55EE7E29
P 9950 3100
F 0 "TP302" H 10030 3100 40  0000 L CNN
F 1 "CONN_1" H 9950 3155 30  0001 C CNN
F 2 "1PIN_SMD" H 9950 3100 60  0000 C CNN
F 3 "" H 9950 3100 60  0000 C CNN
	1    9950 3100
	1    0    0    -1  
$EndComp
Text Label 9700 3000 2    60   ~ 0
CUR
Text Label 9700 3100 2    60   ~ 0
POT
Wire Wire Line
	9700 3100 9800 3100
Wire Wire Line
	9700 3000 9800 3000
Text Notes 9550 2900 0    60   ~ 0
Test points:
Text Notes 6500 3050 0    60   ~ 0
TIM3_CH3
Text Notes 6500 3150 0    60   ~ 0
TIM3_CH4
Text Notes 9450 1200 0    60   ~ 0
to adapt
$EndSCHEMATC
