EESchema Schematic File Version 2
LIBS:power
LIBS:device
LIBS:transistors
LIBS:conn
LIBS:linear
LIBS:regul
LIBS:74xx
LIBS:cmos4000
LIBS:adc-dac
LIBS:memory
LIBS:xilinx
LIBS:special
LIBS:microcontrollers
LIBS:dsp
LIBS:microchip
LIBS:analog_switches
LIBS:motorola
LIBS:texas
LIBS:intel
LIBS:audio
LIBS:interface
LIBS:digital-audio
LIBS:philips
LIBS:display
LIBS:cypress
LIBS:siliconi
LIBS:opto
LIBS:atmel
LIBS:contrib
LIBS:valves
LIBS:crap
LIBS:cancapelite-cache
EELAYER 27 0
EELAYER END
$Descr A4 11693 8268
encoding utf-8
Sheet 1 1
Title ""
Date "8 jun 2015"
Rev ""
Comp ""
Comment1 ""
Comment2 ""
Comment3 ""
Comment4 ""
$EndDescr
$Comp
L GND #PWR01
U 1 1 55714F3A
P 2450 2950
F 0 "#PWR01" H 2450 2950 30  0001 C CNN
F 1 "GND" H 2450 2880 30  0001 C CNN
F 2 "" H 2450 2950 60  0000 C CNN
F 3 "" H 2450 2950 60  0000 C CNN
	1    2450 2950
	0    -1   -1   0   
$EndComp
$Comp
L GND #PWR02
U 1 1 55714F4C
P 1650 2950
F 0 "#PWR02" H 1650 2950 30  0001 C CNN
F 1 "GND" H 1650 2880 30  0001 C CNN
F 2 "" H 1650 2950 60  0000 C CNN
F 3 "" H 1650 2950 60  0000 C CNN
	1    1650 2950
	0    1    1    0   
$EndComp
$Comp
L +3.3V #PWR03
U 1 1 55714F58
P 1650 2850
F 0 "#PWR03" H 1650 2810 30  0001 C CNN
F 1 "+3.3V" H 1650 2960 30  0000 C CNN
F 2 "" H 1650 2850 60  0000 C CNN
F 3 "" H 1650 2850 60  0000 C CNN
	1    1650 2850
	0    -1   -1   0   
$EndComp
$Comp
L +5V #PWR04
U 1 1 55714F5E
P 2450 2650
F 0 "#PWR04" H 2450 2740 20  0001 C CNN
F 1 "+5V" H 2450 2740 30  0000 C CNN
F 2 "" H 2450 2650 60  0000 C CNN
F 3 "" H 2450 2650 60  0000 C CNN
	1    2450 2650
	0    1    1    0   
$EndComp
Text Label 1650 1850 2    60   ~ 0
P9.24 DCAN1_RX
Text Label 1650 1750 2    60   ~ 0
P9.26 DCAN1_TX
$Comp
L ISO1050DUB U101
U 1 1 55714F7A
P 6200 2100
F 0 "U101" H 6650 1750 60  0000 C CNN
F 1 "ISO1050DUB" H 6000 2400 60  0000 C CNN
F 2 "" H 6200 2100 60  0000 C CNN
F 3 "" H 6200 2100 60  0000 C CNN
	1    6200 2100
	1    0    0    -1  
$EndComp
Text Label 5350 2050 2    60   ~ 0
P9.24 DCAN1_RX
Text Label 5350 2150 2    60   ~ 0
P9.26 DCAN1_TX
$Comp
L GND #PWR05
U 1 1 55714F82
P 5450 2350
F 0 "#PWR05" H 5450 2350 30  0001 C CNN
F 1 "GND" H 5450 2280 30  0001 C CNN
F 2 "" H 5450 2350 60  0000 C CNN
F 3 "" H 5450 2350 60  0000 C CNN
	1    5450 2350
	1    0    0    -1  
$EndComp
$Comp
L +3.3V #PWR06
U 1 1 55714F88
P 5450 1850
F 0 "#PWR06" H 5450 1810 30  0001 C CNN
F 1 "+3.3V" H 5450 1960 30  0000 C CNN
F 2 "" H 5450 1850 60  0000 C CNN
F 3 "" H 5450 1850 60  0000 C CNN
	1    5450 1850
	1    0    0    -1  
$EndComp
$Comp
L CONN_4 P101
U 1 1 55714F8E
P 8550 2100
F 0 "P101" V 8500 2100 50  0000 C CNN
F 1 "CONN_4" V 8600 2100 50  0000 C CNN
F 2 "" H 8550 2100 60  0000 C CNN
F 3 "" H 8550 2100 60  0000 C CNN
	1    8550 2100
	1    0    0    1   
$EndComp
Text Label 6900 2150 0    60   ~ 0
CANL
Text Label 6900 2050 0    60   ~ 0
CANH
Text Label 8100 2150 2    60   ~ 0
CANL
Text Label 8100 2050 2    60   ~ 0
CANH
$Comp
L GND #PWR07
U 1 1 55714FA4
P 5900 3200
F 0 "#PWR07" H 5900 3200 30  0001 C CNN
F 1 "GND" H 5900 3130 30  0001 C CNN
F 2 "" H 5900 3200 60  0000 C CNN
F 3 "" H 5900 3200 60  0000 C CNN
	1    5900 3200
	1    0    0    -1  
$EndComp
$Comp
L +3.3V #PWR08
U 1 1 55714FAA
P 5900 2600
F 0 "#PWR08" H 5900 2560 30  0001 C CNN
F 1 "+3.3V" H 5900 2710 30  0000 C CNN
F 2 "" H 5900 2600 60  0000 C CNN
F 3 "" H 5900 2600 60  0000 C CNN
	1    5900 2600
	1    0    0    -1  
$EndComp
$Comp
L C C101
U 1 1 55714FB0
P 5900 2900
F 0 "C101" H 5900 3000 40  0000 L CNN
F 1 "0.1u" H 5906 2815 40  0000 L CNN
F 2 "~" H 5938 2750 30  0000 C CNN
F 3 "~" H 5900 2900 60  0000 C CNN
	1    5900 2900
	1    0    0    -1  
$EndComp
$Comp
L C C104
U 1 1 55714FB6
P 6450 2900
F 0 "C104" H 6450 3000 40  0000 L CNN
F 1 "0.1u" H 6456 2815 40  0000 L CNN
F 2 "~" H 6488 2750 30  0000 C CNN
F 3 "~" H 6450 2900 60  0000 C CNN
	1    6450 2900
	1    0    0    -1  
$EndComp
Wire Wire Line
	4400 2050 5550 2050
Wire Wire Line
	4400 2150 5550 2150
Wire Wire Line
	5450 2350 5450 2250
Wire Wire Line
	4400 2250 5550 2250
Wire Wire Line
	5450 1850 5450 1950
Wire Wire Line
	5450 1950 5550 1950
Wire Wire Line
	8100 2350 8100 2250
Wire Wire Line
	8100 2250 8200 2250
Wire Wire Line
	6800 2050 7250 2050
Wire Wire Line
	6800 2150 7250 2150
Wire Wire Line
	6900 2350 6900 2250
Wire Wire Line
	8100 2050 8200 2050
Wire Wire Line
	8100 2150 8200 2150
Wire Wire Line
	8100 1850 8100 1950
Wire Wire Line
	8100 1950 8200 1950
Wire Wire Line
	6900 1850 6900 1950
Wire Wire Line
	6900 1950 6800 1950
Wire Wire Line
	5900 2600 5900 2700
Wire Wire Line
	6450 2600 6450 2700
Wire Wire Line
	5900 3100 5900 3200
Wire Wire Line
	6450 3100 6450 3200
$Comp
L GND #PWR09
U 1 1 55714FEC
P 6450 3200
F 0 "#PWR09" H 6450 3200 30  0001 C CNN
F 1 "GND" H 6450 3130 30  0001 C CNN
F 2 "" H 6450 3200 60  0000 C CNN
F 3 "" H 6450 3200 60  0000 C CNN
	1    6450 3200
	1    0    0    -1  
$EndComp
$Comp
L GND #PWR010
U 1 1 55714FF2
P 6900 2350
F 0 "#PWR010" H 6900 2350 30  0001 C CNN
F 1 "GND" H 6900 2280 30  0001 C CNN
F 2 "" H 6900 2350 60  0000 C CNN
F 3 "" H 6900 2350 60  0000 C CNN
	1    6900 2350
	1    0    0    -1  
$EndComp
$Comp
L GND #PWR011
U 1 1 55714FF8
P 8100 2350
F 0 "#PWR011" H 8100 2350 30  0001 C CNN
F 1 "GND" H 8100 2280 30  0001 C CNN
F 2 "" H 8100 2350 60  0000 C CNN
F 3 "" H 8100 2350 60  0000 C CNN
	1    8100 2350
	1    0    0    -1  
$EndComp
Text Label 9350 2200 2    60   ~ 0
CANL
Text Label 9350 2100 2    60   ~ 0
CANH
Wire Wire Line
	9350 2300 9350 2500
Wire Wire Line
	9350 2400 9450 2400
Wire Wire Line
	9350 2100 9450 2100
Wire Wire Line
	9350 2200 9450 2200
Wire Wire Line
	9350 1800 9350 2000
Wire Wire Line
	9350 1900 9450 1900
$Comp
L GND #PWR012
U 1 1 55715014
P 9350 2500
F 0 "#PWR012" H 9350 2500 30  0001 C CNN
F 1 "GND" H 9350 2430 30  0001 C CNN
F 2 "" H 9350 2500 60  0000 C CNN
F 3 "" H 9350 2500 60  0000 C CNN
	1    9350 2500
	1    0    0    -1  
$EndComp
Wire Wire Line
	9350 2300 9450 2300
Connection ~ 9350 2400
Wire Wire Line
	9350 2000 9450 2000
Connection ~ 9350 1900
$Comp
L CONN_6 P102
U 1 1 55715035
P 9800 2150
F 0 "P102" V 9750 2150 60  0000 C CNN
F 1 "CONN_6" V 9850 2150 60  0000 C CNN
F 2 "" H 9800 2150 60  0000 C CNN
F 3 "" H 9800 2150 60  0000 C CNN
	1    9800 2150
	1    0    0    1   
$EndComp
$Comp
L R R101
U 1 1 5571503B
P 10400 2150
F 0 "R101" V 10480 2150 40  0000 C CNN
F 1 "120" V 10407 2151 40  0000 C CNN
F 2 "~" V 10330 2150 30  0000 C CNN
F 3 "~" H 10400 2150 30  0000 C CNN
	1    10400 2150
	1    0    0    -1  
$EndComp
Text Label 10500 1800 0    60   ~ 0
CANH
Text Label 10500 2500 0    60   ~ 0
CANL
Wire Wire Line
	10500 1800 10400 1800
Wire Wire Line
	10400 1800 10400 1900
Wire Wire Line
	10400 2400 10400 2500
Wire Wire Line
	10400 2500 10500 2500
$Comp
L CONN_13X2 P103
U 1 1 55714DC4
P 2050 2350
F 0 "P103" H 2050 3050 60  0000 C CNN
F 1 "CONN_13X2" V 2050 2350 50  0000 C CNN
F 2 "" H 2050 2350 60  0000 C CNN
F 3 "" H 2050 2350 60  0000 C CNN
	1    2050 2350
	-1   0    0    1   
$EndComp
$Comp
L +3.3V #PWR013
U 1 1 55714DF3
P 2450 2850
F 0 "#PWR013" H 2450 2810 30  0001 C CNN
F 1 "+3.3V" H 2450 2960 30  0000 C CNN
F 2 "" H 2450 2850 60  0000 C CNN
F 3 "" H 2450 2850 60  0000 C CNN
	1    2450 2850
	0    1    1    0   
$EndComp
$Comp
L +5V #PWR014
U 1 1 55714E0D
P 1650 2650
F 0 "#PWR014" H 1650 2740 20  0001 C CNN
F 1 "+5V" H 1650 2740 30  0000 C CNN
F 2 "" H 1650 2650 60  0000 C CNN
F 3 "" H 1650 2650 60  0000 C CNN
	1    1650 2650
	0    -1   -1   0   
$EndComp
$Comp
L +5V #PWR015
U 1 1 55714E13
P 6900 1850
F 0 "#PWR015" H 6900 1940 20  0001 C CNN
F 1 "+5V" H 6900 1940 30  0000 C CNN
F 2 "" H 6900 1850 60  0000 C CNN
F 3 "" H 6900 1850 60  0000 C CNN
	1    6900 1850
	1    0    0    -1  
$EndComp
$Comp
L +5V #PWR016
U 1 1 55714E19
P 6450 2600
F 0 "#PWR016" H 6450 2690 20  0001 C CNN
F 1 "+5V" H 6450 2690 30  0000 C CNN
F 2 "" H 6450 2600 60  0000 C CNN
F 3 "" H 6450 2600 60  0000 C CNN
	1    6450 2600
	1    0    0    -1  
$EndComp
$Comp
L +5V #PWR017
U 1 1 55714E1F
P 8100 1850
F 0 "#PWR017" H 8100 1940 20  0001 C CNN
F 1 "+5V" H 8100 1940 30  0000 C CNN
F 2 "" H 8100 1850 60  0000 C CNN
F 3 "" H 8100 1850 60  0000 C CNN
	1    8100 1850
	1    0    0    -1  
$EndComp
$Comp
L +5V #PWR018
U 1 1 55714E25
P 9350 1800
F 0 "#PWR018" H 9350 1890 20  0001 C CNN
F 1 "+5V" H 9350 1890 30  0000 C CNN
F 2 "" H 9350 1800 60  0000 C CNN
F 3 "" H 9350 1800 60  0000 C CNN
	1    9350 1800
	1    0    0    -1  
$EndComp
$Comp
L CONN_1 P108
U 1 1 557152C5
P 4250 2250
F 0 "P108" H 4330 2250 40  0000 L CNN
F 1 "CONN_1" H 4250 2305 30  0001 C CNN
F 2 "" H 4250 2250 60  0000 C CNN
F 3 "" H 4250 2250 60  0000 C CNN
	1    4250 2250
	-1   0    0    1   
$EndComp
$Comp
L CONN_1 P106
U 1 1 557152D2
P 4250 2150
F 0 "P106" H 4330 2150 40  0000 L CNN
F 1 "CONN_1" H 4250 2205 30  0001 C CNN
F 2 "" H 4250 2150 60  0000 C CNN
F 3 "" H 4250 2150 60  0000 C CNN
	1    4250 2150
	-1   0    0    1   
$EndComp
$Comp
L CONN_1 P104
U 1 1 557152D8
P 4250 2050
F 0 "P104" H 4330 2050 40  0000 L CNN
F 1 "CONN_1" H 4250 2105 30  0001 C CNN
F 2 "" H 4250 2050 60  0000 C CNN
F 3 "" H 4250 2050 60  0000 C CNN
	1    4250 2050
	-1   0    0    1   
$EndComp
$Comp
L CONN_1 P107
U 1 1 557152E4
P 7400 2150
F 0 "P107" H 7480 2150 40  0000 L CNN
F 1 "CONN_1" H 7400 2205 30  0001 C CNN
F 2 "" H 7400 2150 60  0000 C CNN
F 3 "" H 7400 2150 60  0000 C CNN
	1    7400 2150
	1    0    0    -1  
$EndComp
$Comp
L CONN_1 P105
U 1 1 557152EA
P 7400 2050
F 0 "P105" H 7480 2050 40  0000 L CNN
F 1 "CONN_1" H 7400 2105 30  0001 C CNN
F 2 "" H 7400 2050 60  0000 C CNN
F 3 "" H 7400 2050 60  0000 C CNN
	1    7400 2050
	1    0    0    -1  
$EndComp
Connection ~ 5450 2250
Wire Wire Line
	6900 2250 6800 2250
$Comp
L CONN_2 P109
U 1 1 55756250
P 6200 1100
F 0 "P109" V 6150 1100 40  0000 C CNN
F 1 "CONN_2" V 6250 1100 40  0000 C CNN
F 2 "" H 6200 1100 60  0000 C CNN
F 3 "" H 6200 1100 60  0000 C CNN
	1    6200 1100
	0    -1   -1   0   
$EndComp
Wire Wire Line
	6100 1450 5550 1450
Wire Wire Line
	5550 1450 5550 1950
Wire Wire Line
	6300 1450 6800 1450
Wire Wire Line
	6800 1450 6800 1950
Text Notes 6050 900  0    60   ~ 0
BIG HACK
$EndSCHEMATC
