G04 (created by PCBNEW (25-Oct-2014 BZR 4029)-stable) date mer. 10 juin 2015 20:53:18 CEST*
%MOIN*%
G04 Gerber Fmt 3.4, Leading zero omitted, Abs format*
%FSLAX34Y34*%
G01*
G70*
G90*
G04 APERTURE LIST*
%ADD10C,0.00590551*%
%ADD11C,0.00393701*%
G04 APERTURE END LIST*
G54D10*
G54D11*
X11811Y0D02*
X11811Y6299D01*
X0Y0D02*
X11811Y0D01*
X0Y6299D02*
X0Y0D01*
X11811Y6299D02*
X0Y6299D01*
M02*
