EESchema Schematic File Version 2
LIBS:canvlx-rescue
LIBS:power
LIBS:device
LIBS:transistors
LIBS:conn
LIBS:linear
LIBS:regul
LIBS:74xx
LIBS:cmos4000
LIBS:adc-dac
LIBS:memory
LIBS:xilinx
LIBS:microcontrollers
LIBS:dsp
LIBS:microchip
LIBS:analog_switches
LIBS:motorola
LIBS:texas
LIBS:intel
LIBS:audio
LIBS:interface
LIBS:digital-audio
LIBS:philips
LIBS:display
LIBS:cypress
LIBS:siliconi
LIBS:opto
LIBS:atmel
LIBS:contrib
LIBS:valves
LIBS:crap
LIBS:canvlx-cache
EELAYER 25 0
EELAYER END
$Descr A4 11693 8268
encoding utf-8
Sheet 1 5
Title ""
Date ""
Rev ""
Comp ""
Comment1 ""
Comment2 ""
Comment3 ""
Comment4 ""
$EndDescr
$Comp
L CONN_01X06 P101
U 1 1 57659275
P 1450 3000
F 0 "P101" H 1450 3350 50  0000 C CNN
F 1 "CONN_01X06" V 1550 3000 50  0000 C CNN
F 2 "lib:TE_MICROMATCH_SMD_FEM_6PIN" H 1450 3000 60  0001 C CNN
F 3 "" H 1450 3000 60  0000 C CNN
	1    1450 3000
	-1   0    0    1   
$EndComp
$Comp
L GND #PWR01
U 1 1 57659276
P 1750 3350
F 0 "#PWR01" H 1750 3100 50  0001 C CNN
F 1 "GND" H 1750 3200 50  0000 C CNN
F 2 "" H 1750 3350 60  0000 C CNN
F 3 "" H 1750 3350 60  0000 C CNN
	1    1750 3350
	1    0    0    -1  
$EndComp
Wire Wire Line
	1750 3150 1750 3350
Wire Wire Line
	1750 3250 1650 3250
Wire Wire Line
	1650 3150 1750 3150
Connection ~ 1750 3250
$Comp
L +5V #PWR02
U 1 1 57659277
P 2150 2550
F 0 "#PWR02" H 2150 2400 50  0001 C CNN
F 1 "+5V" H 2150 2690 50  0000 C CNN
F 2 "" H 2150 2550 60  0000 C CNN
F 3 "" H 2150 2550 60  0000 C CNN
	1    2150 2550
	1    0    0    -1  
$EndComp
Wire Wire Line
	1750 2650 1750 2850
Wire Wire Line
	1750 2750 1650 2750
Wire Wire Line
	1750 2850 1650 2850
Connection ~ 1750 2750
Text Label 1800 3050 0    60   ~ 0
CANL
Text Label 1800 2950 0    60   ~ 0
CANH
Wire Wire Line
	1800 2950 1650 2950
Wire Wire Line
	1800 3050 1650 3050
$Sheet
S 3650 3350 500  350 
U 57659278
F0 "pow" 60
F1 "pow.sch" 60
F2 "V2.8_EN" I R 4150 3550 60 
$EndSheet
Wire Wire Line
	3350 2550 3250 2550
Wire Wire Line
	3250 2650 3350 2650
Text Label 3250 2550 2    60   ~ 0
CANH
Text Label 3250 2650 2    60   ~ 0
CANL
Wire Wire Line
	4950 2600 4450 2600
Wire Wire Line
	4450 2500 4950 2500
$Sheet
S 3350 2350 1100 600 
U 57659272
F0 "CAN" 60
F1 "can.sch" 60
F2 "CANL" B L 3350 2650 60 
F3 "CANH" B L 3350 2550 60 
F4 "TX" I R 4450 2600 60 
F5 "RX" O R 4450 2500 60 
$EndSheet
$Sheet
S 4950 2300 1150 2150
U 5765926F
F0 "MCU" 60
F1 "mcu.sch" 60
F2 "CANRX" I L 4950 2500 60 
F3 "CANTX" O L 4950 2600 60 
F4 "SDA3.3" O R 6100 2500 60 
F5 "SCL3.3" O R 6100 2600 60 
F6 "INT0" B R 6100 2950 60 
F7 "INT1" B R 6100 3150 60 
F8 "INT2" B R 6100 3350 60 
F9 "INT3" B R 6100 3550 60 
F10 "LED0" O R 6100 3050 60 
F11 "LED1" O R 6100 3250 60 
F12 "LED2" O R 6100 3450 60 
F13 "LED3" O R 6100 3650 60 
F14 "V2.8_EN" O L 4950 3550 60 
F15 "INT4" B R 6100 3750 60 
F16 "INT5" B R 6100 3950 60 
F17 "LED4" O R 6100 3850 60 
F18 "LED5" O R 6100 4050 60 
$EndSheet
$Sheet
S 6650 2350 1000 500 
U 5765D4A9
F0 "I2C" 60
F1 "I2C.sch" 60
F2 "SDA3.3" I L 6650 2500 60 
F3 "SCL3.3" I L 6650 2600 60 
F4 "SDA2.8" O R 7650 2500 60 
F5 "SCL2.8" O R 7650 2600 60 
$EndSheet
Wire Wire Line
	6100 2500 6650 2500
Wire Wire Line
	6650 2600 6100 2600
$Comp
L CONN_01X06 P102
U 1 1 57665060
P 9350 2000
F 0 "P102" H 9350 2350 50  0000 C CNN
F 1 "CONN_01X06" V 9450 2000 50  0000 C CNN
F 2 "lib:TE_MICROMATCH_SMD_FEM_6PIN" H 9350 2000 50  0001 C CNN
F 3 "" H 9350 2000 50  0000 C CNN
	1    9350 2000
	1    0    0    1   
$EndComp
$Comp
L GND #PWR03
U 1 1 576652EC
P 9100 2300
F 0 "#PWR03" H 9100 2050 50  0001 C CNN
F 1 "GND" H 9100 2150 50  0000 C CNN
F 2 "" H 9100 2300 50  0000 C CNN
F 3 "" H 9100 2300 50  0000 C CNN
	1    9100 2300
	1    0    0    -1  
$EndComp
Wire Wire Line
	9100 2300 9100 2250
Wire Wire Line
	9100 2250 9150 2250
$Comp
L +2V5 #PWR04
U 1 1 57665546
P 9050 1650
F 0 "#PWR04" H 9050 1500 50  0001 C CNN
F 1 "+2V5" H 9050 1790 50  0000 C CNN
F 2 "" H 9050 1650 50  0000 C CNN
F 3 "" H 9050 1650 50  0000 C CNN
	1    9050 1650
	1    0    0    -1  
$EndComp
Wire Wire Line
	9050 1650 9050 1750
Wire Wire Line
	9050 1750 9150 1750
Text Label 9100 2150 2    60   ~ 0
SCL
Text Label 9100 2050 2    60   ~ 0
SDA
Text Label 9100 1950 2    60   ~ 0
INT0
Text Label 9100 1850 2    60   ~ 0
LED0
Text Label 7850 2500 0    60   ~ 0
SDA
Wire Wire Line
	7850 2500 7650 2500
Text Label 7850 2600 0    60   ~ 0
SCL
Wire Wire Line
	7850 2600 7650 2600
Text Label 6200 2950 0    60   ~ 0
INT0
Text Label 6200 3050 0    60   ~ 0
LED0
Wire Wire Line
	6200 3050 6100 3050
Wire Wire Line
	6200 2950 6100 2950
Wire Wire Line
	4950 3550 4150 3550
$Comp
L CONN_01X06 P104
U 1 1 5766821C
P 10300 2000
F 0 "P104" H 10300 2350 50  0000 C CNN
F 1 "CONN_01X06" V 10400 2000 50  0000 C CNN
F 2 "lib:TE_MICROMATCH_SMD_FEM_6PIN" H 10300 2000 50  0001 C CNN
F 3 "" H 10300 2000 50  0000 C CNN
	1    10300 2000
	1    0    0    1   
$EndComp
$Comp
L GND #PWR05
U 1 1 57668222
P 10050 2300
F 0 "#PWR05" H 10050 2050 50  0001 C CNN
F 1 "GND" H 10050 2150 50  0000 C CNN
F 2 "" H 10050 2300 50  0000 C CNN
F 3 "" H 10050 2300 50  0000 C CNN
	1    10050 2300
	1    0    0    -1  
$EndComp
Wire Wire Line
	10050 2300 10050 2250
Wire Wire Line
	10050 2250 10100 2250
$Comp
L +2V5 #PWR06
U 1 1 5766822A
P 10000 1650
F 0 "#PWR06" H 10000 1500 50  0001 C CNN
F 1 "+2V5" H 10000 1790 50  0000 C CNN
F 2 "" H 10000 1650 50  0000 C CNN
F 3 "" H 10000 1650 50  0000 C CNN
	1    10000 1650
	1    0    0    -1  
$EndComp
Wire Wire Line
	10000 1650 10000 1750
Wire Wire Line
	10000 1750 10100 1750
Text Label 10050 2150 2    60   ~ 0
SCL
Text Label 10050 2050 2    60   ~ 0
SDA
Text Label 10050 1950 2    60   ~ 0
INT1
Text Label 10050 1850 2    60   ~ 0
LED1
$Comp
L CONN_01X06 P105
U 1 1 57668436
P 10300 3400
F 0 "P105" H 10300 3750 50  0000 C CNN
F 1 "CONN_01X06" V 10400 3400 50  0000 C CNN
F 2 "lib:TE_MICROMATCH_SMD_FEM_6PIN" H 10300 3400 50  0001 C CNN
F 3 "" H 10300 3400 50  0000 C CNN
	1    10300 3400
	1    0    0    1   
$EndComp
$Comp
L GND #PWR07
U 1 1 5766843C
P 10050 3700
F 0 "#PWR07" H 10050 3450 50  0001 C CNN
F 1 "GND" H 10050 3550 50  0000 C CNN
F 2 "" H 10050 3700 50  0000 C CNN
F 3 "" H 10050 3700 50  0000 C CNN
	1    10050 3700
	1    0    0    -1  
$EndComp
Wire Wire Line
	10050 3700 10050 3650
Wire Wire Line
	10050 3650 10100 3650
$Comp
L +2V5 #PWR08
U 1 1 57668444
P 10000 3050
F 0 "#PWR08" H 10000 2900 50  0001 C CNN
F 1 "+2V5" H 10000 3190 50  0000 C CNN
F 2 "" H 10000 3050 50  0000 C CNN
F 3 "" H 10000 3050 50  0000 C CNN
	1    10000 3050
	1    0    0    -1  
$EndComp
Wire Wire Line
	10000 3050 10000 3150
Wire Wire Line
	10000 3150 10100 3150
Text Label 10050 3550 2    60   ~ 0
SCL
Text Label 10050 3450 2    60   ~ 0
SDA
Text Label 10050 3350 2    60   ~ 0
INT3
Text Label 10050 3250 2    60   ~ 0
LED3
$Comp
L CONN_01X06 P103
U 1 1 57668450
P 9350 3400
F 0 "P103" H 9350 3750 50  0000 C CNN
F 1 "CONN_01X06" V 9450 3400 50  0000 C CNN
F 2 "lib:TE_MICROMATCH_SMD_FEM_6PIN" H 9350 3400 50  0001 C CNN
F 3 "" H 9350 3400 50  0000 C CNN
	1    9350 3400
	1    0    0    1   
$EndComp
$Comp
L GND #PWR09
U 1 1 57668456
P 9100 3700
F 0 "#PWR09" H 9100 3450 50  0001 C CNN
F 1 "GND" H 9100 3550 50  0000 C CNN
F 2 "" H 9100 3700 50  0000 C CNN
F 3 "" H 9100 3700 50  0000 C CNN
	1    9100 3700
	1    0    0    -1  
$EndComp
Wire Wire Line
	9100 3700 9100 3650
Wire Wire Line
	9100 3650 9150 3650
$Comp
L +2V5 #PWR010
U 1 1 5766845E
P 9050 3050
F 0 "#PWR010" H 9050 2900 50  0001 C CNN
F 1 "+2V5" H 9050 3190 50  0000 C CNN
F 2 "" H 9050 3050 50  0000 C CNN
F 3 "" H 9050 3050 50  0000 C CNN
	1    9050 3050
	1    0    0    -1  
$EndComp
Wire Wire Line
	9050 3050 9050 3150
Wire Wire Line
	9050 3150 9150 3150
Text Label 9100 3550 2    60   ~ 0
SCL
Text Label 9100 3450 2    60   ~ 0
SDA
Text Label 9100 3350 2    60   ~ 0
INT2
Text Label 9100 3250 2    60   ~ 0
LED2
Text Label 6200 3550 0    60   ~ 0
INT3
Text Label 6200 3650 0    60   ~ 0
LED3
Text Label 6200 3350 0    60   ~ 0
INT2
Text Label 6200 3450 0    60   ~ 0
LED2
Text Label 6200 3250 0    60   ~ 0
LED1
Text Label 6200 3150 0    60   ~ 0
INT1
Wire Wire Line
	6200 3150 6100 3150
Wire Wire Line
	6100 3250 6200 3250
Wire Wire Line
	6200 3350 6100 3350
Wire Wire Line
	6100 3450 6200 3450
Wire Wire Line
	6200 3550 6100 3550
Wire Wire Line
	6100 3650 6200 3650
Wire Wire Line
	9100 3250 9150 3250
Wire Wire Line
	9150 3350 9100 3350
Wire Wire Line
	9100 3450 9150 3450
Wire Wire Line
	9100 3550 9150 3550
Wire Wire Line
	10100 3550 10050 3550
Wire Wire Line
	10050 3450 10100 3450
Wire Wire Line
	10100 3350 10050 3350
Wire Wire Line
	10100 3250 10050 3250
Wire Wire Line
	10100 2150 10050 2150
Wire Wire Line
	10050 2050 10100 2050
Wire Wire Line
	10050 1950 10100 1950
Wire Wire Line
	10050 1850 10100 1850
Wire Wire Line
	9150 1850 9100 1850
Wire Wire Line
	9100 1950 9150 1950
Wire Wire Line
	9100 2050 9150 2050
Wire Wire Line
	9100 2150 9150 2150
$Comp
L CONN_01X06 P107
U 1 1 576E42AA
P 10300 4700
F 0 "P107" H 10300 5050 50  0000 C CNN
F 1 "CONN_01X06" V 10400 4700 50  0000 C CNN
F 2 "lib:TE_MICROMATCH_SMD_FEM_6PIN" H 10300 4700 50  0001 C CNN
F 3 "" H 10300 4700 50  0000 C CNN
	1    10300 4700
	1    0    0    1   
$EndComp
$Comp
L GND #PWR011
U 1 1 576E42B0
P 10050 5000
F 0 "#PWR011" H 10050 4750 50  0001 C CNN
F 1 "GND" H 10050 4850 50  0000 C CNN
F 2 "" H 10050 5000 50  0000 C CNN
F 3 "" H 10050 5000 50  0000 C CNN
	1    10050 5000
	1    0    0    -1  
$EndComp
Wire Wire Line
	10050 5000 10050 4950
Wire Wire Line
	10050 4950 10100 4950
$Comp
L +2V5 #PWR012
U 1 1 576E42B8
P 10000 4350
F 0 "#PWR012" H 10000 4200 50  0001 C CNN
F 1 "+2V5" H 10000 4490 50  0000 C CNN
F 2 "" H 10000 4350 50  0000 C CNN
F 3 "" H 10000 4350 50  0000 C CNN
	1    10000 4350
	1    0    0    -1  
$EndComp
Wire Wire Line
	10000 4350 10000 4450
Wire Wire Line
	10000 4450 10100 4450
Text Label 10050 4850 2    60   ~ 0
SCL
Text Label 10050 4750 2    60   ~ 0
SDA
Text Label 10050 4650 2    60   ~ 0
INT5
Text Label 10050 4550 2    60   ~ 0
LED5
$Comp
L CONN_01X06 P106
U 1 1 576E42C4
P 9350 4700
F 0 "P106" H 9350 5050 50  0000 C CNN
F 1 "CONN_01X06" V 9450 4700 50  0000 C CNN
F 2 "lib:TE_MICROMATCH_SMD_FEM_6PIN" H 9350 4700 50  0001 C CNN
F 3 "" H 9350 4700 50  0000 C CNN
	1    9350 4700
	1    0    0    1   
$EndComp
$Comp
L GND #PWR013
U 1 1 576E42CA
P 9100 5000
F 0 "#PWR013" H 9100 4750 50  0001 C CNN
F 1 "GND" H 9100 4850 50  0000 C CNN
F 2 "" H 9100 5000 50  0000 C CNN
F 3 "" H 9100 5000 50  0000 C CNN
	1    9100 5000
	1    0    0    -1  
$EndComp
Wire Wire Line
	9100 5000 9100 4950
Wire Wire Line
	9100 4950 9150 4950
$Comp
L +2V5 #PWR014
U 1 1 576E42D2
P 9050 4350
F 0 "#PWR014" H 9050 4200 50  0001 C CNN
F 1 "+2V5" H 9050 4490 50  0000 C CNN
F 2 "" H 9050 4350 50  0000 C CNN
F 3 "" H 9050 4350 50  0000 C CNN
	1    9050 4350
	1    0    0    -1  
$EndComp
Wire Wire Line
	9050 4350 9050 4450
Wire Wire Line
	9050 4450 9150 4450
Text Label 9100 4850 2    60   ~ 0
SCL
Text Label 9100 4750 2    60   ~ 0
SDA
Text Label 9100 4650 2    60   ~ 0
INT4
Text Label 9100 4550 2    60   ~ 0
LED4
Wire Wire Line
	9100 4550 9150 4550
Wire Wire Line
	9150 4650 9100 4650
Wire Wire Line
	9100 4750 9150 4750
Wire Wire Line
	9100 4850 9150 4850
Wire Wire Line
	10100 4850 10050 4850
Wire Wire Line
	10050 4750 10100 4750
Wire Wire Line
	10100 4650 10050 4650
Wire Wire Line
	10100 4550 10050 4550
Text Label 6200 3950 0    60   ~ 0
INT5
Text Label 6200 4050 0    60   ~ 0
LED5
Text Label 6200 3750 0    60   ~ 0
INT4
Text Label 6200 3850 0    60   ~ 0
LED4
Wire Wire Line
	6200 3750 6100 3750
Wire Wire Line
	6100 3850 6200 3850
Wire Wire Line
	6200 3950 6100 3950
Wire Wire Line
	6100 4050 6200 4050
$Comp
L D_Schottky D101
U 1 1 5774CBB9
P 1900 2650
F 0 "D101" H 1900 2750 50  0000 C CNN
F 1 "D_Schottky" H 1900 2550 50  0000 C CNN
F 2 "Diodes_SMD:SOD-323" H 1900 2650 50  0001 C CNN
F 3 "" H 1900 2650 50  0000 C CNN
	1    1900 2650
	-1   0    0    1   
$EndComp
Wire Wire Line
	2150 2550 2150 2650
Wire Wire Line
	2150 2650 2050 2650
Text Notes 650  2000 0    60   ~ 0
Diode schottky:\nfarnell: 8737843
$EndSCHEMATC
