EESchema Schematic File Version 2
LIBS:canvlx-rescue
LIBS:power
LIBS:device
LIBS:transistors
LIBS:conn
LIBS:linear
LIBS:regul
LIBS:74xx
LIBS:cmos4000
LIBS:adc-dac
LIBS:memory
LIBS:xilinx
LIBS:microcontrollers
LIBS:dsp
LIBS:microchip
LIBS:analog_switches
LIBS:motorola
LIBS:texas
LIBS:intel
LIBS:audio
LIBS:interface
LIBS:digital-audio
LIBS:philips
LIBS:display
LIBS:cypress
LIBS:siliconi
LIBS:opto
LIBS:atmel
LIBS:contrib
LIBS:valves
LIBS:crap
LIBS:canvlx-cache
EELAYER 25 0
EELAYER END
$Descr A4 11693 8268
encoding utf-8
Sheet 5 5
Title ""
Date "6 dec 2014"
Rev ""
Comp ""
Comment1 ""
Comment2 ""
Comment3 ""
Comment4 ""
$EndDescr
$Comp
L TCA9406 U501
U 1 1 5765D97F
P 4300 3800
F 0 "U501" H 4250 3400 60  0000 C CNN
F 1 "TCA9406" H 4250 4000 60  0000 C CNN
F 2 "lib:SSOP8" H 4550 3800 60  0001 C CNN
F 3 "" H 4550 3800 60  0000 C CNN
	1    4300 3800
	1    0    0    -1  
$EndComp
$Comp
L GND #PWR051
U 1 1 5765D990
P 3800 4100
F 0 "#PWR051" H 3800 4100 30  0001 C CNN
F 1 "GND" H 3800 4030 30  0001 C CNN
F 2 "" H 3800 4100 60  0000 C CNN
F 3 "" H 3800 4100 60  0000 C CNN
	1    3800 4100
	1    0    0    -1  
$EndComp
$Comp
L R R503
U 1 1 5765D992
P 5300 3450
F 0 "R503" V 5380 3450 40  0000 C CNN
F 1 "10k" V 5307 3451 40  0000 C CNN
F 2 "Resistors_SMD:R_0402" V 5230 3450 30  0001 C CNN
F 3 "~" H 5300 3450 30  0000 C CNN
	1    5300 3450
	1    0    0    -1  
$EndComp
$Comp
L R R504
U 1 1 5765D993
P 5450 3450
F 0 "R504" V 5530 3450 40  0000 C CNN
F 1 "10k" V 5457 3451 40  0000 C CNN
F 2 "Resistors_SMD:R_0402" V 5380 3450 30  0001 C CNN
F 3 "~" H 5450 3450 30  0000 C CNN
	1    5450 3450
	1    0    0    -1  
$EndComp
Wire Wire Line
	5000 3950 5000 4050
Wire Wire Line
	5000 3950 5750 3950
Wire Wire Line
	3800 4050 3800 4100
Wire Wire Line
	3150 3950 3800 3950
$Comp
L VDD #PWR052
U 1 1 5765F693
P 3150 3850
F 0 "#PWR052" H 3150 3700 50  0001 C CNN
F 1 "VDD" H 3150 4000 50  0000 C CNN
F 2 "" H 3150 3850 50  0000 C CNN
F 3 "" H 3150 3850 50  0000 C CNN
	1    3150 3850
	1    0    0    -1  
$EndComp
$Comp
L +2V5 #PWR053
U 1 1 5765F703
P 5750 3900
F 0 "#PWR053" H 5750 3750 50  0001 C CNN
F 1 "+2V5" H 5750 4040 50  0000 C CNN
F 2 "" H 5750 3900 50  0000 C CNN
F 3 "" H 5750 3900 50  0000 C CNN
	1    5750 3900
	1    0    0    -1  
$EndComp
$Comp
L +2V5 #PWR054
U 1 1 5765F752
P 5300 3150
F 0 "#PWR054" H 5300 3000 50  0001 C CNN
F 1 "+2V5" H 5300 3290 50  0000 C CNN
F 2 "" H 5300 3150 50  0000 C CNN
F 3 "" H 5300 3150 50  0000 C CNN
	1    5300 3150
	1    0    0    -1  
$EndComp
Wire Wire Line
	5300 3300 5300 3150
Wire Wire Line
	5300 3250 5450 3250
Wire Wire Line
	5450 3250 5450 3300
Connection ~ 5300 3250
Wire Wire Line
	5300 3600 5300 3750
Wire Wire Line
	5300 3750 5000 3750
Wire Wire Line
	5000 3850 5450 3850
Wire Wire Line
	5450 3850 5450 3600
Wire Wire Line
	5750 3950 5750 3900
Text HLabel 3600 3750 0    39   Input ~ 0
SDA3.3
Text HLabel 3750 3850 0    39   Input ~ 0
SCL3.3
Wire Wire Line
	3750 3850 3800 3850
Text HLabel 5000 3750 2    39   Output ~ 0
SDA2.8
Text HLabel 5000 3850 2    39   Output ~ 0
SCL2.8
$Comp
L R R501
U 1 1 5765FB64
P 3600 3450
F 0 "R501" V 3680 3450 40  0000 C CNN
F 1 "10k" V 3607 3451 40  0000 C CNN
F 2 "Resistors_SMD:R_0402" V 3530 3450 30  0001 C CNN
F 3 "~" H 3600 3450 30  0000 C CNN
	1    3600 3450
	1    0    0    -1  
$EndComp
$Comp
L R R502
U 1 1 5765FB6A
P 3750 3450
F 0 "R502" V 3830 3450 40  0000 C CNN
F 1 "10k" V 3757 3451 40  0000 C CNN
F 2 "Resistors_SMD:R_0402" V 3680 3450 30  0001 C CNN
F 3 "~" H 3750 3450 30  0000 C CNN
	1    3750 3450
	1    0    0    -1  
$EndComp
Wire Wire Line
	3600 3300 3600 3150
Wire Wire Line
	3600 3250 3750 3250
Wire Wire Line
	3750 3250 3750 3300
Connection ~ 3600 3250
Wire Wire Line
	3600 3600 3600 3750
Wire Wire Line
	3750 3850 3750 3600
Wire Wire Line
	3600 3750 3800 3750
Wire Wire Line
	3150 3950 3150 3850
$Comp
L VDD #PWR055
U 1 1 5765FD60
P 3600 3150
F 0 "#PWR055" H 3600 3000 50  0001 C CNN
F 1 "VDD" H 3600 3300 50  0000 C CNN
F 2 "" H 3600 3150 50  0000 C CNN
F 3 "" H 3600 3150 50  0000 C CNN
	1    3600 3150
	1    0    0    -1  
$EndComp
$EndSCHEMATC
