EESchema Schematic File Version 2
LIBS:canvlx-rescue
LIBS:power
LIBS:device
LIBS:transistors
LIBS:conn
LIBS:linear
LIBS:regul
LIBS:74xx
LIBS:cmos4000
LIBS:adc-dac
LIBS:memory
LIBS:xilinx
LIBS:microcontrollers
LIBS:dsp
LIBS:microchip
LIBS:analog_switches
LIBS:motorola
LIBS:texas
LIBS:intel
LIBS:audio
LIBS:interface
LIBS:digital-audio
LIBS:philips
LIBS:display
LIBS:cypress
LIBS:siliconi
LIBS:opto
LIBS:atmel
LIBS:contrib
LIBS:valves
LIBS:crap
LIBS:canvlx-cache
EELAYER 25 0
EELAYER END
$Descr A4 11693 8268
encoding utf-8
Sheet 4 5
Title ""
Date "29 jul 2015"
Rev ""
Comp ""
Comment1 ""
Comment2 ""
Comment3 ""
Comment4 ""
$EndDescr
Text Label 6200 3050 0    60   ~ 0
SWDIO
Text Label 6200 3150 0    60   ~ 0
SWCLK
$Comp
L GND #PWR040
U 1 1 5765D18B
P 3900 4150
F 0 "#PWR040" H 3900 4150 30  0001 C CNN
F 1 "GND" H 3900 4080 30  0001 C CNN
F 2 "" H 3900 4150 60  0000 C CNN
F 3 "" H 3900 4150 60  0000 C CNN
	1    3900 4150
	0    1    1    0   
$EndComp
Text Label 6700 2650 0    60   ~ 0
DBG_TX
Text Label 6700 2750 0    60   ~ 0
DBG_RX
Text Notes 6200 1950 0    60   ~ 0
USART2_TX
Text Notes 6200 2050 0    60   ~ 0
USART2_RX
Text Notes 6200 2650 0    60   ~ 0
USART1_TX
Text Notes 6200 2750 0    60   ~ 0
USART1_RX
$Comp
L GND #PWR041
U 1 1 5765D18C
P 4050 4950
F 0 "#PWR041" H 4050 4950 30  0001 C CNN
F 1 "GND" H 4050 4880 30  0001 C CNN
F 2 "" H 4050 4950 60  0000 C CNN
F 3 "" H 4050 4950 60  0000 C CNN
	1    4050 4950
	1    0    0    -1  
$EndComp
$Comp
L VDD #PWR042
U 1 1 5765D18D
P 4050 1650
F 0 "#PWR042" H 4050 1750 30  0001 C CNN
F 1 "VDD" H 4050 1760 30  0000 C CNN
F 2 "" H 4050 1650 60  0000 C CNN
F 3 "" H 4050 1650 60  0000 C CNN
	1    4050 1650
	1    0    0    -1  
$EndComp
$Comp
L C C402
U 1 1 5765D18E
P 1150 3550
F 0 "C402" H 1150 3650 40  0000 L CNN
F 1 "1u" H 1156 3465 40  0000 L CNN
F 2 "Capacitors_SMD:C_0603_HandSoldering" H 1188 3400 30  0000 C CNN
F 3 "~" H 1150 3550 60  0000 C CNN
	1    1150 3550
	1    0    0    -1  
$EndComp
$Comp
L C C404
U 1 1 5765D18F
P 1400 3550
F 0 "C404" H 1400 3650 40  0000 L CNN
F 1 "0.01u" H 1406 3465 40  0000 L CNN
F 2 "Capacitors_SMD:C_0402" H 1438 3400 30  0000 C CNN
F 3 "~" H 1400 3550 60  0000 C CNN
	1    1400 3550
	1    0    0    -1  
$EndComp
Text Notes 1600 3550 0    60   ~ 0
Close to VDDA
$Comp
L GND #PWR043
U 1 1 5765D190
P 1150 3850
F 0 "#PWR043" H 1150 3850 30  0001 C CNN
F 1 "GND" H 1150 3780 30  0001 C CNN
F 2 "" H 1150 3850 60  0000 C CNN
F 3 "" H 1150 3850 60  0000 C CNN
	1    1150 3850
	1    0    0    -1  
$EndComp
$Comp
L VDD #PWR044
U 1 1 5765D191
P 1150 3250
F 0 "#PWR044" H 1150 3350 30  0001 C CNN
F 1 "VDD" H 1150 3360 30  0000 C CNN
F 2 "" H 1150 3250 60  0000 C CNN
F 3 "" H 1150 3250 60  0000 C CNN
	1    1150 3250
	1    0    0    -1  
$EndComp
$Comp
L C C403
U 1 1 5765D192
P 1150 4450
F 0 "C403" H 1150 4550 40  0000 L CNN
F 1 "0.1u" H 1156 4365 40  0000 L CNN
F 2 "Capacitors_SMD:C_0402" H 1188 4300 30  0000 C CNN
F 3 "~" H 1150 4450 60  0000 C CNN
	1    1150 4450
	1    0    0    -1  
$EndComp
$Comp
L C C406
U 1 1 5765D193
P 1700 4450
F 0 "C406" H 1700 4550 40  0000 L CNN
F 1 "4.7u" H 1706 4365 40  0000 L CNN
F 2 "Capacitors_SMD:C_0805" H 1738 4300 30  0000 C CNN
F 3 "~" H 1700 4450 60  0000 C CNN
	1    1700 4450
	1    0    0    -1  
$EndComp
$Comp
L C C401
U 1 1 5765D194
P 900 4450
F 0 "C401" H 900 4550 40  0000 L CNN
F 1 "0.1u" H 906 4365 40  0000 L CNN
F 2 "Capacitors_SMD:C_0402" H 938 4300 30  0000 C CNN
F 3 "~" H 900 4450 60  0000 C CNN
	1    900  4450
	1    0    0    -1  
$EndComp
$Comp
L C C405
U 1 1 5765D195
P 1400 4450
F 0 "C405" H 1400 4550 40  0000 L CNN
F 1 "0.1u" H 1406 4365 40  0000 L CNN
F 2 "Capacitors_SMD:C_0402" H 1438 4300 30  0000 C CNN
F 3 "~" H 1400 4450 60  0000 C CNN
	1    1400 4450
	1    0    0    -1  
$EndComp
$Comp
L GND #PWR045
U 1 1 5765D196
P 900 4750
F 0 "#PWR045" H 900 4750 30  0001 C CNN
F 1 "GND" H 900 4680 30  0001 C CNN
F 2 "" H 900 4750 60  0000 C CNN
F 3 "" H 900 4750 60  0000 C CNN
	1    900  4750
	1    0    0    -1  
$EndComp
$Comp
L VDD #PWR046
U 1 1 5765D197
P 900 4150
F 0 "#PWR046" H 900 4250 30  0001 C CNN
F 1 "VDD" H 900 4260 30  0000 C CNN
F 2 "" H 900 4150 60  0000 C CNN
F 3 "" H 900 4150 60  0000 C CNN
	1    900  4150
	1    0    0    -1  
$EndComp
Text Notes 1850 4400 0    60   ~ 0
Each 0.1u close to VDD_x\n4.7u close to VDD_3
Text HLabel 6200 2850 2    60   Input ~ 0
CANRX
Text HLabel 6200 2950 2    60   Output ~ 0
CANTX
$Comp
L GND #PWR047
U 1 1 5765D198
P 3000 6850
F 0 "#PWR047" H 3000 6850 30  0001 C CNN
F 1 "GND" H 3000 6780 30  0001 C CNN
F 2 "" H 3000 6850 60  0000 C CNN
F 3 "" H 3000 6850 60  0000 C CNN
	1    3000 6850
	1    0    0    -1  
$EndComp
$Comp
L VDD #PWR048
U 1 1 5765D199
P 3000 6150
F 0 "#PWR048" H 3000 6250 30  0001 C CNN
F 1 "VDD" H 3000 6260 30  0000 C CNN
F 2 "" H 3000 6150 60  0000 C CNN
F 3 "" H 3000 6150 60  0000 C CNN
	1    3000 6150
	1    0    0    -1  
$EndComp
Text Label 3000 6650 0    60   ~ 0
SWCLK
Text Label 3000 6550 0    60   ~ 0
SWDIO
Text Label 3000 6450 0    60   ~ 0
DBG_RX
Text Label 3000 6350 0    60   ~ 0
DBG_TX
$Comp
L LED-RESCUE-canvlx D401
U 1 1 5765D19A
P 5050 5950
F 0 "D401" H 5050 6050 50  0000 C CNN
F 1 "LED" H 5050 5850 50  0000 C CNN
F 2 "Capacitors_SMD:C_0603" H 5050 5950 60  0000 C CNN
F 3 "~" H 5050 5950 60  0000 C CNN
	1    5050 5950
	0    -1   -1   0   
$EndComp
$Comp
L R R401
U 1 1 5765D19B
P 5050 6400
F 0 "R401" V 5130 6400 40  0000 C CNN
F 1 "800" V 5057 6401 40  0000 C CNN
F 2 "Resistors_SMD:R_0402" V 4980 6400 30  0000 C CNN
F 3 "~" H 5050 6400 30  0000 C CNN
	1    5050 6400
	1    0    0    -1  
$EndComp
$Comp
L LED-RESCUE-canvlx D402
U 1 1 5765D19C
P 5300 5950
F 0 "D402" H 5300 6050 50  0000 C CNN
F 1 "LED" H 5300 5850 50  0000 C CNN
F 2 "Capacitors_SMD:C_0603" H 5300 5950 60  0000 C CNN
F 3 "~" H 5300 5950 60  0000 C CNN
	1    5300 5950
	0    -1   -1   0   
$EndComp
$Comp
L R R402
U 1 1 5765D19D
P 5300 6400
F 0 "R402" V 5380 6400 40  0000 C CNN
F 1 "800" V 5307 6401 40  0000 C CNN
F 2 "Resistors_SMD:R_0402" V 5230 6400 30  0000 C CNN
F 3 "~" H 5300 6400 30  0000 C CNN
	1    5300 6400
	1    0    0    -1  
$EndComp
Text Label 5050 5650 1    60   ~ 0
xLED0
Text Label 5300 5650 1    60   ~ 0
xLED1
Text Label 7250 4650 0    60   ~ 0
xLED0
Text Label 7250 4750 0    60   ~ 0
xLED1
Text Notes 2400 7100 0    60   ~ 0
Prog & Debug
$Comp
L JTAGCON P402
U 1 1 5765D19E
P 2200 6500
F 0 "P402" H 2700 6150 60  0000 C CNN
F 1 "JTAGCON" H 1950 6900 60  0000 C CNN
F 2 "lib:BM06B-SRSS-TB" H 1850 6750 60  0000 C CNN
F 3 "~" H 2650 6700 60  0000 C CNN
	1    2200 6500
	1    0    0    -1  
$EndComp
$Comp
L GND #PWR049
U 1 1 5765D19F
P 1600 6850
F 0 "#PWR049" H 1600 6850 30  0001 C CNN
F 1 "GND" H 1600 6780 30  0001 C CNN
F 2 "" H 1600 6850 60  0000 C CNN
F 3 "" H 1600 6850 60  0000 C CNN
	1    1600 6850
	1    0    0    -1  
$EndComp
$Comp
L STM32F103CX U401
U 1 1 5765D1A0
P 5150 3350
F 0 "U401" H 5550 1600 60  0000 C CNN
F 1 "STM32F103CX" H 5150 4950 60  0000 C CNN
F 2 "lib:LQFP48" H 5150 3350 60  0000 C CNN
F 3 "~" H 5150 3350 60  0000 C CNN
	1    5150 3350
	1    0    0    -1  
$EndComp
Text Notes 6200 4050 0    60   ~ 0
I2C1_SCL
Text Notes 6200 4150 0    60   ~ 0
I2C1_SDA
$Comp
L GND #PWR050
U 1 1 5765D1A1
P 5150 6750
F 0 "#PWR050" H 5150 6750 30  0001 C CNN
F 1 "GND" H 5150 6680 30  0001 C CNN
F 2 "" H 5150 6750 60  0000 C CNN
F 3 "" H 5150 6750 60  0000 C CNN
	1    5150 6750
	1    0    0    -1  
$EndComp
Text Notes 6200 4250 0    60   ~ 0
I2C1_SCL
Text Notes 6200 4350 0    60   ~ 0
I2C1_SDA
Wire Wire Line
	6100 4650 7250 4650
Wire Wire Line
	6100 4950 7250 4950
Wire Wire Line
	6100 4850 7250 4850
Wire Wire Line
	6100 4750 7250 4750
Wire Wire Line
	4200 2750 4050 2750
Wire Wire Line
	4200 3050 4050 3050
Wire Wire Line
	4050 3150 4200 3150
Wire Wire Line
	6100 3250 6750 3250
Wire Wire Line
	6100 4350 7250 4350
Wire Wire Line
	6100 4250 7250 4250
Wire Wire Line
	6100 4150 7250 4150
Wire Wire Line
	6100 4050 7250 4050
Wire Wire Line
	6700 3850 6100 3850
Wire Wire Line
	4050 3550 4200 3550
Wire Wire Line
	4050 3450 4200 3450
Connection ~ 5150 6650
Wire Wire Line
	5050 6650 5300 6650
Wire Wire Line
	5150 6750 5150 6650
Wire Wire Line
	6100 4550 7250 4550
Wire Wire Line
	7250 4450 6100 4450
Connection ~ 4050 1850
Wire Wire Line
	4050 1850 4200 1850
Wire Wire Line
	4050 2450 4200 2450
Wire Wire Line
	6100 2150 6700 2150
Connection ~ 1600 6750
Wire Wire Line
	1600 6650 1700 6650
Wire Wire Line
	1600 6750 1700 6750
Wire Wire Line
	1600 6650 1600 6850
Wire Notes Line
	1450 5900 1450 7150
Wire Notes Line
	3400 5900 1450 5900
Wire Notes Line
	3400 7150 3400 5900
Wire Notes Line
	1450 7150 3400 7150
Connection ~ 4050 4850
Wire Wire Line
	4050 4850 4200 4850
Wire Wire Line
	6100 3950 6700 3950
Wire Wire Line
	6100 3750 6700 3750
Wire Wire Line
	6100 2750 6700 2750
Wire Wire Line
	6100 2650 6700 2650
Wire Wire Line
	6100 2250 6700 2250
Wire Wire Line
	6100 1850 7250 1850
Wire Wire Line
	6100 1750 7250 1750
Wire Wire Line
	6100 3450 6750 3450
Wire Wire Line
	6100 2450 6700 2450
Wire Wire Line
	6100 2350 6700 2350
Wire Wire Line
	6750 3550 6100 3550
Wire Wire Line
	5050 6650 5050 6550
Wire Wire Line
	5300 6650 5300 6550
Wire Wire Line
	5300 6150 5300 6250
Wire Wire Line
	5300 5650 5300 5750
Wire Wire Line
	5050 6150 5050 6250
Wire Wire Line
	5050 5650 5050 5750
Wire Wire Line
	2900 6650 3000 6650
Wire Wire Line
	3000 6550 2900 6550
Wire Wire Line
	2900 6450 3000 6450
Wire Wire Line
	3000 6350 2900 6350
Wire Wire Line
	3000 6250 2900 6250
Wire Wire Line
	3000 6150 3000 6250
Wire Wire Line
	3000 6750 3000 6850
Wire Wire Line
	2900 6750 3000 6750
Connection ~ 1400 4200
Wire Wire Line
	1700 4200 1700 4300
Connection ~ 1150 4200
Wire Wire Line
	1400 4200 1400 4300
Connection ~ 900  4200
Wire Wire Line
	1150 4200 1150 4300
Wire Wire Line
	900  4200 1700 4200
Wire Wire Line
	900  4150 900  4300
Connection ~ 1400 4700
Wire Wire Line
	1700 4600 1700 4700
Connection ~ 1150 4700
Wire Wire Line
	1400 4600 1400 4700
Connection ~ 900  4700
Wire Wire Line
	1150 4600 1150 4700
Wire Wire Line
	1700 4700 900  4700
Wire Wire Line
	900  4600 900  4750
Connection ~ 1150 3300
Wire Wire Line
	1400 3300 1400 3400
Wire Wire Line
	1150 3300 1400 3300
Wire Wire Line
	1150 3250 1150 3400
Connection ~ 1150 3800
Wire Wire Line
	1400 3700 1400 3800
Wire Wire Line
	1400 3800 1150 3800
Wire Wire Line
	1150 3700 1150 3850
Connection ~ 4050 2250
Connection ~ 4050 2150
Wire Wire Line
	4050 2250 4200 2250
Connection ~ 4050 2050
Wire Wire Line
	4050 2150 4200 2150
Wire Wire Line
	4050 2050 4200 2050
Wire Wire Line
	4050 1650 4050 2450
Connection ~ 4050 4550
Wire Wire Line
	4050 4450 4200 4450
Connection ~ 4050 4650
Wire Wire Line
	4050 4550 4200 4550
Wire Wire Line
	4050 4650 4200 4650
Wire Wire Line
	4050 4450 4050 4950
Wire Wire Line
	3900 4150 4200 4150
Wire Wire Line
	6100 2050 7250 2050
Wire Wire Line
	6100 1950 7250 1950
Wire Wire Line
	6100 3150 6200 3150
Wire Wire Line
	6100 3050 6200 3050
Wire Wire Line
	6100 2950 6200 2950
Wire Wire Line
	6100 2850 6200 2850
NoConn ~ 7250 2050
NoConn ~ 7250 1750
NoConn ~ 7250 1850
NoConn ~ 7250 1950
Wire Wire Line
	6100 2550 6700 2550
Text HLabel 7250 4350 2    39   Output ~ 0
SDA3.3
Text HLabel 7250 4250 2    39   Output ~ 0
SCL3.3
Text HLabel 6700 3950 2    60   BiDi ~ 0
INT0
Text HLabel 7250 4050 2    60   BiDi ~ 0
INT1
Text HLabel 6700 2450 2    60   BiDi ~ 0
INT2
Text HLabel 6750 3450 2    60   BiDi ~ 0
INT3
Text HLabel 4050 2750 0    60   Output ~ 0
LED0
Text HLabel 7250 4150 2    60   Output ~ 0
LED1
Text HLabel 6750 3650 2    60   Output ~ 0
LED2
Text HLabel 6750 3550 2    60   Output ~ 0
LED3
Text HLabel 6750 3250 2    60   Output ~ 0
V2.8_EN
Text Notes 6200 4450 0    60   ~ 0
I2C2_SCL
Text Notes 6200 4550 0    60   ~ 0
I2C2_SDA
Text Notes 6700 4450 0    60   ~ 0
USART3_TX
Text Notes 6700 4550 0    60   ~ 0
USART3_RX
Text Notes 6700 4050 0    60   ~ 0
USART1_TX
Text Notes 6700 4150 0    60   ~ 0
USART1_RX
Wire Wire Line
	6100 3650 6750 3650
Text HLabel 7250 4450 2    60   BiDi ~ 0
INT4
Text HLabel 6700 3850 2    60   BiDi ~ 0
INT5
Text HLabel 7250 4550 2    60   Output ~ 0
LED4
Text HLabel 6700 3750 2    60   Output ~ 0
LED5
$Comp
L TEST_1P W401
U 1 1 576F9126
P 4000 3850
F 0 "W401" H 4000 4120 50  0000 C CNN
F 1 "TEST_1P" H 4000 4050 50  0000 C CNN
F 2 "Connect:PINTST" H 4200 3850 50  0001 C CNN
F 3 "" H 4200 3850 50  0000 C CNN
	1    4000 3850
	0    -1   -1   0   
$EndComp
Wire Wire Line
	4000 3850 4200 3850
$EndSCHEMATC
