EESchema Schematic File Version 2
LIBS:canvlx-rescue
LIBS:power
LIBS:device
LIBS:transistors
LIBS:conn
LIBS:linear
LIBS:regul
LIBS:74xx
LIBS:cmos4000
LIBS:adc-dac
LIBS:memory
LIBS:xilinx
LIBS:microcontrollers
LIBS:dsp
LIBS:microchip
LIBS:analog_switches
LIBS:motorola
LIBS:texas
LIBS:intel
LIBS:audio
LIBS:interface
LIBS:digital-audio
LIBS:philips
LIBS:display
LIBS:cypress
LIBS:siliconi
LIBS:opto
LIBS:atmel
LIBS:contrib
LIBS:valves
LIBS:crap
LIBS:canvlx-cache
EELAYER 25 0
EELAYER END
$Descr A4 11693 8268
encoding utf-8
Sheet 2 5
Title ""
Date "30 sep 2015"
Rev ""
Comp ""
Comment1 ""
Comment2 ""
Comment3 ""
Comment4 ""
$EndDescr
$Comp
L MCP1702-RESCUE-canvlx U202
U 1 1 5765BA05
P 5850 3600
F 0 "U202" H 5950 3100 60  0000 C CNN
F 1 "MCP1702" H 5700 3550 60  0000 C CNN
F 2 "TO_SOT_Packages_SMD:SOT-23" H 5850 3750 60  0000 C CNN
F 3 "~" H 5850 3600 60  0000 C CNN
	1    5850 3600
	1    0    0    -1  
$EndComp
$Comp
L GND #PWR015
U 1 1 5765BA06
P 5150 4050
F 0 "#PWR015" H 5150 4050 30  0001 C CNN
F 1 "GND" H 5150 3980 30  0001 C CNN
F 2 "" H 5150 4050 60  0000 C CNN
F 3 "" H 5150 4050 60  0000 C CNN
	1    5150 4050
	1    0    0    -1  
$EndComp
Wire Wire Line
	5150 4050 5150 3950
Wire Wire Line
	5150 3950 5250 3950
$Comp
L +5V #PWR016
U 1 1 5765BA07
P 5150 3700
F 0 "#PWR016" H 5150 3790 20  0001 C CNN
F 1 "+5V" H 5150 3790 30  0000 C CNN
F 2 "" H 5150 3700 60  0000 C CNN
F 3 "" H 5150 3700 60  0000 C CNN
	1    5150 3700
	1    0    0    -1  
$EndComp
Wire Wire Line
	5150 3700 5150 3800
Wire Wire Line
	5150 3800 5250 3800
$Comp
L VDD #PWR017
U 1 1 5765BA08
P 6400 3700
F 0 "#PWR017" H 6400 3800 30  0001 C CNN
F 1 "VDD" H 6400 3810 30  0000 C CNN
F 2 "" H 6400 3700 60  0000 C CNN
F 3 "" H 6400 3700 60  0000 C CNN
	1    6400 3700
	1    0    0    -1  
$EndComp
Wire Wire Line
	6400 3700 6400 3800
Wire Wire Line
	6400 3800 6300 3800
$Comp
L C C202
U 1 1 5765BA09
P 4800 3850
F 0 "C202" H 4800 3950 40  0000 L CNN
F 1 "1u" H 4806 3765 40  0000 L CNN
F 2 "Capacitors_SMD:C_0603_HandSoldering" H 4838 3700 30  0000 C CNN
F 3 "~" H 4800 3850 60  0000 C CNN
	1    4800 3850
	1    0    0    -1  
$EndComp
$Comp
L GND #PWR018
U 1 1 5765BA0A
P 4800 4050
F 0 "#PWR018" H 4800 4050 30  0001 C CNN
F 1 "GND" H 4800 3980 30  0001 C CNN
F 2 "" H 4800 4050 60  0000 C CNN
F 3 "" H 4800 4050 60  0000 C CNN
	1    4800 4050
	1    0    0    -1  
$EndComp
Wire Wire Line
	4800 4050 4800 4000
$Comp
L +5V #PWR019
U 1 1 5765BA0B
P 4800 3650
F 0 "#PWR019" H 4800 3740 20  0001 C CNN
F 1 "+5V" H 4800 3740 30  0000 C CNN
F 2 "" H 4800 3650 60  0000 C CNN
F 3 "" H 4800 3650 60  0000 C CNN
	1    4800 3650
	1    0    0    -1  
$EndComp
Wire Wire Line
	4800 3650 4800 3700
$Comp
L C C204
U 1 1 5765BA0C
P 6700 3850
F 0 "C204" H 6700 3950 40  0000 L CNN
F 1 "10u" H 6706 3765 40  0000 L CNN
F 2 "Capacitors_SMD:C_0805" H 6738 3700 30  0000 C CNN
F 3 "~" H 6700 3850 60  0000 C CNN
	1    6700 3850
	1    0    0    -1  
$EndComp
$Comp
L GND #PWR020
U 1 1 5765BA0D
P 6700 4050
F 0 "#PWR020" H 6700 4050 30  0001 C CNN
F 1 "GND" H 6700 3980 30  0001 C CNN
F 2 "" H 6700 4050 60  0000 C CNN
F 3 "" H 6700 4050 60  0000 C CNN
	1    6700 4050
	1    0    0    -1  
$EndComp
Wire Wire Line
	6700 4050 6700 4000
Wire Wire Line
	6700 3650 6700 3700
$Comp
L VDD #PWR021
U 1 1 5765BA0E
P 6700 3650
F 0 "#PWR021" H 6700 3750 30  0001 C CNN
F 1 "VDD" H 6700 3760 30  0000 C CNN
F 2 "" H 6700 3650 60  0000 C CNN
F 3 "" H 6700 3650 60  0000 C CNN
	1    6700 3650
	1    0    0    -1  
$EndComp
$Comp
L LED-RESCUE-canvlx D201
U 1 1 5765BA0F
P 7100 3800
F 0 "D201" H 7100 3900 50  0000 C CNN
F 1 "LED" H 7100 3700 50  0000 C CNN
F 2 "Capacitors_SMD:C_0603" H 7100 3800 60  0000 C CNN
F 3 "~" H 7100 3800 60  0000 C CNN
	1    7100 3800
	0    -1   -1   0   
$EndComp
$Comp
L R R201
U 1 1 5765BA10
P 7100 4200
F 0 "R201" V 7180 4200 40  0000 C CNN
F 1 "1k" V 7107 4201 40  0000 C CNN
F 2 "Resistors_SMD:R_0402" V 7030 4200 30  0000 C CNN
F 3 "~" H 7100 4200 30  0000 C CNN
	1    7100 4200
	1    0    0    -1  
$EndComp
$Comp
L GND #PWR022
U 1 1 5765BA11
P 7100 4450
F 0 "#PWR022" H 7100 4450 30  0001 C CNN
F 1 "GND" H 7100 4380 30  0001 C CNN
F 2 "" H 7100 4450 60  0000 C CNN
F 3 "" H 7100 4450 60  0000 C CNN
	1    7100 4450
	1    0    0    -1  
$EndComp
Wire Wire Line
	7100 4450 7100 4350
Wire Wire Line
	7100 4050 7100 4000
$Comp
L VDD #PWR023
U 1 1 5765BA12
P 7100 3500
F 0 "#PWR023" H 7100 3600 30  0001 C CNN
F 1 "VDD" H 7100 3610 30  0000 C CNN
F 2 "" H 7100 3500 60  0000 C CNN
F 3 "" H 7100 3500 60  0000 C CNN
	1    7100 3500
	1    0    0    -1  
$EndComp
Wire Wire Line
	7100 3500 7100 3600
Text Notes 5550 2350 0    60   ~ 0
2.8V output
$Comp
L LED-RESCUE-canvlx D202
U 1 1 5765C349
P 7300 2000
F 0 "D202" H 7300 2100 50  0000 C CNN
F 1 "LED" H 7300 1900 50  0000 C CNN
F 2 "Capacitors_SMD:C_0603" V 7450 1300 60  0000 C CNN
F 3 "~" H 7300 2000 60  0000 C CNN
	1    7300 2000
	0    -1   -1   0   
$EndComp
$Comp
L R R202
U 1 1 5765C34F
P 7300 2400
F 0 "R202" V 7380 2400 40  0000 C CNN
F 1 "1k" V 7307 2401 40  0000 C CNN
F 2 "Resistors_SMD:R_0402" H 7800 2400 30  0000 C CNN
F 3 "~" H 7300 2400 30  0000 C CNN
	1    7300 2400
	1    0    0    -1  
$EndComp
$Comp
L GND #PWR024
U 1 1 5765C355
P 7300 2650
F 0 "#PWR024" H 7300 2650 30  0001 C CNN
F 1 "GND" H 7300 2580 30  0001 C CNN
F 2 "" H 7300 2650 60  0000 C CNN
F 3 "" H 7300 2650 60  0000 C CNN
	1    7300 2650
	1    0    0    -1  
$EndComp
Wire Wire Line
	7300 2650 7300 2550
Wire Wire Line
	7300 2250 7300 2200
Wire Wire Line
	7300 1700 7300 1800
Text Notes 5550 4500 0    60   ~ 0
3.3V output
$Comp
L +2V5 #PWR025
U 1 1 5765C7B0
P 7300 1700
F 0 "#PWR025" H 7300 1550 50  0001 C CNN
F 1 "+2V5" H 7300 1840 50  0000 C CNN
F 2 "" H 7300 1700 50  0000 C CNN
F 3 "" H 7300 1700 50  0000 C CNN
	1    7300 1700
	1    0    0    -1  
$EndComp
$Comp
L TPS79328 U201
U 1 1 5765EBBE
P 5650 1900
F 0 "U201" H 5650 1650 60  0000 C CNN
F 1 "TPS79328" H 5700 2150 60  0000 C CNN
F 2 "lib:CRAP-SOT23-5" H 5650 1900 60  0001 C CNN
F 3 "" H 5650 1900 60  0000 C CNN
	1    5650 1900
	1    0    0    -1  
$EndComp
$Comp
L C C201
U 1 1 5765EBCB
P 4450 1850
F 0 "C201" H 4450 1950 40  0000 L CNN
F 1 "0.1u" H 4456 1765 40  0000 L CNN
F 2 "Capacitors_SMD:C_0402" H 4488 1700 30  0001 C CNN
F 3 "~" H 4450 1850 60  0000 C CNN
	1    4450 1850
	1    0    0    -1  
$EndComp
$Comp
L GND #PWR026
U 1 1 5765EBD8
P 4450 2050
F 0 "#PWR026" H 4450 2050 30  0001 C CNN
F 1 "GND" H 4450 1980 30  0001 C CNN
F 2 "" H 4450 2050 60  0000 C CNN
F 3 "" H 4450 2050 60  0000 C CNN
	1    4450 2050
	1    0    0    -1  
$EndComp
$Comp
L GND #PWR027
U 1 1 5765EBDE
P 5250 2050
F 0 "#PWR027" H 5250 2050 30  0001 C CNN
F 1 "GND" H 5250 1980 30  0001 C CNN
F 2 "" H 5250 2050 60  0000 C CNN
F 3 "" H 5250 2050 60  0000 C CNN
	1    5250 2050
	1    0    0    -1  
$EndComp
$Comp
L C C205
U 1 1 5765EBEA
P 6900 2100
F 0 "C205" H 6900 2200 40  0000 L CNN
F 1 "2.2u" H 6906 2015 40  0000 L CNN
F 2 "Capacitors_SMD:C_0603_HandSoldering" H 6938 1950 30  0001 C CNN
F 3 "~" H 6900 2100 60  0000 C CNN
	1    6900 2100
	1    0    0    -1  
$EndComp
$Comp
L GND #PWR028
U 1 1 5765EBF7
P 6900 2300
F 0 "#PWR028" H 6900 2300 30  0001 C CNN
F 1 "GND" H 6900 2230 30  0001 C CNN
F 2 "" H 6900 2300 60  0000 C CNN
F 3 "" H 6900 2300 60  0000 C CNN
	1    6900 2300
	1    0    0    -1  
$EndComp
$Comp
L C C203
U 1 1 5765EBFD
P 6500 2250
F 0 "C203" H 6500 2350 40  0000 L CNN
F 1 "0.01u" H 6506 2165 40  0000 L CNN
F 2 "Capacitors_SMD:C_0402" H 6538 2100 30  0001 C CNN
F 3 "~" H 6500 2250 60  0000 C CNN
	1    6500 2250
	1    0    0    -1  
$EndComp
$Comp
L GND #PWR029
U 1 1 5765EC04
P 6500 2450
F 0 "#PWR029" H 6500 2450 30  0001 C CNN
F 1 "GND" H 6500 2380 30  0001 C CNN
F 2 "" H 6500 2450 60  0000 C CNN
F 3 "" H 6500 2450 60  0000 C CNN
	1    6500 2450
	1    0    0    -1  
$EndComp
Wire Wire Line
	5250 2000 5250 2050
$Comp
L +5V #PWR030
U 1 1 5765ECEA
P 5250 1750
F 0 "#PWR030" H 5250 1840 20  0001 C CNN
F 1 "+5V" H 5250 1840 30  0000 C CNN
F 2 "" H 5250 1750 60  0000 C CNN
F 3 "" H 5250 1750 60  0000 C CNN
	1    5250 1750
	1    0    0    -1  
$EndComp
$Comp
L +5V #PWR031
U 1 1 5765EDA4
P 4450 1650
F 0 "#PWR031" H 4450 1740 20  0001 C CNN
F 1 "+5V" H 4450 1740 30  0000 C CNN
F 2 "" H 4450 1650 60  0000 C CNN
F 3 "" H 4450 1650 60  0000 C CNN
	1    4450 1650
	1    0    0    -1  
$EndComp
Wire Wire Line
	4450 1650 4450 1700
Wire Wire Line
	4450 2050 4450 2000
Wire Wire Line
	5250 1800 5250 1750
Text HLabel 5150 1900 0    60   Input ~ 0
V2.8_EN
Wire Wire Line
	5150 1900 5250 1900
Wire Wire Line
	6500 2450 6500 2400
Wire Wire Line
	6300 2000 6500 2000
Wire Wire Line
	6500 2000 6500 2100
Wire Wire Line
	6300 1800 6400 1800
Wire Wire Line
	6400 1800 6400 1700
$Comp
L +2V5 #PWR032
U 1 1 5765EFF2
P 6400 1700
F 0 "#PWR032" H 6400 1550 50  0001 C CNN
F 1 "+2V5" H 6400 1840 50  0000 C CNN
F 2 "" H 6400 1700 50  0000 C CNN
F 3 "" H 6400 1700 50  0000 C CNN
	1    6400 1700
	1    0    0    -1  
$EndComp
Wire Wire Line
	6900 1950 6900 1900
Wire Wire Line
	6900 2300 6900 2250
$Comp
L +2V5 #PWR033
U 1 1 576B0E2D
P 6900 1900
F 0 "#PWR033" H 6900 1750 50  0001 C CNN
F 1 "+2V5" H 6900 2040 50  0000 C CNN
F 2 "" H 6900 1900 50  0000 C CNN
F 3 "" H 6900 1900 50  0000 C CNN
	1    6900 1900
	1    0    0    -1  
$EndComp
$EndSCHEMATC
