EESchema Schematic File Version 2
LIBS:canusb-rescue
LIBS:power
LIBS:device
LIBS:transistors
LIBS:conn
LIBS:linear
LIBS:regul
LIBS:74xx
LIBS:cmos4000
LIBS:adc-dac
LIBS:memory
LIBS:xilinx
LIBS:microcontrollers
LIBS:dsp
LIBS:microchip
LIBS:analog_switches
LIBS:motorola
LIBS:texas
LIBS:intel
LIBS:audio
LIBS:interface
LIBS:digital-audio
LIBS:philips
LIBS:display
LIBS:cypress
LIBS:siliconi
LIBS:opto
LIBS:atmel
LIBS:contrib
LIBS:valves
LIBS:crap
LIBS:canusb-cache
EELAYER 25 0
EELAYER END
$Descr A4 11693 8268
encoding utf-8
Sheet 1 1
Title ""
Date "15 jun 2015"
Rev ""
Comp ""
Comment1 ""
Comment2 ""
Comment3 ""
Comment4 ""
$EndDescr
$Comp
L PIC18F14K50 U101
U 1 1 5577F4B5
P 3050 3500
F 0 "U101" H 3325 4500 60  0000 C CNN
F 1 "PIC18F14K50" H 3300 2350 60  0000 C CNN
F 2 "" H 2800 3100 60  0000 C CNN
F 3 "" H 2800 3100 60  0000 C CNN
	1    3050 3500
	1    0    0    -1  
$EndComp
$Comp
L MCP2551-I/SN-RESCUE-canusb IC101
U 1 1 5577F4C4
P 8750 4500
F 0 "IC101" H 8500 4800 40  0000 C CNN
F 1 "MCP2551-I/SN" H 9000 4200 40  0000 C CNN
F 2 "SO8" H 8750 4500 35  0000 C CIN
F 3 "" H 8750 4500 60  0000 C CNN
	1    8750 4500
	1    0    0    -1  
$EndComp
$Comp
L MCP2515 U102
U 1 1 5577FD43
P 6650 4250
F 0 "U102" H 6950 3400 60  0000 C CNN
F 1 "MCP2515" H 6450 4850 60  0000 C CNN
F 2 "" H 6500 4200 60  0000 C CNN
F 3 "" H 6500 4200 60  0000 C CNN
	1    6650 4250
	1    0    0    -1  
$EndComp
$Comp
L USB-MINI-B CON101
U 1 1 5577FD93
P 6650 2200
F 0 "CON101" H 6400 2650 60  0000 C CNN
F 1 "USB-MINI-B" H 6600 1700 60  0000 C CNN
F 2 "" H 6650 2200 60  0000 C CNN
F 3 "" H 6650 2200 60  0000 C CNN
	1    6650 2200
	1    0    0    -1  
$EndComp
Text Label 4000 2650 0    60   ~ 0
D+
Text Label 6100 2200 2    60   ~ 0
D+
Text Label 4000 2750 0    60   ~ 0
D-
Text Label 6100 2050 2    60   ~ 0
D-
Text Label 5900 3800 2    60   ~ 0
CAN_RST
Text Label 4000 4200 0    60   ~ 0
CAN_RST
Text Label 5900 4300 2    60   ~ 0
CAN_INT
Text Label 4000 4000 0    60   ~ 0
CAN_INT
Text Label 5900 3900 2    60   ~ 0
CAN_CS
Text Label 4000 4400 0    60   ~ 0
CAN_CS
Text Label 5900 4000 2    60   ~ 0
CAN_SO
Text Label 4000 3350 0    60   ~ 0
CAN_SO
Text Label 5900 4100 2    60   ~ 0
CAN_SI
Text Label 4000 4500 0    60   ~ 0
CAN_SI
Text Label 5900 4200 2    60   ~ 0
CAN_SCK
Text Label 4000 3550 0    60   ~ 0
CAN_SCK
Text Label 5900 4400 2    60   ~ 0
CAN_RX0BUF
Text Label 4000 4100 0    60   ~ 0
CAN_RX0BUF
Text Label 5900 4500 2    60   ~ 0
CAN_RX1BUF
Text Label 4000 3650 0    60   ~ 0
CAN_RX1BUF
$Comp
L R-RESCUE-canusb R102
U 1 1 5577FF93
P 5900 3450
F 0 "R102" V 5980 3450 40  0000 C CNN
F 1 "1k" V 5907 3451 40  0000 C CNN
F 2 "~" V 5830 3450 30  0000 C CNN
F 3 "~" H 5900 3450 30  0000 C CNN
	1    5900 3450
	1    0    0    -1  
$EndComp
Wire Wire Line
	5900 3800 5900 3700
Wire Wire Line
	5900 3200 5900 3100
$Comp
L +5V #PWR01
U 1 1 5577FFA6
P 5900 3100
F 0 "#PWR01" H 5900 3190 20  0001 C CNN
F 1 "+5V" H 5900 3190 30  0000 C CNN
F 2 "" H 5900 3100 60  0000 C CNN
F 3 "" H 5900 3100 60  0000 C CNN
	1    5900 3100
	1    0    0    -1  
$EndComp
Text Label 5900 4700 2    60   ~ 0
CLKOUT
Text Label 4000 3150 0    60   ~ 0
CLKOUT
Wire Wire Line
	7350 4200 7800 4200
Wire Wire Line
	7800 4200 7800 4400
Wire Wire Line
	7800 4400 8300 4400
Wire Wire Line
	7350 4300 8300 4300
$Comp
L CRYSTAL_SMD X101
U 1 1 55780136
P 7750 4800
F 0 "X101" H 7750 4890 30  0000 C CNN
F 1 "CRYSTAL_SMD" H 7780 4690 30  0000 L CNN
F 2 "~" H 7750 4800 60  0000 C CNN
F 3 "~" H 7750 4800 60  0000 C CNN
	1    7750 4800
	1    0    0    -1  
$EndComp
Wire Wire Line
	7350 4600 7550 4600
Wire Wire Line
	7550 4600 7550 5050
Wire Wire Line
	7350 4500 7950 4500
Wire Wire Line
	7950 4500 7950 5050
$Comp
L GND-RESCUE-canusb #PWR02
U 1 1 55780155
P 7350 5100
F 0 "#PWR02" H 7350 5100 30  0001 C CNN
F 1 "GND" H 7350 5030 30  0001 C CNN
F 2 "" H 7350 5100 60  0000 C CNN
F 3 "" H 7350 5100 60  0000 C CNN
	1    7350 5100
	1    0    0    -1  
$EndComp
Wire Wire Line
	7350 5100 7350 5000
$Comp
L +5V #PWR03
U 1 1 5578016F
P 7400 3700
F 0 "#PWR03" H 7400 3790 20  0001 C CNN
F 1 "+5V" H 7400 3790 30  0000 C CNN
F 2 "" H 7400 3700 60  0000 C CNN
F 3 "" H 7400 3700 60  0000 C CNN
	1    7400 3700
	1    0    0    -1  
$EndComp
Wire Wire Line
	7400 3700 7400 3800
Wire Wire Line
	7400 3800 7350 3800
$Comp
L +5V #PWR04
U 1 1 55780188
P 8750 4000
F 0 "#PWR04" H 8750 4090 20  0001 C CNN
F 1 "+5V" H 8750 4090 30  0000 C CNN
F 2 "" H 8750 4000 60  0000 C CNN
F 3 "" H 8750 4000 60  0000 C CNN
	1    8750 4000
	1    0    0    -1  
$EndComp
Wire Wire Line
	8750 4000 8750 4100
$Comp
L GND-RESCUE-canusb #PWR05
U 1 1 5578018F
P 8750 5000
F 0 "#PWR05" H 8750 5000 30  0001 C CNN
F 1 "GND" H 8750 4930 30  0001 C CNN
F 2 "" H 8750 5000 60  0000 C CNN
F 3 "" H 8750 5000 60  0000 C CNN
	1    8750 5000
	1    0    0    -1  
$EndComp
Wire Wire Line
	8750 5000 8750 4900
$Comp
L GND-RESCUE-canusb #PWR06
U 1 1 557801A7
P 9900 3650
F 0 "#PWR06" H 9900 3650 30  0001 C CNN
F 1 "GND" H 9900 3580 30  0001 C CNN
F 2 "" H 9900 3650 60  0000 C CNN
F 3 "" H 9900 3650 60  0000 C CNN
	1    9900 3650
	1    0    0    -1  
$EndComp
$Comp
L +5V #PWR07
U 1 1 557801D8
P 9900 3350
F 0 "#PWR07" H 9900 3440 20  0001 C CNN
F 1 "+5V" H 9900 3440 30  0000 C CNN
F 2 "" H 9900 3350 60  0000 C CNN
F 3 "" H 9900 3350 60  0000 C CNN
	1    9900 3350
	1    0    0    -1  
$EndComp
Wire Wire Line
	9200 4400 9300 4400
Wire Wire Line
	9300 4400 9300 4450
Wire Wire Line
	9300 4450 9600 4450
Wire Wire Line
	9200 4600 9300 4600
Wire Wire Line
	9300 4600 9300 4550
Wire Wire Line
	9300 4550 9600 4550
$Comp
L R-RESCUE-canusb R103
U 1 1 55780210
P 8300 5050
F 0 "R103" V 8380 5050 40  0000 C CNN
F 1 "1k" V 8307 5051 40  0000 C CNN
F 2 "~" V 8230 5050 30  0000 C CNN
F 3 "~" H 8300 5050 30  0000 C CNN
	1    8300 5050
	1    0    0    -1  
$EndComp
Wire Wire Line
	8300 4700 8300 4800
$Comp
L GND-RESCUE-canusb #PWR08
U 1 1 55780235
P 8300 5400
F 0 "#PWR08" H 8300 5400 30  0001 C CNN
F 1 "GND" H 8300 5330 30  0001 C CNN
F 2 "" H 8300 5400 60  0000 C CNN
F 3 "" H 8300 5400 60  0000 C CNN
	1    8300 5400
	1    0    0    -1  
$EndComp
Wire Wire Line
	8300 5400 8300 5300
$Comp
L R-RESCUE-canusb R101
U 1 1 55780256
P 4400 2650
F 0 "R101" V 4480 2650 40  0000 C CNN
F 1 "1k" V 4407 2651 40  0000 C CNN
F 2 "~" V 4330 2650 30  0000 C CNN
F 3 "~" H 4400 2650 30  0000 C CNN
	1    4400 2650
	1    0    0    -1  
$EndComp
Wire Wire Line
	4000 2950 4400 2950
Wire Wire Line
	4400 2950 4400 2900
$Comp
L +5V #PWR09
U 1 1 5578027F
P 4400 2350
F 0 "#PWR09" H 4400 2440 20  0001 C CNN
F 1 "+5V" H 4400 2440 30  0000 C CNN
F 2 "" H 4400 2350 60  0000 C CNN
F 3 "" H 4400 2350 60  0000 C CNN
	1    4400 2350
	1    0    0    -1  
$EndComp
Wire Wire Line
	4400 2350 4400 2400
$Comp
L +5V #PWR010
U 1 1 557809F3
P 1800 2550
F 0 "#PWR010" H 1800 2640 20  0001 C CNN
F 1 "+5V" H 1800 2640 30  0000 C CNN
F 2 "" H 1800 2550 60  0000 C CNN
F 3 "" H 1800 2550 60  0000 C CNN
	1    1800 2550
	1    0    0    -1  
$EndComp
Wire Wire Line
	1800 2550 1800 2650
Wire Wire Line
	1800 2650 1850 2650
$Comp
L GND-RESCUE-canusb #PWR011
U 1 1 55780A1F
P 1800 4600
F 0 "#PWR011" H 1800 4600 30  0001 C CNN
F 1 "GND" H 1800 4530 30  0001 C CNN
F 2 "" H 1800 4600 60  0000 C CNN
F 3 "" H 1800 4600 60  0000 C CNN
	1    1800 4600
	1    0    0    -1  
$EndComp
Wire Wire Line
	1800 4600 1800 4500
Wire Wire Line
	1800 4500 1850 4500
$Comp
L C-RESCUE-canusb C103
U 1 1 55780A4D
P 1650 3100
F 0 "C103" H 1650 3200 40  0000 L CNN
F 1 "0.1u" H 1656 3015 40  0000 L CNN
F 2 "~" H 1688 2950 30  0000 C CNN
F 3 "~" H 1650 3100 60  0000 C CNN
	1    1650 3100
	1    0    0    -1  
$EndComp
Wire Wire Line
	1650 2900 1650 2750
Wire Wire Line
	1650 2750 1850 2750
$Comp
L GND-RESCUE-canusb #PWR012
U 1 1 55780A7D
P 1650 3400
F 0 "#PWR012" H 1650 3400 30  0001 C CNN
F 1 "GND" H 1650 3330 30  0001 C CNN
F 2 "" H 1650 3400 60  0000 C CNN
F 3 "" H 1650 3400 60  0000 C CNN
	1    1650 3400
	1    0    0    -1  
$EndComp
Wire Wire Line
	1650 3400 1650 3300
$Comp
L C-RESCUE-canusb C101
U 1 1 55780AD3
P 950 2700
F 0 "C101" H 950 2800 40  0000 L CNN
F 1 "4.7u" H 956 2615 40  0000 L CNN
F 2 "~" H 988 2550 30  0000 C CNN
F 3 "~" H 950 2700 60  0000 C CNN
	1    950  2700
	1    0    0    -1  
$EndComp
$Comp
L C-RESCUE-canusb C102
U 1 1 55780AE2
P 1200 2700
F 0 "C102" H 1200 2800 40  0000 L CNN
F 1 "0.1u" H 1206 2615 40  0000 L CNN
F 2 "~" H 1238 2550 30  0000 C CNN
F 3 "~" H 1200 2700 60  0000 C CNN
	1    1200 2700
	1    0    0    -1  
$EndComp
$Comp
L GND-RESCUE-canusb #PWR013
U 1 1 55780AEF
P 950 3000
F 0 "#PWR013" H 950 3000 30  0001 C CNN
F 1 "GND" H 950 2930 30  0001 C CNN
F 2 "" H 950 3000 60  0000 C CNN
F 3 "" H 950 3000 60  0000 C CNN
	1    950  3000
	1    0    0    -1  
$EndComp
Wire Wire Line
	950  2900 950  3000
Wire Wire Line
	950  2950 1200 2950
Wire Wire Line
	1200 2950 1200 2900
Connection ~ 950  2950
$Comp
L +5V #PWR014
U 1 1 55780B3E
P 950 2400
F 0 "#PWR014" H 950 2490 20  0001 C CNN
F 1 "+5V" H 950 2490 30  0000 C CNN
F 2 "" H 950 2400 60  0000 C CNN
F 3 "" H 950 2400 60  0000 C CNN
	1    950  2400
	1    0    0    -1  
$EndComp
Wire Wire Line
	950  2400 950  2500
Wire Wire Line
	950  2450 1200 2450
Wire Wire Line
	1200 2450 1200 2500
Connection ~ 950  2450
$Comp
L C-RESCUE-canusb C104
U 1 1 55780BF5
P 7550 5250
F 0 "C104" H 7550 5350 40  0000 L CNN
F 1 "22p" H 7556 5165 40  0000 L CNN
F 2 "~" H 7588 5100 30  0000 C CNN
F 3 "~" H 7550 5250 60  0000 C CNN
	1    7550 5250
	1    0    0    -1  
$EndComp
Connection ~ 7550 4800
$Comp
L C-RESCUE-canusb C105
U 1 1 55780C2E
P 7950 5250
F 0 "C105" H 7950 5350 40  0000 L CNN
F 1 "22p" H 7956 5165 40  0000 L CNN
F 2 "~" H 7988 5100 30  0000 C CNN
F 3 "~" H 7950 5250 60  0000 C CNN
	1    7950 5250
	1    0    0    -1  
$EndComp
Connection ~ 7950 4800
$Comp
L GND-RESCUE-canusb #PWR015
U 1 1 55780C61
P 7750 5550
F 0 "#PWR015" H 7750 5550 30  0001 C CNN
F 1 "GND" H 7750 5480 30  0001 C CNN
F 2 "" H 7750 5550 60  0000 C CNN
F 3 "" H 7750 5550 60  0000 C CNN
	1    7750 5550
	1    0    0    -1  
$EndComp
Wire Wire Line
	7750 4900 7750 5550
Wire Wire Line
	7550 5450 7950 5450
Connection ~ 7750 5450
Text Label 4000 3450 0    60   ~ 0
LED
Text Label 3850 5800 2    60   ~ 0
LED
$Comp
L LED-RESCUE-canusb D101
U 1 1 55780CDF
P 4000 6700
F 0 "D101" H 4000 6800 50  0000 C CNN
F 1 "LED red" H 4000 6600 50  0000 C CNN
F 2 "~" H 4000 6700 60  0000 C CNN
F 3 "~" H 4000 6700 60  0000 C CNN
	1    4000 6700
	0    1    1    0   
$EndComp
Wire Wire Line
	3850 5800 4000 5800
Wire Wire Line
	4000 5800 4000 5900
$Comp
L R-RESCUE-canusb R104
U 1 1 55780D1F
P 4000 6150
F 0 "R104" V 4080 6150 40  0000 C CNN
F 1 "1k" V 4007 6151 40  0000 C CNN
F 2 "~" V 3930 6150 30  0000 C CNN
F 3 "~" H 4000 6150 30  0000 C CNN
	1    4000 6150
	1    0    0    -1  
$EndComp
Wire Wire Line
	4000 6500 4000 6400
$Comp
L GND-RESCUE-canusb #PWR016
U 1 1 55780D61
P 4000 7000
F 0 "#PWR016" H 4000 7000 30  0001 C CNN
F 1 "GND" H 4000 6930 30  0001 C CNN
F 2 "" H 4000 7000 60  0000 C CNN
F 3 "" H 4000 7000 60  0000 C CNN
	1    4000 7000
	1    0    0    -1  
$EndComp
Wire Wire Line
	4000 7000 4000 6900
$Comp
L +5V #PWR017
U 1 1 55780DAC
P 6000 1750
F 0 "#PWR017" H 6000 1840 20  0001 C CNN
F 1 "+5V" H 6000 1840 30  0000 C CNN
F 2 "" H 6000 1750 60  0000 C CNN
F 3 "" H 6000 1750 60  0000 C CNN
	1    6000 1750
	1    0    0    -1  
$EndComp
Wire Wire Line
	6000 1750 6000 1900
Wire Wire Line
	6000 1900 6100 1900
$Comp
L GND-RESCUE-canusb #PWR018
U 1 1 55780DE7
P 6000 2650
F 0 "#PWR018" H 6000 2650 30  0001 C CNN
F 1 "GND" H 6000 2580 30  0001 C CNN
F 2 "" H 6000 2650 60  0000 C CNN
F 3 "" H 6000 2650 60  0000 C CNN
	1    6000 2650
	1    0    0    -1  
$EndComp
Wire Wire Line
	6000 2650 6000 2500
Wire Wire Line
	6000 2500 6100 2500
$Comp
L GND-RESCUE-canusb #PWR019
U 1 1 55780E24
P 7300 2650
F 0 "#PWR019" H 7300 2650 30  0001 C CNN
F 1 "GND" H 7300 2580 30  0001 C CNN
F 2 "" H 7300 2650 60  0000 C CNN
F 3 "" H 7300 2650 60  0000 C CNN
	1    7300 2650
	1    0    0    -1  
$EndComp
Wire Wire Line
	7300 1900 7300 2650
Wire Wire Line
	7300 2500 7200 2500
Wire Wire Line
	7200 2350 7300 2350
Connection ~ 7300 2500
Wire Wire Line
	7300 2050 7200 2050
Connection ~ 7300 2350
Wire Wire Line
	7200 1900 7300 1900
Connection ~ 7300 2050
$Comp
L C-RESCUE-canusb C107
U 1 1 55780F1A
P 6100 5550
F 0 "C107" H 6100 5650 40  0000 L CNN
F 1 "0.1u" H 6106 5465 40  0000 L CNN
F 2 "~" H 6138 5400 30  0000 C CNN
F 3 "~" H 6100 5550 60  0000 C CNN
	1    6100 5550
	1    0    0    -1  
$EndComp
$Comp
L C-RESCUE-canusb C106
U 1 1 55780F20
P 9050 5350
F 0 "C106" H 9050 5450 40  0000 L CNN
F 1 "0.1u" H 9056 5265 40  0000 L CNN
F 2 "~" H 9088 5200 30  0000 C CNN
F 3 "~" H 9050 5350 60  0000 C CNN
	1    9050 5350
	1    0    0    -1  
$EndComp
$Comp
L GND-RESCUE-canusb #PWR020
U 1 1 55780F26
P 6100 5850
F 0 "#PWR020" H 6100 5850 30  0001 C CNN
F 1 "GND" H 6100 5780 30  0001 C CNN
F 2 "" H 6100 5850 60  0000 C CNN
F 3 "" H 6100 5850 60  0000 C CNN
	1    6100 5850
	1    0    0    -1  
$EndComp
Wire Wire Line
	6100 5850 6100 5750
Wire Wire Line
	9050 5550 9050 5650
$Comp
L +5V #PWR021
U 1 1 55780F30
P 6100 5250
F 0 "#PWR021" H 6100 5340 20  0001 C CNN
F 1 "+5V" H 6100 5340 30  0000 C CNN
F 2 "" H 6100 5250 60  0000 C CNN
F 3 "" H 6100 5250 60  0000 C CNN
	1    6100 5250
	1    0    0    -1  
$EndComp
Wire Wire Line
	6100 5250 6100 5350
Wire Wire Line
	9050 5050 9050 5150
$Comp
L GND-RESCUE-canusb #PWR022
U 1 1 55780F3F
P 9050 5650
F 0 "#PWR022" H 9050 5650 30  0001 C CNN
F 1 "GND" H 9050 5580 30  0001 C CNN
F 2 "" H 9050 5650 60  0000 C CNN
F 3 "" H 9050 5650 60  0000 C CNN
	1    9050 5650
	1    0    0    -1  
$EndComp
$Comp
L +5V #PWR023
U 1 1 55780F8A
P 9050 5050
F 0 "#PWR023" H 9050 5140 20  0001 C CNN
F 1 "+5V" H 9050 5140 30  0000 C CNN
F 2 "" H 9050 5050 60  0000 C CNN
F 3 "" H 9050 5050 60  0000 C CNN
	1    9050 5050
	1    0    0    -1  
$EndComp
$Comp
L CONN_6 P102
U 1 1 557EA7D8
P 10800 4550
F 0 "P102" V 10750 4550 60  0000 C CNN
F 1 "CONN_6" V 10850 4550 60  0000 C CNN
F 2 "" H 10800 4550 60  0000 C CNN
F 3 "" H 10800 4550 60  0000 C CNN
	1    10800 4550
	1    0    0    1   
$EndComp
$Comp
L GND-RESCUE-canusb #PWR024
U 1 1 557EA7E5
P 10350 4900
F 0 "#PWR024" H 10350 4900 30  0001 C CNN
F 1 "GND" H 10350 4830 30  0001 C CNN
F 2 "" H 10350 4900 60  0000 C CNN
F 3 "" H 10350 4900 60  0000 C CNN
	1    10350 4900
	1    0    0    -1  
$EndComp
Wire Wire Line
	10350 4700 10350 4900
Wire Wire Line
	10350 4800 10450 4800
Wire Wire Line
	10350 4700 10450 4700
Connection ~ 10350 4800
$Comp
L +5V #PWR025
U 1 1 557EA877
P 10350 4200
F 0 "#PWR025" H 10350 4290 20  0001 C CNN
F 1 "+5V" H 10350 4290 30  0000 C CNN
F 2 "" H 10350 4200 60  0000 C CNN
F 3 "" H 10350 4200 60  0000 C CNN
	1    10350 4200
	1    0    0    -1  
$EndComp
Wire Wire Line
	10350 4200 10350 4400
Wire Wire Line
	10350 4300 10450 4300
Wire Wire Line
	10350 4400 10450 4400
Connection ~ 10350 4300
Wire Wire Line
	10100 4500 10450 4500
Wire Wire Line
	10100 4600 10450 4600
$Comp
L LED-RESCUE-canusb D102
U 1 1 557EA8D9
P 9700 1900
F 0 "D102" H 9700 2000 50  0000 C CNN
F 1 "LED red" H 9700 1800 50  0000 C CNN
F 2 "~" H 9700 1900 60  0000 C CNN
F 3 "~" H 9700 1900 60  0000 C CNN
	1    9700 1900
	0    1    1    0   
$EndComp
Wire Wire Line
	9700 1600 9700 1700
$Comp
L R-RESCUE-canusb R105
U 1 1 557EA8E1
P 9700 2450
F 0 "R105" V 9780 2450 40  0000 C CNN
F 1 "1k" V 9707 2451 40  0000 C CNN
F 2 "~" V 9630 2450 30  0000 C CNN
F 3 "~" H 9700 2450 30  0000 C CNN
	1    9700 2450
	1    0    0    -1  
$EndComp
Wire Wire Line
	9700 2200 9700 2100
$Comp
L GND-RESCUE-canusb #PWR026
U 1 1 557EA8E8
P 9700 2800
F 0 "#PWR026" H 9700 2800 30  0001 C CNN
F 1 "GND" H 9700 2730 30  0001 C CNN
F 2 "" H 9700 2800 60  0000 C CNN
F 3 "" H 9700 2800 60  0000 C CNN
	1    9700 2800
	1    0    0    -1  
$EndComp
Wire Wire Line
	9700 2800 9700 2700
$Comp
L +5V #PWR027
U 1 1 557EA8EF
P 9700 1600
F 0 "#PWR027" H 9700 1690 20  0001 C CNN
F 1 "+5V" H 9700 1690 30  0000 C CNN
F 2 "" H 9700 1600 60  0000 C CNN
F 3 "" H 9700 1600 60  0000 C CNN
	1    9700 1600
	1    0    0    -1  
$EndComp
$Comp
L SPST SW101
U 1 1 557EBAEC
P 1950 6250
F 0 "SW101" H 1950 6350 70  0000 C CNN
F 1 "SPST" H 1950 6150 70  0000 C CNN
F 2 "~" H 1950 6250 60  0000 C CNN
F 3 "~" H 1950 6250 60  0000 C CNN
	1    1950 6250
	0    -1   -1   0   
$EndComp
$Comp
L GND-RESCUE-canusb #PWR028
U 1 1 557EBB55
P 1950 6850
F 0 "#PWR028" H 1950 6850 30  0001 C CNN
F 1 "GND" H 1950 6780 30  0001 C CNN
F 2 "" H 1950 6850 60  0000 C CNN
F 3 "" H 1950 6850 60  0000 C CNN
	1    1950 6850
	1    0    0    -1  
$EndComp
Wire Wire Line
	1950 6850 1950 6750
Text Label 4400 2950 0    60   ~ 0
BOOTLOADER
Text Label 2000 5650 0    60   ~ 0
BOOTLOADER
Wire Wire Line
	2000 5650 1950 5650
Wire Wire Line
	1950 5650 1950 5750
$Comp
L CONN_6 P103
U 1 1 557EBCD8
P 3550 1250
F 0 "P103" V 3500 1250 60  0000 C CNN
F 1 "CONN_6" V 3600 1250 60  0000 C CNN
F 2 "" H 3550 1250 60  0000 C CNN
F 3 "" H 3550 1250 60  0000 C CNN
	1    3550 1250
	1    0    0    -1  
$EndComp
Text Label 3100 1000 2    60   ~ 0
VPP
$Comp
L +5V #PWR029
U 1 1 557EBCE5
P 3100 1100
F 0 "#PWR029" H 3100 1190 20  0001 C CNN
F 1 "+5V" H 3100 1190 30  0000 C CNN
F 2 "" H 3100 1100 60  0000 C CNN
F 3 "" H 3100 1100 60  0000 C CNN
	1    3100 1100
	0    -1   -1   0   
$EndComp
$Comp
L GND-RESCUE-canusb #PWR030
U 1 1 557EBCED
P 3100 1200
F 0 "#PWR030" H 3100 1200 30  0001 C CNN
F 1 "GND" H 3100 1130 30  0001 C CNN
F 2 "" H 3100 1200 60  0000 C CNN
F 3 "" H 3100 1200 60  0000 C CNN
	1    3100 1200
	0    1    1    0   
$EndComp
Text Label 3100 1300 2    60   ~ 0
PGD
Text Label 3100 1400 2    60   ~ 0
PGC
Text Label 3100 1500 2    60   ~ 0
PGM
Wire Wire Line
	3100 1500 3200 1500
Wire Wire Line
	3200 1400 3100 1400
Wire Wire Line
	3100 1300 3200 1300
Wire Wire Line
	3200 1200 3100 1200
Wire Wire Line
	3100 1100 3200 1100
Wire Wire Line
	3200 1000 3100 1000
Text Label 4150 2650 0    60   ~ 0
PGD
Wire Wire Line
	4150 2650 4000 2650
Text Label 4150 2750 0    60   ~ 0
PGC
Wire Wire Line
	4150 2750 4000 2750
Text Label 4150 2950 0    60   ~ 0
VPP
Text Label 4650 4100 0    60   ~ 0
PGM
Wire Wire Line
	4650 4100 4000 4100
Wire Notes Line
	2800 800  3800 800 
Wire Notes Line
	3800 800  3800 1650
Wire Notes Line
	3800 1650 2800 1650
Wire Notes Line
	2800 1650 2800 800 
Text Notes 2850 1650 0    60   ~ 0
programming
$Comp
L CONN_01X02 P1
U 1 1 56696169
P 10150 3500
F 0 "P1" H 10150 3650 50  0000 C CNN
F 1 "CONN_01X02" V 10250 3500 50  0000 C CNN
F 2 "" H 10150 3500 50  0000 C CNN
F 3 "" H 10150 3500 50  0000 C CNN
	1    10150 3500
	1    0    0    -1  
$EndComp
Wire Wire Line
	9900 3350 9900 3450
Wire Wire Line
	9900 3450 9950 3450
Wire Wire Line
	9950 3550 9900 3550
Wire Wire Line
	9900 3550 9900 3650
$Comp
L R R?
U 1 1 56700B2D
P 9800 4550
F 0 "R?" V 9880 4550 50  0000 C CNN
F 1 "R" V 9800 4550 50  0000 C CNN
F 2 "" V 9730 4550 50  0000 C CNN
F 3 "" H 9800 4550 50  0000 C CNN
	1    9800 4550
	1    0    0    -1  
$EndComp
Wire Wire Line
	10100 4400 10100 4500
Wire Wire Line
	9600 4400 10100 4400
Wire Wire Line
	9600 4450 9600 4400
Connection ~ 9800 4400
Wire Wire Line
	9600 4550 9600 4700
Wire Wire Line
	9600 4700 10100 4700
Wire Wire Line
	10100 4700 10100 4600
Connection ~ 9800 4700
$EndSCHEMATC
