EESchema Schematic File Version 2
LIBS:littlerob-rescue
LIBS:power
LIBS:device
LIBS:switches
LIBS:relays
LIBS:motors
LIBS:transistors
LIBS:conn
LIBS:linear
LIBS:regul
LIBS:74xx
LIBS:cmos4000
LIBS:adc-dac
LIBS:memory
LIBS:xilinx
LIBS:microcontrollers
LIBS:dsp
LIBS:microchip
LIBS:analog_switches
LIBS:motorola
LIBS:texas
LIBS:intel
LIBS:audio
LIBS:interface
LIBS:digital-audio
LIBS:philips
LIBS:display
LIBS:cypress
LIBS:siliconi
LIBS:opto
LIBS:atmel
LIBS:contrib
LIBS:valves
LIBS:crap
LIBS:littlerob-cache
EELAYER 25 0
EELAYER END
$Descr A4 11693 8268
encoding utf-8
Sheet 5 6
Title ""
Date ""
Rev ""
Comp ""
Comment1 ""
Comment2 ""
Comment3 ""
Comment4 ""
$EndDescr
$Comp
L MPU-6050(QFN24) U501
U 1 1 5B02C382
P 5850 4100
F 0 "U501" H 6150 3650 50  0000 L CNN
F 1 "MPU-6050(QFN24)" H 5650 4550 50  0000 L CNN
F 2 "lib:QFN24G-0.5-4X4MM" H 5850 4100 50  0001 L CNN
F 3 "" H 5850 4100 60  0000 C CNN
	1    5850 4100
	1    0    0    -1  
$EndComp
Wire Wire Line
	4650 4700 4650 4600
Wire Wire Line
	4850 4650 4850 4600
Wire Wire Line
	4150 4100 4150 4050
Wire Wire Line
	4850 4300 5150 4300
Wire Wire Line
	4650 4300 4650 4200
Wire Wire Line
	4650 4200 5150 4200
Wire Wire Line
	6550 4300 7100 4300
Wire Wire Line
	6750 4700 6750 4800
Wire Wire Line
	5050 3700 5050 3800
Wire Wire Line
	5050 3800 5150 3800
Wire Wire Line
	4150 3650 4150 3750
Wire Wire Line
	5100 4500 5100 4400
Wire Wire Line
	5100 4400 5150 4400
Wire Wire Line
	5050 4100 5150 4100
Text HLabel 6700 4000 2    60   Input ~ 0
SCL
Text HLabel 6700 4100 2    60   BiDi ~ 0
SDA
Wire Wire Line
	6700 4100 6550 4100
Wire Wire Line
	6550 4000 6700 4000
Wire Wire Line
	6650 4200 6550 4200
Text HLabel 5050 3900 0    60   Output ~ 0
INT
Wire Wire Line
	5050 3900 5150 3900
Wire Wire Line
	7100 4300 7100 4200
Connection ~ 6750 4300
NoConn ~ 6550 3800
NoConn ~ 6550 3900
$Comp
L GND #PWR080
U 1 1 5B02D05D
P 4650 4700
F 0 "#PWR080" H 4650 4450 50  0001 C CNN
F 1 "GND" H 4650 4550 50  0000 C CNN
F 2 "" H 4650 4700 50  0001 C CNN
F 3 "" H 4650 4700 50  0001 C CNN
	1    4650 4700
	1    0    0    -1  
$EndComp
$Comp
L GND #PWR081
U 1 1 5B02D08D
P 6750 4800
F 0 "#PWR081" H 6750 4550 50  0001 C CNN
F 1 "GND" H 6750 4650 50  0000 C CNN
F 2 "" H 6750 4800 50  0001 C CNN
F 3 "" H 6750 4800 50  0001 C CNN
	1    6750 4800
	1    0    0    -1  
$EndComp
$Comp
L C C504
U 1 1 5B02D0B4
P 6750 4550
F 0 "C504" H 6775 4650 50  0000 L CNN
F 1 "10n" H 6775 4450 50  0000 L CNN
F 2 "Capacitors_SMD:C_0402" H 6788 4400 50  0001 C CNN
F 3 "" H 6750 4550 50  0001 C CNN
	1    6750 4550
	1    0    0    -1  
$EndComp
Wire Wire Line
	6750 4300 6750 4400
$Comp
L GND #PWR082
U 1 1 5B02D18A
P 6650 4200
F 0 "#PWR082" H 6650 3950 50  0001 C CNN
F 1 "GND" H 6650 4050 50  0000 C CNN
F 2 "" H 6650 4200 50  0001 C CNN
F 3 "" H 6650 4200 50  0001 C CNN
	1    6650 4200
	0    -1   -1   0   
$EndComp
$Comp
L +3.3V #PWR083
U 1 1 5B02D1B8
P 7100 4200
F 0 "#PWR083" H 7100 4050 50  0001 C CNN
F 1 "+3.3V" H 7100 4340 50  0000 C CNN
F 2 "" H 7100 4200 50  0001 C CNN
F 3 "" H 7100 4200 50  0001 C CNN
	1    7100 4200
	1    0    0    -1  
$EndComp
$Comp
L +3.3V #PWR084
U 1 1 5B02D204
P 5050 3700
F 0 "#PWR084" H 5050 3550 50  0001 C CNN
F 1 "+3.3V" H 5050 3840 50  0000 C CNN
F 2 "" H 5050 3700 50  0001 C CNN
F 3 "" H 5050 3700 50  0001 C CNN
	1    5050 3700
	1    0    0    -1  
$EndComp
$Comp
L GND #PWR085
U 1 1 5B02D252
P 5050 4100
F 0 "#PWR085" H 5050 3850 50  0001 C CNN
F 1 "GND" H 5050 3950 50  0000 C CNN
F 2 "" H 5050 4100 50  0001 C CNN
F 3 "" H 5050 4100 50  0001 C CNN
	1    5050 4100
	0    1    1    0   
$EndComp
$Comp
L C C501
U 1 1 5B02D27F
P 4150 3900
F 0 "C501" H 4175 4000 50  0000 L CNN
F 1 "0.1u" H 4175 3800 50  0000 L CNN
F 2 "Capacitors_SMD:C_0402" H 4188 3750 50  0001 C CNN
F 3 "" H 4150 3900 50  0001 C CNN
	1    4150 3900
	1    0    0    -1  
$EndComp
$Comp
L C C502
U 1 1 5B02D2BA
P 4650 4450
F 0 "C502" H 4675 4550 50  0000 L CNN
F 1 "0.1u" H 4675 4350 50  0000 L CNN
F 2 "Capacitors_SMD:C_0402" H 4688 4300 50  0001 C CNN
F 3 "" H 4650 4450 50  0001 C CNN
	1    4650 4450
	1    0    0    -1  
$EndComp
$Comp
L C C503
U 1 1 5B02D2F7
P 4850 4450
F 0 "C503" H 4875 4550 50  0000 L CNN
F 1 "2.2n" H 4875 4350 50  0000 L CNN
F 2 "Capacitors_SMD:C_0402" H 4888 4300 50  0001 C CNN
F 3 "" H 4850 4450 50  0001 C CNN
	1    4850 4450
	1    0    0    -1  
$EndComp
$Comp
L GND #PWR086
U 1 1 5B02D32A
P 5100 4500
F 0 "#PWR086" H 5100 4250 50  0001 C CNN
F 1 "GND" H 5100 4350 50  0000 C CNN
F 2 "" H 5100 4500 50  0001 C CNN
F 3 "" H 5100 4500 50  0001 C CNN
	1    5100 4500
	1    0    0    -1  
$EndComp
Wire Wire Line
	4850 4650 4650 4650
Connection ~ 4650 4650
$Comp
L GND #PWR087
U 1 1 5B02D470
P 4150 4100
F 0 "#PWR087" H 4150 3850 50  0001 C CNN
F 1 "GND" H 4150 3950 50  0000 C CNN
F 2 "" H 4150 4100 50  0001 C CNN
F 3 "" H 4150 4100 50  0001 C CNN
	1    4150 4100
	1    0    0    -1  
$EndComp
$Comp
L +3.3V #PWR088
U 1 1 5B02D5DD
P 4150 3650
F 0 "#PWR088" H 4150 3500 50  0001 C CNN
F 1 "+3.3V" H 4150 3790 50  0000 C CNN
F 2 "" H 4150 3650 50  0001 C CNN
F 3 "" H 4150 3650 50  0001 C CNN
	1    4150 3650
	1    0    0    -1  
$EndComp
Wire Wire Line
	5150 4000 5100 4000
Wire Wire Line
	5100 4000 5100 4100
Connection ~ 5100 4100
Wire Wire Line
	6550 4450 6550 4750
Wire Wire Line
	6550 4750 6750 4750
Connection ~ 6750 4750
$EndSCHEMATC
