EESchema Schematic File Version 2
LIBS:littlerob-rescue
LIBS:power
LIBS:device
LIBS:switches
LIBS:relays
LIBS:motors
LIBS:transistors
LIBS:conn
LIBS:linear
LIBS:regul
LIBS:74xx
LIBS:cmos4000
LIBS:adc-dac
LIBS:memory
LIBS:xilinx
LIBS:microcontrollers
LIBS:dsp
LIBS:microchip
LIBS:analog_switches
LIBS:motorola
LIBS:texas
LIBS:intel
LIBS:audio
LIBS:interface
LIBS:digital-audio
LIBS:philips
LIBS:display
LIBS:cypress
LIBS:siliconi
LIBS:opto
LIBS:atmel
LIBS:contrib
LIBS:valves
LIBS:crap
LIBS:littlerob-cache
EELAYER 25 0
EELAYER END
$Descr A4 11693 8268
encoding utf-8
Sheet 6 6
Title ""
Date ""
Rev ""
Comp ""
Comment1 ""
Comment2 ""
Comment3 ""
Comment4 ""
$EndDescr
Text HLabel 6000 1150 2    60   BiDi ~ 0
SCL_2.8
Text HLabel 6000 1050 2    60   Output ~ 0
SDA_2.8
$Comp
L TCA9406 U602
U 1 1 5B065F5C
P 5150 1100
F 0 "U602" H 5250 700 60  0000 C CNN
F 1 "TCA9406" H 5250 1300 60  0000 C CNN
F 2 "lib:SSOP8" H 5400 1100 60  0001 C CNN
F 3 "" H 5400 1100 60  0000 C CNN
	1    5150 1100
	1    0    0    -1  
$EndComp
$Comp
L +2V8 #PWR089
U 1 1 5B065F63
P 6600 1100
F 0 "#PWR089" H 6600 950 50  0001 C CNN
F 1 "+2V8" H 6600 1240 50  0000 C CNN
F 2 "" H 6600 1100 50  0001 C CNN
F 3 "" H 6600 1100 50  0001 C CNN
	1    6600 1100
	1    0    0    -1  
$EndComp
$Comp
L GND #PWR090
U 1 1 5B065F69
P 4550 1450
F 0 "#PWR090" H 4550 1200 50  0001 C CNN
F 1 "GND" H 4550 1300 50  0000 C CNN
F 2 "" H 4550 1450 50  0001 C CNN
F 3 "" H 4550 1450 50  0001 C CNN
	1    4550 1450
	1    0    0    -1  
$EndComp
$Comp
L +3.3V #PWR091
U 1 1 5B065F6F
P 4100 1100
F 0 "#PWR091" H 4100 950 50  0001 C CNN
F 1 "+3.3V" H 4100 1240 50  0000 C CNN
F 2 "" H 4100 1100 50  0001 C CNN
F 3 "" H 4100 1100 50  0001 C CNN
	1    4100 1100
	1    0    0    -1  
$EndComp
Text Notes 3900 900  0    60   ~ 0
I2C voltage conversion
Wire Wire Line
	5850 1050 6000 1050
Wire Wire Line
	6000 1150 5850 1150
Wire Wire Line
	6600 1100 6600 1250
Wire Wire Line
	6600 1250 5850 1250
Wire Wire Line
	5850 1350 5950 1350
Wire Wire Line
	5950 1350 5950 1250
Connection ~ 5950 1250
Wire Wire Line
	4550 1450 4550 1350
Wire Wire Line
	4550 1350 4650 1350
Wire Wire Line
	4550 1050 4650 1050
Wire Wire Line
	4650 1150 4550 1150
Wire Wire Line
	4100 1100 4100 1250
Wire Wire Line
	4100 1250 4650 1250
Wire Notes Line
	3850 800  6850 800 
Wire Notes Line
	6850 800  6850 1650
Wire Notes Line
	6850 1650 3850 1650
Wire Notes Line
	3850 1650 3850 800 
$Comp
L R R601
U 1 1 5B065F87
P 7000 1200
F 0 "R601" V 7080 1200 50  0000 C CNN
F 1 "R" V 7000 1200 50  0000 C CNN
F 2 "Resistors_SMD:R_0402" V 6930 1200 50  0001 C CNN
F 3 "" H 7000 1200 50  0001 C CNN
	1    7000 1200
	1    0    0    -1  
$EndComp
$Comp
L R R602
U 1 1 5B065F8E
P 7150 1200
F 0 "R602" V 7230 1200 50  0000 C CNN
F 1 "R" V 7150 1200 50  0000 C CNN
F 2 "Resistors_SMD:R_0402" V 7080 1200 50  0001 C CNN
F 3 "" H 7150 1200 50  0001 C CNN
	1    7150 1200
	1    0    0    -1  
$EndComp
$Comp
L +2V8 #PWR092
U 1 1 5B065F95
P 7150 950
F 0 "#PWR092" H 7150 800 50  0001 C CNN
F 1 "+2V8" H 7150 1090 50  0000 C CNN
F 2 "" H 7150 950 50  0001 C CNN
F 3 "" H 7150 950 50  0001 C CNN
	1    7150 950 
	1    0    0    -1  
$EndComp
Wire Wire Line
	7150 950  7150 1050
Wire Wire Line
	7000 1050 7000 1000
Wire Wire Line
	7000 1000 7150 1000
Connection ~ 7150 1000
Text HLabel 7000 1350 3    60   Output ~ 0
SDA_2.8
Text HLabel 7150 1350 3    60   BiDi ~ 0
SCL_2.8
Text HLabel 4550 1050 0    60   Output ~ 0
SDA
Text HLabel 4550 1150 0    60   BiDi ~ 0
SCL
Text HLabel 4500 3150 0    60   Input ~ 0
LL0_INT
Text HLabel 4500 3250 0    60   Output ~ 0
LL0_SHUT
Text HLabel 4500 3350 0    60   Input ~ 0
LL1_INT
Text HLabel 4500 3450 0    60   Output ~ 0
LL1_SHUT
Text HLabel 4500 3650 0    60   Input ~ 0
LL2_INT
Text HLabel 4500 3750 0    60   Output ~ 0
LL2_SHUT
Text HLabel 5500 3150 2    60   Output ~ 0
SL0_LED
Text HLabel 5500 3250 2    60   Input ~ 0
SL0_INT
Text HLabel 5500 3350 2    60   Output ~ 0
SL1_LED
Text HLabel 5500 3450 2    60   Input ~ 0
SL1_INT
$Comp
L MCP23018 U601
U 1 1 5B06AC67
P 5000 3450
F 0 "U601" H 4900 4075 50  0000 R CNN
F 1 "MCP23018" H 4900 4000 50  0000 R CNN
F 2 "Housings_DFN_QFN:QFN-24-1EP_5x5mm_Pitch0.65mm" H 5000 2550 50  0001 L CNN
F 3 "" H 5250 4050 50  0001 C CNN
	1    5000 3450
	1    0    0    -1  
$EndComp
$Comp
L +3.3V #PWR093
U 1 1 5B06AEA7
P 5000 2750
F 0 "#PWR093" H 5000 2600 50  0001 C CNN
F 1 "+3.3V" H 5000 2890 50  0000 C CNN
F 2 "" H 5000 2750 50  0001 C CNN
F 3 "" H 5000 2750 50  0001 C CNN
	1    5000 2750
	1    0    0    -1  
$EndComp
Wire Wire Line
	5000 2750 5000 2850
$Comp
L GND #PWR094
U 1 1 5B06AEDE
P 4950 4500
F 0 "#PWR094" H 4950 4250 50  0001 C CNN
F 1 "GND" H 4950 4350 50  0000 C CNN
F 2 "" H 4950 4500 50  0001 C CNN
F 3 "" H 4950 4500 50  0001 C CNN
	1    4950 4500
	1    0    0    -1  
$EndComp
Wire Wire Line
	4950 4500 4950 4400
Wire Wire Line
	4950 4450 5050 4450
Wire Wire Line
	5050 4450 5050 4400
Connection ~ 4950 4450
NoConn ~ 5500 4050
NoConn ~ 5500 4250
Text HLabel 5550 4150 2    60   Output ~ 0
INT
Wire Wire Line
	5550 4150 5500 4150
$Comp
L C C601
U 1 1 5B06B3ED
P 5500 2500
F 0 "C601" H 5525 2600 50  0000 L CNN
F 1 "100n 10V" H 5525 2400 50  0000 L CNN
F 2 "Capacitors_SMD:C_0402" H 5538 2350 50  0001 C CNN
F 3 "" H 5500 2500 50  0001 C CNN
	1    5500 2500
	1    0    0    -1  
$EndComp
$Comp
L +3.3V #PWR095
U 1 1 5B06B41B
P 5500 2350
F 0 "#PWR095" H 5500 2200 50  0001 C CNN
F 1 "+3.3V" H 5500 2490 50  0000 C CNN
F 2 "" H 5500 2350 50  0001 C CNN
F 3 "" H 5500 2350 50  0001 C CNN
	1    5500 2350
	1    0    0    -1  
$EndComp
$Comp
L GND #PWR096
U 1 1 5B06B45F
P 5500 2650
F 0 "#PWR096" H 5500 2400 50  0001 C CNN
F 1 "GND" H 5500 2500 50  0000 C CNN
F 2 "" H 5500 2650 50  0001 C CNN
F 3 "" H 5500 2650 50  0001 C CNN
	1    5500 2650
	1    0    0    -1  
$EndComp
Text HLabel 4400 4150 0    60   Output ~ 0
SDA
Text HLabel 4400 4050 0    60   BiDi ~ 0
SCL
Wire Wire Line
	4400 4150 4500 4150
Wire Wire Line
	4400 4050 4500 4050
$Comp
L GND #PWR097
U 1 1 5B06B7D5
P 4400 4350
F 0 "#PWR097" H 4400 4100 50  0001 C CNN
F 1 "GND" H 4400 4200 50  0000 C CNN
F 2 "" H 4400 4350 50  0001 C CNN
F 3 "" H 4400 4350 50  0001 C CNN
	1    4400 4350
	1    0    0    -1  
$EndComp
Wire Wire Line
	4400 4350 4400 4250
Wire Wire Line
	4400 4250 4500 4250
Text HLabel 4500 3050 0    60   Output ~ 0
LL0_LED
Text HLabel 4500 3550 0    60   Output ~ 0
LL1_LED
Text HLabel 5500 3050 2    60   Output ~ 0
LL2_LED
Text HLabel 5500 3750 2    60   Output ~ 0
LED2
Text HLabel 5500 3550 2    60   Output ~ 0
LED0
Text HLabel 5500 3650 2    60   Output ~ 0
LED1
$EndSCHEMATC
