EESchema Schematic File Version 2
LIBS:littlerob-rescue
LIBS:power
LIBS:device
LIBS:switches
LIBS:relays
LIBS:motors
LIBS:transistors
LIBS:conn
LIBS:linear
LIBS:regul
LIBS:74xx
LIBS:cmos4000
LIBS:adc-dac
LIBS:memory
LIBS:xilinx
LIBS:microcontrollers
LIBS:dsp
LIBS:microchip
LIBS:analog_switches
LIBS:motorola
LIBS:texas
LIBS:intel
LIBS:audio
LIBS:interface
LIBS:digital-audio
LIBS:philips
LIBS:display
LIBS:cypress
LIBS:siliconi
LIBS:opto
LIBS:atmel
LIBS:contrib
LIBS:valves
LIBS:crap
LIBS:littlerob-cache
EELAYER 25 0
EELAYER END
$Descr A4 11693 8268
encoding utf-8
Sheet 1 6
Title ""
Date ""
Rev ""
Comp ""
Comment1 ""
Comment2 ""
Comment3 ""
Comment4 ""
$EndDescr
$Comp
L Conn_01x02 J101
U 1 1 5AFDDA05
P 800 1050
F 0 "J101" H 800 1150 50  0000 C CNN
F 1 "Conn_01x02" H 800 850 50  0000 C CNN
F 2 "lib:WE_CONN_3.81_vertical_2way" H 800 1050 50  0001 C CNN
F 3 "" H 800 1050 50  0001 C CNN
	1    800  1050
	-1   0    0    1   
$EndComp
$Comp
L +12V #PWR01
U 1 1 5AFDDA71
P 1100 850
F 0 "#PWR01" H 1100 700 50  0001 C CNN
F 1 "+12V" H 1100 990 50  0000 C CNN
F 2 "" H 1100 850 50  0001 C CNN
F 3 "" H 1100 850 50  0001 C CNN
	1    1100 850 
	1    0    0    -1  
$EndComp
$Comp
L GND #PWR02
U 1 1 5AFDDA89
P 1100 1150
F 0 "#PWR02" H 1100 900 50  0001 C CNN
F 1 "GND" H 1100 1000 50  0000 C CNN
F 2 "" H 1100 1150 50  0001 C CNN
F 3 "" H 1100 1150 50  0001 C CNN
	1    1100 1150
	1    0    0    -1  
$EndComp
Wire Wire Line
	1100 1150 1100 1050
Wire Wire Line
	1100 1050 1000 1050
Wire Wire Line
	1100 850  1100 950 
Wire Wire Line
	1100 950  1000 950 
Text Notes 650  650  0    60   ~ 0
12V power input
Text Notes 9450 1950 0    60   ~ 0
Motor 0
Text Notes 10200 1950 0    60   ~ 0
Motor 1
Text Notes 9600 2950 0    60   ~ 0
Encoder 0
Text Notes 10550 2950 0    60   ~ 0
Encoder 1
Text Notes 9250 4050 0    60   ~ 0
Long-range Lasers 2m
$Sheet
S 3050 2300 1650 1500
U 5AFDE807
F0 "MCU" 60
F1 "mcu.sch" 60
F2 "SCL" I R 4700 3350 60 
F3 "SDA" I R 4700 3450 60 
F4 "E0_B" I R 4700 2500 60 
F5 "E0_A" I R 4700 2400 60 
F6 "E1_B" I R 4700 2750 60 
F7 "E1_A" I R 4700 2650 60 
F8 "SDA_EXT" O L 3050 2950 60 
F9 "SCL_EXT" B L 3050 3050 60 
F10 "M0_PWM1" O R 4700 2850 60 
F11 "M0_PWM2" O R 4700 2950 60 
F12 "M1_PWM1" O R 4700 3050 60 
F13 "M1_PWM2" O R 4700 3150 60 
F14 "GYRO_INT" I R 4700 3600 60 
F15 "RS485_TX" O L 3050 3300 60 
F16 "RS485_RX" I L 3050 3400 60 
F17 "EXT_INT" I L 3050 3650 60 
F18 "LASERS_INT" I R 4700 3700 60 
$EndSheet
$Sheet
S 3400 900  1000 600 
U 5AFEDEDE
F0 "POWER" 60
F1 "power.sch" 60
$EndSheet
$Sheet
S 5300 2750 1000 500 
U 5AFEFF41
F0 "MOTORS" 60
F1 "motors.sch" 60
F2 "M0_A" I R 6300 2850 60 
F3 "M0_B" I R 6300 2950 60 
F4 "M1_A" I R 6300 3050 60 
F5 "M1_B" I R 6300 3150 60 
F6 "M0_IN1" I L 5300 2850 60 
F7 "M0_IN2" I L 5300 2950 60 
F8 "M1_IN1" I L 5300 3050 60 
F9 "M1_IN2" I L 5300 3150 60 
$EndSheet
Text Notes 9850 5300 0    60   ~ 0
Short-range Lasers 20cm
$Comp
L Conn_01x02 J102
U 1 1 5B02A9F9
P 10200 1050
F 0 "J102" H 10200 1150 50  0000 C CNN
F 1 "Conn_01x02" H 10200 850 50  0000 C CNN
F 2 "lib:WE_CONN_3.5_vertical_2way" H 10200 1050 50  0001 C CNN
F 3 "" H 10200 1050 50  0001 C CNN
	1    10200 1050
	1    0    0    -1  
$EndComp
Text Notes 10100 900  0    60   ~ 0
STOP
$Comp
L +3.3V #PWR03
U 1 1 5B02AEDA
P 9900 950
F 0 "#PWR03" H 9900 800 50  0001 C CNN
F 1 "+3.3V" H 9900 1090 50  0000 C CNN
F 2 "" H 9900 950 50  0001 C CNN
F 3 "" H 9900 950 50  0001 C CNN
	1    9900 950 
	1    0    0    -1  
$EndComp
Wire Wire Line
	9900 950  9900 1050
Wire Wire Line
	9900 1050 10000 1050
Wire Wire Line
	9800 1150 10000 1150
Wire Wire Line
	10150 2250 10250 2250
Text Label 9400 2150 2    60   ~ 0
M0_B
Text Label 9400 2250 2    60   ~ 0
M0_A
Wire Wire Line
	9400 2150 9500 2150
Wire Wire Line
	9500 2250 9400 2250
Text Label 10150 2150 2    60   ~ 0
M1_B
Text Label 10150 2250 2    60   ~ 0
M1_A
Wire Wire Line
	10150 2150 10250 2150
$Comp
L Conn_01x04 J105
U 1 1 5B02B48E
P 9700 3350
F 0 "J105" H 9700 3550 50  0000 C CNN
F 1 "Conn_01x04" H 9700 3050 50  0000 C CNN
F 2 "lib:TE_MICROMATCH_SMD_FEM_4PIN" H 9700 3350 50  0001 C CNN
F 3 "" H 9700 3350 50  0001 C CNN
	1    9700 3350
	1    0    0    1   
$EndComp
$Comp
L Conn_01x04 J106
U 1 1 5B02B574
P 10550 3350
F 0 "J106" H 10550 3550 50  0000 C CNN
F 1 "Conn_01x04" H 10550 3050 50  0000 C CNN
F 2 "lib:TE_MICROMATCH_SMD_FEM_4PIN" H 10550 3350 50  0001 C CNN
F 3 "" H 10550 3350 50  0001 C CNN
	1    10550 3350
	1    0    0    1   
$EndComp
$Comp
L GND #PWR04
U 1 1 5B02B5FB
P 9400 3550
F 0 "#PWR04" H 9400 3300 50  0001 C CNN
F 1 "GND" H 9400 3400 50  0000 C CNN
F 2 "" H 9400 3550 50  0001 C CNN
F 3 "" H 9400 3550 50  0001 C CNN
	1    9400 3550
	1    0    0    -1  
$EndComp
Wire Wire Line
	9400 3550 9400 3450
Wire Wire Line
	9400 3450 9500 3450
Text Label 9400 3150 2    60   ~ 0
E0_B
Text Label 9400 3250 2    60   ~ 0
E0_A
Wire Wire Line
	9400 3150 9500 3150
Wire Wire Line
	9400 3250 9500 3250
Wire Wire Line
	9500 3350 9400 3350
$Comp
L +5V #PWR05
U 1 1 5B02B6D0
P 9400 3350
F 0 "#PWR05" H 9400 3200 50  0001 C CNN
F 1 "+5V" H 9400 3490 50  0000 C CNN
F 2 "" H 9400 3350 50  0001 C CNN
F 3 "" H 9400 3350 50  0001 C CNN
	1    9400 3350
	0    -1   -1   0   
$EndComp
$Comp
L GND #PWR06
U 1 1 5B02B747
P 10250 3550
F 0 "#PWR06" H 10250 3300 50  0001 C CNN
F 1 "GND" H 10250 3400 50  0000 C CNN
F 2 "" H 10250 3550 50  0001 C CNN
F 3 "" H 10250 3550 50  0001 C CNN
	1    10250 3550
	1    0    0    -1  
$EndComp
Wire Wire Line
	10250 3550 10250 3450
Wire Wire Line
	10250 3450 10350 3450
Text Label 10250 3150 2    60   ~ 0
E1_B
Text Label 10250 3250 2    60   ~ 0
E1_A
Wire Wire Line
	10250 3150 10350 3150
Wire Wire Line
	10250 3250 10350 3250
Wire Wire Line
	10350 3350 10250 3350
$Comp
L +5V #PWR07
U 1 1 5B02B755
P 10250 3350
F 0 "#PWR07" H 10250 3200 50  0001 C CNN
F 1 "+5V" H 10250 3490 50  0000 C CNN
F 2 "" H 10250 3350 50  0001 C CNN
F 3 "" H 10250 3350 50  0001 C CNN
	1    10250 3350
	0    -1   -1   0   
$EndComp
Text GLabel 9800 1150 0    60   Output ~ 0
POWER_EN
$Comp
L Conn_01x06 J107
U 1 1 5B02BBCF
P 9000 4550
F 0 "J107" H 9000 4850 50  0000 C CNN
F 1 "Conn_01x06" H 9000 4150 50  0000 C CNN
F 2 "lib:TE_MICROMATCH_SMD_FEM_6PIN" H 9000 4550 50  0001 C CNN
F 3 "" H 9000 4550 50  0001 C CNN
	1    9000 4550
	1    0    0    -1  
$EndComp
$Comp
L +3.3V #PWR08
U 1 1 5B02BC12
P 8700 4250
F 0 "#PWR08" H 8700 4100 50  0001 C CNN
F 1 "+3.3V" H 8700 4390 50  0000 C CNN
F 2 "" H 8700 4250 50  0001 C CNN
F 3 "" H 8700 4250 50  0001 C CNN
	1    8700 4250
	1    0    0    -1  
$EndComp
Wire Wire Line
	8700 4250 8700 4350
Wire Wire Line
	8700 4350 8800 4350
$Comp
L GND #PWR09
U 1 1 5B02BC68
P 8550 4450
F 0 "#PWR09" H 8550 4200 50  0001 C CNN
F 1 "GND" H 8550 4300 50  0000 C CNN
F 2 "" H 8550 4450 50  0001 C CNN
F 3 "" H 8550 4450 50  0001 C CNN
	1    8550 4450
	0    1    1    0   
$EndComp
Wire Wire Line
	8550 4450 8800 4450
Text Label 8700 4550 2    60   ~ 0
SCL
Text Label 8700 4650 2    60   ~ 0
SDA
Text Label 8700 4750 2    60   ~ 0
LL0_INT
Text Label 8700 4850 2    60   ~ 0
LL0_SHUT
Wire Wire Line
	8700 4850 8800 4850
Wire Wire Line
	8700 4750 8800 4750
Wire Wire Line
	8700 4650 8800 4650
Wire Wire Line
	8700 4550 8800 4550
$Comp
L Conn_01x06 J108
U 1 1 5B02BEBA
P 9900 4550
F 0 "J108" H 9900 4850 50  0000 C CNN
F 1 "Conn_01x06" H 9900 4150 50  0000 C CNN
F 2 "lib:TE_MICROMATCH_SMD_FEM_6PIN" H 9900 4550 50  0001 C CNN
F 3 "" H 9900 4550 50  0001 C CNN
	1    9900 4550
	1    0    0    -1  
$EndComp
$Comp
L +3.3V #PWR010
U 1 1 5B02BEC0
P 9600 4250
F 0 "#PWR010" H 9600 4100 50  0001 C CNN
F 1 "+3.3V" H 9600 4390 50  0000 C CNN
F 2 "" H 9600 4250 50  0001 C CNN
F 3 "" H 9600 4250 50  0001 C CNN
	1    9600 4250
	1    0    0    -1  
$EndComp
Wire Wire Line
	9600 4250 9600 4350
Wire Wire Line
	9600 4350 9700 4350
$Comp
L GND #PWR011
U 1 1 5B02BEC8
P 9450 4450
F 0 "#PWR011" H 9450 4200 50  0001 C CNN
F 1 "GND" H 9450 4300 50  0000 C CNN
F 2 "" H 9450 4450 50  0001 C CNN
F 3 "" H 9450 4450 50  0001 C CNN
	1    9450 4450
	0    1    1    0   
$EndComp
Wire Wire Line
	9450 4450 9700 4450
Text Label 9600 4550 2    60   ~ 0
SCL
Text Label 9600 4650 2    60   ~ 0
SDA
Text Label 9600 4750 2    60   ~ 0
LL1_INT
Text Label 9600 4850 2    60   ~ 0
LL1_SHUT
Wire Wire Line
	9600 4850 9700 4850
Wire Wire Line
	9600 4750 9700 4750
Wire Wire Line
	9600 4650 9700 4650
Wire Wire Line
	9600 4550 9700 4550
$Comp
L Conn_01x06 J109
U 1 1 5B02BF95
P 10800 4550
F 0 "J109" H 10800 4850 50  0000 C CNN
F 1 "Conn_01x06" H 10800 4150 50  0000 C CNN
F 2 "lib:TE_MICROMATCH_SMD_FEM_6PIN" H 10800 4550 50  0001 C CNN
F 3 "" H 10800 4550 50  0001 C CNN
	1    10800 4550
	1    0    0    -1  
$EndComp
$Comp
L +3.3V #PWR012
U 1 1 5B02BF9B
P 10500 4250
F 0 "#PWR012" H 10500 4100 50  0001 C CNN
F 1 "+3.3V" H 10500 4390 50  0000 C CNN
F 2 "" H 10500 4250 50  0001 C CNN
F 3 "" H 10500 4250 50  0001 C CNN
	1    10500 4250
	1    0    0    -1  
$EndComp
Wire Wire Line
	10500 4250 10500 4350
Wire Wire Line
	10500 4350 10600 4350
$Comp
L GND #PWR013
U 1 1 5B02BFA3
P 10350 4450
F 0 "#PWR013" H 10350 4200 50  0001 C CNN
F 1 "GND" H 10350 4300 50  0000 C CNN
F 2 "" H 10350 4450 50  0001 C CNN
F 3 "" H 10350 4450 50  0001 C CNN
	1    10350 4450
	0    1    1    0   
$EndComp
Wire Wire Line
	10350 4450 10600 4450
Text Label 10500 4550 2    60   ~ 0
SCL
Text Label 10500 4650 2    60   ~ 0
SDA
Text Label 10500 4750 2    60   ~ 0
LL2_INT
Text Label 10500 4850 2    60   ~ 0
LL2_SHUT
Wire Wire Line
	10500 4850 10600 4850
Wire Wire Line
	10500 4750 10600 4750
Wire Wire Line
	10500 4650 10600 4650
Wire Wire Line
	10500 4550 10600 4550
$Comp
L Conn_01x06 J110
U 1 1 5B02C0E0
P 10100 5850
F 0 "J110" H 10100 6150 50  0000 C CNN
F 1 "Conn_01x06" H 10100 5450 50  0000 C CNN
F 2 "lib:TE_MICROMATCH_SMD_FEM_6PIN" H 10100 5850 50  0001 C CNN
F 3 "" H 10100 5850 50  0001 C CNN
	1    10100 5850
	1    0    0    -1  
$EndComp
Wire Wire Line
	9800 5550 9800 5650
Wire Wire Line
	9800 5650 9900 5650
$Comp
L +2V8 #PWR014
U 1 1 5B02C161
P 9800 5550
F 0 "#PWR014" H 9800 5400 50  0001 C CNN
F 1 "+2V8" H 9800 5690 50  0000 C CNN
F 2 "" H 9800 5550 50  0001 C CNN
F 3 "" H 9800 5550 50  0001 C CNN
	1    9800 5550
	1    0    0    -1  
$EndComp
$Comp
L GND #PWR015
U 1 1 5B02BB72
P 9850 6200
F 0 "#PWR015" H 9850 5950 50  0001 C CNN
F 1 "GND" H 9850 6050 50  0000 C CNN
F 2 "" H 9850 6200 50  0000 C CNN
F 3 "" H 9850 6200 50  0000 C CNN
	1    9850 6200
	1    0    0    -1  
$EndComp
Wire Wire Line
	9850 6200 9850 6150
Wire Wire Line
	9850 6150 9900 6150
Text Label 9850 6050 2    60   ~ 0
SCL_2.8
Text Label 9850 5950 2    60   ~ 0
SDA_2.8
Text Label 9850 5850 2    60   ~ 0
SL0_INT
Text Label 9850 5750 2    60   ~ 0
SL0_LED
Wire Wire Line
	9900 5750 9850 5750
Wire Wire Line
	9850 5850 9900 5850
Wire Wire Line
	9850 5950 9900 5950
Wire Wire Line
	9850 6050 9900 6050
$Comp
L Conn_01x06 J111
U 1 1 5B02B51C
P 10900 5850
F 0 "J111" H 10900 6150 50  0000 C CNN
F 1 "Conn_01x06" H 10900 5450 50  0000 C CNN
F 2 "lib:TE_MICROMATCH_SMD_FEM_6PIN" H 10900 5850 50  0001 C CNN
F 3 "" H 10900 5850 50  0001 C CNN
	1    10900 5850
	1    0    0    -1  
$EndComp
Wire Wire Line
	10600 5550 10600 5650
Wire Wire Line
	10600 5650 10700 5650
$Comp
L +2V8 #PWR016
U 1 1 5B02B524
P 10600 5550
F 0 "#PWR016" H 10600 5400 50  0001 C CNN
F 1 "+2V8" H 10600 5690 50  0000 C CNN
F 2 "" H 10600 5550 50  0001 C CNN
F 3 "" H 10600 5550 50  0001 C CNN
	1    10600 5550
	1    0    0    -1  
$EndComp
$Comp
L GND #PWR017
U 1 1 5B02B52A
P 10650 6200
F 0 "#PWR017" H 10650 5950 50  0001 C CNN
F 1 "GND" H 10650 6050 50  0000 C CNN
F 2 "" H 10650 6200 50  0000 C CNN
F 3 "" H 10650 6200 50  0000 C CNN
	1    10650 6200
	1    0    0    -1  
$EndComp
Wire Wire Line
	10650 6200 10650 6150
Wire Wire Line
	10650 6150 10700 6150
Text Label 10650 5850 2    60   ~ 0
SL1_INT
Text Label 10650 5750 2    60   ~ 0
SL1_LED
Wire Wire Line
	10700 5750 10650 5750
Wire Wire Line
	10650 5850 10700 5850
Wire Wire Line
	10650 5950 10700 5950
Wire Wire Line
	10650 6050 10700 6050
Text Label 10650 5950 2    60   ~ 0
SDA_2.8
Text Label 10650 6050 2    60   ~ 0
SCL_2.8
Text Label 4850 2400 0    60   ~ 0
E0_A
Text Label 4850 2500 0    60   ~ 0
E0_B
Text Label 4850 2750 0    60   ~ 0
E1_B
Text Label 4850 2650 0    60   ~ 0
E1_A
Text Label 4300 4300 0    60   ~ 0
SCL
Text Label 4300 4400 0    60   ~ 0
SDA
Text Label 4450 5000 0    60   ~ 0
SCL_2.8
Text Label 4450 5100 0    60   ~ 0
SDA_2.8
Text Label 4450 5700 0    60   ~ 0
LL0_INT
Text Label 4450 5800 0    60   ~ 0
LL0_SHUT
Text Label 4450 5900 0    60   ~ 0
LL1_INT
Text Label 4450 6000 0    60   ~ 0
LL1_SHUT
Text Label 4450 6100 0    60   ~ 0
LL2_INT
Text Label 4450 6200 0    60   ~ 0
LL2_SHUT
Text Label 4450 5250 0    60   ~ 0
SL0_LED
Text Label 4450 5350 0    60   ~ 0
SL0_INT
Text Label 4450 5450 0    60   ~ 0
SL1_LED
Text Label 4450 5550 0    60   ~ 0
SL1_INT
Text Label 6300 2950 0    60   ~ 0
M0_B
Text Label 6300 2850 0    60   ~ 0
M0_A
Text Label 6300 3150 0    60   ~ 0
M1_B
Text Label 6300 3050 0    60   ~ 0
M1_A
Wire Wire Line
	4700 2850 5300 2850
Wire Wire Line
	5300 2950 4700 2950
Wire Wire Line
	4700 3050 5300 3050
Wire Wire Line
	5300 3150 4700 3150
$Sheet
S 3550 4100 650  450 
U 5B02C77D
F0 "GYRO" 60
F1 "gyro.sch" 60
F2 "SCL" I R 4200 4300 60 
F3 "INT" O L 3550 4350 60 
F4 "SDA" B R 4200 4400 60 
$EndSheet
Text Label 3450 4350 2    60   ~ 0
GYRO_INT
Text Label 4850 3600 0    60   ~ 0
GYRO_INT
$Comp
L +5V #PWR018
U 1 1 5B035EFC
P 1200 5500
F 0 "#PWR018" H 1200 5350 50  0001 C CNN
F 1 "+5V" H 1200 5640 50  0000 C CNN
F 2 "" H 1200 5500 50  0001 C CNN
F 3 "" H 1200 5500 50  0001 C CNN
	1    1200 5500
	0    -1   -1   0   
$EndComp
Text Label 1200 5600 2    60   ~ 0
RS485_TX
Text Label 2950 3400 2    60   ~ 0
RS485_RX
Text Label 1200 5700 2    60   ~ 0
I2CEXT_SDA
Text Label 1700 5700 0    60   ~ 0
I2CEXT_SCL
Text Label 1700 5800 0    60   ~ 0
EXT_INT
$Comp
L R_Small R101
U 1 1 5B036FB8
P 9750 1300
F 0 "R101" H 9780 1320 50  0000 L CNN
F 1 "10k" H 9780 1260 50  0000 L CNN
F 2 "Resistors_SMD:R_0402" H 9750 1300 50  0001 C CNN
F 3 "" H 9750 1300 50  0001 C CNN
	1    9750 1300
	0    1    1    0   
$EndComp
Wire Wire Line
	9850 1300 9900 1300
Wire Wire Line
	9900 1150 9900 1450
Connection ~ 9900 1150
$Comp
L GND #PWR019
U 1 1 5B03723C
P 9550 1400
F 0 "#PWR019" H 9550 1150 50  0001 C CNN
F 1 "GND" H 9550 1250 50  0000 C CNN
F 2 "" H 9550 1400 50  0001 C CNN
F 3 "" H 9550 1400 50  0001 C CNN
	1    9550 1400
	1    0    0    -1  
$EndComp
Wire Wire Line
	9550 1400 9550 1300
Wire Wire Line
	9550 1300 9650 1300
$Comp
L Conn_01x03 J103
U 1 1 5B03A029
P 9700 2250
F 0 "J103" H 9700 2450 50  0000 C CNN
F 1 "Conn_01x03" H 9700 2050 50  0000 C CNN
F 2 "lib:WE_CONN_3.5_vertical_3way" H 9700 2250 50  0001 C CNN
F 3 "" H 9700 2250 50  0001 C CNN
	1    9700 2250
	1    0    0    1   
$EndComp
$Comp
L Conn_01x03 J104
U 1 1 5B03A2C5
P 10450 2250
F 0 "J104" H 10450 2450 50  0000 C CNN
F 1 "Conn_01x03" H 10450 2050 50  0000 C CNN
F 2 "lib:WE_CONN_3.5_vertical_3way" H 10450 2250 50  0001 C CNN
F 3 "" H 10450 2250 50  0001 C CNN
	1    10450 2250
	1    0    0    1   
$EndComp
$Comp
L GND #PWR020
U 1 1 5B047922
P 1700 5400
F 0 "#PWR020" H 1700 5150 50  0001 C CNN
F 1 "GND" H 1700 5250 50  0000 C CNN
F 2 "" H 1700 5400 50  0001 C CNN
F 3 "" H 1700 5400 50  0001 C CNN
	1    1700 5400
	0    -1   -1   0   
$EndComp
Text GLabel 1200 5800 0    60   Input ~ 0
POWER_EN
Text Label 4850 3350 0    60   ~ 0
SCL
Text Label 4850 3450 0    60   ~ 0
SDA
$Comp
L LED D101
U 1 1 5B04BFC1
P 10200 1450
F 0 "D101" H 10200 1550 50  0000 C CNN
F 1 "RED" H 10200 1350 50  0000 C CNN
F 2 "LEDs:LED_0603_HandSoldering" H 10200 1450 50  0001 C CNN
F 3 "" H 10200 1450 50  0001 C CNN
	1    10200 1450
	-1   0    0    1   
$EndComp
$Comp
L R_Small R102
U 1 1 5B04BFC8
P 10550 1450
F 0 "R102" H 10580 1470 50  0000 L CNN
F 1 "2k" H 10580 1410 50  0000 L CNN
F 2 "Resistors_SMD:R_0402" H 10550 1450 50  0001 C CNN
F 3 "" H 10550 1450 50  0001 C CNN
	1    10550 1450
	0    -1   -1   0   
$EndComp
$Comp
L GND #PWR021
U 1 1 5B04BFCF
P 10750 1450
F 0 "#PWR021" H 10750 1200 50  0001 C CNN
F 1 "GND" H 10750 1300 50  0000 C CNN
F 2 "" H 10750 1450 50  0001 C CNN
F 3 "" H 10750 1450 50  0001 C CNN
	1    10750 1450
	0    -1   -1   0   
$EndComp
Wire Wire Line
	10750 1450 10650 1450
Wire Wire Line
	10450 1450 10350 1450
Wire Wire Line
	9900 1450 10050 1450
Connection ~ 9900 1300
$Comp
L +12V #PWR022
U 1 1 5B0582DC
P 1200 5400
F 0 "#PWR022" H 1200 5250 50  0001 C CNN
F 1 "+12V" H 1200 5540 50  0000 C CNN
F 2 "" H 1200 5400 50  0001 C CNN
F 3 "" H 1200 5400 50  0001 C CNN
	1    1200 5400
	0    -1   -1   0   
$EndComp
Text Label 2950 3650 2    60   ~ 0
EXT_INT
Text Label 2950 3300 2    60   ~ 0
RS485_TX
Text Label 2950 3050 2    60   ~ 0
I2CEXT_SCL
Text Label 2950 2950 2    60   ~ 0
I2CEXT_SDA
Text Label 1700 5600 0    60   ~ 0
RS485_RX
$Comp
L LED D103
U 1 1 5B05EF0B
P 9000 6000
F 0 "D103" H 9000 6100 50  0000 C CNN
F 1 "LED" H 9000 5900 50  0000 C CNN
F 2 "LEDs:LED_0603_HandSoldering" H 9000 6000 50  0001 C CNN
F 3 "" H 9000 6000 50  0001 C CNN
	1    9000 6000
	0    -1   -1   0   
$EndComp
$Comp
L R R104
U 1 1 5B05EF12
P 9000 5600
F 0 "R104" V 9080 5600 50  0000 C CNN
F 1 "R" V 9000 5600 50  0000 C CNN
F 2 "Resistors_SMD:R_0402" V 8930 5600 50  0001 C CNN
F 3 "" H 9000 5600 50  0001 C CNN
	1    9000 5600
	1    0    0    -1  
$EndComp
$Comp
L +3.3V #PWR023
U 1 1 5B05EF19
P 9000 5350
F 0 "#PWR023" H 9000 5200 50  0001 C CNN
F 1 "+3.3V" H 9000 5490 50  0000 C CNN
F 2 "" H 9000 5350 50  0001 C CNN
F 3 "" H 9000 5350 50  0001 C CNN
	1    9000 5350
	1    0    0    -1  
$EndComp
Wire Wire Line
	9000 5750 9000 5850
Wire Wire Line
	9000 6200 9000 6150
Wire Wire Line
	4700 2400 4850 2400
Wire Wire Line
	4700 2500 4850 2500
Wire Wire Line
	4700 2650 4850 2650
Wire Wire Line
	4700 2750 4850 2750
Wire Wire Line
	4700 3600 4850 3600
Wire Wire Line
	4850 3450 4700 3450
Wire Wire Line
	4700 3350 4850 3350
$Sheet
S 3550 4900 800  1750
U 5B062E48
F0 "LASERS" 60
F1 "lasers.sch" 60
F2 "SCL_2.8" B R 4350 5000 60 
F3 "SDA_2.8" O R 4350 5100 60 
F4 "SDA" O L 3550 5100 60 
F5 "SCL" B L 3550 5000 60 
F6 "LL0_INT" I R 4350 5700 60 
F7 "LL0_SHUT" O R 4350 5800 60 
F8 "LL1_INT" I R 4350 5900 60 
F9 "LL1_SHUT" O R 4350 6000 60 
F10 "LL2_INT" I R 4350 6100 60 
F11 "LL2_SHUT" O R 4350 6200 60 
F12 "SL0_LED" O R 4350 5250 60 
F13 "SL0_INT" I R 4350 5350 60 
F14 "SL1_LED" O R 4350 5450 60 
F15 "SL1_INT" I R 4350 5550 60 
F16 "INT" O L 3550 5200 60 
F17 "LL0_LED" O R 4350 6350 60 
F18 "LL1_LED" O R 4350 6450 60 
F19 "LL2_LED" O R 4350 6550 60 
F20 "LED2" O L 3550 6350 60 
F21 "LED0" O L 3550 6150 60 
F22 "LED1" O L 3550 6250 60 
$EndSheet
Text Label 3450 5000 2    60   ~ 0
SCL
Text Label 3450 5100 2    60   ~ 0
SDA
Wire Wire Line
	3050 2950 2950 2950
Wire Wire Line
	2950 3050 3050 3050
Wire Wire Line
	2950 3300 3050 3300
Wire Wire Line
	2950 3400 3050 3400
Wire Wire Line
	2950 3650 3050 3650
Wire Wire Line
	3450 4350 3550 4350
Wire Wire Line
	3450 5000 3550 5000
Wire Wire Line
	3450 5100 3550 5100
Wire Wire Line
	4350 5000 4450 5000
Wire Wire Line
	4450 5100 4350 5100
Wire Wire Line
	4350 5250 4450 5250
Wire Wire Line
	4450 5350 4350 5350
Wire Wire Line
	4350 5450 4450 5450
Wire Wire Line
	4450 5550 4350 5550
Wire Wire Line
	4350 5700 4450 5700
Wire Wire Line
	4450 5800 4350 5800
Wire Wire Line
	4350 5900 4450 5900
Wire Wire Line
	4350 6000 4450 6000
Wire Wire Line
	4450 6100 4350 6100
Wire Wire Line
	4350 6200 4450 6200
Text Label 3450 5200 2    60   ~ 0
LASERS_INT
Wire Wire Line
	3450 5200 3550 5200
Text Label 4850 3700 0    60   ~ 0
LASERS_INT
Wire Wire Line
	4700 3700 4850 3700
Wire Wire Line
	4200 4300 4300 4300
Wire Wire Line
	4300 4400 4200 4400
Text Label 4450 6350 0    60   ~ 0
LL0_LED
Text Label 4450 6450 0    60   ~ 0
LL1_LED
Text Label 4450 6550 0    60   ~ 0
LL2_LED
Wire Wire Line
	4350 6350 4450 6350
Wire Wire Line
	4450 6450 4350 6450
Wire Wire Line
	4350 6550 4450 6550
Text Label 3450 6150 2    60   ~ 0
LED0
Wire Wire Line
	3450 6150 3550 6150
Wire Wire Line
	9000 5350 9000 5450
$Comp
L LED D102
U 1 1 5B06F49F
P 8700 6000
F 0 "D102" H 8700 6100 50  0000 C CNN
F 1 "LED" H 8700 5900 50  0000 C CNN
F 2 "LEDs:LED_0603_HandSoldering" H 8700 6000 50  0001 C CNN
F 3 "" H 8700 6000 50  0001 C CNN
	1    8700 6000
	0    -1   -1   0   
$EndComp
$Comp
L R R103
U 1 1 5B06F4A5
P 8700 5600
F 0 "R103" V 8780 5600 50  0000 C CNN
F 1 "R" V 8700 5600 50  0000 C CNN
F 2 "Resistors_SMD:R_0402" V 8630 5600 50  0001 C CNN
F 3 "" H 8700 5600 50  0001 C CNN
	1    8700 5600
	1    0    0    -1  
$EndComp
Wire Wire Line
	8700 5750 8700 5850
Wire Wire Line
	8700 6200 8700 6150
$Comp
L LED D104
U 1 1 5B06F7AD
P 9250 6000
F 0 "D104" H 9250 6100 50  0000 C CNN
F 1 "LED" H 9250 5900 50  0000 C CNN
F 2 "LEDs:LED_0603_HandSoldering" H 9250 6000 50  0001 C CNN
F 3 "" H 9250 6000 50  0001 C CNN
	1    9250 6000
	0    -1   -1   0   
$EndComp
$Comp
L R R105
U 1 1 5B06F7B3
P 9250 5600
F 0 "R105" V 9330 5600 50  0000 C CNN
F 1 "R" V 9250 5600 50  0000 C CNN
F 2 "Resistors_SMD:R_0402" V 9180 5600 50  0001 C CNN
F 3 "" H 9250 5600 50  0001 C CNN
	1    9250 5600
	1    0    0    -1  
$EndComp
Wire Wire Line
	9250 5750 9250 5850
Wire Wire Line
	9250 6200 9250 6150
Wire Wire Line
	8700 5450 8700 5400
Connection ~ 9000 5400
Wire Wire Line
	9250 5400 9250 5450
Text Label 7950 1800 3    60   ~ 0
LED0
Text Label 8250 1800 3    60   ~ 0
LED1
Text Label 8500 1800 3    60   ~ 0
LED2
Text Label 3450 6250 2    60   ~ 0
LED1
Wire Wire Line
	3450 6250 3550 6250
Text Label 3450 6350 2    60   ~ 0
LED2
Wire Wire Line
	3450 6350 3550 6350
Wire Wire Line
	8700 5400 9250 5400
$Comp
L LED D106
U 1 1 5B077947
P 8250 1600
F 0 "D106" H 8250 1700 50  0000 C CNN
F 1 "LED" H 8250 1500 50  0000 C CNN
F 2 "LEDs:LED_0603_HandSoldering" H 8250 1600 50  0001 C CNN
F 3 "" H 8250 1600 50  0001 C CNN
	1    8250 1600
	0    -1   -1   0   
$EndComp
$Comp
L R R107
U 1 1 5B07794D
P 8250 1200
F 0 "R107" V 8330 1200 50  0000 C CNN
F 1 "R" V 8250 1200 50  0000 C CNN
F 2 "Resistors_SMD:R_0402" V 8180 1200 50  0001 C CNN
F 3 "" H 8250 1200 50  0001 C CNN
	1    8250 1200
	1    0    0    -1  
$EndComp
$Comp
L +3.3V #PWR024
U 1 1 5B077953
P 8250 950
F 0 "#PWR024" H 8250 800 50  0001 C CNN
F 1 "+3.3V" H 8250 1090 50  0000 C CNN
F 2 "" H 8250 950 50  0001 C CNN
F 3 "" H 8250 950 50  0001 C CNN
	1    8250 950 
	1    0    0    -1  
$EndComp
Wire Wire Line
	8250 1350 8250 1450
Wire Wire Line
	8250 1800 8250 1750
Wire Wire Line
	8250 950  8250 1050
$Comp
L LED D105
U 1 1 5B07795C
P 7950 1600
F 0 "D105" H 7950 1700 50  0000 C CNN
F 1 "LED" H 7950 1500 50  0000 C CNN
F 2 "LEDs:LED_0603_HandSoldering" H 7950 1600 50  0001 C CNN
F 3 "" H 7950 1600 50  0001 C CNN
	1    7950 1600
	0    -1   -1   0   
$EndComp
$Comp
L R R106
U 1 1 5B077962
P 7950 1200
F 0 "R106" V 8030 1200 50  0000 C CNN
F 1 "R" V 7950 1200 50  0000 C CNN
F 2 "Resistors_SMD:R_0402" V 7880 1200 50  0001 C CNN
F 3 "" H 7950 1200 50  0001 C CNN
	1    7950 1200
	1    0    0    -1  
$EndComp
Wire Wire Line
	7950 1350 7950 1450
Wire Wire Line
	7950 1800 7950 1750
$Comp
L LED D107
U 1 1 5B07796A
P 8500 1600
F 0 "D107" H 8500 1700 50  0000 C CNN
F 1 "LED" H 8500 1500 50  0000 C CNN
F 2 "LEDs:LED_0603_HandSoldering" H 8500 1600 50  0001 C CNN
F 3 "" H 8500 1600 50  0001 C CNN
	1    8500 1600
	0    -1   -1   0   
$EndComp
$Comp
L R R108
U 1 1 5B077970
P 8500 1200
F 0 "R108" V 8580 1200 50  0000 C CNN
F 1 "R" V 8500 1200 50  0000 C CNN
F 2 "Resistors_SMD:R_0402" V 8430 1200 50  0001 C CNN
F 3 "" H 8500 1200 50  0001 C CNN
	1    8500 1200
	1    0    0    -1  
$EndComp
Wire Wire Line
	8500 1350 8500 1450
Wire Wire Line
	8500 1800 8500 1750
Wire Wire Line
	7950 1050 7950 1000
Connection ~ 8250 1000
Wire Wire Line
	8500 1000 8500 1050
Text Label 8700 6200 3    60   ~ 0
LL0_LED
Text Label 9000 6200 3    60   ~ 0
LL1_LED
Text Label 9250 6200 3    60   ~ 0
LL2_LED
Wire Wire Line
	7950 1000 8500 1000
$Comp
L Conn_02x06_Odd_Even J112
U 1 1 5B07EB96
P 1400 5500
F 0 "J112" H 1450 5800 50  0000 C CNN
F 1 "Conn_02x06_Odd_Even" H 1450 5100 50  0000 C CNN
F 2 "lib:TE_MICROMATCH_SMD_FEM_12PIN" H 1400 5500 50  0001 C CNN
F 3 "" H 1400 5500 50  0001 C CNN
	1    1400 5500
	1    0    0    -1  
$EndComp
$Comp
L GND #PWR025
U 1 1 5B07F7C6
P 1700 5300
F 0 "#PWR025" H 1700 5050 50  0001 C CNN
F 1 "GND" H 1700 5150 50  0000 C CNN
F 2 "" H 1700 5300 50  0001 C CNN
F 3 "" H 1700 5300 50  0001 C CNN
	1    1700 5300
	0    -1   -1   0   
$EndComp
$Comp
L GND #PWR026
U 1 1 5B07F948
P 1700 5500
F 0 "#PWR026" H 1700 5250 50  0001 C CNN
F 1 "GND" H 1700 5350 50  0000 C CNN
F 2 "" H 1700 5500 50  0001 C CNN
F 3 "" H 1700 5500 50  0001 C CNN
	1    1700 5500
	0    -1   -1   0   
$EndComp
$Comp
L +12V #PWR027
U 1 1 5B07FACA
P 1200 5300
F 0 "#PWR027" H 1200 5150 50  0001 C CNN
F 1 "+12V" H 1200 5440 50  0000 C CNN
F 2 "" H 1200 5300 50  0001 C CNN
F 3 "" H 1200 5300 50  0001 C CNN
	1    1200 5300
	0    -1   -1   0   
$EndComp
$Comp
L +12V #PWR028
U 1 1 5B081E25
P 9500 2350
F 0 "#PWR028" H 9500 2200 50  0001 C CNN
F 1 "+12V" H 9500 2490 50  0000 C CNN
F 2 "" H 9500 2350 50  0001 C CNN
F 3 "" H 9500 2350 50  0001 C CNN
	1    9500 2350
	0    -1   -1   0   
$EndComp
$Comp
L +12V #PWR029
U 1 1 5B081FC9
P 10250 2350
F 0 "#PWR029" H 10250 2200 50  0001 C CNN
F 1 "+12V" H 10250 2490 50  0000 C CNN
F 2 "" H 10250 2350 50  0001 C CNN
F 3 "" H 10250 2350 50  0001 C CNN
	1    10250 2350
	0    -1   -1   0   
$EndComp
$EndSCHEMATC
