EESchema Schematic File Version 2
LIBS:littlerob-rescue
LIBS:power
LIBS:device
LIBS:switches
LIBS:relays
LIBS:motors
LIBS:transistors
LIBS:conn
LIBS:linear
LIBS:regul
LIBS:74xx
LIBS:cmos4000
LIBS:adc-dac
LIBS:memory
LIBS:xilinx
LIBS:microcontrollers
LIBS:dsp
LIBS:microchip
LIBS:analog_switches
LIBS:motorola
LIBS:texas
LIBS:intel
LIBS:audio
LIBS:interface
LIBS:digital-audio
LIBS:philips
LIBS:display
LIBS:cypress
LIBS:siliconi
LIBS:opto
LIBS:atmel
LIBS:contrib
LIBS:valves
LIBS:crap
LIBS:littlerob-cache
EELAYER 25 0
EELAYER END
$Descr A4 11693 8268
encoding utf-8
Sheet 4 6
Title ""
Date ""
Rev ""
Comp ""
Comment1 ""
Comment2 ""
Comment3 ""
Comment4 ""
$EndDescr
Text HLabel 5600 1900 2    60   Output ~ 0
M0_A
Text HLabel 5600 2000 2    60   Output ~ 0
M0_B
Text HLabel 5600 3050 2    60   Output ~ 0
M1_A
Text HLabel 5600 3150 2    60   Output ~ 0
M1_B
$Comp
L DRV8870 U401
U 1 1 5B031CC9
P 5100 2200
F 0 "U401" H 5350 1900 60  0000 C CNN
F 1 "DRV8870" H 4950 2650 60  0000 C CNN
F 2 "Housings_SOIC:TI_SO-PowerPAD-8_ThermalVias" H 5100 2200 60  0001 C CNN
F 3 "" H 5100 2200 60  0001 C CNN
	1    5100 2200
	1    0    0    -1  
$EndComp
$Comp
L DRV8870 U402
U 1 1 5B031CF9
P 5100 3350
F 0 "U402" H 5350 3050 60  0000 C CNN
F 1 "DRV8870" H 4950 3800 60  0000 C CNN
F 2 "Housings_SOIC:TI_SO-PowerPAD-8_ThermalVias" H 5100 3350 60  0001 C CNN
F 3 "" H 5100 3350 60  0001 C CNN
	1    5100 3350
	1    0    0    -1  
$EndComp
Wire Wire Line
	4550 1800 4550 1900
Wire Wire Line
	4550 1900 4650 1900
Text GLabel 3900 2300 0    60   Input ~ 0
POWER_EN
Wire Wire Line
	3900 2300 4650 2300
Wire Wire Line
	3950 2300 3950 3450
Wire Wire Line
	3950 3450 4650 3450
Connection ~ 3950 2300
$Comp
L GND #PWR068
U 1 1 5B031FA8
P 4550 2500
F 0 "#PWR068" H 4550 2250 50  0001 C CNN
F 1 "GND" H 4550 2350 50  0000 C CNN
F 2 "" H 4550 2500 50  0001 C CNN
F 3 "" H 4550 2500 50  0001 C CNN
	1    4550 2500
	1    0    0    -1  
$EndComp
Wire Wire Line
	4550 2500 4550 2400
Wire Wire Line
	4550 2400 4650 2400
$Comp
L GND #PWR069
U 1 1 5B031FD8
P 4550 3650
F 0 "#PWR069" H 4550 3400 50  0001 C CNN
F 1 "GND" H 4550 3500 50  0000 C CNN
F 2 "" H 4550 3650 50  0001 C CNN
F 3 "" H 4550 3650 50  0001 C CNN
	1    4550 3650
	1    0    0    -1  
$EndComp
Wire Wire Line
	4550 3650 4550 3550
Wire Wire Line
	4550 3550 4650 3550
$Comp
L GND #PWR070
U 1 1 5B031FE8
P 5700 2500
F 0 "#PWR070" H 5700 2250 50  0001 C CNN
F 1 "GND" H 5700 2350 50  0000 C CNN
F 2 "" H 5700 2500 50  0001 C CNN
F 3 "" H 5700 2500 50  0001 C CNN
	1    5700 2500
	1    0    0    -1  
$EndComp
Wire Wire Line
	5700 2500 5700 2400
Wire Wire Line
	5700 2400 5600 2400
$Comp
L GND #PWR071
U 1 1 5B032013
P 5700 3650
F 0 "#PWR071" H 5700 3400 50  0001 C CNN
F 1 "GND" H 5700 3500 50  0000 C CNN
F 2 "" H 5700 3650 50  0001 C CNN
F 3 "" H 5700 3650 50  0001 C CNN
	1    5700 3650
	1    0    0    -1  
$EndComp
Wire Wire Line
	5700 3650 5700 3550
Wire Wire Line
	5700 3550 5600 3550
$Comp
L R R401
U 1 1 5B032122
P 6150 2450
F 0 "R401" V 6230 2450 50  0000 C CNN
F 1 "R" V 6150 2450 50  0000 C CNN
F 2 "Resistors_SMD:R_0805" V 6080 2450 50  0001 C CNN
F 3 "" H 6150 2450 50  0001 C CNN
	1    6150 2450
	1    0    0    -1  
$EndComp
$Comp
L R R402
U 1 1 5B032158
P 6350 2450
F 0 "R402" V 6430 2450 50  0000 C CNN
F 1 "R" V 6350 2450 50  0000 C CNN
F 2 "Resistors_SMD:R_0805" V 6280 2450 50  0001 C CNN
F 3 "" H 6350 2450 50  0001 C CNN
	1    6350 2450
	1    0    0    -1  
$EndComp
$Comp
L R R405
U 1 1 5B032349
P 6100 3600
F 0 "R405" V 6180 3600 50  0000 C CNN
F 1 "R" V 6100 3600 50  0000 C CNN
F 2 "Resistors_SMD:R_0805" V 6030 3600 50  0001 C CNN
F 3 "" H 6100 3600 50  0001 C CNN
	1    6100 3600
	1    0    0    -1  
$EndComp
$Comp
L R R406
U 1 1 5B03234F
P 6300 3600
F 0 "R406" V 6380 3600 50  0000 C CNN
F 1 "R" V 6300 3600 50  0000 C CNN
F 2 "Resistors_SMD:R_0805" V 6230 3600 50  0001 C CNN
F 3 "" H 6300 3600 50  0001 C CNN
	1    6300 3600
	1    0    0    -1  
$EndComp
Wire Wire Line
	6350 2200 6350 2300
$Comp
L GND #PWR072
U 1 1 5B03249D
P 6250 2700
F 0 "#PWR072" H 6250 2450 50  0001 C CNN
F 1 "GND" H 6250 2550 50  0000 C CNN
F 2 "" H 6250 2700 50  0001 C CNN
F 3 "" H 6250 2700 50  0001 C CNN
	1    6250 2700
	1    0    0    -1  
$EndComp
$Comp
L GND #PWR073
U 1 1 5B0324CD
P 6300 3850
F 0 "#PWR073" H 6300 3600 50  0001 C CNN
F 1 "GND" H 6300 3700 50  0000 C CNN
F 2 "" H 6300 3850 50  0001 C CNN
F 3 "" H 6300 3850 50  0001 C CNN
	1    6300 3850
	1    0    0    -1  
$EndComp
Wire Wire Line
	6150 2600 6150 2650
Wire Wire Line
	6350 2600 6350 2650
Wire Wire Line
	4500 2950 4500 3050
Wire Wire Line
	4500 3050 4650 3050
Text HLabel 4550 2000 0    60   Input ~ 0
M0_IN1
Text HLabel 4550 2100 0    60   Input ~ 0
M0_IN2
Text HLabel 4550 3150 0    60   Input ~ 0
M1_IN1
Text HLabel 4550 3250 0    60   Input ~ 0
M1_IN2
Wire Wire Line
	4550 2000 4650 2000
Wire Wire Line
	4550 2100 4650 2100
Wire Wire Line
	4550 3150 4650 3150
Wire Wire Line
	4650 3250 4550 3250
Text Notes 7400 1600 0    60   ~ 0
Itrip = Vref / (10 * Risen)\n\nVref = 3.3V => Risen = 0.33 / Itrip\n\nFor 0.5A max => Risen = 0.66 Ohm (0.17W dissipated)\nFor 2A max => 0.165 Ohm (0.66W dissipated)\n
$Comp
L C C401
U 1 1 5B036746
P 2400 1700
F 0 "C401" H 2425 1800 50  0000 L CNN
F 1 "100u" H 2425 1600 50  0000 L CNN
F 2 "lib:C_radial_6.3mm" H 2438 1550 50  0001 C CNN
F 3 "" H 2400 1700 50  0001 C CNN
	1    2400 1700
	1    0    0    -1  
$EndComp
$Comp
L C C402
U 1 1 5B036779
P 2650 1700
F 0 "C402" H 2675 1800 50  0000 L CNN
F 1 "100n" H 2675 1600 50  0000 L CNN
F 2 "Capacitors_SMD:C_0402" H 2688 1550 50  0001 C CNN
F 3 "" H 2650 1700 50  0001 C CNN
	1    2650 1700
	1    0    0    -1  
$EndComp
$Comp
L GND #PWR074
U 1 1 5B0367ED
P 2400 2050
F 0 "#PWR074" H 2400 1800 50  0001 C CNN
F 1 "GND" H 2400 1900 50  0000 C CNN
F 2 "" H 2400 2050 50  0001 C CNN
F 3 "" H 2400 2050 50  0001 C CNN
	1    2400 2050
	1    0    0    -1  
$EndComp
Wire Wire Line
	2400 2050 2400 1850
Wire Wire Line
	2400 1400 2400 1550
Wire Wire Line
	2650 1550 2650 1500
Wire Wire Line
	2650 1500 2400 1500
Connection ~ 2400 1500
Wire Wire Line
	2650 1850 2650 1950
Wire Wire Line
	2650 1950 2400 1950
Connection ~ 2400 1950
$Comp
L C C403
U 1 1 5B036AC5
P 2400 3050
F 0 "C403" H 2425 3150 50  0000 L CNN
F 1 "100u" H 2425 2950 50  0000 L CNN
F 2 "lib:C_radial_6.3mm" H 2438 2900 50  0001 C CNN
F 3 "" H 2400 3050 50  0001 C CNN
	1    2400 3050
	1    0    0    -1  
$EndComp
$Comp
L C C404
U 1 1 5B036ACB
P 2650 3050
F 0 "C404" H 2675 3150 50  0000 L CNN
F 1 "100n" H 2675 2950 50  0000 L CNN
F 2 "Capacitors_SMD:C_0402" H 2688 2900 50  0001 C CNN
F 3 "" H 2650 3050 50  0001 C CNN
	1    2650 3050
	1    0    0    -1  
$EndComp
$Comp
L GND #PWR075
U 1 1 5B036AD7
P 2400 3400
F 0 "#PWR075" H 2400 3150 50  0001 C CNN
F 1 "GND" H 2400 3250 50  0000 C CNN
F 2 "" H 2400 3400 50  0001 C CNN
F 3 "" H 2400 3400 50  0001 C CNN
	1    2400 3400
	1    0    0    -1  
$EndComp
Wire Wire Line
	2400 3400 2400 3200
Wire Wire Line
	2400 2750 2400 2900
Wire Wire Line
	2650 2900 2650 2850
Wire Wire Line
	2650 2850 2400 2850
Connection ~ 2400 2850
Wire Wire Line
	2650 3200 2650 3300
Wire Wire Line
	2650 3300 2400 3300
Connection ~ 2400 3300
Wire Wire Line
	6350 2650 6150 2650
Wire Wire Line
	6250 2700 6250 2650
Connection ~ 6250 2650
Wire Wire Line
	6350 2200 5600 2200
Wire Wire Line
	6150 2300 6150 2200
Connection ~ 6150 2200
Wire Wire Line
	6300 3850 6300 3750
Wire Wire Line
	6300 3800 6100 3800
Wire Wire Line
	6100 3800 6100 3750
Connection ~ 6300 3800
Wire Wire Line
	6300 3450 6300 3350
Wire Wire Line
	6300 3350 5600 3350
Wire Wire Line
	6100 3450 6100 3350
Connection ~ 6100 3350
$Comp
L +12V #PWR076
U 1 1 5B058D5F
P 2400 1400
F 0 "#PWR076" H 2400 1250 50  0001 C CNN
F 1 "+12V" H 2400 1540 50  0000 C CNN
F 2 "" H 2400 1400 50  0001 C CNN
F 3 "" H 2400 1400 50  0001 C CNN
	1    2400 1400
	1    0    0    -1  
$EndComp
$Comp
L +12V #PWR077
U 1 1 5B058D99
P 4550 1800
F 0 "#PWR077" H 4550 1650 50  0001 C CNN
F 1 "+12V" H 4550 1940 50  0000 C CNN
F 2 "" H 4550 1800 50  0001 C CNN
F 3 "" H 4550 1800 50  0001 C CNN
	1    4550 1800
	1    0    0    -1  
$EndComp
$Comp
L +12V #PWR078
U 1 1 5B058DC2
P 2400 2750
F 0 "#PWR078" H 2400 2600 50  0001 C CNN
F 1 "+12V" H 2400 2890 50  0000 C CNN
F 2 "" H 2400 2750 50  0001 C CNN
F 3 "" H 2400 2750 50  0001 C CNN
	1    2400 2750
	1    0    0    -1  
$EndComp
$Comp
L +12V #PWR079
U 1 1 5B05FDAE
P 4500 2950
F 0 "#PWR079" H 4500 2800 50  0001 C CNN
F 1 "+12V" H 4500 3090 50  0000 C CNN
F 2 "" H 4500 2950 50  0001 C CNN
F 3 "" H 4500 2950 50  0001 C CNN
	1    4500 2950
	1    0    0    -1  
$EndComp
$EndSCHEMATC
