EESchema Schematic File Version 2
LIBS:littlerob-rescue
LIBS:power
LIBS:device
LIBS:switches
LIBS:relays
LIBS:motors
LIBS:transistors
LIBS:conn
LIBS:linear
LIBS:regul
LIBS:74xx
LIBS:cmos4000
LIBS:adc-dac
LIBS:memory
LIBS:xilinx
LIBS:microcontrollers
LIBS:dsp
LIBS:microchip
LIBS:analog_switches
LIBS:motorola
LIBS:texas
LIBS:intel
LIBS:audio
LIBS:interface
LIBS:digital-audio
LIBS:philips
LIBS:display
LIBS:cypress
LIBS:siliconi
LIBS:opto
LIBS:atmel
LIBS:contrib
LIBS:valves
LIBS:crap
LIBS:littlerob-cache
EELAYER 25 0
EELAYER END
$Descr A4 11693 8268
encoding utf-8
Sheet 3 6
Title ""
Date ""
Rev ""
Comp ""
Comment1 ""
Comment2 ""
Comment3 ""
Comment4 ""
$EndDescr
Text Notes 3750 2650 0    60   ~ 0
5V for ICs
$Comp
L MCP1702 U301
U 1 1 5AFEEC45
P 7350 2550
F 0 "U301" H 7500 2100 60  0000 C CNN
F 1 "MCP1702" H 7200 2500 60  0000 C CNN
F 2 "lib:SOT23" H 7350 2550 60  0001 C CNN
F 3 "" H 7350 2550 60  0000 C CNN
	1    7350 2550
	1    0    0    -1  
$EndComp
Text Notes 6850 2500 0    60   ~ 0
3.3V for MCU & all
$Comp
L MCP1702 U302
U 1 1 5B02CC76
P 7350 4150
F 0 "U302" H 7500 3700 60  0000 C CNN
F 1 "MCP1702" H 7200 4100 60  0000 C CNN
F 2 "lib:SOT23" H 7350 4150 60  0001 C CNN
F 3 "" H 7350 4150 60  0000 C CNN
	1    7350 4150
	1    0    0    -1  
$EndComp
Text Notes 6800 4050 0    60   ~ 0
2.8V for short range lasers
$Comp
L +3.3V #PWR052
U 1 1 5B02CC9D
P 7900 2650
F 0 "#PWR052" H 7900 2500 50  0001 C CNN
F 1 "+3.3V" H 7900 2790 50  0000 C CNN
F 2 "" H 7900 2650 50  0001 C CNN
F 3 "" H 7900 2650 50  0001 C CNN
	1    7900 2650
	1    0    0    -1  
$EndComp
Wire Wire Line
	7900 2650 7900 2750
Wire Wire Line
	7900 2750 7800 2750
$Comp
L +2V8 #PWR053
U 1 1 5B02CCCB
P 7900 4250
F 0 "#PWR053" H 7900 4100 50  0001 C CNN
F 1 "+2V8" H 7900 4390 50  0000 C CNN
F 2 "" H 7900 4250 50  0001 C CNN
F 3 "" H 7900 4250 50  0001 C CNN
	1    7900 4250
	1    0    0    -1  
$EndComp
Wire Wire Line
	7800 4350 7900 4350
Wire Wire Line
	7900 4350 7900 4250
$Comp
L +5V #PWR054
U 1 1 5B02CD06
P 4700 2800
F 0 "#PWR054" H 4700 2650 50  0001 C CNN
F 1 "+5V" H 4700 2940 50  0000 C CNN
F 2 "" H 4700 2800 50  0001 C CNN
F 3 "" H 4700 2800 50  0001 C CNN
	1    4700 2800
	1    0    0    -1  
$EndComp
$Comp
L +12V #PWR055
U 1 1 5B02CD29
P 3500 2800
F 0 "#PWR055" H 3500 2650 50  0001 C CNN
F 1 "+12V" H 3500 2940 50  0000 C CNN
F 2 "" H 3500 2800 50  0001 C CNN
F 3 "" H 3500 2800 50  0001 C CNN
	1    3500 2800
	1    0    0    -1  
$EndComp
Wire Wire Line
	3500 2800 3500 3050
Wire Wire Line
	2950 2900 3600 2900
$Comp
L +5V #PWR056
U 1 1 5B02CD52
P 6650 2650
F 0 "#PWR056" H 6650 2500 50  0001 C CNN
F 1 "+5V" H 6650 2790 50  0000 C CNN
F 2 "" H 6650 2650 50  0001 C CNN
F 3 "" H 6650 2650 50  0001 C CNN
	1    6650 2650
	1    0    0    -1  
$EndComp
Wire Wire Line
	6650 2650 6650 2750
Wire Wire Line
	6650 2750 6750 2750
$Comp
L +5V #PWR057
U 1 1 5B02CD79
P 6650 4250
F 0 "#PWR057" H 6650 4100 50  0001 C CNN
F 1 "+5V" H 6650 4390 50  0000 C CNN
F 2 "" H 6650 4250 50  0001 C CNN
F 3 "" H 6650 4250 50  0001 C CNN
	1    6650 4250
	1    0    0    -1  
$EndComp
Wire Wire Line
	6650 4250 6650 4350
Wire Wire Line
	6650 4350 6750 4350
$Comp
L GND #PWR058
U 1 1 5B02CD88
P 4700 3550
F 0 "#PWR058" H 4700 3300 50  0001 C CNN
F 1 "GND" H 4700 3400 50  0000 C CNN
F 2 "" H 4700 3550 50  0001 C CNN
F 3 "" H 4700 3550 50  0001 C CNN
	1    4700 3550
	1    0    0    -1  
$EndComp
Wire Wire Line
	4700 3350 4700 3550
Wire Wire Line
	4700 3350 4600 3350
Connection ~ 4700 3450
$Comp
L GND #PWR059
U 1 1 5B02CDDA
P 6650 4550
F 0 "#PWR059" H 6650 4300 50  0001 C CNN
F 1 "GND" H 6650 4400 50  0000 C CNN
F 2 "" H 6650 4550 50  0001 C CNN
F 3 "" H 6650 4550 50  0001 C CNN
	1    6650 4550
	1    0    0    -1  
$EndComp
Wire Wire Line
	6650 4550 6650 4450
Wire Wire Line
	6650 4450 6750 4450
$Comp
L GND #PWR060
U 1 1 5B02CE09
P 6650 2950
F 0 "#PWR060" H 6650 2700 50  0001 C CNN
F 1 "GND" H 6650 2800 50  0000 C CNN
F 2 "" H 6650 2950 50  0001 C CNN
F 3 "" H 6650 2950 50  0001 C CNN
	1    6650 2950
	1    0    0    -1  
$EndComp
Wire Wire Line
	6650 2950 6650 2850
Wire Wire Line
	6650 2850 6750 2850
Wire Wire Line
	3500 3050 3600 3050
Connection ~ 3500 2900
Wire Wire Line
	3300 3350 3300 3250
Wire Wire Line
	3300 3250 3600 3250
$Comp
L GND #PWR061
U 1 1 5B0342B1
P 2950 3700
F 0 "#PWR061" H 2950 3450 50  0001 C CNN
F 1 "GND" H 2950 3550 50  0000 C CNN
F 2 "" H 2950 3700 50  0001 C CNN
F 3 "" H 2950 3700 50  0001 C CNN
	1    2950 3700
	1    0    0    -1  
$EndComp
$Comp
L C C304
U 1 1 5B0342F5
P 2950 3500
F 0 "C304" H 2975 3600 50  0000 L CNN
F 1 "10u 60V" H 2975 3400 50  0000 L CNN
F 2 "Capacitors_SMD:C_1206" H 2988 3350 50  0001 C CNN
F 3 "" H 2950 3500 50  0001 C CNN
	1    2950 3500
	1    0    0    -1  
$EndComp
Wire Wire Line
	2950 3650 2950 3700
Wire Wire Line
	2950 3350 2950 2900
$Comp
L C C301
U 1 1 5B0343B0
P 5150 3200
F 0 "C301" H 5175 3300 50  0000 L CNN
F 1 "22u 16V" H 5175 3100 50  0000 L CNN
F 2 "Capacitors_SMD:C_1206_HandSoldering" H 5188 3050 50  0001 C CNN
F 3 "" H 5150 3200 50  0001 C CNN
	1    5150 3200
	1    0    0    -1  
$EndComp
$Comp
L R_Small R301
U 1 1 5B0344DB
P 4800 3000
F 0 "R301" H 4830 3020 50  0000 L CNN
F 1 "525k" H 4830 2960 50  0000 L CNN
F 2 "Resistors_SMD:R_0402" H 4800 3000 50  0001 C CNN
F 3 "" H 4800 3000 50  0001 C CNN
	1    4800 3000
	1    0    0    -1  
$EndComp
$Comp
L R_Small R302
U 1 1 5B03450B
P 4800 3300
F 0 "R302" H 4830 3320 50  0000 L CNN
F 1 "100k" H 4830 3260 50  0000 L CNN
F 2 "Resistors_SMD:R_0402" H 4800 3300 50  0001 C CNN
F 3 "" H 4800 3300 50  0001 C CNN
	1    4800 3300
	1    0    0    -1  
$EndComp
Wire Wire Line
	4800 3450 4800 3400
Connection ~ 4800 3450
Wire Wire Line
	4800 3100 4800 3200
Connection ~ 4800 2900
Wire Wire Line
	4800 3150 4600 3150
Connection ~ 4800 3150
Text Notes 3700 4100 0    60   ~ 0
Vfb = 0.8V\n0.8 = 5 * R1 / (R1 + R2)\nR1 + R2 = 5 / 0.8 * R1\nR2 = 5.25 * R1
Wire Wire Line
	5150 3350 5150 3450
Wire Wire Line
	5150 3450 4600 3450
Wire Wire Line
	5150 3050 5150 2900
Wire Wire Line
	4600 2900 5600 2900
$Comp
L C_Small C302
U 1 1 5B034F40
P 6450 2800
F 0 "C302" H 6460 2870 50  0000 L CNN
F 1 "1u 16V" H 6460 2720 50  0000 L CNN
F 2 "Capacitors_SMD:C_0603" H 6450 2800 50  0001 C CNN
F 3 "" H 6450 2800 50  0001 C CNN
	1    6450 2800
	1    0    0    -1  
$EndComp
Wire Wire Line
	6450 2700 6450 2650
Wire Wire Line
	6450 2650 6650 2650
Wire Wire Line
	6450 2900 6450 2950
Wire Wire Line
	6450 2950 6650 2950
$Comp
L C_Small C303
U 1 1 5B034FF8
P 8000 2800
F 0 "C303" H 8010 2870 50  0000 L CNN
F 1 "1u 10V" H 8010 2720 50  0000 L CNN
F 2 "Capacitors_SMD:C_0603" H 8000 2800 50  0001 C CNN
F 3 "" H 8000 2800 50  0001 C CNN
	1    8000 2800
	1    0    0    -1  
$EndComp
Wire Wire Line
	7900 2700 8400 2700
Connection ~ 7900 2700
$Comp
L GND #PWR062
U 1 1 5B035078
P 8000 3000
F 0 "#PWR062" H 8000 2750 50  0001 C CNN
F 1 "GND" H 8000 2850 50  0000 C CNN
F 2 "" H 8000 3000 50  0001 C CNN
F 3 "" H 8000 3000 50  0001 C CNN
	1    8000 3000
	1    0    0    -1  
$EndComp
Wire Wire Line
	8000 3000 8000 2900
$Comp
L C_Small C306
U 1 1 5B03514D
P 6450 4400
F 0 "C306" H 6460 4470 50  0000 L CNN
F 1 "1u 16V" H 6460 4320 50  0000 L CNN
F 2 "Capacitors_SMD:C_0603" H 6450 4400 50  0001 C CNN
F 3 "" H 6450 4400 50  0001 C CNN
	1    6450 4400
	1    0    0    -1  
$EndComp
Wire Wire Line
	6450 4300 6450 4250
Wire Wire Line
	6450 4250 6650 4250
Wire Wire Line
	6450 4500 6450 4550
Wire Wire Line
	6450 4550 6650 4550
$Comp
L C_Small C307
U 1 1 5B0351DA
P 8000 4400
F 0 "C307" H 8010 4470 50  0000 L CNN
F 1 "1u 10V" H 8010 4320 50  0000 L CNN
F 2 "Capacitors_SMD:C_0603" H 8000 4400 50  0001 C CNN
F 3 "" H 8000 4400 50  0001 C CNN
	1    8000 4400
	1    0    0    -1  
$EndComp
Wire Wire Line
	7900 4300 8400 4300
$Comp
L GND #PWR063
U 1 1 5B0351E1
P 8000 4600
F 0 "#PWR063" H 8000 4350 50  0001 C CNN
F 1 "GND" H 8000 4450 50  0000 C CNN
F 2 "" H 8000 4600 50  0001 C CNN
F 3 "" H 8000 4600 50  0001 C CNN
	1    8000 4600
	1    0    0    -1  
$EndComp
Wire Wire Line
	8000 4600 8000 4500
Connection ~ 7900 4300
$Comp
L LED D301
U 1 1 5B0353DD
P 5600 3100
F 0 "D301" H 5600 3200 50  0000 C CNN
F 1 "RED" H 5600 3000 50  0000 C CNN
F 2 "LEDs:LED_0603_HandSoldering" H 5600 3100 50  0001 C CNN
F 3 "" H 5600 3100 50  0001 C CNN
	1    5600 3100
	0    -1   -1   0   
$EndComp
$Comp
L R_Small R303
U 1 1 5B03544B
P 5600 3450
F 0 "R303" H 5630 3470 50  0000 L CNN
F 1 "2k" H 5630 3410 50  0000 L CNN
F 2 "Resistors_SMD:R_0402" H 5600 3450 50  0001 C CNN
F 3 "" H 5600 3450 50  0001 C CNN
	1    5600 3450
	1    0    0    -1  
$EndComp
$Comp
L GND #PWR064
U 1 1 5B035488
P 5600 3650
F 0 "#PWR064" H 5600 3400 50  0001 C CNN
F 1 "GND" H 5600 3500 50  0000 C CNN
F 2 "" H 5600 3650 50  0001 C CNN
F 3 "" H 5600 3650 50  0001 C CNN
	1    5600 3650
	1    0    0    -1  
$EndComp
Wire Wire Line
	5600 3650 5600 3550
Wire Wire Line
	5600 3350 5600 3250
Wire Wire Line
	5600 2900 5600 2950
Connection ~ 5150 2900
$Comp
L LED D302
U 1 1 5B0357D6
P 8400 2900
F 0 "D302" H 8400 3000 50  0000 C CNN
F 1 "ORANGE" H 8400 2800 50  0000 C CNN
F 2 "LEDs:LED_0603_HandSoldering" H 8400 2900 50  0001 C CNN
F 3 "" H 8400 2900 50  0001 C CNN
	1    8400 2900
	0    -1   -1   0   
$EndComp
$Comp
L R_Small R304
U 1 1 5B0357DC
P 8400 3250
F 0 "R304" H 8430 3270 50  0000 L CNN
F 1 "2k" H 8430 3210 50  0000 L CNN
F 2 "Resistors_SMD:R_0402" H 8400 3250 50  0001 C CNN
F 3 "" H 8400 3250 50  0001 C CNN
	1    8400 3250
	1    0    0    -1  
$EndComp
$Comp
L GND #PWR065
U 1 1 5B0357E2
P 8400 3450
F 0 "#PWR065" H 8400 3200 50  0001 C CNN
F 1 "GND" H 8400 3300 50  0000 C CNN
F 2 "" H 8400 3450 50  0001 C CNN
F 3 "" H 8400 3450 50  0001 C CNN
	1    8400 3450
	1    0    0    -1  
$EndComp
Wire Wire Line
	8400 3450 8400 3350
Wire Wire Line
	8400 3150 8400 3050
$Comp
L LED D303
U 1 1 5B0359CD
P 8400 4550
F 0 "D303" H 8400 4650 50  0000 C CNN
F 1 "GREEN" H 8400 4450 50  0000 C CNN
F 2 "LEDs:LED_0603_HandSoldering" H 8400 4550 50  0001 C CNN
F 3 "" H 8400 4550 50  0001 C CNN
	1    8400 4550
	0    -1   -1   0   
$EndComp
$Comp
L R_Small R305
U 1 1 5B0359D3
P 8400 4900
F 0 "R305" H 8430 4920 50  0000 L CNN
F 1 "2k" H 8430 4860 50  0000 L CNN
F 2 "Resistors_SMD:R_0402" H 8400 4900 50  0001 C CNN
F 3 "" H 8400 4900 50  0001 C CNN
	1    8400 4900
	1    0    0    -1  
$EndComp
$Comp
L GND #PWR066
U 1 1 5B0359D9
P 8400 5100
F 0 "#PWR066" H 8400 4850 50  0001 C CNN
F 1 "GND" H 8400 4950 50  0000 C CNN
F 2 "" H 8400 5100 50  0001 C CNN
F 3 "" H 8400 5100 50  0001 C CNN
	1    8400 5100
	1    0    0    -1  
$EndComp
Wire Wire Line
	8400 5100 8400 5000
Wire Wire Line
	8400 4800 8400 4700
Wire Wire Line
	8400 4300 8400 4400
Connection ~ 8000 4300
Wire Wire Line
	8400 2700 8400 2750
Connection ~ 8000 2700
$Comp
L LMZM23601 U303
U 1 1 5B07D47E
P 4050 3350
F 0 "U303" H 4400 3150 60  0000 C CNN
F 1 "LMZM23601" H 3850 3950 60  0000 C CNN
F 2 "lib:microSIP-10" H 4050 3350 60  0001 C CNN
F 3 "" H 4050 3350 60  0001 C CNN
	1    4050 3350
	1    0    0    -1  
$EndComp
$Comp
L GND #PWR067
U 1 1 5B07D649
P 3300 3350
F 0 "#PWR067" H 3300 3100 50  0001 C CNN
F 1 "GND" H 3300 3200 50  0000 C CNN
F 2 "" H 3300 3350 50  0001 C CNN
F 3 "" H 3300 3350 50  0001 C CNN
	1    3300 3350
	1    0    0    -1  
$EndComp
Wire Wire Line
	4700 2800 4700 2900
Connection ~ 4700 2900
$EndSCHEMATC
