EESchema Schematic File Version 4
LIBS:littlerob2-cache
EELAYER 26 0
EELAYER END
$Descr A4 11693 8268
encoding utf-8
Sheet 4 5
Title ""
Date ""
Rev ""
Comp ""
Comment1 ""
Comment2 ""
Comment3 ""
Comment4 ""
$EndDescr
$Comp
L Sensor_Motion:MPU-6050 U401
U 1 1 5CF40D9B
P 5200 3450
F 0 "U401" H 5550 2850 50  0000 C CNN
F 1 "MPU-6050" H 5550 4050 50  0000 C CNN
F 2 "Sensor_Motion:InvenSense_QFN-24_4x4mm_P0.5mm" H 5200 2650 50  0001 C CNN
F 3 "https://store.invensense.com/datasheets/invensense/MPU-6050_DataSheet_V3%204.pdf" H 5200 3300 50  0001 C CNN
	1    5200 3450
	1    0    0    -1  
$EndComp
$Comp
L power:GND #PWR0403
U 1 1 5CF856AC
P 5200 4250
F 0 "#PWR0403" H 5200 4000 50  0001 C CNN
F 1 "GND" H 5205 4077 50  0000 C CNN
F 2 "" H 5200 4250 50  0001 C CNN
F 3 "" H 5200 4250 50  0001 C CNN
	1    5200 4250
	1    0    0    -1  
$EndComp
$Comp
L power:+3.3V #PWR0401
U 1 1 5CF85710
P 5200 2600
F 0 "#PWR0401" H 5200 2450 50  0001 C CNN
F 1 "+3.3V" H 5215 2773 50  0000 C CNN
F 2 "" H 5200 2600 50  0001 C CNN
F 3 "" H 5200 2600 50  0001 C CNN
	1    5200 2600
	1    0    0    -1  
$EndComp
Wire Wire Line
	5100 2750 5100 2650
Wire Wire Line
	5100 2650 5200 2650
Wire Wire Line
	5200 2650 5200 2600
Wire Wire Line
	5200 2650 5300 2650
Wire Wire Line
	5300 2650 5300 2750
Connection ~ 5200 2650
Wire Wire Line
	5200 4150 5200 4200
Wire Wire Line
	5200 4200 4350 4200
Wire Wire Line
	4350 4200 4350 3750
Wire Wire Line
	4350 3750 4500 3750
Connection ~ 5200 4200
Wire Wire Line
	5200 4200 5200 4250
Wire Wire Line
	4350 3750 4350 3650
Wire Wire Line
	4350 3650 4500 3650
Connection ~ 4350 3750
Wire Wire Line
	4350 3650 4350 3350
Wire Wire Line
	4350 3350 4500 3350
Connection ~ 4350 3650
Text HLabel 4500 3150 0    50   BiDi ~ 0
SDA
Text HLabel 4500 3250 0    50   Input ~ 0
SCL
Text HLabel 5900 3150 2    50   Output ~ 0
INT
NoConn ~ 5900 3350
NoConn ~ 5900 3450
$Comp
L Device:C C401
U 1 1 5CF85AF2
P 6050 4050
F 0 "C401" H 6165 4096 50  0000 L CNN
F 1 "100n" H 6165 4005 50  0000 L CNN
F 2 "Capacitor_SMD:C_0402_1005Metric" H 6088 3900 50  0001 C CNN
F 3 "~" H 6050 4050 50  0001 C CNN
	1    6050 4050
	1    0    0    -1  
$EndComp
$Comp
L Device:C C402
U 1 1 5CF85B38
P 6400 4050
F 0 "C402" H 6515 4096 50  0000 L CNN
F 1 "2.2n" H 6515 4005 50  0000 L CNN
F 2 "Capacitor_SMD:C_0402_1005Metric" H 6438 3900 50  0001 C CNN
F 3 "~" H 6400 4050 50  0001 C CNN
	1    6400 4050
	1    0    0    -1  
$EndComp
$Comp
L Device:C C403
U 1 1 5CF85B58
P 6800 4050
F 0 "C403" H 6915 4096 50  0000 L CNN
F 1 "100n" H 6915 4005 50  0000 L CNN
F 2 "Capacitor_SMD:C_0402_1005Metric" H 6838 3900 50  0001 C CNN
F 3 "~" H 6800 4050 50  0001 C CNN
	1    6800 4050
	1    0    0    -1  
$EndComp
$Comp
L power:GND #PWR0404
U 1 1 5CF85B7C
P 6400 4400
F 0 "#PWR0404" H 6400 4150 50  0001 C CNN
F 1 "GND" H 6405 4227 50  0000 C CNN
F 2 "" H 6400 4400 50  0001 C CNN
F 3 "" H 6400 4400 50  0001 C CNN
	1    6400 4400
	1    0    0    -1  
$EndComp
Wire Wire Line
	6400 4400 6400 4300
Wire Wire Line
	6400 4300 6800 4300
Wire Wire Line
	6800 4300 6800 4200
Connection ~ 6400 4300
Wire Wire Line
	6400 4300 6400 4200
Wire Wire Line
	6400 4300 6050 4300
Wire Wire Line
	6050 4300 6050 4200
Wire Wire Line
	5900 3750 6050 3750
Wire Wire Line
	6050 3750 6050 3900
Wire Wire Line
	5900 3650 6400 3650
Wire Wire Line
	6400 3650 6400 3900
$Comp
L power:+3.3V #PWR0402
U 1 1 5CF8630D
P 6800 3800
F 0 "#PWR0402" H 6800 3650 50  0001 C CNN
F 1 "+3.3V" H 6815 3973 50  0000 C CNN
F 2 "" H 6800 3800 50  0001 C CNN
F 3 "" H 6800 3800 50  0001 C CNN
	1    6800 3800
	1    0    0    -1  
$EndComp
Wire Wire Line
	6800 3800 6800 3900
$EndSCHEMATC
