EESchema Schematic File Version 4
LIBS:littlerob2-cache
EELAYER 26 0
EELAYER END
$Descr A4 11693 8268
encoding utf-8
Sheet 1 5
Title ""
Date ""
Rev ""
Comp ""
Comment1 ""
Comment2 ""
Comment3 ""
Comment4 ""
$EndDescr
$Sheet
S 2150 1300 850  800 
U 5CF3FCB1
F0 "power" 50
F1 "power.sch" 50
F2 "Vbat" O R 3000 1450 50 
$EndSheet
$Sheet
S 3300 4150 900  850 
U 5CF40999
F0 "motors" 50
F1 "motors.sch" 50
F2 "M0_A" O R 4200 4350 50 
F3 "M0_B" O R 4200 4450 50 
F4 "M0_IN1" I L 3300 4350 50 
F5 "M0_IN2" I L 3300 4450 50 
F6 "M1_A" O R 4200 4650 50 
F7 "M1_B" O R 4200 4750 50 
F8 "M1_IN1" I L 3300 4650 50 
F9 "M1_IN2" I L 3300 4750 50 
$EndSheet
$Sheet
S 3850 3350 550  550 
U 5CF40D3E
F0 "gyro" 50
F1 "gyro.sch" 50
F2 "SDA" B L 3850 3550 50 
F3 "SCL" I L 3850 3650 50 
F4 "INT" O L 3850 3750 50 
$EndSheet
$Sheet
S 2000 3400 950  2850
U 5CF4102A
F0 "mcu" 50
F1 "mcu.sch" 50
F2 "SDA" B R 2950 3500 50 
F3 "SCL" O R 2950 3600 50 
F4 "SDA_2.8" B R 2950 3700 50 
F5 "SCL_2.8" O R 2950 3800 50 
F6 "M0_in1" O R 2950 4350 50 
F7 "M0_in2" O R 2950 4450 50 
F8 "M1_in1" O R 2950 4650 50 
F9 "M1_in2" O R 2950 4750 50 
F10 "ENC0_A" I L 2000 4350 50 
F11 "ENC0_B" I L 2000 4450 50 
F12 "ENC1_A" I L 2000 4650 50 
F13 "ENC1_B" I L 2000 4750 50 
F14 "LL0_shut" O R 2950 5100 50 
F15 "LL1_shut" O R 2950 5200 50 
F16 "SL0_shut" O R 2950 5450 50 
F17 "GYRO_int" I R 2950 3900 50 
F18 "RS485_TX" O L 2000 5100 50 
F19 "RS485_RX" I L 2000 5200 50 
F20 "SDA_ext" B L 2000 5350 50 
F21 "SCL_ext" O L 2000 5450 50 
F22 "Vbat" I L 2000 3550 50 
F23 "LED_0" O R 2950 5750 50 
F24 "LED_1" O R 2950 5850 50 
F25 "LED_2" O R 2950 5950 50 
F26 "EXT_INT2" I L 2000 5850 50 
F27 "EXT_INT1" I L 2000 5750 50 
F28 "LED_3" O R 2950 6050 50 
$EndSheet
$Comp
L Connector_Generic:Conn_01x02 J101
U 1 1 5CF413EB
P 7900 1300
F 0 "J101" H 7980 1292 50  0000 L CNN
F 1 "POWER" H 7980 1201 50  0000 L CNN
F 2 "Connector_Phoenix_MC:PhoenixContact_MC_1,5_2-G-3.5_1x02_P3.50mm_Horizontal" H 7900 1300 50  0001 C CNN
F 3 "~" H 7900 1300 50  0001 C CNN
	1    7900 1300
	1    0    0    -1  
$EndComp
$Comp
L Connector_Generic:Conn_01x02 J102
U 1 1 5CF4148A
P 7750 2050
F 0 "J102" H 7830 2042 50  0000 L CNN
F 1 "MOT0" H 7830 1951 50  0000 L CNN
F 2 "Connector_Phoenix_MC:PhoenixContact_MC_1,5_2-G-3.5_1x02_P3.50mm_Horizontal" H 7750 2050 50  0001 C CNN
F 3 "~" H 7750 2050 50  0001 C CNN
	1    7750 2050
	1    0    0    -1  
$EndComp
$Comp
L Connector_Generic:Conn_01x02 J103
U 1 1 5CF414AC
P 9050 2100
F 0 "J103" H 9130 2092 50  0000 L CNN
F 1 "MOT1" H 9130 2001 50  0000 L CNN
F 2 "Connector_Phoenix_MC:PhoenixContact_MC_1,5_2-G-3.5_1x02_P3.50mm_Horizontal" H 9050 2100 50  0001 C CNN
F 3 "~" H 9050 2100 50  0001 C CNN
	1    9050 2100
	1    0    0    -1  
$EndComp
$Comp
L Connector_Generic:Conn_02x02_Odd_Even J104
U 1 1 5CF41616
P 7700 2550
F 0 "J104" H 7750 2767 50  0000 C CNN
F 1 "ENC0" H 7750 2676 50  0000 C CNN
F 2 "littlerob2:TE_MICROMATCH_SMD_FEM_4PIN" H 7700 2550 50  0001 C CNN
F 3 "~" H 7700 2550 50  0001 C CNN
	1    7700 2550
	1    0    0    -1  
$EndComp
$Comp
L Connector_Generic:Conn_02x02_Odd_Even J105
U 1 1 5CF41686
P 9000 2550
F 0 "J105" H 9050 2767 50  0000 C CNN
F 1 "ENC1" H 9050 2676 50  0000 C CNN
F 2 "littlerob2:TE_MICROMATCH_SMD_FEM_4PIN" H 9000 2550 50  0001 C CNN
F 3 "~" H 9000 2550 50  0001 C CNN
	1    9000 2550
	1    0    0    -1  
$EndComp
$Comp
L Connector_Generic:Conn_02x03_Odd_Even J106
U 1 1 5CF40516
P 7550 3600
F 0 "J106" H 7600 3917 50  0000 C CNN
F 1 "LL0" H 7600 3826 50  0000 C CNN
F 2 "littlerob2:TE_MICROMATCH_SMD_FEM_6PIN" H 7550 3600 50  0001 C CNN
F 3 "~" H 7550 3600 50  0001 C CNN
	1    7550 3600
	1    0    0    -1  
$EndComp
$Comp
L Connector_Generic:Conn_02x03_Odd_Even J109
U 1 1 5CF40648
P 8150 4400
F 0 "J109" H 8200 4717 50  0000 C CNN
F 1 "SL0" H 8200 4626 50  0000 C CNN
F 2 "littlerob2:TE_MICROMATCH_SMD_FEM_6PIN" H 8150 4400 50  0001 C CNN
F 3 "~" H 8150 4400 50  0001 C CNN
	1    8150 4400
	1    0    0    -1  
$EndComp
$Comp
L Connector_Generic:Conn_02x03_Odd_Even J110
U 1 1 5CF406A6
P 9450 4400
F 0 "J110" H 9500 4717 50  0000 C CNN
F 1 "SL1" H 9500 4626 50  0000 C CNN
F 2 "littlerob2:TE_MICROMATCH_SMD_FEM_6PIN" H 9450 4400 50  0001 C CNN
F 3 "~" H 9450 4400 50  0001 C CNN
	1    9450 4400
	1    0    0    -1  
$EndComp
Text Label 1400 7150 2    60   ~ 0
RS485_TX
Text Label 1400 7250 2    60   ~ 0
I2CEXT_SDA
Text Label 1900 7250 0    60   ~ 0
I2CEXT_SCL
Text Label 1900 7350 0    60   ~ 0
EXT_INT2
Text Label 1900 7150 0    60   ~ 0
RS485_RX
Text Label 2000 5750 2    60   ~ 0
EXT_INT
$Comp
L Connector_Generic:Conn_02x06_Odd_Even J111
U 1 1 5CF85BA9
P 1700 7050
F 0 "J111" H 1750 7467 50  0000 C CNN
F 1 "Conn_02x06_Odd_Even" H 1750 7376 50  0000 C CNN
F 2 "littlerob2:TE_MICROMATCH_SMD_FEM_12PIN" H 1700 7050 50  0001 C CNN
F 3 "~" H 1700 7050 50  0001 C CNN
	1    1700 7050
	-1   0    0    -1  
$EndComp
$Comp
L power:+12V #PWR0117
U 1 1 5CF85C32
P 1200 6850
F 0 "#PWR0117" H 1200 6700 50  0001 C CNN
F 1 "+12V" V 1215 6978 50  0000 L CNN
F 2 "" H 1200 6850 50  0001 C CNN
F 3 "" H 1200 6850 50  0001 C CNN
	1    1200 6850
	0    -1   -1   0   
$EndComp
$Comp
L power:GND #PWR0118
U 1 1 5CF85DA0
P 2150 6850
F 0 "#PWR0118" H 2150 6600 50  0001 C CNN
F 1 "GND" V 2155 6722 50  0000 R CNN
F 2 "" H 2150 6850 50  0001 C CNN
F 3 "" H 2150 6850 50  0001 C CNN
	1    2150 6850
	0    -1   -1   0   
$EndComp
Wire Wire Line
	2150 6850 2050 6850
Wire Wire Line
	1900 6950 2050 6950
Wire Wire Line
	2050 6950 2050 6850
Connection ~ 2050 6850
Wire Wire Line
	2050 6850 1900 6850
Wire Wire Line
	1900 7050 2050 7050
Wire Wire Line
	2050 7050 2050 6950
Connection ~ 2050 6950
Wire Wire Line
	1200 6850 1300 6850
Wire Wire Line
	1300 6850 1300 6950
Wire Wire Line
	1300 6950 1400 6950
Connection ~ 1300 6850
Wire Wire Line
	1300 6850 1400 6850
Text Label 7550 2050 2    50   ~ 0
M0A
Text Label 7550 2150 2    50   ~ 0
M0B
Text Label 8850 2100 2    50   ~ 0
M1A
Text Label 8850 2200 2    50   ~ 0
M1B
$Comp
L power:GND #PWR0103
U 1 1 5CF8210E
P 7500 2550
F 0 "#PWR0103" H 7500 2300 50  0001 C CNN
F 1 "GND" V 7505 2422 50  0000 R CNN
F 2 "" H 7500 2550 50  0001 C CNN
F 3 "" H 7500 2550 50  0001 C CNN
	1    7500 2550
	0    1    1    0   
$EndComp
$Comp
L power:+5V #PWR0104
U 1 1 5CF82186
P 8000 2550
F 0 "#PWR0104" H 8000 2400 50  0001 C CNN
F 1 "+5V" V 8015 2678 50  0000 L CNN
F 2 "" H 8000 2550 50  0001 C CNN
F 3 "" H 8000 2550 50  0001 C CNN
	1    8000 2550
	0    1    1    0   
$EndComp
Text Label 7500 2650 2    50   ~ 0
E0A
Text Label 8000 2650 0    50   ~ 0
E0B
$Comp
L power:+5V #PWR0106
U 1 1 5CF822B0
P 9300 2550
F 0 "#PWR0106" H 9300 2400 50  0001 C CNN
F 1 "+5V" V 9315 2678 50  0000 L CNN
F 2 "" H 9300 2550 50  0001 C CNN
F 3 "" H 9300 2550 50  0001 C CNN
	1    9300 2550
	0    1    1    0   
$EndComp
$Comp
L power:GND #PWR0105
U 1 1 5CF8233D
P 8800 2550
F 0 "#PWR0105" H 8800 2300 50  0001 C CNN
F 1 "GND" V 8805 2422 50  0000 R CNN
F 2 "" H 8800 2550 50  0001 C CNN
F 3 "" H 8800 2550 50  0001 C CNN
	1    8800 2550
	0    1    1    0   
$EndComp
Text Label 8800 2650 2    50   ~ 0
E1A
Text Label 9300 2650 0    50   ~ 0
E1B
$Comp
L power:GND #PWR0101
U 1 1 5CF823FB
P 7700 1300
F 0 "#PWR0101" H 7700 1050 50  0001 C CNN
F 1 "GND" V 7705 1172 50  0000 R CNN
F 2 "" H 7700 1300 50  0001 C CNN
F 3 "" H 7700 1300 50  0001 C CNN
	1    7700 1300
	0    1    1    0   
$EndComp
$Comp
L power:+12V #PWR0102
U 1 1 5CF82488
P 7700 1400
F 0 "#PWR0102" H 7700 1250 50  0001 C CNN
F 1 "+12V" V 7715 1528 50  0000 L CNN
F 2 "" H 7700 1400 50  0001 C CNN
F 3 "" H 7700 1400 50  0001 C CNN
	1    7700 1400
	0    -1   -1   0   
$EndComp
$Comp
L power:+3.3V #PWR0107
U 1 1 5CF82BD3
P 7350 3500
F 0 "#PWR0107" H 7350 3350 50  0001 C CNN
F 1 "+3.3V" V 7365 3628 50  0000 L CNN
F 2 "" H 7350 3500 50  0001 C CNN
F 3 "" H 7350 3500 50  0001 C CNN
	1    7350 3500
	0    -1   -1   0   
$EndComp
$Comp
L power:GND #PWR0108
U 1 1 5CF82C76
P 7850 3500
F 0 "#PWR0108" H 7850 3250 50  0001 C CNN
F 1 "GND" V 7855 3372 50  0000 R CNN
F 2 "" H 7850 3500 50  0001 C CNN
F 3 "" H 7850 3500 50  0001 C CNN
	1    7850 3500
	0    -1   -1   0   
$EndComp
Text Label 7350 3600 2    50   ~ 0
SCL
Text Label 7850 3600 0    50   ~ 0
SDA
Text Label 7850 3700 0    50   ~ 0
LL0_shut
Wire Wire Line
	1200 7050 1400 7050
$Comp
L Connector_Generic:Conn_02x03_Odd_Even J107
U 1 1 5CF82FEB
P 8750 3600
F 0 "J107" H 8800 3917 50  0000 C CNN
F 1 "LL1" H 8800 3826 50  0000 C CNN
F 2 "littlerob2:TE_MICROMATCH_SMD_FEM_6PIN" H 8750 3600 50  0001 C CNN
F 3 "~" H 8750 3600 50  0001 C CNN
	1    8750 3600
	1    0    0    -1  
$EndComp
$Comp
L power:+3.3V #PWR0109
U 1 1 5CF82FF1
P 8550 3500
F 0 "#PWR0109" H 8550 3350 50  0001 C CNN
F 1 "+3.3V" V 8565 3628 50  0000 L CNN
F 2 "" H 8550 3500 50  0001 C CNN
F 3 "" H 8550 3500 50  0001 C CNN
	1    8550 3500
	0    -1   -1   0   
$EndComp
$Comp
L power:GND #PWR0110
U 1 1 5CF82FF7
P 9050 3500
F 0 "#PWR0110" H 9050 3250 50  0001 C CNN
F 1 "GND" V 9055 3372 50  0000 R CNN
F 2 "" H 9050 3500 50  0001 C CNN
F 3 "" H 9050 3500 50  0001 C CNN
	1    9050 3500
	0    -1   -1   0   
$EndComp
Text Label 8550 3600 2    50   ~ 0
SCL
Text Label 9050 3600 0    50   ~ 0
SDA
Text Label 9050 3700 0    50   ~ 0
LL1_shut
$Comp
L Connector_Generic:Conn_02x03_Odd_Even J108
U 1 1 5CF83112
P 10150 3600
F 0 "J108" H 10200 3917 50  0000 C CNN
F 1 "LL2" H 10200 3826 50  0000 C CNN
F 2 "littlerob2:TE_MICROMATCH_SMD_FEM_6PIN" H 10150 3600 50  0001 C CNN
F 3 "~" H 10150 3600 50  0001 C CNN
	1    10150 3600
	1    0    0    -1  
$EndComp
$Comp
L power:+3.3V #PWR0111
U 1 1 5CF83118
P 9950 3500
F 0 "#PWR0111" H 9950 3350 50  0001 C CNN
F 1 "+3.3V" V 9965 3628 50  0000 L CNN
F 2 "" H 9950 3500 50  0001 C CNN
F 3 "" H 9950 3500 50  0001 C CNN
	1    9950 3500
	0    -1   -1   0   
$EndComp
$Comp
L power:GND #PWR0112
U 1 1 5CF8311E
P 10450 3500
F 0 "#PWR0112" H 10450 3250 50  0001 C CNN
F 1 "GND" V 10455 3372 50  0000 R CNN
F 2 "" H 10450 3500 50  0001 C CNN
F 3 "" H 10450 3500 50  0001 C CNN
	1    10450 3500
	0    -1   -1   0   
$EndComp
Text Label 9950 3600 2    50   ~ 0
SCL
Text Label 10450 3600 0    50   ~ 0
SDA
$Comp
L power:GND #PWR0115
U 1 1 5CF83382
P 8450 4500
F 0 "#PWR0115" H 8450 4250 50  0001 C CNN
F 1 "GND" V 8455 4372 50  0000 R CNN
F 2 "" H 8450 4500 50  0001 C CNN
F 3 "" H 8450 4500 50  0001 C CNN
	1    8450 4500
	0    -1   -1   0   
$EndComp
$Comp
L power:GND #PWR0116
U 1 1 5CF833A3
P 9750 4500
F 0 "#PWR0116" H 9750 4250 50  0001 C CNN
F 1 "GND" V 9755 4372 50  0000 R CNN
F 2 "" H 9750 4500 50  0001 C CNN
F 3 "" H 9750 4500 50  0001 C CNN
	1    9750 4500
	0    -1   -1   0   
$EndComp
$Comp
L power:+2V8 #PWR0113
U 1 1 5CF83501
P 7950 4300
F 0 "#PWR0113" H 7950 4150 50  0001 C CNN
F 1 "+2V8" V 7965 4428 50  0000 L CNN
F 2 "" H 7950 4300 50  0001 C CNN
F 3 "" H 7950 4300 50  0001 C CNN
	1    7950 4300
	0    -1   -1   0   
$EndComp
$Comp
L power:+2V8 #PWR0114
U 1 1 5CF8354A
P 9250 4300
F 0 "#PWR0114" H 9250 4150 50  0001 C CNN
F 1 "+2V8" V 9265 4428 50  0000 L CNN
F 2 "" H 9250 4300 50  0001 C CNN
F 3 "" H 9250 4300 50  0001 C CNN
	1    9250 4300
	0    -1   -1   0   
$EndComp
Text Label 8450 4400 0    50   ~ 0
SDA_2.8
Text Label 9750 4400 0    50   ~ 0
SDA_2.8
Text Label 9250 4500 2    50   ~ 0
SCL_2.8
Text Label 7950 4500 2    50   ~ 0
SCL_2.8
Text Label 7950 4400 2    50   ~ 0
SL0_int
Text Label 4200 4350 0    50   ~ 0
M0A
Text Label 4200 4450 0    50   ~ 0
M0B
Text Label 4200 4650 0    50   ~ 0
M1A
Text Label 4200 4750 0    50   ~ 0
M1B
Text Label 3850 3650 2    50   ~ 0
SCL
Text Label 3850 3550 2    50   ~ 0
SDA
Text Label 3850 3750 2    50   ~ 0
GYRO_INT
Text Label 2950 3600 0    50   ~ 0
SCL
Text Label 2950 3500 0    50   ~ 0
SDA
Text Label 2950 3700 0    50   ~ 0
SDA_2.8
Text Label 2950 3800 0    50   ~ 0
SCL_2.8
Wire Wire Line
	2950 4350 3300 4350
Wire Wire Line
	3300 4450 2950 4450
Wire Wire Line
	3300 4650 2950 4650
Wire Wire Line
	2950 4750 3300 4750
Text Label 2000 4350 2    50   ~ 0
E0A
Text Label 2000 4450 2    50   ~ 0
E0B
Text Label 2000 4650 2    50   ~ 0
E1A
Text Label 2000 4750 2    50   ~ 0
E1B
Text Label 2950 3900 0    50   ~ 0
GYRO_INT
Text Label 2000 5200 2    60   ~ 0
RS485_RX
Text Label 2000 5100 2    60   ~ 0
RS485_TX
Text Label 2000 5450 2    60   ~ 0
I2CEXT_SCL
Text Label 2000 5350 2    60   ~ 0
I2CEXT_SDA
Text Label 3000 1450 0    50   ~ 0
Vbat
Text Label 2000 3550 2    50   ~ 0
Vbat
Text Label 2000 5850 2    60   ~ 0
EXT_INT2
Text Label 1400 7350 2    60   ~ 0
EXT_INT
Text Label 2950 5100 0    50   ~ 0
LL0_shut
Text Label 2950 5200 0    50   ~ 0
LL1_shut
Text Label 2950 5450 0    50   ~ 0
SL0_int
$Comp
L Device:LED D101
U 1 1 5CFCCA34
P 5250 800
F 0 "D101" H 5242 545 50  0000 C CNN
F 1 "LED" H 5242 636 50  0000 C CNN
F 2 "LED_THT:LED_D3.0mm" H 5250 800 50  0001 C CNN
F 3 "~" H 5250 800 50  0001 C CNN
	1    5250 800 
	-1   0    0    1   
$EndComp
$Comp
L Device:LED D102
U 1 1 5CFCCA98
P 5250 1050
F 0 "D102" H 5242 795 50  0000 C CNN
F 1 "LED" H 5242 886 50  0000 C CNN
F 2 "LED_THT:LED_D3.0mm" H 5250 1050 50  0001 C CNN
F 3 "~" H 5250 1050 50  0001 C CNN
	1    5250 1050
	-1   0    0    1   
$EndComp
$Comp
L Device:LED D103
U 1 1 5CFCCB01
P 5250 1300
F 0 "D103" H 5242 1045 50  0000 C CNN
F 1 "LED" H 5242 1136 50  0000 C CNN
F 2 "LED_THT:LED_D3.0mm" H 5250 1300 50  0001 C CNN
F 3 "~" H 5250 1300 50  0001 C CNN
	1    5250 1300
	-1   0    0    1   
$EndComp
$Comp
L Device:LED D104
U 1 1 5CFCCB33
P 5250 1550
F 0 "D104" H 5242 1295 50  0000 C CNN
F 1 "LED" H 5242 1386 50  0000 C CNN
F 2 "LED_THT:LED_D3.0mm" H 5250 1550 50  0001 C CNN
F 3 "~" H 5250 1550 50  0001 C CNN
	1    5250 1550
	-1   0    0    1   
$EndComp
Text Label 5100 800  2    50   ~ 0
led_left
Text Label 5100 1050 2    50   ~ 0
led_front_left
Text Label 5100 1300 2    50   ~ 0
led_front_right
Text Label 5100 1550 2    50   ~ 0
led_right
$Comp
L Device:R R101
U 1 1 5CFCD171
P 5600 800
F 0 "R101" V 5393 800 50  0000 C CNN
F 1 "R" V 5484 800 50  0000 C CNN
F 2 "Resistor_SMD:R_0402_1005Metric" V 5530 800 50  0001 C CNN
F 3 "~" H 5600 800 50  0001 C CNN
	1    5600 800 
	0    1    1    0   
$EndComp
$Comp
L Device:R R102
U 1 1 5CFCD202
P 5600 1050
F 0 "R102" V 5393 1050 50  0000 C CNN
F 1 "R" V 5484 1050 50  0000 C CNN
F 2 "Resistor_SMD:R_0402_1005Metric" V 5530 1050 50  0001 C CNN
F 3 "~" H 5600 1050 50  0001 C CNN
	1    5600 1050
	0    1    1    0   
$EndComp
$Comp
L Device:R R103
U 1 1 5CFCD23A
P 5600 1300
F 0 "R103" V 5393 1300 50  0000 C CNN
F 1 "R" V 5484 1300 50  0000 C CNN
F 2 "Resistor_SMD:R_0402_1005Metric" V 5530 1300 50  0001 C CNN
F 3 "~" H 5600 1300 50  0001 C CNN
	1    5600 1300
	0    1    1    0   
$EndComp
$Comp
L Device:R R104
U 1 1 5CFCD274
P 5600 1550
F 0 "R104" V 5393 1550 50  0000 C CNN
F 1 "R" V 5484 1550 50  0000 C CNN
F 2 "Resistor_SMD:R_0402_1005Metric" V 5530 1550 50  0001 C CNN
F 3 "~" H 5600 1550 50  0001 C CNN
	1    5600 1550
	0    1    1    0   
$EndComp
Wire Wire Line
	5400 800  5450 800 
Wire Wire Line
	5400 1050 5450 1050
Wire Wire Line
	5400 1300 5450 1300
Wire Wire Line
	5400 1550 5450 1550
Text Label 2950 5750 0    50   ~ 0
led_left
Text Label 2950 5850 0    50   ~ 0
led_front_left
Text Label 2950 5950 0    50   ~ 0
led_front_right
Text Label 2950 6050 0    50   ~ 0
led_right
NoConn ~ 9950 3700
NoConn ~ 8550 3700
NoConn ~ 7350 3700
NoConn ~ 9550 5200
NoConn ~ 10450 3700
NoConn ~ 9250 4400
$Comp
L power:GND #PWR0122
U 1 1 5CFE49EA
P 5850 1650
F 0 "#PWR0122" H 5850 1400 50  0001 C CNN
F 1 "GND" H 5855 1477 50  0000 C CNN
F 2 "" H 5850 1650 50  0001 C CNN
F 3 "" H 5850 1650 50  0001 C CNN
	1    5850 1650
	1    0    0    -1  
$EndComp
Wire Wire Line
	5850 1650 5850 1550
Wire Wire Line
	5850 1550 5750 1550
Wire Wire Line
	5850 1550 5850 1300
Wire Wire Line
	5850 1300 5750 1300
Connection ~ 5850 1550
Wire Wire Line
	5850 1300 5850 1050
Wire Wire Line
	5850 1050 5750 1050
Connection ~ 5850 1300
Wire Wire Line
	5850 1050 5850 800 
Wire Wire Line
	5850 800  5750 800 
Connection ~ 5850 1050
Text Label 8450 4300 0    50   ~ 0
led_left
Text Label 9750 4300 0    50   ~ 0
led_right
$Comp
L power:+3V3 #PWR0119
U 1 1 5CFFCBDD
P 1200 7050
F 0 "#PWR0119" H 1200 6900 50  0001 C CNN
F 1 "+3V3" V 1215 7178 50  0000 L CNN
F 2 "" H 1200 7050 50  0001 C CNN
F 3 "" H 1200 7050 50  0001 C CNN
	1    1200 7050
	0    -1   -1   0   
$EndComp
$EndSCHEMATC
