EESchema Schematic File Version 4
LIBS:littlerob2-cache
EELAYER 26 0
EELAYER END
$Descr A4 11693 8268
encoding utf-8
Sheet 5 5
Title ""
Date ""
Rev ""
Comp ""
Comment1 ""
Comment2 ""
Comment3 ""
Comment4 ""
$EndDescr
$Comp
L efr32bg:EFR32BG_QFN48 U501
U 1 1 5CF4039B
P 4650 4050
F 0 "U501" H 5500 2950 60  0000 L CNN
F 1 "EFR32BG_QFN48" H 4350 4050 60  0000 L CNN
F 2 "littlerob2:EFR32BG_QFN48" H 4650 4050 60  0001 C CNN
F 3 "" H 4650 4050 60  0000 C CNN
	1    4650 4050
	1    0    0    -1  
$EndComp
$Comp
L Interface:TCA9406DC U?
U 1 1 5CF88D91
P 8850 4150
AR Path="/5CF3FCB1/5CF88D91" Ref="U?"  Part="1" 
AR Path="/5CF4102A/5CF88D91" Ref="U502"  Part="1" 
F 0 "U502" H 9100 3650 50  0000 C CNN
F 1 "TCA9406DC" H 8400 4700 50  0000 C CNN
F 2 "Package_SO:SSOP-8_2.95x2.8mm_P0.65mm" H 8450 4500 50  0001 C CNN
F 3 "www.ti.com/lit/ds/symlink/tca9406.pdf" H 8550 4600 50  0001 C CNN
	1    8850 4150
	-1   0    0    -1  
$EndComp
$Comp
L power:+3.3V #PWR?
U 1 1 5CF88D98
P 8750 3550
AR Path="/5CF3FCB1/5CF88D98" Ref="#PWR?"  Part="1" 
AR Path="/5CF4102A/5CF88D98" Ref="#PWR0509"  Part="1" 
F 0 "#PWR0509" H 8750 3400 50  0001 C CNN
F 1 "+3.3V" H 8765 3723 50  0000 C CNN
F 2 "" H 8750 3550 50  0001 C CNN
F 3 "" H 8750 3550 50  0001 C CNN
	1    8750 3550
	-1   0    0    -1  
$EndComp
$Comp
L power:+2V8 #PWR?
U 1 1 5CF88D9E
P 8950 3550
AR Path="/5CF3FCB1/5CF88D9E" Ref="#PWR?"  Part="1" 
AR Path="/5CF4102A/5CF88D9E" Ref="#PWR0510"  Part="1" 
F 0 "#PWR0510" H 8950 3400 50  0001 C CNN
F 1 "+2V8" H 8965 3723 50  0000 C CNN
F 2 "" H 8950 3550 50  0001 C CNN
F 3 "" H 8950 3550 50  0001 C CNN
	1    8950 3550
	-1   0    0    -1  
$EndComp
$Comp
L power:GND #PWR?
U 1 1 5CF88DA4
P 8850 4750
AR Path="/5CF3FCB1/5CF88DA4" Ref="#PWR?"  Part="1" 
AR Path="/5CF4102A/5CF88DA4" Ref="#PWR0516"  Part="1" 
F 0 "#PWR0516" H 8850 4500 50  0001 C CNN
F 1 "GND" H 8855 4577 50  0000 C CNN
F 2 "" H 8850 4750 50  0001 C CNN
F 3 "" H 8850 4750 50  0001 C CNN
	1    8850 4750
	-1   0    0    -1  
$EndComp
Wire Wire Line
	8850 4750 8850 4650
Wire Wire Line
	8950 3550 8950 3600
Wire Wire Line
	8750 3550 8750 3600
Wire Wire Line
	8750 3600 8300 3600
Wire Wire Line
	8300 3600 8300 4050
Wire Wire Line
	8300 4050 8450 4050
Connection ~ 8750 3600
Wire Wire Line
	8750 3600 8750 3650
Text HLabel 8450 4250 0    50   BiDi ~ 0
SDA
Text HLabel 8450 4150 0    50   Output ~ 0
SCL
Text HLabel 9250 4250 2    50   BiDi ~ 0
SDA_2.8
Text HLabel 9250 4150 2    50   Output ~ 0
SCL_2.8
$Comp
L Device:R R?
U 1 1 5CF88DB6
P 9800 3950
AR Path="/5CF3FCB1/5CF88DB6" Ref="R?"  Part="1" 
AR Path="/5CF4102A/5CF88DB6" Ref="R501"  Part="1" 
F 0 "R501" H 9870 3996 50  0000 L CNN
F 1 "2.2k" H 9870 3905 50  0000 L CNN
F 2 "Resistor_SMD:R_0402_1005Metric" V 9730 3950 50  0001 C CNN
F 3 "~" H 9800 3950 50  0001 C CNN
	1    9800 3950
	-1   0    0    -1  
$EndComp
$Comp
L Device:R R?
U 1 1 5CF88DBD
P 10100 3950
AR Path="/5CF3FCB1/5CF88DBD" Ref="R?"  Part="1" 
AR Path="/5CF4102A/5CF88DBD" Ref="R502"  Part="1" 
F 0 "R502" H 10170 3996 50  0000 L CNN
F 1 "2.2k" H 10170 3905 50  0000 L CNN
F 2 "Resistor_SMD:R_0402_1005Metric" V 10030 3950 50  0001 C CNN
F 3 "~" H 10100 3950 50  0001 C CNN
	1    10100 3950
	-1   0    0    -1  
$EndComp
Wire Wire Line
	9250 4150 9800 4150
Wire Wire Line
	9800 4150 9800 4100
Wire Wire Line
	10100 4100 10100 4250
Wire Wire Line
	10100 4250 9250 4250
Wire Wire Line
	8950 3600 9800 3600
Wire Wire Line
	10100 3600 10100 3800
Connection ~ 8950 3600
Wire Wire Line
	8950 3600 8950 3650
Wire Wire Line
	9800 3800 9800 3600
Connection ~ 9800 3600
Wire Wire Line
	9800 3600 10100 3600
$Comp
L Device:Crystal_GND24 Y502
U 1 1 5CF8A1E8
P 2500 4600
F 0 "Y502" V 2454 4841 50  0000 L CNN
F 1 "38.4MHz" V 2700 4200 50  0000 L CNN
F 2 "Crystal:Crystal_SMD_2016-4Pin_2.0x1.6mm" H 2500 4600 50  0001 C CNN
F 3 "~" H 2500 4600 50  0001 C CNN
	1    2500 4600
	0    1    1    0   
$EndComp
$Comp
L power:GND #PWR0514
U 1 1 5CF8A268
P 2300 4600
F 0 "#PWR0514" H 2300 4350 50  0001 C CNN
F 1 "GND" V 2305 4472 50  0000 R CNN
F 2 "" H 2300 4600 50  0001 C CNN
F 3 "" H 2300 4600 50  0001 C CNN
	1    2300 4600
	0    1    1    0   
$EndComp
$Comp
L power:GND #PWR0515
U 1 1 5CF8A2DD
P 2700 4600
F 0 "#PWR0515" H 2700 4350 50  0001 C CNN
F 1 "GND" V 2705 4472 50  0000 R CNN
F 2 "" H 2700 4600 50  0001 C CNN
F 3 "" H 2700 4600 50  0001 C CNN
	1    2700 4600
	0    -1   -1   0   
$EndComp
Wire Wire Line
	2500 4450 2500 4400
Wire Wire Line
	2500 4400 3600 4400
Wire Wire Line
	3600 4500 2900 4500
Wire Wire Line
	2900 4500 2900 4800
Wire Wire Line
	2900 4800 2500 4800
Wire Wire Line
	2500 4800 2500 4750
$Comp
L power:+3.3V #PWR0513
U 1 1 5CF8AB26
P 3600 4300
F 0 "#PWR0513" H 3600 4150 50  0001 C CNN
F 1 "+3.3V" V 3615 4428 50  0000 L CNN
F 2 "" H 3600 4300 50  0001 C CNN
F 3 "" H 3600 4300 50  0001 C CNN
	1    3600 4300
	0    -1   -1   0   
$EndComp
$Comp
L power:GND #PWR0518
U 1 1 5CF8ABAF
P 4200 5200
F 0 "#PWR0518" H 4200 4950 50  0001 C CNN
F 1 "GND" H 4205 5027 50  0000 C CNN
F 2 "" H 4200 5200 50  0001 C CNN
F 3 "" H 4200 5200 50  0001 C CNN
	1    4200 5200
	1    0    0    -1  
$EndComp
Wire Wire Line
	4200 5200 4200 5150
Wire Wire Line
	4200 5150 4300 5150
Wire Wire Line
	4300 5150 4300 5100
Connection ~ 4200 5150
Wire Wire Line
	4200 5150 4200 5100
Wire Wire Line
	4300 5150 4400 5150
Wire Wire Line
	4400 5150 4400 5100
Connection ~ 4300 5150
$Comp
L power:+3.3V #PWR0517
U 1 1 5CF8B4FD
P 4600 5100
F 0 "#PWR0517" H 4600 4950 50  0001 C CNN
F 1 "+3.3V" H 4615 5273 50  0000 C CNN
F 2 "" H 4600 5100 50  0001 C CNN
F 3 "" H 4600 5100 50  0001 C CNN
	1    4600 5100
	-1   0    0    1   
$EndComp
$Comp
L power:+3.3V #PWR0511
U 1 1 5CF8B939
P 5700 3700
F 0 "#PWR0511" H 5700 3550 50  0001 C CNN
F 1 "+3.3V" V 5715 3828 50  0000 L CNN
F 2 "" H 5700 3700 50  0001 C CNN
F 3 "" H 5700 3700 50  0001 C CNN
	1    5700 3700
	0    1    1    0   
$EndComp
$Comp
L Device:Crystal Y501
U 1 1 5CF8BA11
P 6000 3400
F 0 "Y501" V 5954 3531 50  0000 L CNN
F 1 "32kHz" V 6045 3531 50  0000 L CNN
F 2 "Crystal:Crystal_SMD_3215-2Pin_3.2x1.5mm" H 6000 3400 50  0001 C CNN
F 3 "~" H 6000 3400 50  0001 C CNN
	1    6000 3400
	0    1    1    0   
$EndComp
Wire Wire Line
	5700 3600 6000 3600
Wire Wire Line
	6000 3600 6000 3550
Wire Wire Line
	5700 3500 5800 3500
Wire Wire Line
	5800 3500 5800 3200
Wire Wire Line
	5800 3200 6000 3200
Wire Wire Line
	6000 3200 6000 3250
$Comp
L Device:C C511
U 1 1 5CF8C745
P 6550 3600
F 0 "C511" V 6298 3600 50  0000 C CNN
F 1 "C" V 6389 3600 50  0000 C CNN
F 2 "Capacitor_SMD:C_0402_1005Metric" H 6588 3450 50  0001 C CNN
F 3 "~" H 6550 3600 50  0001 C CNN
	1    6550 3600
	0    1    1    0   
$EndComp
$Comp
L Device:C C506
U 1 1 5CF8C7A6
P 6550 3200
F 0 "C506" V 6298 3200 50  0000 C CNN
F 1 "C" V 6389 3200 50  0000 C CNN
F 2 "Capacitor_SMD:C_0402_1005Metric" H 6588 3050 50  0001 C CNN
F 3 "~" H 6550 3200 50  0001 C CNN
	1    6550 3200
	0    1    1    0   
$EndComp
$Comp
L power:GND #PWR0512
U 1 1 5CF8C834
P 6800 3700
F 0 "#PWR0512" H 6800 3450 50  0001 C CNN
F 1 "GND" H 6805 3527 50  0000 C CNN
F 2 "" H 6800 3700 50  0001 C CNN
F 3 "" H 6800 3700 50  0001 C CNN
	1    6800 3700
	1    0    0    -1  
$EndComp
Wire Wire Line
	6800 3700 6800 3600
Wire Wire Line
	6800 3600 6700 3600
Wire Wire Line
	6800 3600 6800 3200
Wire Wire Line
	6800 3200 6700 3200
Connection ~ 6800 3600
Wire Wire Line
	6400 3200 6000 3200
Connection ~ 6000 3200
Wire Wire Line
	6000 3600 6400 3600
Connection ~ 6000 3600
NoConn ~ 5100 3000
$Comp
L power:GND #PWR0506
U 1 1 5CF8ECFF
P 5200 3000
F 0 "#PWR0506" H 5200 2750 50  0001 C CNN
F 1 "GND" H 5205 2827 50  0000 C CNN
F 2 "" H 5200 3000 50  0001 C CNN
F 3 "" H 5200 3000 50  0001 C CNN
	1    5200 3000
	-1   0    0    1   
$EndComp
$Comp
L power:+3.3V #PWR0504
U 1 1 5CF8EDC8
P 5000 2750
F 0 "#PWR0504" H 5000 2600 50  0001 C CNN
F 1 "+3.3V" H 5015 2923 50  0000 C CNN
F 2 "" H 5000 2750 50  0001 C CNN
F 3 "" H 5000 2750 50  0001 C CNN
	1    5000 2750
	1    0    0    -1  
$EndComp
Wire Wire Line
	5000 2750 5000 2900
Wire Wire Line
	5000 2900 4900 2900
Wire Wire Line
	4900 2900 4900 3000
Connection ~ 5000 2900
Wire Wire Line
	5000 2900 5000 3000
Wire Wire Line
	4900 2900 4700 2900
Wire Wire Line
	4700 2900 4700 3000
Connection ~ 4900 2900
$Comp
L Device:C C505
U 1 1 5CF9076F
P 4800 2650
F 0 "C505" H 4915 2696 50  0000 L CNN
F 1 "C" H 4915 2605 50  0000 L CNN
F 2 "Capacitor_SMD:C_0402_1005Metric" H 4838 2500 50  0001 C CNN
F 3 "~" H 4800 2650 50  0001 C CNN
	1    4800 2650
	1    0    0    -1  
$EndComp
Wire Wire Line
	4800 3000 4800 2800
$Comp
L power:GND #PWR0503
U 1 1 5CF9121D
P 4800 2400
F 0 "#PWR0503" H 4800 2150 50  0001 C CNN
F 1 "GND" H 4805 2227 50  0000 C CNN
F 2 "" H 4800 2400 50  0001 C CNN
F 3 "" H 4800 2400 50  0001 C CNN
	1    4800 2400
	-1   0    0    1   
$EndComp
Wire Wire Line
	4800 2500 4800 2400
$Comp
L power:GND #PWR0507
U 1 1 5CF91D0F
P 3600 3400
F 0 "#PWR0507" H 3600 3150 50  0001 C CNN
F 1 "GND" V 3605 3272 50  0000 R CNN
F 2 "" H 3600 3400 50  0001 C CNN
F 3 "" H 3600 3400 50  0001 C CNN
	1    3600 3400
	0    1    1    0   
$EndComp
Text HLabel 5700 4000 2    50   Output ~ 0
M0_in1
Text HLabel 5700 3900 2    50   Output ~ 0
M0_in2
Text HLabel 5700 3800 2    50   Output ~ 0
M1_in1
Text HLabel 4600 3000 1    50   Output ~ 0
M1_in2
Text HLabel 7400 4950 2    50   Input ~ 0
ENC0_A
Text HLabel 7400 5050 2    50   Input ~ 0
ENC0_B
Text HLabel 7400 5150 2    50   Input ~ 0
ENC1_A
Text HLabel 7400 5250 2    50   Input ~ 0
ENC1_B
Text HLabel 5200 5100 3    50   Output ~ 0
LL0_shut
Text HLabel 5100 5100 3    50   Output ~ 0
LL1_shut
Text HLabel 5700 4400 2    50   Output ~ 0
SL0_shut
Text HLabel 5700 4100 2    50   Input ~ 0
GYRO_int
Text HLabel 3600 3800 0    50   Output ~ 0
RS485_TX
Text HLabel 3600 3700 0    50   Input ~ 0
RS485_RX
Text HLabel 4100 3000 1    50   BiDi ~ 0
SDA_ext
Text HLabel 4200 3000 1    50   Output ~ 0
SCL_ext
$Comp
L Device:C C507
U 1 1 5CF97997
P 900 3250
F 0 "C507" H 1015 3296 50  0000 L CNN
F 1 "1u" H 1015 3205 50  0000 L CNN
F 2 "Capacitor_SMD:C_0603_1608Metric" H 938 3100 50  0001 C CNN
F 3 "~" H 900 3250 50  0001 C CNN
	1    900  3250
	1    0    0    -1  
$EndComp
$Comp
L Device:C C508
U 1 1 5CF979DD
P 1200 3250
F 0 "C508" H 1315 3296 50  0000 L CNN
F 1 "100n" H 1315 3205 50  0000 L CNN
F 2 "Capacitor_SMD:C_0402_1005Metric" H 1238 3100 50  0001 C CNN
F 3 "~" H 1200 3250 50  0001 C CNN
	1    1200 3250
	1    0    0    -1  
$EndComp
$Comp
L Device:C C509
U 1 1 5CF97A28
P 1500 3250
F 0 "C509" H 1615 3296 50  0000 L CNN
F 1 "1u" H 1615 3205 50  0000 L CNN
F 2 "Capacitor_SMD:C_0603_1608Metric" H 1538 3100 50  0001 C CNN
F 3 "~" H 1500 3250 50  0001 C CNN
	1    1500 3250
	1    0    0    -1  
$EndComp
$Comp
L Device:C C510
U 1 1 5CF97A7A
P 1800 3250
F 0 "C510" H 1915 3296 50  0000 L CNN
F 1 "100n" H 1915 3205 50  0000 L CNN
F 2 "Capacitor_SMD:C_0402_1005Metric" H 1838 3100 50  0001 C CNN
F 3 "~" H 1800 3250 50  0001 C CNN
	1    1800 3250
	1    0    0    -1  
$EndComp
$Comp
L power:+3.3V #PWR0505
U 1 1 5CF97C83
P 900 2950
F 0 "#PWR0505" H 900 2800 50  0001 C CNN
F 1 "+3.3V" H 915 3123 50  0000 C CNN
F 2 "" H 900 2950 50  0001 C CNN
F 3 "" H 900 2950 50  0001 C CNN
	1    900  2950
	1    0    0    -1  
$EndComp
$Comp
L power:GND #PWR0508
U 1 1 5CF97D0B
P 900 3550
F 0 "#PWR0508" H 900 3300 50  0001 C CNN
F 1 "GND" H 905 3377 50  0000 C CNN
F 2 "" H 900 3550 50  0001 C CNN
F 3 "" H 900 3550 50  0001 C CNN
	1    900  3550
	1    0    0    -1  
$EndComp
Wire Wire Line
	900  3550 900  3500
Wire Wire Line
	900  3100 900  3000
Wire Wire Line
	900  3000 1200 3000
Wire Wire Line
	1200 3000 1200 3100
Connection ~ 900  3000
Wire Wire Line
	900  3000 900  2950
Wire Wire Line
	1200 3000 1500 3000
Wire Wire Line
	1500 3000 1500 3100
Connection ~ 1200 3000
Wire Wire Line
	1500 3000 1800 3000
Wire Wire Line
	1800 3000 1800 3100
Connection ~ 1500 3000
Wire Wire Line
	1200 3400 1200 3500
Wire Wire Line
	1200 3500 900  3500
Connection ~ 900  3500
Wire Wire Line
	900  3500 900  3400
Wire Wire Line
	1500 3400 1500 3500
Wire Wire Line
	1500 3500 1200 3500
Connection ~ 1200 3500
Wire Wire Line
	1800 3400 1800 3500
Wire Wire Line
	1800 3500 1500 3500
Connection ~ 1500 3500
$Comp
L Device:C C501
U 1 1 5CF9FF39
P 900 2050
F 0 "C501" H 1015 2096 50  0000 L CNN
F 1 "1u" H 1015 2005 50  0000 L CNN
F 2 "Capacitor_SMD:C_0603_1608Metric" H 938 1900 50  0001 C CNN
F 3 "~" H 900 2050 50  0001 C CNN
	1    900  2050
	1    0    0    -1  
$EndComp
$Comp
L Device:C C502
U 1 1 5CF9FF3F
P 1200 2050
F 0 "C502" H 1315 2096 50  0000 L CNN
F 1 "100n" H 1315 2005 50  0000 L CNN
F 2 "Capacitor_SMD:C_0402_1005Metric" H 1238 1900 50  0001 C CNN
F 3 "~" H 1200 2050 50  0001 C CNN
	1    1200 2050
	1    0    0    -1  
$EndComp
$Comp
L Device:C C503
U 1 1 5CF9FF45
P 1500 2050
F 0 "C503" H 1615 2096 50  0000 L CNN
F 1 "1u" H 1615 2005 50  0000 L CNN
F 2 "Capacitor_SMD:C_0603_1608Metric" H 1538 1900 50  0001 C CNN
F 3 "~" H 1500 2050 50  0001 C CNN
	1    1500 2050
	1    0    0    -1  
$EndComp
$Comp
L Device:C C504
U 1 1 5CF9FF4B
P 1800 2050
F 0 "C504" H 1915 2096 50  0000 L CNN
F 1 "100n" H 1915 2005 50  0000 L CNN
F 2 "Capacitor_SMD:C_0402_1005Metric" H 1838 1900 50  0001 C CNN
F 3 "~" H 1800 2050 50  0001 C CNN
	1    1800 2050
	1    0    0    -1  
$EndComp
$Comp
L power:+3.3V #PWR0501
U 1 1 5CF9FF51
P 900 1750
F 0 "#PWR0501" H 900 1600 50  0001 C CNN
F 1 "+3.3V" H 915 1923 50  0000 C CNN
F 2 "" H 900 1750 50  0001 C CNN
F 3 "" H 900 1750 50  0001 C CNN
	1    900  1750
	1    0    0    -1  
$EndComp
$Comp
L power:GND #PWR0502
U 1 1 5CF9FF57
P 900 2350
F 0 "#PWR0502" H 900 2100 50  0001 C CNN
F 1 "GND" H 905 2177 50  0000 C CNN
F 2 "" H 900 2350 50  0001 C CNN
F 3 "" H 900 2350 50  0001 C CNN
	1    900  2350
	1    0    0    -1  
$EndComp
Wire Wire Line
	900  2350 900  2300
Wire Wire Line
	900  1900 900  1800
Wire Wire Line
	900  1800 1200 1800
Wire Wire Line
	1200 1800 1200 1900
Connection ~ 900  1800
Wire Wire Line
	900  1800 900  1750
Wire Wire Line
	1200 1800 1500 1800
Wire Wire Line
	1500 1800 1500 1900
Connection ~ 1200 1800
Wire Wire Line
	1500 1800 1800 1800
Wire Wire Line
	1800 1800 1800 1900
Connection ~ 1500 1800
Wire Wire Line
	1200 2200 1200 2300
Wire Wire Line
	1200 2300 900  2300
Connection ~ 900  2300
Wire Wire Line
	900  2300 900  2200
Wire Wire Line
	1500 2200 1500 2300
Wire Wire Line
	1500 2300 1200 2300
Connection ~ 1200 2300
Wire Wire Line
	1800 2200 1800 2300
Wire Wire Line
	1800 2300 1500 2300
Connection ~ 1500 2300
Text HLabel 4300 3000 1    50   Input ~ 0
Vbat
Text HLabel 5000 5100 3    50   Output ~ 0
LED_0
Text HLabel 4900 5100 3    50   Output ~ 0
LED_1
Text HLabel 4800 5100 3    50   Output ~ 0
LED_2
$Comp
L crap:JTAGCON P501
U 1 1 5CFA520D
P 1650 6450
F 0 "P501" H 1750 6987 60  0000 C CNN
F 1 "JTAGCON" H 1750 6881 60  0000 C CNN
F 2 "littlerob2:BM06B-SRSS-TB" H 2100 6650 60  0001 C CNN
F 3 "" H 2100 6650 60  0000 C CNN
	1    1650 6450
	1    0    0    -1  
$EndComp
$Comp
L power:+3.3V #PWR0519
U 1 1 5CFA570B
P 2450 5700
F 0 "#PWR0519" H 2450 5550 50  0001 C CNN
F 1 "+3.3V" H 2465 5873 50  0000 C CNN
F 2 "" H 2450 5700 50  0001 C CNN
F 3 "" H 2450 5700 50  0001 C CNN
	1    2450 5700
	1    0    0    -1  
$EndComp
$Comp
L Device:D_Schottky D501
U 1 1 5CFA57A2
P 2450 5950
F 0 "D501" V 2496 5871 50  0000 R CNN
F 1 "D_Schottky" V 2405 5871 50  0000 R CNN
F 2 "Diode_SMD:D_SOD-523" H 2450 5950 50  0001 C CNN
F 3 "~" H 2450 5950 50  0001 C CNN
	1    2450 5950
	0    1    1    0   
$EndComp
Wire Wire Line
	2350 6200 2450 6200
Wire Wire Line
	2450 6200 2450 6100
Wire Wire Line
	2450 5700 2450 5800
$Comp
L power:GND #PWR0521
U 1 1 5CFAA028
P 2450 6800
F 0 "#PWR0521" H 2450 6550 50  0001 C CNN
F 1 "GND" H 2455 6627 50  0000 C CNN
F 2 "" H 2450 6800 50  0001 C CNN
F 3 "" H 2450 6800 50  0001 C CNN
	1    2450 6800
	1    0    0    -1  
$EndComp
Wire Wire Line
	2450 6800 2450 6700
Wire Wire Line
	2450 6700 2350 6700
$Comp
L power:GND #PWR0520
U 1 1 5CFAC5F6
P 1050 6800
F 0 "#PWR0520" H 1050 6550 50  0001 C CNN
F 1 "GND" H 1055 6627 50  0000 C CNN
F 2 "" H 1050 6800 50  0001 C CNN
F 3 "" H 1050 6800 50  0001 C CNN
	1    1050 6800
	1    0    0    -1  
$EndComp
Wire Wire Line
	1050 6800 1050 6700
Wire Wire Line
	1050 6700 1150 6700
Wire Wire Line
	1150 6600 1050 6600
Wire Wire Line
	1050 6600 1050 6700
Connection ~ 1050 6700
Text Label 2350 6300 0    50   ~ 0
dbg_tx
Text Label 2350 6400 0    50   ~ 0
dbg_rx
Text Label 2350 6500 0    50   ~ 0
swdio
Text Label 2350 6600 0    50   ~ 0
swclk
Text Label 3600 3500 2    50   ~ 0
swclk
Text Label 3600 3600 2    50   ~ 0
swdio
Text Label 4500 3000 1    50   ~ 0
dbg_rx
Text Label 4400 3000 1    50   ~ 0
dbg_tx
$Comp
L Device:Antenna_Dipole AE501
U 1 1 5CFAB195
P 4500 5850
F 0 "AE501" H 4370 5673 50  0000 R CNN
F 1 "Antenna_Dipole" H 4370 5764 50  0000 R CNN
F 2 "RF_Antenna:Texas_SWRA117D_2.4GHz_Left" H 4500 5850 50  0001 C CNN
F 3 "~" H 4500 5850 50  0001 C CNN
	1    4500 5850
	-1   0    0    1   
$EndComp
Wire Wire Line
	4500 5100 4500 5650
$Comp
L power:GND #PWR0522
U 1 1 5CFADE09
P 4400 5650
F 0 "#PWR0522" H 4400 5400 50  0001 C CNN
F 1 "GND" H 4405 5477 50  0000 C CNN
F 2 "" H 4400 5650 50  0001 C CNN
F 3 "" H 4400 5650 50  0001 C CNN
	1    4400 5650
	-1   0    0    1   
$EndComp
Text HLabel 3600 3900 0    50   Input ~ 0
EXT_INT2
Text HLabel 3600 4000 0    50   Input ~ 0
EXT_INT1
Text HLabel 5700 4600 2    50   Output ~ 0
SCL
Text HLabel 5700 4500 2    50   BiDi ~ 0
SDA
$Comp
L Device:R R504
U 1 1 5CFBE941
P 7250 4950
F 0 "R504" V 7043 4950 50  0000 C CNN
F 1 "R" V 7134 4950 50  0000 C CNN
F 2 "Resistor_SMD:R_0402_1005Metric" V 7180 4950 50  0001 C CNN
F 3 "~" H 7250 4950 50  0001 C CNN
	1    7250 4950
	0    1    1    0   
$EndComp
$Comp
L Device:R R506
U 1 1 5CFBE9B3
P 7250 5050
F 0 "R506" V 7043 5050 50  0000 C CNN
F 1 "R" V 7134 5050 50  0000 C CNN
F 2 "Resistor_SMD:R_0402_1005Metric" V 7180 5050 50  0001 C CNN
F 3 "~" H 7250 5050 50  0001 C CNN
	1    7250 5050
	0    1    1    0   
$EndComp
$Comp
L Device:R R508
U 1 1 5CFBE9EF
P 7250 5150
F 0 "R508" V 7043 5150 50  0000 C CNN
F 1 "R" V 7134 5150 50  0000 C CNN
F 2 "Resistor_SMD:R_0402_1005Metric" V 7180 5150 50  0001 C CNN
F 3 "~" H 7250 5150 50  0001 C CNN
	1    7250 5150
	0    1    1    0   
$EndComp
$Comp
L Device:R R510
U 1 1 5CFBEA2D
P 7250 5250
F 0 "R510" V 7043 5250 50  0000 C CNN
F 1 "R" V 7134 5250 50  0000 C CNN
F 2 "Resistor_SMD:R_0402_1005Metric" V 7180 5250 50  0001 C CNN
F 3 "~" H 7250 5250 50  0001 C CNN
	1    7250 5250
	0    1    1    0   
$EndComp
$Comp
L Device:R R503
U 1 1 5CFBEA71
P 6950 4950
F 0 "R503" V 6743 4950 50  0000 C CNN
F 1 "R" V 6834 4950 50  0000 C CNN
F 2 "Resistor_SMD:R_0402_1005Metric" V 6880 4950 50  0001 C CNN
F 3 "~" H 6950 4950 50  0001 C CNN
	1    6950 4950
	0    1    1    0   
$EndComp
$Comp
L Device:R R505
U 1 1 5CFBEACF
P 6950 5050
F 0 "R505" V 6743 5050 50  0000 C CNN
F 1 "R" V 6834 5050 50  0000 C CNN
F 2 "Resistor_SMD:R_0402_1005Metric" V 6880 5050 50  0001 C CNN
F 3 "~" H 6950 5050 50  0001 C CNN
	1    6950 5050
	0    1    1    0   
$EndComp
$Comp
L Device:R R507
U 1 1 5CFBEB13
P 6950 5150
F 0 "R507" V 6743 5150 50  0000 C CNN
F 1 "R" V 6834 5150 50  0000 C CNN
F 2 "Resistor_SMD:R_0402_1005Metric" V 6880 5150 50  0001 C CNN
F 3 "~" H 6950 5150 50  0001 C CNN
	1    6950 5150
	0    1    1    0   
$EndComp
$Comp
L Device:R R509
U 1 1 5CFBEB59
P 6950 5250
F 0 "R509" V 6743 5250 50  0000 C CNN
F 1 "R" V 6834 5250 50  0000 C CNN
F 2 "Resistor_SMD:R_0402_1005Metric" V 6880 5250 50  0001 C CNN
F 3 "~" H 6950 5250 50  0001 C CNN
	1    6950 5250
	0    1    1    0   
$EndComp
$Comp
L power:GND #PWR0121
U 1 1 5CFBEC0C
P 6700 5350
F 0 "#PWR0121" H 6700 5100 50  0001 C CNN
F 1 "GND" H 6705 5177 50  0000 C CNN
F 2 "" H 6700 5350 50  0001 C CNN
F 3 "" H 6700 5350 50  0001 C CNN
	1    6700 5350
	1    0    0    -1  
$EndComp
Wire Wire Line
	6700 5350 6700 5250
Wire Wire Line
	6700 4950 6800 4950
Wire Wire Line
	6800 5050 6700 5050
Connection ~ 6700 5050
Wire Wire Line
	6700 5050 6700 4950
Wire Wire Line
	6700 5150 6800 5150
Connection ~ 6700 5150
Wire Wire Line
	6700 5150 6700 5050
Wire Wire Line
	6800 5250 6700 5250
Connection ~ 6700 5250
Wire Wire Line
	6700 5250 6700 5150
Text Label 7100 4950 0    50   ~ 0
e0a
Text Label 7100 5050 0    50   ~ 0
e0b
Text Label 7100 5150 0    50   ~ 0
e1a
Text Label 7100 5250 0    50   ~ 0
e1b
Text Label 5700 4200 0    50   ~ 0
e0a
Text Label 5700 4300 0    50   ~ 0
e0b
Text Label 3600 4200 2    50   ~ 0
e1a
Text Label 3600 4100 2    50   ~ 0
e1b
Text HLabel 4700 5100 3    50   Output ~ 0
LED_3
Text Notes 3150 3850 2    50   ~ 0
US0_TX #27
Text Notes 3150 3750 2    50   ~ 0
US0_RX #25
Text Notes 4650 2650 1    50   ~ 0
TIM1_CC1 #10
Text Notes 6050 3850 0    50   ~ 0
TIM1_CC0 #8
Text Notes 6050 3950 0    50   ~ 0
TIM0_CC1 #6
Text Notes 6050 4050 0    50   ~ 0
TIM0_CC0 #6
Text Notes 3400 4200 2    50   ~ 0
PCNT1_S0IN #20
Text Notes 3400 4100 2    50   ~ 0
PCNT1_S1IN #18
Text Notes 4100 2600 1    50   ~ 0
I2C1_SDA #20
Text Notes 4200 2600 1    50   ~ 0
I2C1_SCL #18
Text Notes 5900 4200 0    50   ~ 0
PCNT0_S0IN #4
Text Notes 5900 4300 0    50   ~ 0
PCNT0_S1IN #2
Text Notes 5950 4650 0    50   ~ 0
I2C0_SCL #31
Text Notes 5950 4550 0    50   ~ 0
I2C0_SDA #1
Text Notes 4500 2650 1    50   ~ 0
US1_RX #11
Text Notes 4400 2650 1    50   ~ 0
US1_TX #13
$EndSCHEMATC
