EESchema Schematic File Version 4
LIBS:littlerob2-cache
EELAYER 26 0
EELAYER END
$Descr A4 11693 8268
encoding utf-8
Sheet 3 5
Title ""
Date ""
Rev ""
Comp ""
Comment1 ""
Comment2 ""
Comment3 ""
Comment4 ""
$EndDescr
$Comp
L Driver_Motor:DRV8870DDA U301
U 1 1 5CF40B4A
P 5400 2300
F 0 "U301" H 5550 1900 50  0000 C CNN
F 1 "DRV8870DDA" H 5700 2600 50  0000 C CNN
F 2 "Package_SO:Texas_HTSOP-8-1EP_3.9x4.9mm_P1.27mm_EP2.95x4.9mm_Mask2.4x3.1mm_ThermalVias" H 5500 2200 50  0001 C CNN
F 3 "http://www.ti.com/lit/ds/symlink/drv8870.pdf" H 5150 2650 50  0001 C CNN
	1    5400 2300
	1    0    0    -1  
$EndComp
$Comp
L power:GND #PWR0305
U 1 1 5CF83A67
P 5400 2800
F 0 "#PWR0305" H 5400 2550 50  0001 C CNN
F 1 "GND" H 5405 2627 50  0000 C CNN
F 2 "" H 5400 2800 50  0001 C CNN
F 3 "" H 5400 2800 50  0001 C CNN
	1    5400 2800
	1    0    0    -1  
$EndComp
$Comp
L power:+12V #PWR0301
U 1 1 5CF83AC6
P 5400 1900
F 0 "#PWR0301" H 5400 1750 50  0001 C CNN
F 1 "+12V" H 5415 2073 50  0000 C CNN
F 2 "" H 5400 1900 50  0001 C CNN
F 3 "" H 5400 1900 50  0001 C CNN
	1    5400 1900
	1    0    0    -1  
$EndComp
Wire Wire Line
	5400 1900 5400 2000
Wire Wire Line
	5400 2700 5400 2750
Wire Wire Line
	5800 2500 5900 2500
Wire Wire Line
	5900 2500 5900 2750
Wire Wire Line
	5900 2750 5400 2750
Connection ~ 5400 2750
Wire Wire Line
	5400 2750 5400 2800
Text HLabel 5800 2200 2    50   Output ~ 0
M0_A
Text HLabel 5800 2300 2    50   Output ~ 0
M0_B
Text HLabel 5000 2200 0    50   Input ~ 0
M0_IN1
Text HLabel 5000 2300 0    50   Input ~ 0
M0_IN2
$Comp
L power:+3.3V #PWR0303
U 1 1 5CF83BC0
P 4850 2500
F 0 "#PWR0303" H 4850 2350 50  0001 C CNN
F 1 "+3.3V" V 4865 2628 50  0000 L CNN
F 2 "" H 4850 2500 50  0001 C CNN
F 3 "" H 4850 2500 50  0001 C CNN
	1    4850 2500
	0    -1   -1   0   
$EndComp
Wire Wire Line
	5000 2500 4850 2500
$Comp
L Device:C C301
U 1 1 5CF83C22
P 3500 2250
F 0 "C301" H 3615 2296 50  0000 L CNN
F 1 "100n" H 3615 2205 50  0000 L CNN
F 2 "Capacitor_SMD:C_0402_1005Metric" H 3538 2100 50  0001 C CNN
F 3 "~" H 3500 2250 50  0001 C CNN
	1    3500 2250
	1    0    0    -1  
$EndComp
$Comp
L power:+12V #PWR0302
U 1 1 5CF83C7C
P 3700 1950
F 0 "#PWR0302" H 3700 1800 50  0001 C CNN
F 1 "+12V" H 3715 2123 50  0000 C CNN
F 2 "" H 3700 1950 50  0001 C CNN
F 3 "" H 3700 1950 50  0001 C CNN
	1    3700 1950
	1    0    0    -1  
$EndComp
$Comp
L power:GND #PWR0304
U 1 1 5CF83CB5
P 3700 2550
F 0 "#PWR0304" H 3700 2300 50  0001 C CNN
F 1 "GND" H 3705 2377 50  0000 C CNN
F 2 "" H 3700 2550 50  0001 C CNN
F 3 "" H 3700 2550 50  0001 C CNN
	1    3700 2550
	1    0    0    -1  
$EndComp
Wire Wire Line
	3700 2550 3700 2500
Wire Wire Line
	3700 2500 3900 2500
Wire Wire Line
	3900 2500 3900 2400
Wire Wire Line
	3700 2500 3500 2500
Wire Wire Line
	3500 2500 3500 2400
Connection ~ 3700 2500
Wire Wire Line
	3500 2100 3500 2000
Wire Wire Line
	3500 2000 3700 2000
Wire Wire Line
	3700 2000 3700 1950
Wire Wire Line
	3700 2000 3900 2000
Wire Wire Line
	3900 2000 3900 2100
Connection ~ 3700 2000
$Comp
L Device:CP1 C302
U 1 1 5CF84302
P 3900 2250
F 0 "C302" H 4015 2296 50  0000 L CNN
F 1 "100u" H 4015 2205 50  0000 L CNN
F 2 "Capacitor_SMD:CP_Elec_8x10.5" H 3900 2250 50  0001 C CNN
F 3 "~" H 3900 2250 50  0001 C CNN
	1    3900 2250
	1    0    0    -1  
$EndComp
$Comp
L Driver_Motor:DRV8870DDA U302
U 1 1 5CF8449E
P 5400 4050
F 0 "U302" H 5550 3650 50  0000 C CNN
F 1 "DRV8870DDA" H 5700 4350 50  0000 C CNN
F 2 "Package_SO:Texas_HTSOP-8-1EP_3.9x4.9mm_P1.27mm_EP2.95x4.9mm_Mask2.4x3.1mm_ThermalVias" H 5500 3950 50  0001 C CNN
F 3 "http://www.ti.com/lit/ds/symlink/drv8870.pdf" H 5150 4400 50  0001 C CNN
	1    5400 4050
	1    0    0    -1  
$EndComp
$Comp
L power:GND #PWR0310
U 1 1 5CF844A4
P 5400 4550
F 0 "#PWR0310" H 5400 4300 50  0001 C CNN
F 1 "GND" H 5405 4377 50  0000 C CNN
F 2 "" H 5400 4550 50  0001 C CNN
F 3 "" H 5400 4550 50  0001 C CNN
	1    5400 4550
	1    0    0    -1  
$EndComp
$Comp
L power:+12V #PWR0306
U 1 1 5CF844AA
P 5400 3650
F 0 "#PWR0306" H 5400 3500 50  0001 C CNN
F 1 "+12V" H 5415 3823 50  0000 C CNN
F 2 "" H 5400 3650 50  0001 C CNN
F 3 "" H 5400 3650 50  0001 C CNN
	1    5400 3650
	1    0    0    -1  
$EndComp
Wire Wire Line
	5400 3650 5400 3750
Wire Wire Line
	5400 4450 5400 4500
Wire Wire Line
	5800 4250 5900 4250
Wire Wire Line
	5900 4250 5900 4500
Wire Wire Line
	5900 4500 5400 4500
Connection ~ 5400 4500
Wire Wire Line
	5400 4500 5400 4550
Text HLabel 5800 3950 2    50   Output ~ 0
M1_A
Text HLabel 5800 4050 2    50   Output ~ 0
M1_B
Text HLabel 5000 3950 0    50   Input ~ 0
M1_IN1
Text HLabel 5000 4050 0    50   Input ~ 0
M1_IN2
$Comp
L power:+3.3V #PWR0308
U 1 1 5CF844BB
P 4850 4250
F 0 "#PWR0308" H 4850 4100 50  0001 C CNN
F 1 "+3.3V" V 4865 4378 50  0000 L CNN
F 2 "" H 4850 4250 50  0001 C CNN
F 3 "" H 4850 4250 50  0001 C CNN
	1    4850 4250
	0    -1   -1   0   
$EndComp
Wire Wire Line
	5000 4250 4850 4250
$Comp
L Device:C C303
U 1 1 5CF844C2
P 3500 4000
F 0 "C303" H 3615 4046 50  0000 L CNN
F 1 "100n" H 3615 3955 50  0000 L CNN
F 2 "Capacitor_SMD:C_0402_1005Metric" H 3538 3850 50  0001 C CNN
F 3 "~" H 3500 4000 50  0001 C CNN
	1    3500 4000
	1    0    0    -1  
$EndComp
$Comp
L power:+12V #PWR0307
U 1 1 5CF844C8
P 3500 3750
F 0 "#PWR0307" H 3500 3600 50  0001 C CNN
F 1 "+12V" H 3515 3923 50  0000 C CNN
F 2 "" H 3500 3750 50  0001 C CNN
F 3 "" H 3500 3750 50  0001 C CNN
	1    3500 3750
	1    0    0    -1  
$EndComp
$Comp
L power:GND #PWR0309
U 1 1 5CF844CE
P 3500 4250
F 0 "#PWR0309" H 3500 4000 50  0001 C CNN
F 1 "GND" H 3505 4077 50  0000 C CNN
F 2 "" H 3500 4250 50  0001 C CNN
F 3 "" H 3500 4250 50  0001 C CNN
	1    3500 4250
	1    0    0    -1  
$EndComp
Wire Wire Line
	3500 4250 3500 4150
Wire Wire Line
	3500 3850 3500 3750
$EndSCHEMATC
