EESchema Schematic File Version 4
LIBS:littlerob2-cache
EELAYER 26 0
EELAYER END
$Descr A4 11693 8268
encoding utf-8
Sheet 2 5
Title ""
Date ""
Rev ""
Comp ""
Comment1 ""
Comment2 ""
Comment3 ""
Comment4 ""
$EndDescr
$Comp
L Regulator_Switching:TSR_1-2450 U202
U 1 1 5CF3FEAB
P 1700 1350
F 0 "U202" H 1700 1717 50  0000 C CNN
F 1 "TSR_1-2450" H 1700 1626 50  0000 C CNN
F 2 "Converter_DCDC:Converter_DCDC_TRACO_TSR-1_THT" H 1700 1200 50  0001 L CIN
F 3 "http://www.tracopower.com/products/tsr1.pdf" H 1700 1350 50  0001 C CNN
	1    1700 1350
	1    0    0    -1  
$EndComp
$Comp
L power:GND #PWR0209
U 1 1 5CF3FF87
P 1700 1650
F 0 "#PWR0209" H 1700 1400 50  0001 C CNN
F 1 "GND" H 1705 1477 50  0000 C CNN
F 2 "" H 1700 1650 50  0001 C CNN
F 3 "" H 1700 1650 50  0001 C CNN
	1    1700 1650
	1    0    0    -1  
$EndComp
Wire Wire Line
	1700 1650 1700 1550
$Comp
L power:+12V #PWR0201
U 1 1 5CF40003
P 1200 1150
F 0 "#PWR0201" H 1200 1000 50  0001 C CNN
F 1 "+12V" H 1215 1323 50  0000 C CNN
F 2 "" H 1200 1150 50  0001 C CNN
F 3 "" H 1200 1150 50  0001 C CNN
	1    1200 1150
	1    0    0    -1  
$EndComp
Wire Wire Line
	1200 1150 1200 1250
Wire Wire Line
	1200 1250 1300 1250
$Comp
L power:+5V #PWR0202
U 1 1 5CF40070
P 2200 1150
F 0 "#PWR0202" H 2200 1000 50  0001 C CNN
F 1 "+5V" H 2215 1323 50  0000 C CNN
F 2 "" H 2200 1150 50  0001 C CNN
F 3 "" H 2200 1150 50  0001 C CNN
	1    2200 1150
	1    0    0    -1  
$EndComp
Wire Wire Line
	2200 1150 2200 1250
Wire Wire Line
	2200 1250 2100 1250
$Comp
L Regulator_Linear:MCP1700-3302E_SOT23 U201
U 1 1 5CF4019D
P 3650 1250
F 0 "U201" H 3650 1492 50  0000 C CNN
F 1 "MCP1700-3302E_SOT23" H 3650 1401 50  0000 C CNN
F 2 "Package_TO_SOT_SMD:SOT-23" H 3650 1475 50  0001 C CNN
F 3 "http://ww1.microchip.com/downloads/en/DeviceDoc/20001826C.pdf" H 3650 1250 50  0001 C CNN
	1    3650 1250
	1    0    0    -1  
$EndComp
$Comp
L Regulator_Linear:MCP1700-2802E_SOT23 U203
U 1 1 5CF40313
P 3600 2450
F 0 "U203" H 3600 2692 50  0000 C CNN
F 1 "MCP1700-2802E_SOT23" H 3600 2601 50  0000 C CNN
F 2 "Package_TO_SOT_SMD:SOT-23" H 3600 2675 50  0001 C CNN
F 3 "http://ww1.microchip.com/downloads/en/DeviceDoc/20001826C.pdf" H 3600 2450 50  0001 C CNN
	1    3600 2450
	1    0    0    -1  
$EndComp
$Comp
L power:+5V #PWR0204
U 1 1 5CF403A6
P 3100 1200
F 0 "#PWR0204" H 3100 1050 50  0001 C CNN
F 1 "+5V" H 3115 1373 50  0000 C CNN
F 2 "" H 3100 1200 50  0001 C CNN
F 3 "" H 3100 1200 50  0001 C CNN
	1    3100 1200
	1    0    0    -1  
$EndComp
Wire Wire Line
	3100 1200 3100 1250
Wire Wire Line
	3100 1250 3350 1250
Wire Wire Line
	3050 2400 3050 2450
Wire Wire Line
	3050 2450 3300 2450
$Comp
L power:GND #PWR0210
U 1 1 5CF40437
P 3650 1650
F 0 "#PWR0210" H 3650 1400 50  0001 C CNN
F 1 "GND" H 3655 1477 50  0000 C CNN
F 2 "" H 3650 1650 50  0001 C CNN
F 3 "" H 3650 1650 50  0001 C CNN
	1    3650 1650
	1    0    0    -1  
$EndComp
Wire Wire Line
	3650 1650 3650 1550
$Comp
L power:GND #PWR0217
U 1 1 5CF4052F
P 3600 2850
F 0 "#PWR0217" H 3600 2600 50  0001 C CNN
F 1 "GND" H 3605 2677 50  0000 C CNN
F 2 "" H 3600 2850 50  0001 C CNN
F 3 "" H 3600 2850 50  0001 C CNN
	1    3600 2850
	1    0    0    -1  
$EndComp
Wire Wire Line
	3600 2850 3600 2750
$Comp
L power:+3.3V #PWR0203
U 1 1 5CF405E0
P 4150 1150
F 0 "#PWR0203" H 4150 1000 50  0001 C CNN
F 1 "+3.3V" H 4165 1323 50  0000 C CNN
F 2 "" H 4150 1150 50  0001 C CNN
F 3 "" H 4150 1150 50  0001 C CNN
	1    4150 1150
	1    0    0    -1  
$EndComp
Wire Wire Line
	4150 1150 4150 1250
Wire Wire Line
	4150 1250 3950 1250
Wire Wire Line
	4100 2350 4100 2450
Wire Wire Line
	4100 2450 3900 2450
$Comp
L power:+2V8 #PWR0212
U 1 1 5CF4078A
P 4100 2350
F 0 "#PWR0212" H 4100 2200 50  0001 C CNN
F 1 "+2V8" H 4115 2523 50  0000 C CNN
F 2 "" H 4100 2350 50  0001 C CNN
F 3 "" H 4100 2350 50  0001 C CNN
	1    4100 2350
	1    0    0    -1  
$EndComp
$Comp
L Device:C C202
U 1 1 5CFA3332
P 2650 1450
F 0 "C202" H 2765 1496 50  0000 L CNN
F 1 "10u" H 2765 1405 50  0000 L CNN
F 2 "Capacitor_SMD:C_0805_2012Metric_Pad1.15x1.40mm_HandSolder" H 2688 1300 50  0001 C CNN
F 3 "~" H 2650 1450 50  0001 C CNN
	1    2650 1450
	1    0    0    -1  
$EndComp
$Comp
L power:GND #PWR0208
U 1 1 5CFA3360
P 2650 1600
F 0 "#PWR0208" H 2650 1350 50  0001 C CNN
F 1 "GND" H 2655 1427 50  0000 C CNN
F 2 "" H 2650 1600 50  0001 C CNN
F 3 "" H 2650 1600 50  0001 C CNN
	1    2650 1600
	1    0    0    -1  
$EndComp
$Comp
L power:+5V #PWR0206
U 1 1 5CFA3373
P 2650 1300
F 0 "#PWR0206" H 2650 1150 50  0001 C CNN
F 1 "+5V" H 2665 1473 50  0000 C CNN
F 2 "" H 2650 1300 50  0001 C CNN
F 3 "" H 2650 1300 50  0001 C CNN
	1    2650 1300
	1    0    0    -1  
$EndComp
$Comp
L Device:C C201
U 1 1 5CFA33C8
P 4550 1400
F 0 "C201" H 4665 1446 50  0000 L CNN
F 1 "1u" H 4665 1355 50  0000 L CNN
F 2 "Capacitor_SMD:C_0603_1608Metric_Pad1.05x0.95mm_HandSolder" H 4588 1250 50  0001 C CNN
F 3 "~" H 4550 1400 50  0001 C CNN
	1    4550 1400
	1    0    0    -1  
$EndComp
$Comp
L power:+3.3V #PWR0205
U 1 1 5CFA3546
P 4550 1250
F 0 "#PWR0205" H 4550 1100 50  0001 C CNN
F 1 "+3.3V" H 4565 1423 50  0000 C CNN
F 2 "" H 4550 1250 50  0001 C CNN
F 3 "" H 4550 1250 50  0001 C CNN
	1    4550 1250
	1    0    0    -1  
$EndComp
$Comp
L power:GND #PWR0207
U 1 1 5CFA355B
P 4550 1550
F 0 "#PWR0207" H 4550 1300 50  0001 C CNN
F 1 "GND" H 4555 1377 50  0000 C CNN
F 2 "" H 4550 1550 50  0001 C CNN
F 3 "" H 4550 1550 50  0001 C CNN
	1    4550 1550
	1    0    0    -1  
$EndComp
$Comp
L Device:C C203
U 1 1 5CFA360E
P 4550 2500
F 0 "C203" H 4665 2546 50  0000 L CNN
F 1 "1u" H 4665 2455 50  0000 L CNN
F 2 "Capacitor_SMD:C_0603_1608Metric_Pad1.05x0.95mm_HandSolder" H 4588 2350 50  0001 C CNN
F 3 "~" H 4550 2500 50  0001 C CNN
	1    4550 2500
	1    0    0    -1  
$EndComp
$Comp
L power:GND #PWR0215
U 1 1 5CFA361A
P 4550 2650
F 0 "#PWR0215" H 4550 2400 50  0001 C CNN
F 1 "GND" H 4555 2477 50  0000 C CNN
F 2 "" H 4550 2650 50  0001 C CNN
F 3 "" H 4550 2650 50  0001 C CNN
	1    4550 2650
	1    0    0    -1  
$EndComp
$Comp
L power:+2V8 #PWR0213
U 1 1 5CFA36FC
P 4550 2350
F 0 "#PWR0213" H 4550 2200 50  0001 C CNN
F 1 "+2V8" H 4565 2523 50  0000 C CNN
F 2 "" H 4550 2350 50  0001 C CNN
F 3 "" H 4550 2350 50  0001 C CNN
	1    4550 2350
	1    0    0    -1  
$EndComp
$Comp
L power:+12V #PWR0211
U 1 1 5CFA3B21
P 1050 2050
F 0 "#PWR0211" H 1050 1900 50  0001 C CNN
F 1 "+12V" H 1065 2223 50  0000 C CNN
F 2 "" H 1050 2050 50  0001 C CNN
F 3 "" H 1050 2050 50  0001 C CNN
	1    1050 2050
	1    0    0    -1  
$EndComp
$Comp
L power:GND #PWR0216
U 1 1 5CFA3B38
P 1050 2850
F 0 "#PWR0216" H 1050 2600 50  0001 C CNN
F 1 "GND" H 1055 2677 50  0000 C CNN
F 2 "" H 1050 2850 50  0001 C CNN
F 3 "" H 1050 2850 50  0001 C CNN
	1    1050 2850
	1    0    0    -1  
$EndComp
$Comp
L Device:R R201
U 1 1 5CFA3B8C
P 1050 2250
F 0 "R201" H 1120 2296 50  0000 L CNN
F 1 "33k" H 1120 2205 50  0000 L CNN
F 2 "Resistor_SMD:R_0402_1005Metric" V 980 2250 50  0001 C CNN
F 3 "~" H 1050 2250 50  0001 C CNN
	1    1050 2250
	1    0    0    -1  
$EndComp
$Comp
L Device:R R202
U 1 1 5CFA3BCB
P 1050 2650
F 0 "R202" H 1120 2696 50  0000 L CNN
F 1 "12k" H 1120 2605 50  0000 L CNN
F 2 "Resistor_SMD:R_0402_1005Metric" V 980 2650 50  0001 C CNN
F 3 "~" H 1050 2650 50  0001 C CNN
	1    1050 2650
	1    0    0    -1  
$EndComp
Wire Wire Line
	1050 2850 1050 2800
Wire Wire Line
	1050 2500 1050 2450
Wire Wire Line
	1050 2050 1050 2100
Wire Wire Line
	1050 2450 1300 2450
Connection ~ 1050 2450
Wire Wire Line
	1050 2450 1050 2400
Text HLabel 1300 2450 2    50   Output ~ 0
Vbat
$Comp
L power:+3.3V #PWR0120
U 1 1 5CFB8D69
P 3050 2400
F 0 "#PWR0120" H 3050 2250 50  0001 C CNN
F 1 "+3.3V" H 3065 2573 50  0000 C CNN
F 2 "" H 3050 2400 50  0001 C CNN
F 3 "" H 3050 2400 50  0001 C CNN
	1    3050 2400
	1    0    0    -1  
$EndComp
$EndSCHEMATC
