EESchema Schematic File Version 2
LIBS:univlx-rescue
LIBS:power
LIBS:device
LIBS:transistors
LIBS:conn
LIBS:linear
LIBS:regul
LIBS:74xx
LIBS:cmos4000
LIBS:adc-dac
LIBS:memory
LIBS:xilinx
LIBS:microcontrollers
LIBS:dsp
LIBS:microchip
LIBS:analog_switches
LIBS:motorola
LIBS:texas
LIBS:intel
LIBS:audio
LIBS:interface
LIBS:digital-audio
LIBS:philips
LIBS:display
LIBS:cypress
LIBS:siliconi
LIBS:opto
LIBS:atmel
LIBS:contrib
LIBS:valves
LIBS:crap
LIBS:univlx-cache
EELAYER 25 0
EELAYER END
$Descr A4 11693 8268
encoding utf-8
Sheet 1 1
Title ""
Date ""
Rev ""
Comp ""
Comment1 ""
Comment2 ""
Comment3 ""
Comment4 ""
$EndDescr
$Comp
L CONN_01X06 P1
U 1 1 5766978F
P 3000 3750
F 0 "P1" H 3000 4100 50  0000 C CNN
F 1 "CONN_01X06" V 3100 3750 50  0000 C CNN
F 2 "Pin_Headers:Pin_Header_Straight_1x06" H 3000 3750 50  0001 C CNN
F 3 "" H 3000 3750 50  0000 C CNN
	1    3000 3750
	-1   0    0    1   
$EndComp
$Comp
L VL6180X U1
U 1 1 576697FE
P 3450 4150
F 0 "U1" H 5300 4200 60  0000 C CNN
F 1 "VL6180X" H 5300 4950 60  0000 C CNN
F 2 "lib:LGA12" H 4700 4850 60  0001 C CNN
F 3 "" H 4700 4850 60  0000 C CNN
	1    3450 4150
	1    0    0    -1  
$EndComp
$Comp
L LED-RESCUE-univlx D1
U 1 1 57669893
P 5000 3050
F 0 "D1" H 5000 3150 50  0000 C CNN
F 1 "LED" H 5000 2950 50  0000 C CNN
F 2 "Capacitors_SMD:C_0603" H 5000 3050 50  0001 C CNN
F 3 "" H 5000 3050 50  0000 C CNN
	1    5000 3050
	-1   0    0    1   
$EndComp
$Comp
L C C1
U 1 1 576698E2
P 6800 3800
F 0 "C1" H 6825 3900 50  0000 L CNN
F 1 "0.1u" H 6825 3700 50  0000 L CNN
F 2 "Capacitors_SMD:C_0402" H 6838 3650 50  0001 C CNN
F 3 "" H 6800 3800 50  0000 C CNN
	1    6800 3800
	1    0    0    -1  
$EndComp
$Comp
L C C2
U 1 1 57669917
P 7100 3800
F 0 "C2" H 7125 3900 50  0000 L CNN
F 1 "4.7u" H 7125 3700 50  0000 L CNN
F 2 "Capacitors_SMD:C_0603" H 7138 3650 50  0001 C CNN
F 3 "" H 7100 3800 50  0000 C CNN
	1    7100 3800
	1    0    0    -1  
$EndComp
$Comp
L VDD #PWR01
U 1 1 57669945
P 6100 3400
F 0 "#PWR01" H 6100 3250 50  0001 C CNN
F 1 "VDD" H 6100 3550 50  0000 C CNN
F 2 "" H 6100 3400 50  0000 C CNN
F 3 "" H 6100 3400 50  0000 C CNN
	1    6100 3400
	1    0    0    -1  
$EndComp
Wire Wire Line
	6100 3400 6100 3700
Wire Wire Line
	6100 3500 6000 3500
Wire Wire Line
	6100 3700 6000 3700
Connection ~ 6100 3500
$Comp
L GND #PWR02
U 1 1 57669987
P 6100 4100
F 0 "#PWR02" H 6100 3850 50  0001 C CNN
F 1 "GND" H 6100 3950 50  0000 C CNN
F 2 "" H 6100 4100 50  0000 C CNN
F 3 "" H 6100 4100 50  0000 C CNN
	1    6100 4100
	1    0    0    -1  
$EndComp
Wire Wire Line
	6100 3900 6100 4100
Wire Wire Line
	6100 4000 6000 4000
Wire Wire Line
	6100 3900 6000 3900
Connection ~ 6100 4000
$Comp
L GND #PWR03
U 1 1 576699C1
P 6950 4050
F 0 "#PWR03" H 6950 3800 50  0001 C CNN
F 1 "GND" H 6950 3900 50  0000 C CNN
F 2 "" H 6950 4050 50  0000 C CNN
F 3 "" H 6950 4050 50  0000 C CNN
	1    6950 4050
	1    0    0    -1  
$EndComp
$Comp
L VDD #PWR04
U 1 1 576699DB
P 6950 3550
F 0 "#PWR04" H 6950 3400 50  0001 C CNN
F 1 "VDD" H 6950 3700 50  0000 C CNN
F 2 "" H 6950 3550 50  0000 C CNN
F 3 "" H 6950 3550 50  0000 C CNN
	1    6950 3550
	1    0    0    -1  
$EndComp
Wire Wire Line
	6800 3650 6800 3600
Wire Wire Line
	6800 3600 7100 3600
Wire Wire Line
	6950 3600 6950 3550
Wire Wire Line
	7100 3600 7100 3650
Connection ~ 6950 3600
Wire Wire Line
	6800 3950 6800 4000
Wire Wire Line
	6800 4000 7100 4000
Wire Wire Line
	6950 4000 6950 4050
Wire Wire Line
	7100 4000 7100 3950
Connection ~ 6950 4000
$Comp
L R R2
U 1 1 57669A71
P 5450 3050
F 0 "R2" V 5530 3050 50  0000 C CNN
F 1 "800" V 5450 3050 50  0000 C CNN
F 2 "Resistors_SMD:R_0402" V 5380 3050 50  0001 C CNN
F 3 "" H 5450 3050 50  0000 C CNN
	1    5450 3050
	0    1    1    0   
$EndComp
$Comp
L GND #PWR05
U 1 1 57669AAE
P 5700 3050
F 0 "#PWR05" H 5700 2800 50  0001 C CNN
F 1 "GND" H 5700 2900 50  0000 C CNN
F 2 "" H 5700 3050 50  0000 C CNN
F 3 "" H 5700 3050 50  0000 C CNN
	1    5700 3050
	0    -1   -1   0   
$EndComp
Wire Wire Line
	5700 3050 5600 3050
Text Label 4450 4000 2    60   ~ 0
SDA
Wire Wire Line
	4450 4000 4550 4000
Text Label 4450 3900 2    60   ~ 0
SCL
Wire Wire Line
	4450 3900 4550 3900
NoConn ~ 4550 3500
Text Label 4700 3050 2    60   ~ 0
LED
Wire Wire Line
	4700 3050 4800 3050
$Comp
L VDD #PWR06
U 1 1 57669CA5
P 4150 3000
F 0 "#PWR06" H 4150 2850 50  0001 C CNN
F 1 "VDD" H 4150 3150 50  0000 C CNN
F 2 "" H 4150 3000 50  0000 C CNN
F 3 "" H 4150 3000 50  0000 C CNN
	1    4150 3000
	1    0    0    -1  
$EndComp
$Comp
L R R1
U 1 1 57669CDA
P 4150 3250
F 0 "R1" V 4230 3250 50  0000 C CNN
F 1 "2.2k" V 4150 3250 50  0000 C CNN
F 2 "Resistors_SMD:R_0402" V 4080 3250 50  0001 C CNN
F 3 "" H 4150 3250 50  0000 C CNN
	1    4150 3250
	1    0    0    -1  
$EndComp
Wire Wire Line
	4150 3100 4150 3000
Wire Wire Line
	4150 3400 4150 3600
Wire Wire Line
	4150 3600 4550 3600
$Comp
L GND #PWR07
U 1 1 57669F42
P 3300 4100
F 0 "#PWR07" H 3300 3850 50  0001 C CNN
F 1 "GND" H 3300 3950 50  0000 C CNN
F 2 "" H 3300 4100 50  0000 C CNN
F 3 "" H 3300 4100 50  0000 C CNN
	1    3300 4100
	1    0    0    -1  
$EndComp
Wire Wire Line
	3300 4100 3300 4000
Wire Wire Line
	3300 4000 3200 4000
$Comp
L VDD #PWR08
U 1 1 57669F87
P 3300 3400
F 0 "#PWR08" H 3300 3250 50  0001 C CNN
F 1 "VDD" H 3300 3550 50  0000 C CNN
F 2 "" H 3300 3400 50  0000 C CNN
F 3 "" H 3300 3400 50  0000 C CNN
	1    3300 3400
	1    0    0    -1  
$EndComp
Wire Wire Line
	3300 3400 3300 3500
Wire Wire Line
	3300 3500 3200 3500
Text Label 3300 3900 0    60   ~ 0
SCL
Text Label 3300 3800 0    60   ~ 0
SDA
Wire Wire Line
	3200 3900 3300 3900
Wire Wire Line
	3300 3800 3200 3800
Text Label 3300 3700 0    60   ~ 0
INT
Text Label 3300 3600 0    60   ~ 0
LED
Wire Wire Line
	3300 3600 3200 3600
Wire Wire Line
	3300 3700 3200 3700
Text Label 4150 3600 2    60   ~ 0
INT
Wire Wire Line
	5300 3050 5200 3050
$EndSCHEMATC
