EESchema Schematic File Version 2
LIBS:power
LIBS:device
LIBS:transistors
LIBS:conn
LIBS:linear
LIBS:regul
LIBS:74xx
LIBS:cmos4000
LIBS:adc-dac
LIBS:memory
LIBS:xilinx
LIBS:special
LIBS:microcontrollers
LIBS:dsp
LIBS:microchip
LIBS:analog_switches
LIBS:motorola
LIBS:texas
LIBS:intel
LIBS:audio
LIBS:interface
LIBS:digital-audio
LIBS:philips
LIBS:display
LIBS:cypress
LIBS:siliconi
LIBS:opto
LIBS:atmel
LIBS:contrib
LIBS:valves
LIBS:crap
LIBS:canservocan-cache
EELAYER 27 0
EELAYER END
$Descr A4 11693 8268
encoding utf-8
Sheet 1 1
Title ""
Date "3 jul 2015"
Rev ""
Comp ""
Comment1 ""
Comment2 ""
Comment3 ""
Comment4 ""
$EndDescr
Wire Notes Line
	3050 1450 3050 6600
$Comp
L CONN_6 P101
U 1 1 556B4EF7
P 2250 5700
F 0 "P101" V 2200 5700 60  0000 C CNN
F 1 "CONN_6" V 2300 5700 60  0000 C CNN
F 2 "TE_MICROMATCH_SMD_FEM_6PIN" H 2500 6250 60  0000 C CNN
F 3 "" H 2250 5700 60  0000 C CNN
	1    2250 5700
	-1   0    0    1   
$EndComp
$Comp
L TPS54531 U101
U 1 1 556B56AD
P 6600 2650
F 0 "U101" H 7000 2550 60  0000 C CNN
F 1 "TPS54531" H 6300 3300 60  0000 C CNN
F 2 "SO-POWERPAD-8" H 6450 2500 60  0000 C CNN
F 3 "" H 6600 2650 60  0000 C CNN
	1    6600 2650
	1    0    0    -1  
$EndComp
$Comp
L C C102
U 1 1 556B56B3
P 4100 2400
F 0 "C102" H 4100 2500 40  0000 L CNN
F 1 "4.7u" H 4106 2315 40  0000 L CNN
F 2 "SM1206" H 4138 2250 30  0000 C CNN
F 3 "~" H 4100 2400 60  0000 C CNN
	1    4100 2400
	1    0    0    -1  
$EndComp
$Comp
L C C103
U 1 1 556B56B9
P 4350 2400
F 0 "C103" H 4350 2500 40  0000 L CNN
F 1 "4.7u" H 4356 2315 40  0000 L CNN
F 2 "SM1206" H 4388 2250 30  0000 C CNN
F 3 "~" H 4350 2400 60  0000 C CNN
	1    4350 2400
	1    0    0    -1  
$EndComp
$Comp
L C C104
U 1 1 556B56BF
P 4600 2400
F 0 "C104" H 4600 2500 40  0000 L CNN
F 1 "0.01u" H 4606 2315 40  0000 L CNN
F 2 "SM0402" H 4638 2250 30  0000 C CNN
F 3 "~" H 4600 2400 60  0000 C CNN
	1    4600 2400
	1    0    0    -1  
$EndComp
$Comp
L AGND #PWR01
U 1 1 556B56C5
P 4350 2750
F 0 "#PWR01" H 4350 2750 40  0001 C CNN
F 1 "AGND" H 4350 2680 50  0000 C CNN
F 2 "" H 4350 2750 60  0000 C CNN
F 3 "" H 4350 2750 60  0000 C CNN
	1    4350 2750
	1    0    0    -1  
$EndComp
Wire Wire Line
	4350 2750 4350 2600
Wire Wire Line
	4100 2650 4600 2650
Wire Wire Line
	4100 2650 4100 2600
Connection ~ 4350 2650
Wire Wire Line
	4600 2650 4600 2600
$Comp
L +BATT #PWR02
U 1 1 556B56D0
P 4350 2100
F 0 "#PWR02" H 4350 2050 20  0001 C CNN
F 1 "+BATT" H 4350 2200 30  0000 C CNN
F 2 "" H 4350 2100 60  0000 C CNN
F 3 "" H 4350 2100 60  0000 C CNN
	1    4350 2100
	1    0    0    -1  
$EndComp
Wire Wire Line
	4350 2100 4350 2200
Wire Wire Line
	4100 2150 4600 2150
Wire Wire Line
	4600 2150 4600 2200
Connection ~ 4350 2150
Wire Wire Line
	4100 2150 4100 2200
$Comp
L +BATT #PWR03
U 1 1 556B56DB
P 5850 2050
F 0 "#PWR03" H 5850 2000 20  0001 C CNN
F 1 "+BATT" H 5850 2150 30  0000 C CNN
F 2 "" H 5850 2050 60  0000 C CNN
F 3 "" H 5850 2050 60  0000 C CNN
	1    5850 2050
	1    0    0    -1  
$EndComp
Wire Wire Line
	5850 2050 5850 2250
Wire Wire Line
	5850 2150 5950 2150
$Comp
L AGND #PWR04
U 1 1 556B56E3
P 5850 2700
F 0 "#PWR04" H 5850 2700 40  0001 C CNN
F 1 "AGND" H 5850 2630 50  0000 C CNN
F 2 "" H 5850 2700 60  0000 C CNN
F 3 "" H 5850 2700 60  0000 C CNN
	1    5850 2700
	1    0    0    -1  
$EndComp
Wire Wire Line
	5850 2500 5850 2700
Wire Wire Line
	5850 2600 5950 2600
Wire Wire Line
	5850 2500 5950 2500
Connection ~ 5850 2600
$Comp
L C C107
U 1 1 556B56ED
P 5450 2600
F 0 "C107" H 5450 2700 40  0000 L CNN
F 1 "0.01u" H 5456 2515 40  0000 L CNN
F 2 "SM0603" H 5488 2450 30  0000 C CNN
F 3 "~" H 5450 2600 60  0000 C CNN
	1    5450 2600
	1    0    0    -1  
$EndComp
$Comp
L AGND #PWR05
U 1 1 556B56F3
P 5450 2900
F 0 "#PWR05" H 5450 2900 40  0001 C CNN
F 1 "AGND" H 5450 2830 50  0000 C CNN
F 2 "" H 5450 2900 60  0000 C CNN
F 3 "" H 5450 2900 60  0000 C CNN
	1    5450 2900
	1    0    0    -1  
$EndComp
Wire Wire Line
	5450 2900 5450 2800
Wire Wire Line
	5450 2400 5450 2350
Wire Wire Line
	5450 2350 5950 2350
$Comp
L C C101
U 1 1 556B56FC
P 7550 2150
F 0 "C101" H 7550 2250 40  0000 L CNN
F 1 "0.1u" H 7556 2065 40  0000 L CNN
F 2 "SM0402" H 7588 2000 30  0000 C CNN
F 3 "~" H 7550 2150 60  0000 C CNN
	1    7550 2150
	0    -1   -1   0   
$EndComp
Wire Wire Line
	7200 2150 7350 2150
Wire Wire Line
	7750 2150 7750 2250
Wire Wire Line
	7750 2250 7200 2250
$Comp
L INDUCTOR L101
U 1 1 556B5705
P 8350 2150
F 0 "L101" V 8300 2150 40  0000 C CNN
F 1 "4.7u" V 8450 2150 40  0000 C CNN
F 2 "WE_SMD_INDUCTOR_1040" V 8550 2000 60  0000 C CNN
F 3 "~" H 8350 2150 60  0000 C CNN
	1    8350 2150
	0    -1   -1   0   
$EndComp
$Comp
L DIODESCH D101
U 1 1 556B570B
P 7900 2450
F 0 "D101" H 7900 2550 40  0000 C CNN
F 1 "60V 5A    B540C-13-F" H 7900 2350 40  0000 C CNN
F 2 "DIODE_SMC_B520C" H 7700 2250 60  0000 C CNN
F 3 "~" H 7900 2450 60  0000 C CNN
	1    7900 2450
	0    -1   -1   0   
$EndComp
Wire Wire Line
	7750 2150 8050 2150
Wire Wire Line
	7900 2150 7900 2250
Connection ~ 7900 2150
$Comp
L R R101
U 1 1 556B5714
P 9800 2450
F 0 "R101" V 9880 2450 40  0000 C CNN
F 1 "10.2k" V 9807 2451 40  0000 C CNN
F 2 "SM0402" V 9730 2450 30  0000 C CNN
F 3 "~" H 9800 2450 30  0000 C CNN
	1    9800 2450
	-1   0    0    1   
$EndComp
$Comp
L R R102
U 1 1 556B571A
P 9800 3100
F 0 "R102" V 9880 3100 40  0000 C CNN
F 1 "1.23k" V 9807 3101 40  0000 C CNN
F 2 "SM0402" V 9730 3100 30  0000 C CNN
F 3 "~" H 9800 3100 30  0000 C CNN
	1    9800 3100
	-1   0    0    1   
$EndComp
$Comp
L AGND #PWR06
U 1 1 556B5720
P 9800 3450
F 0 "#PWR06" H 9800 3450 40  0001 C CNN
F 1 "AGND" H 9800 3380 50  0000 C CNN
F 2 "" H 9800 3450 60  0000 C CNN
F 3 "" H 9800 3450 60  0000 C CNN
	1    9800 3450
	1    0    0    -1  
$EndComp
Wire Wire Line
	9800 3450 9800 3350
$Comp
L C C105
U 1 1 556B5727
P 8850 2500
F 0 "C105" H 8850 2600 40  0000 L CNN
F 1 "47u" H 8856 2415 40  0000 L CNN
F 2 "SM1210" H 8888 2350 30  0000 C CNN
F 3 "~" H 8850 2500 60  0000 C CNN
	1    8850 2500
	1    0    0    -1  
$EndComp
Wire Wire Line
	8650 2150 10500 2150
$Comp
L AGND #PWR07
U 1 1 556B572E
P 8850 2850
F 0 "#PWR07" H 8850 2850 40  0001 C CNN
F 1 "AGND" H 8850 2780 50  0000 C CNN
F 2 "" H 8850 2850 60  0000 C CNN
F 3 "" H 8850 2850 60  0000 C CNN
	1    8850 2850
	1    0    0    -1  
$EndComp
Wire Wire Line
	8850 2850 8850 2700
Wire Wire Line
	9800 2150 9800 2200
Wire Wire Line
	9800 2700 9800 2850
Text Label 9650 2750 2    60   ~ 0
SENS
Wire Wire Line
	9650 2750 9800 2750
Connection ~ 9800 2750
Connection ~ 9800 2150
Wire Wire Line
	10500 2150 10500 2050
Text Label 7300 2550 0    60   ~ 0
SENS
Wire Wire Line
	7300 2550 7200 2550
$Comp
L C C106
U 1 1 556B573E
P 9100 2500
F 0 "C106" H 9100 2600 40  0000 L CNN
F 1 "47u" H 9106 2415 40  0000 L CNN
F 2 "SM1210" H 9138 2350 30  0000 C CNN
F 3 "~" H 9100 2500 60  0000 C CNN
	1    9100 2500
	1    0    0    -1  
$EndComp
Wire Wire Line
	8850 2750 9100 2750
Wire Wire Line
	9100 2750 9100 2700
Connection ~ 8850 2750
Wire Wire Line
	8850 2300 8850 2150
Wire Wire Line
	8850 2250 9100 2250
Wire Wire Line
	9100 2250 9100 2300
Connection ~ 8850 2250
Connection ~ 8850 2150
$Comp
L C C108
U 1 1 556B574C
P 7600 3050
F 0 "C108" H 7600 3150 40  0000 L CNN
F 1 "2200p" H 7606 2965 40  0000 L CNN
F 2 "SM0402" H 7638 2900 30  0000 C CNN
F 3 "~" H 7600 3050 60  0000 C CNN
	1    7600 3050
	1    0    0    -1  
$EndComp
$Comp
L C C109
U 1 1 556B5752
P 7250 3350
F 0 "C109" H 7250 3450 40  0000 L CNN
F 1 "22p" H 7256 3265 40  0000 L CNN
F 2 "SM0402" H 7288 3200 30  0000 C CNN
F 3 "~" H 7250 3350 60  0000 C CNN
	1    7250 3350
	1    0    0    -1  
$EndComp
$Comp
L R R103
U 1 1 556B5758
P 7600 3600
F 0 "R103" V 7680 3600 40  0000 C CNN
F 1 "37.4k" V 7607 3601 40  0000 C CNN
F 2 "SM0402" V 7530 3600 30  0000 C CNN
F 3 "~" H 7600 3600 30  0000 C CNN
	1    7600 3600
	1    0    0    -1  
$EndComp
$Comp
L AGND #PWR08
U 1 1 556B575E
P 7600 3950
F 0 "#PWR08" H 7600 3950 40  0001 C CNN
F 1 "AGND" H 7600 3880 50  0000 C CNN
F 2 "" H 7600 3950 60  0000 C CNN
F 3 "" H 7600 3950 60  0000 C CNN
	1    7600 3950
	1    0    0    -1  
$EndComp
Wire Wire Line
	7600 3950 7600 3850
Connection ~ 7600 3900
Wire Wire Line
	7600 3350 7600 3250
Wire Wire Line
	7600 2450 7600 2850
Wire Wire Line
	7600 2450 7200 2450
Connection ~ 7600 2750
Wire Wire Line
	7250 3900 7900 3900
Wire Wire Line
	7250 3900 7250 3550
Wire Wire Line
	7250 3150 7250 2750
Wire Wire Line
	7250 2750 7600 2750
Wire Wire Line
	7900 3900 7900 2650
Text Notes 9150 3700 0    60   ~ 0
Vout = 0.8 * (1 + R5/R6)\nVout = 7.4V
$Comp
L +6V #PWR09
U 1 1 556B5771
P 10500 2050
F 0 "#PWR09" H 10500 2180 20  0001 C CNN
F 1 "+6V" H 10500 2150 30  0000 C CNN
F 2 "" H 10500 2050 60  0000 C CNN
F 3 "" H 10500 2050 60  0000 C CNN
	1    10500 2050
	1    0    0    -1  
$EndComp
$Comp
L CONN_6 P102
U 1 1 556B5777
P 3850 5700
F 0 "P102" V 3800 5700 60  0000 C CNN
F 1 "CONN_6" V 3900 5700 60  0000 C CNN
F 2 "TE_MICROMATCH_SMD_FEM_6PIN" H 4100 6300 60  0000 C CNN
F 3 "" H 3850 5700 60  0000 C CNN
	1    3850 5700
	1    0    0    1   
$EndComp
Wire Wire Line
	2600 5750 3500 5750
Wire Wire Line
	3500 5650 2600 5650
$Comp
L AGND #PWR010
U 1 1 556B5804
P 3400 6050
F 0 "#PWR010" H 3400 6050 40  0001 C CNN
F 1 "AGND" H 3400 5980 50  0000 C CNN
F 2 "" H 3400 6050 60  0000 C CNN
F 3 "" H 3400 6050 60  0000 C CNN
	1    3400 6050
	1    0    0    -1  
$EndComp
Wire Wire Line
	3400 5850 3400 6050
Wire Wire Line
	3400 5950 3500 5950
Wire Wire Line
	3400 5850 3500 5850
Connection ~ 3400 5950
$Comp
L +6V #PWR011
U 1 1 556B588B
P 3400 5350
F 0 "#PWR011" H 3400 5480 20  0001 C CNN
F 1 "+6V" H 3400 5450 30  0000 C CNN
F 2 "" H 3400 5350 60  0000 C CNN
F 3 "" H 3400 5350 60  0000 C CNN
	1    3400 5350
	1    0    0    -1  
$EndComp
Wire Wire Line
	3400 5350 3400 5550
Wire Wire Line
	3400 5450 3500 5450
Wire Wire Line
	3400 5550 3500 5550
Connection ~ 3400 5450
Wire Wire Line
	5850 2250 5950 2250
Connection ~ 5850 2150
$Comp
L CONN_2 P103
U 1 1 556B5977
P 8000 5800
F 0 "P103" V 7950 5800 40  0000 C CNN
F 1 "CONN_2" V 8050 5800 40  0000 C CNN
F 2 "WE_CONN_3.81_vertical_2way" H 8000 6200 60  0000 C CNN
F 3 "" H 8000 5800 60  0000 C CNN
	1    8000 5800
	1    0    0    1   
$EndComp
$Comp
L AGND #PWR012
U 1 1 556B5986
P 7550 6000
F 0 "#PWR012" H 7550 6000 40  0001 C CNN
F 1 "AGND" H 7550 5930 50  0000 C CNN
F 2 "" H 7550 6000 60  0000 C CNN
F 3 "" H 7550 6000 60  0000 C CNN
	1    7550 6000
	1    0    0    -1  
$EndComp
Wire Wire Line
	7550 6000 7550 5900
Wire Wire Line
	7550 5900 7650 5900
$Comp
L +BATT #PWR013
U 1 1 556B59D7
P 7550 5600
F 0 "#PWR013" H 7550 5550 20  0001 C CNN
F 1 "+BATT" H 7550 5700 30  0000 C CNN
F 2 "" H 7550 5600 60  0000 C CNN
F 3 "" H 7550 5600 60  0000 C CNN
	1    7550 5600
	1    0    0    -1  
$EndComp
Wire Wire Line
	7550 5600 7550 5700
Wire Wire Line
	7550 5700 7650 5700
$Comp
L GND #PWR014
U 1 1 5573FE00
P 2700 6050
F 0 "#PWR014" H 2700 6050 30  0001 C CNN
F 1 "GND" H 2700 5980 30  0001 C CNN
F 2 "" H 2700 6050 60  0000 C CNN
F 3 "" H 2700 6050 60  0000 C CNN
	1    2700 6050
	1    0    0    -1  
$EndComp
Wire Wire Line
	2700 5850 2700 6050
Wire Wire Line
	2700 5950 2600 5950
Wire Wire Line
	2700 5850 2600 5850
Connection ~ 2700 5950
$Comp
L +5V #PWR015
U 1 1 5573FEED
P 2700 5350
F 0 "#PWR015" H 2700 5440 20  0001 C CNN
F 1 "+5V" H 2700 5440 30  0000 C CNN
F 2 "" H 2700 5350 60  0000 C CNN
F 3 "" H 2700 5350 60  0000 C CNN
	1    2700 5350
	1    0    0    -1  
$EndComp
Wire Wire Line
	2700 5350 2700 5550
Wire Wire Line
	2700 5450 2600 5450
Wire Wire Line
	2700 5550 2600 5550
Connection ~ 2700 5450
Text Label 2700 5750 0    60   ~ 0
CANL
Text Label 2700 5650 0    60   ~ 0
CANH
$EndSCHEMATC
