EESchema Schematic File Version 2
LIBS:canmotor-rescue
LIBS:power
LIBS:device
LIBS:transistors
LIBS:conn
LIBS:linear
LIBS:regul
LIBS:74xx
LIBS:cmos4000
LIBS:adc-dac
LIBS:memory
LIBS:xilinx
LIBS:microcontrollers
LIBS:dsp
LIBS:microchip
LIBS:analog_switches
LIBS:motorola
LIBS:texas
LIBS:intel
LIBS:audio
LIBS:interface
LIBS:digital-audio
LIBS:philips
LIBS:display
LIBS:cypress
LIBS:siliconi
LIBS:opto
LIBS:atmel
LIBS:contrib
LIBS:valves
LIBS:crap
LIBS:canmotor-cache
EELAYER 25 0
EELAYER END
$Descr A4 11693 8268
encoding utf-8
Sheet 4 7
Title ""
Date "30 sep 2015"
Rev ""
Comp ""
Comment1 ""
Comment2 ""
Comment3 ""
Comment4 ""
$EndDescr
$Comp
L LMR14203 U401
U 1 1 5574A4A6
P 3800 2450
F 0 "U401" H 4100 2200 60  0000 C CNN
F 1 "LMR14203" H 3550 2700 60  0000 C CNN
F 2 "SOT-6L" H 3750 2150 60  0000 C CNN
F 3 "" H 3900 2200 60  0000 C CNN
	1    3800 2450
	1    0    0    -1  
$EndComp
$Comp
L +BATT #PWR041
U 1 1 5574A4AC
P 3150 2250
F 0 "#PWR041" H 3150 2200 20  0001 C CNN
F 1 "+BATT" H 3150 2350 30  0000 C CNN
F 2 "" H 3150 2250 60  0000 C CNN
F 3 "" H 3150 2250 60  0000 C CNN
	1    3150 2250
	1    0    0    -1  
$EndComp
Wire Wire Line
	3150 2250 3150 2450
Wire Wire Line
	3150 2350 3250 2350
$Comp
L AGND #PWR042
U 1 1 5574A4B4
P 3150 2650
F 0 "#PWR042" H 3150 2650 40  0001 C CNN
F 1 "AGND" H 3150 2580 50  0000 C CNN
F 2 "" H 3150 2650 60  0000 C CNN
F 3 "" H 3150 2650 60  0000 C CNN
	1    3150 2650
	1    0    0    -1  
$EndComp
Wire Wire Line
	3150 2650 3150 2550
Wire Wire Line
	3150 2550 3250 2550
Wire Wire Line
	3150 2450 3250 2450
Connection ~ 3150 2350
$Comp
L C-RESCUE-canmotor C402
U 1 1 5574A4BE
P 2450 2450
F 0 "C402" H 2450 2550 40  0000 L CNN
F 1 "2.2u" H 2456 2365 40  0000 L CNN
F 2 "SM0805" H 2488 2300 30  0000 C CNN
F 3 "~" H 2450 2450 60  0000 C CNN
	1    2450 2450
	1    0    0    -1  
$EndComp
$Comp
L AGND #PWR043
U 1 1 5574A4C4
P 2450 2750
F 0 "#PWR043" H 2450 2750 40  0001 C CNN
F 1 "AGND" H 2450 2680 50  0000 C CNN
F 2 "" H 2450 2750 60  0000 C CNN
F 3 "" H 2450 2750 60  0000 C CNN
	1    2450 2750
	1    0    0    -1  
$EndComp
Wire Wire Line
	2450 2750 2450 2650
$Comp
L +BATT #PWR044
U 1 1 5574A4CB
P 2450 2150
F 0 "#PWR044" H 2450 2100 20  0001 C CNN
F 1 "+BATT" H 2450 2250 30  0000 C CNN
F 2 "" H 2450 2150 60  0000 C CNN
F 3 "" H 2450 2150 60  0000 C CNN
	1    2450 2150
	1    0    0    -1  
$EndComp
Wire Wire Line
	2450 2150 2450 2250
$Comp
L R-RESCUE-canmotor R401
U 1 1 5574A4D2
P 6050 2450
F 0 "R401" V 6130 2450 40  0000 C CNN
F 1 "5.62k" V 6057 2451 40  0000 C CNN
F 2 "SM0402" V 5980 2450 30  0000 C CNN
F 3 "~" H 6050 2450 30  0000 C CNN
	1    6050 2450
	-1   0    0    1   
$EndComp
$Comp
L R-RESCUE-canmotor R402
U 1 1 5574A4D8
P 6050 3100
F 0 "R402" V 6130 3100 40  0000 C CNN
F 1 "1.02k" V 6057 3101 40  0000 C CNN
F 2 "SM0402" V 5980 3100 30  0000 C CNN
F 3 "~" H 6050 3100 30  0000 C CNN
	1    6050 3100
	-1   0    0    1   
$EndComp
$Comp
L AGND #PWR045
U 1 1 5574A4DE
P 6050 3450
F 0 "#PWR045" H 6050 3450 40  0001 C CNN
F 1 "AGND" H 6050 3380 50  0000 C CNN
F 2 "" H 6050 3450 60  0000 C CNN
F 3 "" H 6050 3450 60  0000 C CNN
	1    6050 3450
	1    0    0    -1  
$EndComp
Wire Wire Line
	6050 3450 6050 3350
$Comp
L C-RESCUE-canmotor C403
U 1 1 5574A4E5
P 6450 2500
F 0 "C403" H 6450 2600 40  0000 L CNN
F 1 "47u" H 6456 2415 40  0000 L CNN
F 2 "SM1210" H 6488 2350 30  0000 C CNN
F 3 "~" H 6450 2500 60  0000 C CNN
	1    6450 2500
	1    0    0    -1  
$EndComp
Wire Wire Line
	5850 2150 6750 2150
Wire Wire Line
	6450 2150 6450 2300
$Comp
L AGND #PWR046
U 1 1 5574A4ED
P 6450 2850
F 0 "#PWR046" H 6450 2850 40  0001 C CNN
F 1 "AGND" H 6450 2780 50  0000 C CNN
F 2 "" H 6450 2850 60  0000 C CNN
F 3 "" H 6450 2850 60  0000 C CNN
	1    6450 2850
	1    0    0    -1  
$EndComp
Wire Wire Line
	6450 2850 6450 2700
$Comp
L C-RESCUE-canmotor C401
U 1 1 5574A4F4
P 4700 2150
F 0 "C401" H 4700 2250 40  0000 L CNN
F 1 "0.15u" H 4706 2065 40  0000 L CNN
F 2 "SM0603" H 4738 2000 30  0000 C CNN
F 3 "~" H 4700 2150 60  0000 C CNN
	1    4700 2150
	0    -1   -1   0   
$EndComp
Wire Wire Line
	4300 2350 4400 2350
Wire Wire Line
	4400 2350 4400 2150
Wire Wire Line
	4400 2150 4500 2150
Wire Wire Line
	5000 2450 4300 2450
Wire Wire Line
	5000 2150 5000 2450
Wire Wire Line
	4900 2150 5250 2150
$Comp
L INDUCTOR L401
U 1 1 5574A500
P 5550 2150
F 0 "L401" V 5500 2150 40  0000 C CNN
F 1 "15u" V 5650 2150 40  0000 C CNN
F 2 "SM1812" V 5750 2200 60  0000 C CNN
F 3 "~" H 5550 2150 60  0000 C CNN
	1    5550 2150
	0    -1   -1   0   
$EndComp
Connection ~ 5000 2150
$Comp
L DIODESCH D401
U 1 1 5574A507
P 5150 2450
F 0 "D401" H 5150 2550 40  0000 C CNN
F 1 "DIODE" H 5150 2350 40  0000 C CNN
F 2 "SOD-123" H 5150 2450 60  0000 C CNN
F 3 "~" H 5150 2450 60  0000 C CNN
	1    5150 2450
	0    -1   -1   0   
$EndComp
Wire Wire Line
	5150 2150 5150 2250
Connection ~ 5150 2150
$Comp
L AGND #PWR047
U 1 1 5574A50F
P 5150 2750
F 0 "#PWR047" H 5150 2750 40  0001 C CNN
F 1 "AGND" H 5150 2680 50  0000 C CNN
F 2 "" H 5150 2750 60  0000 C CNN
F 3 "" H 5150 2750 60  0000 C CNN
	1    5150 2750
	1    0    0    -1  
$EndComp
Wire Wire Line
	5150 2750 5150 2650
Wire Wire Line
	6050 2150 6050 2200
Wire Wire Line
	6050 2700 6050 2850
Text Label 5900 2750 2    60   ~ 0
FB
Wire Wire Line
	5900 2750 6050 2750
Connection ~ 6050 2750
Text Label 4400 2550 0    60   ~ 0
FB
Wire Wire Line
	4400 2550 4300 2550
Connection ~ 6050 2150
Wire Wire Line
	6750 2150 6750 2050
Connection ~ 6450 2150
$Comp
L +5VA #PWR048
U 1 1 5574A520
P 6750 2050
F 0 "#PWR048" H 6750 2180 20  0001 C CNN
F 1 "+5VA" H 6750 2150 30  0000 C CNN
F 2 "" H 6750 2050 60  0000 C CNN
F 3 "" H 6750 2050 60  0000 C CNN
	1    6750 2050
	1    0    0    -1  
$EndComp
Text Notes 5550 3750 0    60   ~ 0
Vout = 0.765 * (1+R1/R2)\nVout = 4.98
$Comp
L LED-RESCUE-canmotor D402
U 1 1 5574A527
P 8800 2800
F 0 "D402" H 8800 2900 50  0000 C CNN
F 1 "LED" H 8800 2700 50  0000 C CNN
F 2 "LED-0603" H 8800 2800 60  0000 C CNN
F 3 "~" H 8800 2800 60  0000 C CNN
	1    8800 2800
	0    1    1    0   
$EndComp
$Comp
L R-RESCUE-canmotor R403
U 1 1 5574A52D
P 8800 3350
F 0 "R403" V 8880 3350 40  0000 C CNN
F 1 "1k" V 8807 3351 40  0000 C CNN
F 2 "SM0402" V 8730 3350 30  0000 C CNN
F 3 "~" H 8800 3350 30  0000 C CNN
	1    8800 3350
	1    0    0    -1  
$EndComp
$Comp
L AGND #PWR049
U 1 1 5574A533
P 8800 3700
F 0 "#PWR049" H 8800 3700 40  0001 C CNN
F 1 "AGND" H 8800 3630 50  0000 C CNN
F 2 "" H 8800 3700 60  0000 C CNN
F 3 "" H 8800 3700 60  0000 C CNN
	1    8800 3700
	1    0    0    -1  
$EndComp
Wire Wire Line
	8800 3700 8800 3600
Wire Wire Line
	8800 3100 8800 3000
Wire Wire Line
	8800 2600 8800 2500
$Comp
L +5VA #PWR050
U 1 1 5574A53C
P 8800 2500
F 0 "#PWR050" H 8800 2630 20  0001 C CNN
F 1 "+5VA" H 8800 2600 30  0000 C CNN
F 2 "" H 8800 2500 60  0000 C CNN
F 3 "" H 8800 2500 60  0000 C CNN
	1    8800 2500
	1    0    0    -1  
$EndComp
$EndSCHEMATC
