EESchema Schematic File Version 2
LIBS:canmotor-rescue
LIBS:power
LIBS:device
LIBS:transistors
LIBS:conn
LIBS:linear
LIBS:regul
LIBS:74xx
LIBS:cmos4000
LIBS:adc-dac
LIBS:memory
LIBS:xilinx
LIBS:microcontrollers
LIBS:dsp
LIBS:microchip
LIBS:analog_switches
LIBS:motorola
LIBS:texas
LIBS:intel
LIBS:audio
LIBS:interface
LIBS:digital-audio
LIBS:philips
LIBS:display
LIBS:cypress
LIBS:siliconi
LIBS:opto
LIBS:atmel
LIBS:contrib
LIBS:valves
LIBS:crap
LIBS:canmotor-cache
EELAYER 25 0
EELAYER END
$Descr A4 11693 8268
encoding utf-8
Sheet 6 7
Title ""
Date "30 sep 2015"
Rev ""
Comp ""
Comment1 ""
Comment2 ""
Comment3 ""
Comment4 ""
$EndDescr
Text HLabel 6400 3700 2    60   BiDi ~ 0
CANL
Text HLabel 6400 3800 2    60   BiDi ~ 0
CANH
Wire Wire Line
	6400 3800 6250 3800
Wire Wire Line
	6250 3700 6400 3700
$Comp
L SN65HVD234 U601
U 1 1 55747004
P 5550 3800
F 0 "U601" H 6100 3400 60  0000 C CNN
F 1 "SN65HVD234" H 5400 4150 60  0000 C CNN
F 2 "SOIC-8_N" H 5500 3400 60  0000 C CNN
F 3 "~" H 5500 3400 60  0000 C CNN
	1    5550 3800
	1    0    0    -1  
$EndComp
$Comp
L GND-RESCUE-canmotor #PWR060
U 1 1 5574700A
P 6400 4100
F 0 "#PWR060" H 6400 4100 30  0001 C CNN
F 1 "GND" H 6400 4030 30  0001 C CNN
F 2 "" H 6400 4100 60  0000 C CNN
F 3 "" H 6400 4100 60  0000 C CNN
	1    6400 4100
	1    0    0    -1  
$EndComp
$Comp
L GND-RESCUE-canmotor #PWR061
U 1 1 55747010
P 4850 4200
F 0 "#PWR061" H 4850 4200 30  0001 C CNN
F 1 "GND" H 4850 4130 30  0001 C CNN
F 2 "" H 4850 4200 60  0000 C CNN
F 3 "" H 4850 4200 60  0000 C CNN
	1    4850 4200
	1    0    0    -1  
$EndComp
Wire Wire Line
	4850 4200 4850 4100
Wire Wire Line
	4850 4100 5000 4100
Wire Wire Line
	6400 4100 6400 3950
Wire Wire Line
	6400 3950 6250 3950
Wire Wire Line
	4850 3450 4850 3600
Wire Wire Line
	4850 3600 5000 3600
Text Notes 5150 3300 0    60   ~ 0
Local CAN, always active, connected to STM
Text HLabel 4700 3750 0    60   Input ~ 0
LOCAL_TX
Text HLabel 4700 3850 0    60   Output ~ 0
LOCAL_RX
Wire Wire Line
	4700 3850 5000 3850
Wire Wire Line
	4700 3750 5000 3750
Wire Wire Line
	4800 4000 5000 4000
$Comp
L C-RESCUE-canmotor C601
U 1 1 55747022
P 3700 3950
F 0 "C601" H 3700 4050 40  0000 L CNN
F 1 "0.1u" H 3706 3865 40  0000 L CNN
F 2 "SM0402" H 3738 3800 30  0000 C CNN
F 3 "~" H 3700 3950 60  0000 C CNN
	1    3700 3950
	1    0    0    -1  
$EndComp
$Comp
L GND-RESCUE-canmotor #PWR062
U 1 1 55747028
P 3700 4250
F 0 "#PWR062" H 3700 4250 30  0001 C CNN
F 1 "GND" H 3700 4180 30  0001 C CNN
F 2 "" H 3700 4250 60  0000 C CNN
F 3 "" H 3700 4250 60  0000 C CNN
	1    3700 4250
	1    0    0    -1  
$EndComp
Wire Wire Line
	3700 3650 3700 3750
Wire Wire Line
	3700 4150 3700 4250
$Comp
L R-RESCUE-canmotor R601
U 1 1 55747030
P 4550 4000
F 0 "R601" V 4630 4000 40  0000 C CNN
F 1 "R" V 4557 4001 40  0000 C CNN
F 2 "SM0402" V 4480 4000 30  0000 C CNN
F 3 "~" H 4550 4000 30  0000 C CNN
	1    4550 4000
	0    -1   -1   0   
$EndComp
Wire Wire Line
	4150 4000 4300 4000
$Comp
L VDD #PWR063
U 1 1 55747037
P 4850 3450
F 0 "#PWR063" H 4850 3550 30  0001 C CNN
F 1 "VDD" H 4850 3560 30  0000 C CNN
F 2 "" H 4850 3450 60  0000 C CNN
F 3 "" H 4850 3450 60  0000 C CNN
	1    4850 3450
	1    0    0    -1  
$EndComp
$Comp
L VDD #PWR064
U 1 1 5574703D
P 3700 3650
F 0 "#PWR064" H 3700 3750 30  0001 C CNN
F 1 "VDD" H 3700 3760 30  0000 C CNN
F 2 "" H 3700 3650 60  0000 C CNN
F 3 "" H 3700 3650 60  0000 C CNN
	1    3700 3650
	1    0    0    -1  
$EndComp
$Comp
L VDD #PWR065
U 1 1 55747043
P 4150 4000
F 0 "#PWR065" H 4150 4100 30  0001 C CNN
F 1 "VDD" H 4150 4110 30  0000 C CNN
F 2 "" H 4150 4000 60  0000 C CNN
F 3 "" H 4150 4000 60  0000 C CNN
	1    4150 4000
	0    -1   -1   0   
$EndComp
$EndSCHEMATC
