EESchema Schematic File Version 2
LIBS:canmotor-rescue
LIBS:power
LIBS:device
LIBS:transistors
LIBS:conn
LIBS:linear
LIBS:regul
LIBS:74xx
LIBS:cmos4000
LIBS:adc-dac
LIBS:memory
LIBS:xilinx
LIBS:microcontrollers
LIBS:dsp
LIBS:microchip
LIBS:analog_switches
LIBS:motorola
LIBS:texas
LIBS:intel
LIBS:audio
LIBS:interface
LIBS:digital-audio
LIBS:philips
LIBS:display
LIBS:cypress
LIBS:siliconi
LIBS:opto
LIBS:atmel
LIBS:contrib
LIBS:valves
LIBS:crap
LIBS:canmotor-cache
EELAYER 25 0
EELAYER END
$Descr A4 11693 8268
encoding utf-8
Sheet 1 7
Title ""
Date "30 sep 2015"
Rev ""
Comp ""
Comment1 ""
Comment2 ""
Comment3 ""
Comment4 ""
$EndDescr
$Sheet
S 4950 2800 1650 2350
U 556CAD81
F0 "isolator" 50
F1 "isolator.sch" 50
F2 "P_MOT_DISABLE" O R 6600 4250 60 
F3 "P_MOT_INV" O R 6600 4100 60 
F4 "P_POWER_EN" O R 6600 3000 60 
F5 "P_POWER_GOOD" I R 6600 3150 60 
F6 "P_MOT_CUR" I R 6600 4850 60 
F7 "MOT_DISABLE" I L 4950 4250 60 
F8 "MOT_INV" I L 4950 4100 60 
F9 "POWER_EN" I L 4950 3000 60 
F10 "POWER_GOOD" O L 4950 3150 60 
F11 "MOT_CUR" O L 4950 4400 60 
F12 "~MOT_CUR" O L 4950 4550 60 
$EndSheet
$Sheet
S 7550 4050 1250 1100
U 556CAD96
F0 "Motor" 50
F1 "motor.sch" 50
F2 "OUT1" O R 8800 4500 60 
F3 "OUT2" O R 8800 4650 60 
F4 "INV" I L 7550 4450 60 
F5 "EN" I L 7550 4300 60 
F6 "DISABLE" I L 7550 4600 60 
F7 "CUR" O L 7550 4850 60 
$EndSheet
$Sheet
S 7650 2050 1000 450 
U 556CAD9D
F0 "A power" 50
F1 "A_power.sch" 50
$EndSheet
$Sheet
S 2850 1750 600  350 
U 556CADA6
F0 "Power" 50
F1 "power.sch" 50
$EndSheet
$Sheet
S 2400 3350 950  450 
U 556CADAF
F0 "CAN" 50
F1 "CAN.sch" 50
F2 "CANL" B L 2400 3550 60 
F3 "CANH" B L 2400 3650 60 
F4 "LOCAL_TX" I R 3350 3500 60 
F5 "LOCAL_RX" O R 3350 3650 60 
$EndSheet
$Comp
L GND-RESCUE-canmotor #PWR01
U 1 1 55747FB1
P 1450 3950
F 0 "#PWR01" H 1450 3950 30  0001 C CNN
F 1 "GND" H 1450 3880 30  0001 C CNN
F 2 "" H 1450 3950 60  0000 C CNN
F 3 "" H 1450 3950 60  0000 C CNN
	1    1450 3950
	1    0    0    -1  
$EndComp
$Comp
L +5V #PWR02
U 1 1 55747FB7
P 1450 3250
F 0 "#PWR02" H 1450 3340 20  0001 C CNN
F 1 "+5V" H 1450 3340 30  0000 C CNN
F 2 "" H 1450 3250 60  0000 C CNN
F 3 "" H 1450 3250 60  0000 C CNN
	1    1450 3250
	1    0    0    -1  
$EndComp
Text Label 1350 3650 0    60   ~ 0
CANL
Text Label 1350 3550 0    60   ~ 0
CANH
Wire Wire Line
	1450 3250 1450 3450
Wire Wire Line
	1450 3350 1350 3350
Wire Wire Line
	1450 3450 1350 3450
Connection ~ 1450 3350
Wire Wire Line
	1350 3850 1450 3850
Wire Wire Line
	1450 3750 1450 3950
Wire Wire Line
	1350 3750 1450 3750
Connection ~ 1450 3850
Wire Notes Line
	1650 4100 800  4100
$Comp
L CONN_6 P102
U 1 1 55747FC8
P 1000 3600
F 0 "P102" V 950 3600 60  0000 C CNN
F 1 "CONN_6" V 1050 3600 60  0000 C CNN
F 2 "TE_MICROMATCH_SMD_FEM_6PIN" H 750 4150 60  0000 C CNN
F 3 "" H 1000 3600 60  0000 C CNN
	1    1000 3600
	-1   0    0    1   
$EndComp
Wire Notes Line
	1650 4100 1650 3050
Wire Notes Line
	1650 3050 800  3050
Wire Notes Line
	800  3050 800  4100
Text Label 2300 3550 2    60   ~ 0
CANL
Text Label 2300 3650 2    60   ~ 0
CANH
Wire Wire Line
	2300 3650 2400 3650
Wire Wire Line
	2400 3550 2300 3550
Text Label 3400 3500 0    60   ~ 0
CAN_TX
Text Label 3400 3650 0    60   ~ 0
CAN_RX
Wire Wire Line
	3400 3650 3350 3650
Wire Wire Line
	3350 3500 3400 3500
Text Label 2000 5600 2    60   ~ 0
CAN_TX
Wire Wire Line
	2000 5600 2100 5600
Text Label 2000 5500 2    60   ~ 0
CAN_RX
Wire Wire Line
	2000 5500 2100 5500
$Comp
L CONN_2 P101
U 1 1 5574C879
P 10600 1500
F 0 "P101" V 10550 1500 40  0000 C CNN
F 1 "CONN_2" V 10650 1500 40  0000 C CNN
F 2 "WE_CONN_3.81_vertical_2way" H 10450 1950 60  0000 C CNN
F 3 "" H 10600 1500 60  0000 C CNN
	1    10600 1500
	1    0    0    1   
$EndComp
$Comp
L AGND #PWR03
U 1 1 5574C9A5
P 10150 1750
F 0 "#PWR03" H 10150 1750 40  0001 C CNN
F 1 "AGND" H 10150 1680 50  0000 C CNN
F 2 "" H 10150 1750 60  0000 C CNN
F 3 "" H 10150 1750 60  0000 C CNN
	1    10150 1750
	1    0    0    -1  
$EndComp
Wire Wire Line
	10150 1750 10150 1600
Wire Wire Line
	10150 1600 10250 1600
$Comp
L +BATT #PWR04
U 1 1 5574CA01
P 10150 1300
F 0 "#PWR04" H 10150 1250 20  0001 C CNN
F 1 "+BATT" H 10150 1400 30  0000 C CNN
F 2 "" H 10150 1300 60  0000 C CNN
F 3 "" H 10150 1300 60  0000 C CNN
	1    10150 1300
	1    0    0    -1  
$EndComp
Wire Wire Line
	10150 1300 10150 1400
Wire Wire Line
	10150 1400 10250 1400
Wire Notes Line
	9750 2100 11000 2100
Wire Notes Line
	11000 2100 11000 1050
Wire Notes Line
	11000 1050 9750 1050
Wire Notes Line
	9750 1050 9750 2100
$Comp
L CONN_2 P103
U 1 1 5574D3F2
P 10250 4600
F 0 "P103" V 10200 4600 40  0000 C CNN
F 1 "CONN_2" V 10300 4600 40  0000 C CNN
F 2 "WE_CONN_3.81_vertical_2way" H 10250 4150 60  0000 C CNN
F 3 "" H 10250 4600 60  0000 C CNN
	1    10250 4600
	1    0    0    -1  
$EndComp
Wire Wire Line
	9900 4500 8800 4500
Wire Wire Line
	8800 4650 9350 4650
Wire Wire Line
	9350 4650 9350 4700
Wire Wire Line
	9350 4700 9900 4700
$Comp
L CONN_6 P104
U 1 1 5574D822
P 6150 7050
F 0 "P104" V 6100 7050 60  0000 C CNN
F 1 "CONN_6" V 6200 7050 60  0000 C CNN
F 2 "he10-6d" V 6300 7050 60  0000 C CNN
F 3 "" H 6150 7050 60  0000 C CNN
	1    6150 7050
	1    0    0    1   
$EndComp
NoConn ~ 5800 7300
NoConn ~ 5800 7200
$Comp
L GND-RESCUE-canmotor #PWR05
U 1 1 5574D8DC
P 5650 7100
F 0 "#PWR05" H 5650 7100 30  0001 C CNN
F 1 "GND" H 5650 7030 30  0001 C CNN
F 2 "" H 5650 7100 60  0000 C CNN
F 3 "" H 5650 7100 60  0000 C CNN
	1    5650 7100
	0    1    1    0   
$EndComp
Wire Wire Line
	5650 7100 5800 7100
$Comp
L +5V #PWR06
U 1 1 5574D944
P 5650 7000
F 0 "#PWR06" H 5650 7090 20  0001 C CNN
F 1 "+5V" H 5650 7090 30  0000 C CNN
F 2 "" H 5650 7000 60  0000 C CNN
F 3 "" H 5650 7000 60  0000 C CNN
	1    5650 7000
	0    -1   -1   0   
$EndComp
Wire Wire Line
	5650 7000 5800 7000
Text Label 5100 6900 2    60   ~ 0
ENC_B
Text Label 5100 6800 2    60   ~ 0
ENC_A
$Comp
L R-RESCUE-canmotor R101
U 1 1 5574DCA4
P 5450 6800
F 0 "R101" V 5530 6800 40  0000 C CNN
F 1 "300" V 5457 6801 40  0000 C CNN
F 2 "SM0402" V 5380 6800 30  0000 C CNN
F 3 "~" H 5450 6800 30  0000 C CNN
	1    5450 6800
	0    -1   -1   0   
$EndComp
$Comp
L R-RESCUE-canmotor R102
U 1 1 5574DCB3
P 5450 6900
F 0 "R102" V 5530 6900 40  0000 C CNN
F 1 "300" V 5457 6901 40  0000 C CNN
F 2 "SM0402" V 5380 6900 30  0000 C CNN
F 3 "~" H 5450 6900 30  0000 C CNN
	1    5450 6900
	0    -1   -1   0   
$EndComp
Wire Wire Line
	5700 6800 5800 6800
Wire Wire Line
	5800 6900 5700 6900
Wire Wire Line
	5100 6900 5200 6900
Wire Wire Line
	5100 6800 5200 6800
Text Label 4100 5800 0    60   ~ 0
ENC_A
Text Label 4100 5900 0    60   ~ 0
ENC_B
Wire Wire Line
	4100 5900 4000 5900
Wire Wire Line
	4000 5800 4100 5800
Wire Notes Line
	4750 6600 6350 6600
Wire Notes Line
	6350 6600 6350 7450
Wire Notes Line
	6350 7450 4750 7450
Wire Notes Line
	4750 7450 4750 6600
Text Notes 4750 7450 0    60   ~ 0
Encoder input
$Comp
L CONN_3 K101
U 1 1 5574E494
P 6150 6050
F 0 "K101" V 6100 6050 50  0000 C CNN
F 1 "CONN_3" V 6200 6050 40  0000 C CNN
F 2 "PIN_ARRAY_3X1" H 6250 6250 60  0000 C CNN
F 3 "" H 6150 6050 60  0000 C CNN
	1    6150 6050
	1    0    0    1   
$EndComp
$Comp
L GND-RESCUE-canmotor #PWR07
U 1 1 5574E4A3
P 5700 6250
F 0 "#PWR07" H 5700 6250 30  0001 C CNN
F 1 "GND" H 5700 6180 30  0001 C CNN
F 2 "" H 5700 6250 60  0000 C CNN
F 3 "" H 5700 6250 60  0000 C CNN
	1    5700 6250
	1    0    0    -1  
$EndComp
Wire Wire Line
	5700 6250 5700 6150
Wire Wire Line
	5700 6150 5800 6150
$Comp
L VDD #PWR08
U 1 1 5574E517
P 5700 5850
F 0 "#PWR08" H 5700 5950 30  0001 C CNN
F 1 "VDD" H 5700 5960 30  0000 C CNN
F 2 "" H 5700 5850 60  0000 C CNN
F 3 "" H 5700 5850 60  0000 C CNN
	1    5700 5850
	1    0    0    -1  
$EndComp
Wire Wire Line
	5700 5850 5700 5950
Wire Wire Line
	5700 5950 5800 5950
Text Label 5750 6050 2    60   ~ 0
POT
Wire Wire Line
	5700 6050 5800 6050
Wire Notes Line
	5000 6400 6350 6400
Wire Notes Line
	5000 5600 5000 6400
Text Notes 5000 6400 0    60   ~ 0
Potar input
Wire Notes Line
	5000 5600 6350 5600
Wire Notes Line
	6350 5600 6350 6400
Text Label 4100 5700 0    60   ~ 0
POT
Wire Wire Line
	4100 5700 4000 5700
Wire Wire Line
	6600 3000 7200 3000
Wire Wire Line
	7200 3000 7200 4300
Wire Wire Line
	7200 4300 7550 4300
Wire Wire Line
	6750 3000 6750 3150
Wire Wire Line
	6750 3150 6600 3150
Connection ~ 6750 3000
Wire Wire Line
	6600 4100 7050 4100
Wire Wire Line
	7050 4100 7050 4450
Wire Wire Line
	7050 4450 7550 4450
Wire Wire Line
	6600 4250 6950 4250
Wire Wire Line
	6950 4250 6950 4600
Wire Wire Line
	6950 4600 7550 4600
$Sheet
S 2100 5000 1900 1700
U 556CAD6F
F0 "MCU" 50
F1 "MCU.sch" 50
F2 "MOT_CUR" I R 4000 5450 60 
F3 "MOT_POT" I R 4000 5700 60 
F4 "MOT_COD_A" I R 4000 5800 60 
F5 "MOT_COD_B" I R 4000 5900 60 
F6 "CANRX" I L 2100 5500 60 
F7 "CANTX" O L 2100 5600 60 
F8 "POWER_EN" O L 2100 5850 60 
F9 "POWER_GOOD" I L 2100 5950 60 
F10 "MOT_DIS" O R 4000 5250 60 
F11 "MOT_INV" O R 4000 5150 60 
F12 "EOC_1" I R 4000 6200 60 
F13 "EOC_2" I R 4000 6300 60 
F14 "~MOT_CUR" I R 4000 5550 60 
$EndSheet
Wire Wire Line
	4000 5150 4250 5150
Wire Wire Line
	4250 5150 4250 4100
Wire Wire Line
	4250 4100 4950 4100
Wire Wire Line
	4000 5250 4350 5250
Wire Wire Line
	4350 5250 4350 4250
Wire Wire Line
	4350 4250 4950 4250
Wire Wire Line
	4000 5450 4600 5450
Wire Wire Line
	4600 5450 4600 4400
Wire Wire Line
	4600 4400 4950 4400
Text Label 4800 3000 2    60   ~ 0
POWER_EN
Wire Wire Line
	4800 3000 4950 3000
Text Label 4800 3150 2    60   ~ 0
POWER_GOOD
Wire Wire Line
	4800 3150 4950 3150
Text Label 2000 5850 2    60   ~ 0
POWER_EN
Wire Wire Line
	2000 5850 2100 5850
Text Label 1950 5950 2    60   ~ 0
POWER_GOOD
Wire Wire Line
	1950 5950 2100 5950
Text Notes 9900 4950 0    60   ~ 0
Motor connector
Wire Wire Line
	6600 4850 7550 4850
$Comp
L CONN_2X2 P105
U 1 1 557ABF44
P 3000 7300
F 0 "P105" H 3000 7450 50  0000 C CNN
F 1 "CONN_2X2" H 3010 7170 40  0000 C CNN
F 2 "PIN_ARRAY_2X2" H 3100 7550 60  0000 C CNN
F 3 "" H 3000 7300 60  0000 C CNN
	1    3000 7300
	1    0    0    1   
$EndComp
$Comp
L GND-RESCUE-canmotor #PWR09
U 1 1 557ABF5D
P 2500 7450
F 0 "#PWR09" H 2500 7450 30  0001 C CNN
F 1 "GND" H 2500 7380 30  0001 C CNN
F 2 "" H 2500 7450 60  0000 C CNN
F 3 "" H 2500 7450 60  0000 C CNN
	1    2500 7450
	1    0    0    -1  
$EndComp
Wire Wire Line
	2500 7450 2500 7350
Wire Wire Line
	2500 7350 2600 7350
$Comp
L GND-RESCUE-canmotor #PWR010
U 1 1 557AC0C6
P 3500 7450
F 0 "#PWR010" H 3500 7450 30  0001 C CNN
F 1 "GND" H 3500 7380 30  0001 C CNN
F 2 "" H 3500 7450 60  0000 C CNN
F 3 "" H 3500 7450 60  0000 C CNN
	1    3500 7450
	1    0    0    -1  
$EndComp
Wire Wire Line
	3500 7450 3500 7350
Wire Wire Line
	3500 7350 3400 7350
Text Label 3500 7250 0    60   ~ 0
EOR2
Wire Wire Line
	3500 7250 3400 7250
Text Label 2500 7250 2    60   ~ 0
EOR1
Wire Wire Line
	2500 7250 2600 7250
Wire Notes Line
	2200 7050 3800 7050
Wire Notes Line
	3800 7050 3800 7650
Wire Notes Line
	3800 7650 2200 7650
Wire Notes Line
	2200 7650 2200 7050
Text Notes 2200 7650 0    60   ~ 0
End of Runs
Text Label 4050 6200 0    60   ~ 0
EOR1
Wire Wire Line
	4050 6200 4000 6200
Text Label 4050 6300 0    60   ~ 0
EOR2
Wire Wire Line
	4050 6300 4000 6300
Wire Wire Line
	4000 5550 4700 5550
Wire Wire Line
	4700 5550 4700 4550
Wire Wire Line
	4700 4550 4950 4550
$EndSCHEMATC
