EESchema Schematic File Version 2
LIBS:canmotor-rescue
LIBS:power
LIBS:device
LIBS:transistors
LIBS:conn
LIBS:linear
LIBS:regul
LIBS:74xx
LIBS:cmos4000
LIBS:adc-dac
LIBS:memory
LIBS:xilinx
LIBS:microcontrollers
LIBS:dsp
LIBS:microchip
LIBS:analog_switches
LIBS:motorola
LIBS:texas
LIBS:intel
LIBS:audio
LIBS:interface
LIBS:digital-audio
LIBS:philips
LIBS:display
LIBS:cypress
LIBS:siliconi
LIBS:opto
LIBS:atmel
LIBS:contrib
LIBS:valves
LIBS:crap
LIBS:canmotor-cache
EELAYER 25 0
EELAYER END
$Descr A4 11693 8268
encoding utf-8
Sheet 2 7
Title ""
Date "30 sep 2015"
Rev ""
Comp ""
Comment1 ""
Comment2 ""
Comment3 ""
Comment4 ""
$EndDescr
Text HLabel 7300 3650 2    60   Output ~ 0
P_MOT_DISABLE
Text HLabel 7300 3750 2    60   Output ~ 0
P_MOT_INV
Text HLabel 7300 3850 2    60   Output ~ 0
P_POWER_EN
Text HLabel 7300 3950 2    60   Input ~ 0
P_POWER_GOOD
Text HLabel 7900 5000 2    60   Input ~ 0
P_MOT_CUR
Text HLabel 5750 3650 0    60   Input ~ 0
MOT_DISABLE
Text HLabel 5750 3750 0    60   Input ~ 0
MOT_INV
Text HLabel 5750 3850 0    60   Input ~ 0
POWER_EN
Text HLabel 5750 3950 0    60   Output ~ 0
POWER_GOOD
Text HLabel 5650 5000 0    60   Output ~ 0
MOT_CUR
$Comp
L ISO7141 U201
U 1 1 557519B4
P 6500 3800
F 0 "U201" H 7000 3350 60  0000 C CNN
F 1 "ISO7141" H 6150 4300 60  0000 C CNN
F 2 "TSSOP16" H 6350 3300 60  0000 C CNN
F 3 "~" H 6400 3750 60  0000 C CNN
	1    6500 3800
	1    0    0    -1  
$EndComp
$Comp
L +5VA #PWR011
U 1 1 557519E1
P 7300 3350
F 0 "#PWR011" H 7300 3480 20  0001 C CNN
F 1 "+5VA" H 7300 3450 30  0000 C CNN
F 2 "" H 7300 3350 60  0000 C CNN
F 3 "" H 7300 3350 60  0000 C CNN
	1    7300 3350
	1    0    0    -1  
$EndComp
$Comp
L +5VA #PWR012
U 1 1 557519FD
P 7300 4050
F 0 "#PWR012" H 7300 4180 20  0001 C CNN
F 1 "+5VA" H 7300 4150 30  0000 C CNN
F 2 "" H 7300 4050 60  0000 C CNN
F 3 "" H 7300 4050 60  0000 C CNN
	1    7300 4050
	0    1    1    0   
$EndComp
$Comp
L AGND #PWR013
U 1 1 55751A05
P 7300 4250
F 0 "#PWR013" H 7300 4250 40  0001 C CNN
F 1 "AGND" H 7300 4180 50  0000 C CNN
F 2 "" H 7300 4250 60  0000 C CNN
F 3 "" H 7300 4250 60  0000 C CNN
	1    7300 4250
	1    0    0    -1  
$EndComp
$Comp
L AGND #PWR014
U 1 1 55751A50
P 7400 3550
F 0 "#PWR014" H 7400 3550 40  0001 C CNN
F 1 "AGND" H 7400 3480 50  0000 C CNN
F 2 "" H 7400 3550 60  0000 C CNN
F 3 "" H 7400 3550 60  0000 C CNN
	1    7400 3550
	0    -1   -1   0   
$EndComp
$Comp
L VDD #PWR015
U 1 1 55751A66
P 5750 3350
F 0 "#PWR015" H 5750 3450 30  0001 C CNN
F 1 "VDD" H 5750 3460 30  0000 C CNN
F 2 "" H 5750 3350 60  0000 C CNN
F 3 "" H 5750 3350 60  0000 C CNN
	1    5750 3350
	1    0    0    -1  
$EndComp
$Comp
L GND-RESCUE-canmotor #PWR016
U 1 1 55751A84
P 5700 3550
F 0 "#PWR016" H 5700 3550 30  0001 C CNN
F 1 "GND" H 5700 3480 30  0001 C CNN
F 2 "" H 5700 3550 60  0000 C CNN
F 3 "" H 5700 3550 60  0000 C CNN
	1    5700 3550
	0    1    1    0   
$EndComp
$Comp
L GND-RESCUE-canmotor #PWR017
U 1 1 55751AA4
P 5750 4250
F 0 "#PWR017" H 5750 4250 30  0001 C CNN
F 1 "GND" H 5750 4180 30  0001 C CNN
F 2 "" H 5750 4250 60  0000 C CNN
F 3 "" H 5750 4250 60  0000 C CNN
	1    5750 4250
	1    0    0    -1  
$EndComp
$Comp
L VDD #PWR018
U 1 1 55751AC5
P 5650 4050
F 0 "#PWR018" H 5650 4150 30  0001 C CNN
F 1 "VDD" H 5650 4160 30  0000 C CNN
F 2 "" H 5650 4050 60  0000 C CNN
F 3 "" H 5650 4050 60  0000 C CNN
	1    5650 4050
	0    -1   -1   0   
$EndComp
$Comp
L C-RESCUE-canmotor C201
U 1 1 55751B2D
P 6150 2700
F 0 "C201" H 6150 2800 40  0000 L CNN
F 1 "0.1u" H 6156 2615 40  0000 L CNN
F 2 "SM0402_c" H 6188 2550 30  0000 C CNN
F 3 "~" H 6150 2700 60  0000 C CNN
	1    6150 2700
	1    0    0    -1  
$EndComp
$Comp
L VDD #PWR019
U 1 1 55751B3A
P 6150 2400
F 0 "#PWR019" H 6150 2500 30  0001 C CNN
F 1 "VDD" H 6150 2510 30  0000 C CNN
F 2 "" H 6150 2400 60  0000 C CNN
F 3 "" H 6150 2400 60  0000 C CNN
	1    6150 2400
	1    0    0    -1  
$EndComp
$Comp
L GND-RESCUE-canmotor #PWR020
U 1 1 55751B40
P 6150 3000
F 0 "#PWR020" H 6150 3000 30  0001 C CNN
F 1 "GND" H 6150 2930 30  0001 C CNN
F 2 "" H 6150 3000 60  0000 C CNN
F 3 "" H 6150 3000 60  0000 C CNN
	1    6150 3000
	1    0    0    -1  
$EndComp
Wire Wire Line
	5750 3650 5850 3650
Wire Wire Line
	5850 3750 5750 3750
Wire Wire Line
	5750 3850 5850 3850
Wire Wire Line
	5850 3950 5750 3950
Wire Wire Line
	7300 3350 7300 3450
Wire Wire Line
	7300 3450 7200 3450
Wire Wire Line
	7300 4250 7300 4150
Wire Wire Line
	7300 4150 7200 4150
Wire Wire Line
	7200 4050 7300 4050
Wire Wire Line
	7200 3950 7300 3950
Wire Wire Line
	7200 3850 7300 3850
Wire Wire Line
	7200 3750 7300 3750
Wire Wire Line
	7200 3650 7300 3650
Wire Wire Line
	7400 3550 7200 3550
Wire Wire Line
	5750 3350 5750 3450
Wire Wire Line
	5750 3450 5850 3450
Wire Wire Line
	5700 3550 5850 3550
Wire Wire Line
	5750 4250 5750 4150
Wire Wire Line
	5750 4150 5850 4150
Wire Wire Line
	5650 4050 5850 4050
Wire Notes Line
	6500 950  6500 3300
Wire Wire Line
	6150 3000 6150 2900
Wire Wire Line
	6150 2500 6150 2400
$Comp
L C-RESCUE-canmotor C202
U 1 1 55751B8F
P 6800 2700
F 0 "C202" H 6800 2800 40  0000 L CNN
F 1 "0.1u" H 6806 2615 40  0000 L CNN
F 2 "SM0402_c" H 6838 2550 30  0000 C CNN
F 3 "~" H 6800 2700 60  0000 C CNN
	1    6800 2700
	1    0    0    -1  
$EndComp
$Comp
L +5VA #PWR021
U 1 1 55751B9C
P 6800 2400
F 0 "#PWR021" H 6800 2530 20  0001 C CNN
F 1 "+5VA" H 6800 2500 30  0000 C CNN
F 2 "" H 6800 2400 60  0000 C CNN
F 3 "" H 6800 2400 60  0000 C CNN
	1    6800 2400
	1    0    0    -1  
$EndComp
$Comp
L AGND #PWR022
U 1 1 55751BA2
P 6800 3000
F 0 "#PWR022" H 6800 3000 40  0001 C CNN
F 1 "AGND" H 6800 2930 50  0000 C CNN
F 2 "" H 6800 3000 60  0000 C CNN
F 3 "" H 6800 3000 60  0000 C CNN
	1    6800 3000
	1    0    0    -1  
$EndComp
Wire Wire Line
	6800 3000 6800 2900
Wire Wire Line
	6800 2500 6800 2400
Wire Wire Line
	7900 5000 7150 5000
$Comp
L AGND #PWR023
U 1 1 55793EDC
P 7250 5300
F 0 "#PWR023" H 7250 5300 40  0001 C CNN
F 1 "AGND" H 7250 5230 50  0000 C CNN
F 2 "" H 7250 5300 60  0000 C CNN
F 3 "" H 7250 5300 60  0000 C CNN
	1    7250 5300
	1    0    0    -1  
$EndComp
Wire Wire Line
	7250 5200 7150 5200
$Comp
L +5VA #PWR024
U 1 1 55793F1A
P 7300 4750
F 0 "#PWR024" H 7300 4880 20  0001 C CNN
F 1 "+5VA" H 7300 4850 30  0000 C CNN
F 2 "" H 7300 4750 60  0000 C CNN
F 3 "" H 7300 4750 60  0000 C CNN
	1    7300 4750
	1    0    0    -1  
$EndComp
Wire Wire Line
	7300 4750 7300 4900
Wire Wire Line
	7300 4900 7150 4900
$Comp
L GND-RESCUE-canmotor #PWR025
U 1 1 55793F3F
P 5850 5350
F 0 "#PWR025" H 5850 5350 30  0001 C CNN
F 1 "GND" H 5850 5280 30  0001 C CNN
F 2 "" H 5850 5350 60  0000 C CNN
F 3 "" H 5850 5350 60  0000 C CNN
	1    5850 5350
	1    0    0    -1  
$EndComp
Wire Wire Line
	5850 5200 5950 5200
$Comp
L VDD #PWR026
U 1 1 55793F66
P 5850 4750
F 0 "#PWR026" H 5850 4850 30  0001 C CNN
F 1 "VDD" H 5850 4860 30  0000 C CNN
F 2 "" H 5850 4750 60  0000 C CNN
F 3 "" H 5850 4750 60  0000 C CNN
	1    5850 4750
	1    0    0    -1  
$EndComp
Wire Wire Line
	5850 4750 5850 4900
Wire Wire Line
	5850 4900 5950 4900
Wire Wire Line
	5650 5000 5950 5000
Wire Wire Line
	5650 5100 5950 5100
$Comp
L C-RESCUE-canmotor C204
U 1 1 55793FDC
P 6000 6050
F 0 "C204" H 6000 6150 40  0000 L CNN
F 1 "0.1u" H 6006 5965 40  0000 L CNN
F 2 "SM0402_c" H 6038 5900 30  0000 C CNN
F 3 "~" H 6000 6050 60  0000 C CNN
	1    6000 6050
	1    0    0    -1  
$EndComp
$Comp
L VDD #PWR027
U 1 1 55793FE2
P 6000 5750
F 0 "#PWR027" H 6000 5850 30  0001 C CNN
F 1 "VDD" H 6000 5860 30  0000 C CNN
F 2 "" H 6000 5750 60  0000 C CNN
F 3 "" H 6000 5750 60  0000 C CNN
	1    6000 5750
	1    0    0    -1  
$EndComp
$Comp
L GND-RESCUE-canmotor #PWR028
U 1 1 55793FE8
P 6000 6350
F 0 "#PWR028" H 6000 6350 30  0001 C CNN
F 1 "GND" H 6000 6280 30  0001 C CNN
F 2 "" H 6000 6350 60  0000 C CNN
F 3 "" H 6000 6350 60  0000 C CNN
	1    6000 6350
	1    0    0    -1  
$EndComp
Wire Wire Line
	6000 6350 6000 6250
Wire Wire Line
	6000 5850 6000 5750
$Comp
L C-RESCUE-canmotor C203
U 1 1 55793FF0
P 6900 6000
F 0 "C203" H 6900 6100 40  0000 L CNN
F 1 "0.1u" H 6906 5915 40  0000 L CNN
F 2 "SM0402_c" H 6938 5850 30  0000 C CNN
F 3 "~" H 6900 6000 60  0000 C CNN
	1    6900 6000
	1    0    0    -1  
$EndComp
$Comp
L +5VA #PWR029
U 1 1 55793FF6
P 6900 5700
F 0 "#PWR029" H 6900 5830 20  0001 C CNN
F 1 "+5VA" H 6900 5800 30  0000 C CNN
F 2 "" H 6900 5700 60  0000 C CNN
F 3 "" H 6900 5700 60  0000 C CNN
	1    6900 5700
	1    0    0    -1  
$EndComp
$Comp
L AGND #PWR030
U 1 1 55793FFC
P 6900 6300
F 0 "#PWR030" H 6900 6300 40  0001 C CNN
F 1 "AGND" H 6900 6230 50  0000 C CNN
F 2 "" H 6900 6300 60  0000 C CNN
F 3 "" H 6900 6300 60  0000 C CNN
	1    6900 6300
	1    0    0    -1  
$EndComp
Wire Wire Line
	6900 6300 6900 6200
Wire Wire Line
	6900 5800 6900 5700
Wire Notes Line
	6550 4300 6550 4650
Wire Notes Line
	6600 5500 6600 7150
$Comp
L AMC1100 U202
U 1 1 55793EAE
P 6550 5050
F 0 "U202" H 7000 4750 60  0000 C CNN
F 1 "AMC1100" H 6250 5350 60  0000 C CNN
F 2 "TI-SOIC8" H 6500 4750 60  0000 C CNN
F 3 "" H 6550 5050 60  0000 C CNN
	1    6550 5050
	-1   0    0    -1  
$EndComp
Wire Wire Line
	7250 5100 7250 5300
Wire Wire Line
	7150 5100 7250 5100
Connection ~ 7250 5200
Wire Wire Line
	5850 5200 5850 5350
Text HLabel 5650 5100 0    60   Output ~ 0
~MOT_CUR
$EndSCHEMATC
