EESchema Schematic File Version 2
LIBS:canmotor-rescue
LIBS:power
LIBS:device
LIBS:transistors
LIBS:conn
LIBS:linear
LIBS:regul
LIBS:74xx
LIBS:cmos4000
LIBS:adc-dac
LIBS:memory
LIBS:xilinx
LIBS:microcontrollers
LIBS:dsp
LIBS:microchip
LIBS:analog_switches
LIBS:motorola
LIBS:texas
LIBS:intel
LIBS:audio
LIBS:interface
LIBS:digital-audio
LIBS:philips
LIBS:display
LIBS:cypress
LIBS:siliconi
LIBS:opto
LIBS:atmel
LIBS:contrib
LIBS:valves
LIBS:crap
LIBS:canmotor-cache
EELAYER 25 0
EELAYER END
$Descr A4 11693 8268
encoding utf-8
Sheet 7 7
Title ""
Date "30 sep 2015"
Rev ""
Comp ""
Comment1 ""
Comment2 ""
Comment3 ""
Comment4 ""
$EndDescr
Text HLabel 7150 3900 2    60   Output ~ 0
MOT_DIS
Text HLabel 7150 3700 2    60   Output ~ 0
MOT_INV
Text HLabel 10500 2900 2    60   Input ~ 0
MOT_CUR
Text HLabel 9400 1250 2    60   Input ~ 0
MOT_POT
Text HLabel 7100 2000 2    60   Input ~ 0
MOT_COD_A
Text HLabel 7100 2100 2    60   Input ~ 0
MOT_COD_B
Text Label 6600 3300 0    60   ~ 0
SWDIO
Text Label 6600 3400 0    60   ~ 0
SWCLK
$Comp
L R-RESCUE-canmotor R701
U 1 1 55746147
P 4200 4400
F 0 "R701" V 4280 4400 40  0000 C CNN
F 1 "100k" V 4207 4401 40  0000 C CNN
F 2 "SM0402" V 4130 4400 30  0000 C CNN
F 3 "~" H 4200 4400 30  0000 C CNN
	1    4200 4400
	0    -1   -1   0   
$EndComp
$Comp
L GND-RESCUE-canmotor #PWR066
U 1 1 5574614D
P 3800 4400
F 0 "#PWR066" H 3800 4400 30  0001 C CNN
F 1 "GND" H 3800 4330 30  0001 C CNN
F 2 "" H 3800 4400 60  0000 C CNN
F 3 "" H 3800 4400 60  0000 C CNN
	1    3800 4400
	0    1    1    0   
$EndComp
Text Label 7650 4700 0    60   ~ 0
DBG_TX
Text Label 7650 4800 0    60   ~ 0
DBG_RX
Wire Wire Line
	6500 3100 6600 3100
Wire Wire Line
	6500 3200 6600 3200
Wire Wire Line
	6500 3300 6600 3300
Wire Wire Line
	6500 3400 6600 3400
Wire Wire Line
	6500 2200 7650 2200
Text Notes 6600 2200 0    60   ~ 0
ADC12_IN2
Wire Wire Line
	6500 2300 7650 2300
Text Notes 6600 2300 0    60   ~ 0
ADC12_IN3
Text Notes 6600 2000 0    60   ~ 0
TIM2_CH1
Text Notes 6600 2100 0    60   ~ 0
TIM2_CH2
Text Notes 6600 3700 0    60   ~ 0
TIM3_CH3
Text Notes 6600 3800 0    60   ~ 0
ADC12_IN9
Wire Wire Line
	3800 4400 3950 4400
Wire Wire Line
	4450 4400 4600 4400
$Comp
L GND-RESCUE-canmotor #PWR067
U 1 1 55746172
P 4450 5200
F 0 "#PWR067" H 4450 5200 30  0001 C CNN
F 1 "GND" H 4450 5130 30  0001 C CNN
F 2 "" H 4450 5200 60  0000 C CNN
F 3 "" H 4450 5200 60  0000 C CNN
	1    4450 5200
	1    0    0    -1  
$EndComp
Wire Wire Line
	4450 4700 4450 5200
Wire Wire Line
	4450 4900 4600 4900
Wire Wire Line
	4450 4800 4600 4800
Connection ~ 4450 4900
Wire Wire Line
	4450 4700 4600 4700
Connection ~ 4450 4800
$Comp
L VDD #PWR068
U 1 1 55746180
P 4450 1900
F 0 "#PWR068" H 4450 2000 30  0001 C CNN
F 1 "VDD" H 4450 2010 30  0000 C CNN
F 2 "" H 4450 1900 60  0000 C CNN
F 3 "" H 4450 1900 60  0000 C CNN
	1    4450 1900
	1    0    0    -1  
$EndComp
Wire Wire Line
	4450 1900 4450 2700
Wire Wire Line
	4450 2300 4600 2300
Wire Wire Line
	4450 2400 4600 2400
Connection ~ 4450 2300
Wire Wire Line
	4450 2500 4600 2500
Connection ~ 4450 2400
Connection ~ 4450 2500
$Comp
L C-RESCUE-canmotor C702
U 1 1 5574618E
P 1550 3800
AR Path="/5574618E" Ref="C702"  Part="1" 
AR Path="/556CAD6F/5574618E" Ref="C702"  Part="1" 
F 0 "C702" H 1550 3900 40  0000 L CNN
F 1 "1u" H 1556 3715 40  0000 L CNN
F 2 "SM0603" H 1588 3650 30  0000 C CNN
F 3 "~" H 1550 3800 60  0000 C CNN
	1    1550 3800
	1    0    0    -1  
$EndComp
$Comp
L C-RESCUE-canmotor C703
U 1 1 55746194
P 1800 3800
AR Path="/55746194" Ref="C703"  Part="1" 
AR Path="/556CAD6F/55746194" Ref="C703"  Part="1" 
F 0 "C703" H 1800 3900 40  0000 L CNN
F 1 "0.01u" H 1806 3715 40  0000 L CNN
F 2 "SM0402" H 1838 3650 30  0000 C CNN
F 3 "~" H 1800 3800 60  0000 C CNN
	1    1800 3800
	1    0    0    -1  
$EndComp
Text Notes 2000 3800 0    60   ~ 0
Close to VDDA
$Comp
L GND-RESCUE-canmotor #PWR069
U 1 1 5574619B
P 1550 4100
F 0 "#PWR069" H 1550 4100 30  0001 C CNN
F 1 "GND" H 1550 4030 30  0001 C CNN
F 2 "" H 1550 4100 60  0000 C CNN
F 3 "" H 1550 4100 60  0000 C CNN
	1    1550 4100
	1    0    0    -1  
$EndComp
Wire Wire Line
	1550 4000 1550 4100
Wire Wire Line
	1550 4050 1800 4050
Wire Wire Line
	1800 4050 1800 4000
Connection ~ 1550 4050
$Comp
L VDD #PWR070
U 1 1 557461A5
P 1550 3500
F 0 "#PWR070" H 1550 3600 30  0001 C CNN
F 1 "VDD" H 1550 3610 30  0000 C CNN
F 2 "" H 1550 3500 60  0000 C CNN
F 3 "" H 1550 3500 60  0000 C CNN
	1    1550 3500
	1    0    0    -1  
$EndComp
Wire Wire Line
	1550 3500 1550 3600
Wire Wire Line
	1550 3550 1800 3550
Wire Wire Line
	1800 3550 1800 3600
Connection ~ 1550 3550
$Comp
L C-RESCUE-canmotor C705
U 1 1 557461AF
P 1550 4700
AR Path="/557461AF" Ref="C705"  Part="1" 
AR Path="/556CAD6F/557461AF" Ref="C705"  Part="1" 
F 0 "C705" H 1550 4800 40  0000 L CNN
F 1 "0.1u" H 1556 4615 40  0000 L CNN
F 2 "SM0402" H 1588 4550 30  0000 C CNN
F 3 "~" H 1550 4700 60  0000 C CNN
	1    1550 4700
	1    0    0    -1  
$EndComp
$Comp
L C-RESCUE-canmotor C707
U 1 1 557461B5
P 2100 4700
AR Path="/557461B5" Ref="C707"  Part="1" 
AR Path="/556CAD6F/557461B5" Ref="C707"  Part="1" 
F 0 "C707" H 2100 4800 40  0000 L CNN
F 1 "4.7u" H 2106 4615 40  0000 L CNN
F 2 "SM0805" H 2138 4550 30  0000 C CNN
F 3 "~" H 2100 4700 60  0000 C CNN
	1    2100 4700
	1    0    0    -1  
$EndComp
$Comp
L C-RESCUE-canmotor C704
U 1 1 557461BB
P 1300 4700
AR Path="/557461BB" Ref="C704"  Part="1" 
AR Path="/556CAD6F/557461BB" Ref="C704"  Part="1" 
F 0 "C704" H 1300 4800 40  0000 L CNN
F 1 "0.1u" H 1306 4615 40  0000 L CNN
F 2 "SM0402" H 1338 4550 30  0000 C CNN
F 3 "~" H 1300 4700 60  0000 C CNN
	1    1300 4700
	1    0    0    -1  
$EndComp
$Comp
L C-RESCUE-canmotor C706
U 1 1 557461C1
P 1800 4700
AR Path="/557461C1" Ref="C706"  Part="1" 
AR Path="/556CAD6F/557461C1" Ref="C706"  Part="1" 
F 0 "C706" H 1800 4800 40  0000 L CNN
F 1 "0.1u" H 1806 4615 40  0000 L CNN
F 2 "SM0402" H 1838 4550 30  0000 C CNN
F 3 "~" H 1800 4700 60  0000 C CNN
	1    1800 4700
	1    0    0    -1  
$EndComp
$Comp
L GND-RESCUE-canmotor #PWR071
U 1 1 557461C7
P 1300 5000
F 0 "#PWR071" H 1300 5000 30  0001 C CNN
F 1 "GND" H 1300 4930 30  0001 C CNN
F 2 "" H 1300 5000 60  0000 C CNN
F 3 "" H 1300 5000 60  0000 C CNN
	1    1300 5000
	1    0    0    -1  
$EndComp
Wire Wire Line
	1300 4900 1300 5000
Wire Wire Line
	1300 4950 2100 4950
Wire Wire Line
	1550 4950 1550 4900
Connection ~ 1300 4950
Wire Wire Line
	1800 4950 1800 4900
Connection ~ 1550 4950
Wire Wire Line
	2100 4950 2100 4900
Connection ~ 1800 4950
$Comp
L VDD #PWR072
U 1 1 557461D5
P 1300 4400
F 0 "#PWR072" H 1300 4500 30  0001 C CNN
F 1 "VDD" H 1300 4510 30  0000 C CNN
F 2 "" H 1300 4400 60  0000 C CNN
F 3 "" H 1300 4400 60  0000 C CNN
	1    1300 4400
	1    0    0    -1  
$EndComp
Wire Wire Line
	1300 4400 1300 4500
Wire Wire Line
	1300 4450 2100 4450
Wire Wire Line
	1550 4450 1550 4500
Connection ~ 1300 4450
Wire Wire Line
	1800 4450 1800 4500
Connection ~ 1550 4450
Wire Wire Line
	2100 4450 2100 4500
Connection ~ 1800 4450
Text Notes 2250 4650 0    60   ~ 0
Each 0.1u close to VDD_x\n4.7u close to VDD_3
Text HLabel 6600 3100 2    60   Input ~ 0
CANRX
Text HLabel 6600 3200 2    60   Output ~ 0
CANTX
Text HLabel 7100 2700 2    60   Output ~ 0
POWER_EN
Text HLabel 7100 2600 2    60   Input ~ 0
POWER_GOOD
$Comp
L GND-RESCUE-canmotor #PWR073
U 1 1 557461F4
P 3400 7100
F 0 "#PWR073" H 3400 7100 30  0001 C CNN
F 1 "GND" H 3400 7030 30  0001 C CNN
F 2 "" H 3400 7100 60  0000 C CNN
F 3 "" H 3400 7100 60  0000 C CNN
	1    3400 7100
	1    0    0    -1  
$EndComp
Wire Wire Line
	3300 7000 3400 7000
Wire Wire Line
	3400 7000 3400 7100
$Comp
L VDD #PWR074
U 1 1 557461FC
P 3400 6400
F 0 "#PWR074" H 3400 6500 30  0001 C CNN
F 1 "VDD" H 3400 6510 30  0000 C CNN
F 2 "" H 3400 6400 60  0000 C CNN
F 3 "" H 3400 6400 60  0000 C CNN
	1    3400 6400
	1    0    0    -1  
$EndComp
Wire Wire Line
	3400 6400 3400 6500
Wire Wire Line
	3400 6500 3300 6500
Text Label 3400 6900 0    60   ~ 0
SWCLK
Text Label 3400 6800 0    60   ~ 0
SWDIO
Text Label 3400 6700 0    60   ~ 0
DBG_RX
Text Label 3400 6600 0    60   ~ 0
DBG_TX
Wire Wire Line
	3400 6600 3300 6600
Wire Wire Line
	3300 6700 3400 6700
Wire Wire Line
	3400 6800 3300 6800
Wire Wire Line
	3300 6900 3400 6900
$Comp
L LED-RESCUE-canmotor D701
U 1 1 5574620C
P 9500 5700
F 0 "D701" H 9500 5800 50  0000 C CNN
F 1 "LED" H 9500 5600 50  0000 C CNN
F 2 "LED-0603" H 9500 5700 60  0000 C CNN
F 3 "~" H 9500 5700 60  0000 C CNN
	1    9500 5700
	0    1    1    0   
$EndComp
$Comp
L R-RESCUE-canmotor R702
U 1 1 55746212
P 9500 6250
F 0 "R702" V 9580 6250 40  0000 C CNN
F 1 "1k" V 9507 6251 40  0000 C CNN
F 2 "SM0402" V 9430 6250 30  0000 C CNN
F 3 "~" H 9500 6250 30  0000 C CNN
	1    9500 6250
	1    0    0    -1  
$EndComp
Wire Wire Line
	9500 5400 9500 5500
Wire Wire Line
	9500 5900 9500 6000
$Comp
L LED-RESCUE-canmotor D702
U 1 1 55746220
P 9750 5700
F 0 "D702" H 9750 5800 50  0000 C CNN
F 1 "LED" H 9750 5600 50  0000 C CNN
F 2 "LED-0603" H 9750 5700 60  0000 C CNN
F 3 "~" H 9750 5700 60  0000 C CNN
	1    9750 5700
	0    1    1    0   
$EndComp
$Comp
L R-RESCUE-canmotor R703
U 1 1 55746226
P 9750 6250
F 0 "R703" V 9830 6250 40  0000 C CNN
F 1 "1k" V 9757 6251 40  0000 C CNN
F 2 "SM0402" V 9680 6250 30  0000 C CNN
F 3 "~" H 9750 6250 30  0000 C CNN
	1    9750 6250
	1    0    0    -1  
$EndComp
Wire Wire Line
	9750 5400 9750 5500
Wire Wire Line
	9750 5900 9750 6000
Text Label 9500 5400 1    60   ~ 0
LED0
Text Label 9750 5400 1    60   ~ 0
LED1
Wire Wire Line
	9750 6600 9750 6500
Wire Wire Line
	9500 6600 9500 6500
Wire Wire Line
	6500 3800 7700 3800
Wire Wire Line
	6500 2600 7100 2600
Wire Wire Line
	6500 2700 7100 2700
Wire Wire Line
	6500 3700 7150 3700
Wire Wire Line
	6500 2000 7100 2000
Wire Wire Line
	6500 2100 7100 2100
Wire Wire Line
	6500 3900 7150 3900
Wire Wire Line
	4450 5100 4600 5100
Connection ~ 4450 5100
Text Label 4600 3300 2    60   ~ 0
LED0
Text Label 4600 3400 2    60   ~ 0
LED1
Wire Notes Line
	1850 7400 3800 7400
Wire Notes Line
	3800 7400 3800 6150
Wire Notes Line
	3800 6150 1850 6150
Text Notes 2800 7350 0    60   ~ 0
Prog & Debug
$Comp
L C-RESCUE-canmotor C701
U 1 1 55756960
P 9300 1550
AR Path="/55756960" Ref="C701"  Part="1" 
AR Path="/556CAD6F/55756960" Ref="C701"  Part="1" 
F 0 "C701" H 9300 1650 40  0000 L CNN
F 1 "1u" H 9306 1465 40  0000 L CNN
F 2 "SM0603" H 9338 1400 30  0000 C CNN
F 3 "~" H 9300 1550 60  0000 C CNN
	1    9300 1550
	-1   0    0    1   
$EndComp
$Comp
L GND-RESCUE-canmotor #PWR075
U 1 1 55756966
P 9300 1900
F 0 "#PWR075" H 9300 1900 30  0001 C CNN
F 1 "GND" H 9300 1830 30  0001 C CNN
F 2 "" H 9300 1900 60  0000 C CNN
F 3 "" H 9300 1900 60  0000 C CNN
	1    9300 1900
	1    0    0    -1  
$EndComp
Wire Wire Line
	9300 1750 9300 1900
Wire Wire Line
	9400 1250 9300 1250
Wire Wire Line
	9300 1250 9300 1350
Text Notes 9000 2050 0    60   ~ 0
Low pass filtering for potar
$Comp
L JTAGCON-RESCUE-canmotor P701
U 1 1 55789A3A
P 2600 6750
F 0 "P701" H 3100 6400 60  0000 C CNN
F 1 "JTAGCON" H 2350 7150 60  0000 C CNN
F 2 "BM06B-SRSS-TB" H 2550 6350 60  0000 C CNN
F 3 "~" H 3050 6950 60  0000 C CNN
	1    2600 6750
	1    0    0    -1  
$EndComp
Wire Notes Line
	1850 6150 1850 7400
$Comp
L GND-RESCUE-canmotor #PWR076
U 1 1 55789B5B
P 2000 7100
F 0 "#PWR076" H 2000 7100 30  0001 C CNN
F 1 "GND" H 2000 7030 30  0001 C CNN
F 2 "" H 2000 7100 60  0000 C CNN
F 3 "" H 2000 7100 60  0000 C CNN
	1    2000 7100
	1    0    0    -1  
$EndComp
Wire Wire Line
	2000 6900 2000 7100
Wire Wire Line
	2000 7000 2100 7000
Wire Wire Line
	2000 6900 2100 6900
Connection ~ 2000 7000
Text HLabel 7650 2300 2    60   Input ~ 0
MOT_POT
$Comp
L STM32F103CX-RESCUE-canmotor U701
U 1 1 557930C4
P 5550 3600
F 0 "U701" H 5950 1850 60  0000 C CNN
F 1 "STM32F103CX" H 5550 5200 60  0000 C CNN
F 2 "LQFP48" H 5550 3600 60  0000 C CNN
F 3 "~" H 5550 3600 60  0000 C CNN
	1    5550 3600
	1    0    0    -1  
$EndComp
Wire Wire Line
	4450 2700 4600 2700
Wire Wire Line
	4450 2100 4600 2100
Connection ~ 4450 2100
Text Notes 6600 4700 0    60   ~ 0
USART3_TX
Text Notes 6600 4800 0    60   ~ 0
USART3_RX
Wire Wire Line
	7650 4700 6500 4700
Wire Wire Line
	6500 4800 7650 4800
$Comp
L GND-RESCUE-canmotor #PWR077
U 1 1 55798FC6
P 9600 6700
F 0 "#PWR077" H 9600 6700 30  0001 C CNN
F 1 "GND" H 9600 6630 30  0001 C CNN
F 2 "" H 9600 6700 60  0000 C CNN
F 3 "" H 9600 6700 60  0000 C CNN
	1    9600 6700
	1    0    0    -1  
$EndComp
Wire Wire Line
	9600 6700 9600 6600
Wire Wire Line
	9500 6600 9750 6600
Connection ~ 9600 6600
Text Label 9350 2900 2    60   ~ 0
CUR_FILTERED
Text Label 7650 2200 0    60   ~ 0
CUR_FILTERED
$Comp
L R-RESCUE-canmotor R704
U 1 1 557AD14A
P 9950 2900
F 0 "R704" V 10030 2900 40  0000 C CNN
F 1 "10k" V 9957 2901 40  0000 C CNN
F 2 "SM0402" V 9880 2900 30  0000 C CNN
F 3 "~" H 9950 2900 30  0000 C CNN
	1    9950 2900
	0    -1   -1   0   
$EndComp
Wire Wire Line
	10500 2900 10200 2900
Wire Wire Line
	9700 2900 9350 2900
$Comp
L C-RESCUE-canmotor C708
U 1 1 557AD220
P 9550 3250
AR Path="/557AD220" Ref="C708"  Part="1" 
AR Path="/556CAD6F/557AD220" Ref="C708"  Part="1" 
F 0 "C708" H 9550 3350 40  0000 L CNN
F 1 "C" H 9556 3165 40  0000 L CNN
F 2 "SM0603" H 9588 3100 30  0000 C CNN
F 3 "~" H 9550 3250 60  0000 C CNN
	1    9550 3250
	1    0    0    -1  
$EndComp
Wire Wire Line
	9550 3050 9550 2900
Connection ~ 9550 2900
$Comp
L GND-RESCUE-canmotor #PWR078
U 1 1 557AD2F9
P 9550 3550
F 0 "#PWR078" H 9550 3550 30  0001 C CNN
F 1 "GND" H 9550 3480 30  0001 C CNN
F 2 "" H 9550 3550 60  0000 C CNN
F 3 "" H 9550 3550 60  0000 C CNN
	1    9550 3550
	1    0    0    -1  
$EndComp
Wire Wire Line
	9550 3550 9550 3450
Text HLabel 4450 3800 0    60   Input ~ 0
EOC_1
Wire Wire Line
	4450 3700 4600 3700
Text HLabel 4450 3700 0    60   Input ~ 0
EOC_2
Wire Wire Line
	4450 3800 4600 3800
Text HLabel 10500 3750 2    60   Input ~ 0
~MOT_CUR
Text Label 9350 3750 2    60   ~ 0
~CUR_FILTERED
$Comp
L R-RESCUE-canmotor R705
U 1 1 55B7B34A
P 9950 3750
F 0 "R705" V 10030 3750 40  0000 C CNN
F 1 "10k" V 9957 3751 40  0000 C CNN
F 2 "SM0402" V 9880 3750 30  0000 C CNN
F 3 "~" H 9950 3750 30  0000 C CNN
	1    9950 3750
	0    -1   -1   0   
$EndComp
Wire Wire Line
	10500 3750 10200 3750
Wire Wire Line
	9700 3750 9350 3750
$Comp
L C-RESCUE-canmotor C709
U 1 1 55B7B352
P 9550 4100
AR Path="/55B7B352" Ref="C709"  Part="1" 
AR Path="/556CAD6F/55B7B352" Ref="C709"  Part="1" 
F 0 "C709" H 9550 4200 40  0000 L CNN
F 1 "C" H 9556 4015 40  0000 L CNN
F 2 "SM0603" H 9588 3950 30  0000 C CNN
F 3 "~" H 9550 4100 60  0000 C CNN
	1    9550 4100
	1    0    0    -1  
$EndComp
Wire Wire Line
	9550 3900 9550 3750
Connection ~ 9550 3750
$Comp
L GND-RESCUE-canmotor #PWR079
U 1 1 55B7B35A
P 9550 4400
F 0 "#PWR079" H 9550 4400 30  0001 C CNN
F 1 "GND" H 9550 4330 30  0001 C CNN
F 2 "" H 9550 4400 60  0000 C CNN
F 3 "" H 9550 4400 60  0000 C CNN
	1    9550 4400
	1    0    0    -1  
$EndComp
Wire Wire Line
	9550 4400 9550 4300
Text Label 7700 3800 0    60   ~ 0
~CUR_FILTERED
$Comp
L GND-RESCUE-canmotor #PWR080
U 1 1 55BF9B93
P 5000 7100
F 0 "#PWR080" H 5000 7100 30  0001 C CNN
F 1 "GND" H 5000 7030 30  0001 C CNN
F 2 "" H 5000 7100 60  0000 C CNN
F 3 "" H 5000 7100 60  0000 C CNN
	1    5000 7100
	1    0    0    -1  
$EndComp
Wire Wire Line
	4900 7000 5000 7000
Wire Wire Line
	5000 7000 5000 7100
$Comp
L VDD #PWR081
U 1 1 55BF9B9B
P 5100 6900
F 0 "#PWR081" H 5100 7000 30  0001 C CNN
F 1 "VDD" H 5100 7010 30  0000 C CNN
F 2 "" H 5100 6900 60  0000 C CNN
F 3 "" H 5100 6900 60  0000 C CNN
	1    5100 6900
	0    1    1    0   
$EndComp
Wire Notes Line
	4300 7400 5800 7400
Text Notes 4400 7350 0    60   ~ 0
I2C/UART just in case
$Comp
L CONN_4 P702
U 1 1 55BF9BA3
P 4550 6850
F 0 "P702" V 4500 6850 50  0000 C CNN
F 1 "CONN_4" V 4600 6850 50  0000 C CNN
F 2 "PIN_ARRAY_2X2" H 4500 7150 60  0000 C CNN
F 3 "" H 4550 6850 60  0000 C CNN
	1    4550 6850
	-1   0    0    1   
$EndComp
Text Label 4900 6800 0    60   ~ 0
EXT_TX
Text Label 4900 6700 0    60   ~ 0
EXT_RX
$Comp
L R-RESCUE-canmotor R707
U 1 1 55BF9BAB
P 5000 6450
F 0 "R707" V 5080 6450 40  0000 C CNN
F 1 "2.2k" V 5007 6451 40  0000 C CNN
F 2 "SM0402" V 4930 6450 30  0000 C CNN
F 3 "~" H 5000 6450 30  0000 C CNN
	1    5000 6450
	0    -1   -1   0   
$EndComp
$Comp
L R-RESCUE-canmotor R706
U 1 1 55BF9BB1
P 5000 6250
F 0 "R706" V 5080 6250 40  0000 C CNN
F 1 "2.2k" V 5007 6251 40  0000 C CNN
F 2 "SM0402" V 4930 6250 30  0000 C CNN
F 3 "~" H 5000 6250 30  0000 C CNN
	1    5000 6250
	0    -1   -1   0   
$EndComp
$Comp
L VDD #PWR082
U 1 1 55BF9BB7
P 4700 6350
F 0 "#PWR082" H 4700 6450 30  0001 C CNN
F 1 "VDD" H 4700 6460 30  0000 C CNN
F 2 "" H 4700 6350 60  0000 C CNN
F 3 "" H 4700 6350 60  0000 C CNN
	1    4700 6350
	0    -1   -1   0   
$EndComp
Wire Wire Line
	4700 6450 4700 6250
Wire Wire Line
	4700 6450 4750 6450
Wire Wire Line
	4700 6250 4750 6250
Connection ~ 4700 6350
Wire Notes Line
	4300 7400 4300 6100
Wire Notes Line
	4300 6100 5800 6100
Wire Notes Line
	5800 6100 5800 7400
Wire Wire Line
	5250 6250 5450 6250
Wire Wire Line
	5450 6250 5450 6800
Wire Wire Line
	5450 6800 4900 6800
Wire Wire Line
	4900 6700 5350 6700
Wire Wire Line
	5350 6700 5350 6450
Wire Wire Line
	5350 6450 5250 6450
Wire Wire Line
	5100 6900 4900 6900
Text Label 7300 4400 0    60   ~ 0
EXT_RX
Text Label 7300 4300 0    60   ~ 0
EXT_TX
Text Notes 6600 4300 0    60   ~ 0
USART1_TX*
Text Notes 6600 4400 0    60   ~ 0
USART1_RX*
Wire Wire Line
	6500 4300 7300 4300
Wire Wire Line
	7300 4400 6500 4400
$EndSCHEMATC
