EESchema Schematic File Version 2
LIBS:canmotor-rescue
LIBS:power
LIBS:device
LIBS:transistors
LIBS:conn
LIBS:linear
LIBS:regul
LIBS:74xx
LIBS:cmos4000
LIBS:adc-dac
LIBS:memory
LIBS:xilinx
LIBS:microcontrollers
LIBS:dsp
LIBS:microchip
LIBS:analog_switches
LIBS:motorola
LIBS:texas
LIBS:intel
LIBS:audio
LIBS:interface
LIBS:digital-audio
LIBS:philips
LIBS:display
LIBS:cypress
LIBS:siliconi
LIBS:opto
LIBS:atmel
LIBS:contrib
LIBS:valves
LIBS:crap
LIBS:canmotor-cache
EELAYER 25 0
EELAYER END
$Descr A4 11693 8268
encoding utf-8
Sheet 3 7
Title ""
Date "30 sep 2015"
Rev ""
Comp ""
Comment1 ""
Comment2 ""
Comment3 ""
Comment4 ""
$EndDescr
$Comp
L MC33926 U301
U 1 1 5574B5A2
P 5900 3700
F 0 "U301" H 6500 2150 60  0000 C CNN
F 1 "MC33926" H 5600 5050 60  0000 C CNN
F 2 "PQFN32-0.8" H 5850 2150 60  0000 C CNN
F 3 "" H 5750 4200 60  0000 C CNN
	1    5900 3700
	1    0    0    -1  
$EndComp
$Comp
L +BATT #PWR031
U 1 1 5574B5BB
P 6850 2400
F 0 "#PWR031" H 6850 2350 20  0001 C CNN
F 1 "+BATT" H 6850 2500 30  0000 C CNN
F 2 "" H 6850 2400 60  0000 C CNN
F 3 "" H 6850 2400 60  0000 C CNN
	1    6850 2400
	1    0    0    -1  
$EndComp
$Comp
L C-RESCUE-canmotor C303
U 1 1 5574B5DB
P 7100 2750
F 0 "C303" H 7100 2850 40  0000 L CNN
F 1 "33n" H 7106 2665 40  0000 L CNN
F 2 "SM0603" H 7138 2600 30  0000 C CNN
F 3 "~" H 7100 2750 60  0000 C CNN
	1    7100 2750
	1    0    0    -1  
$EndComp
$Comp
L C-RESCUE-canmotor C301
U 1 1 5574B60C
P 8200 2050
F 0 "C301" H 8200 2150 40  0000 L CNN
F 1 "100u" H 8206 1965 40  0000 L CNN
F 2 "SM1210" H 8238 1900 30  0000 C CNN
F 3 "~" H 8200 2050 60  0000 C CNN
	1    8200 2050
	1    0    0    -1  
$EndComp
$Comp
L C-RESCUE-canmotor C302
U 1 1 5574B619
P 8500 2050
F 0 "C302" H 8500 2150 40  0000 L CNN
F 1 "100n" H 8506 1965 40  0000 L CNN
F 2 "SM1210" H 8538 1900 30  0000 C CNN
F 3 "~" H 8500 2050 60  0000 C CNN
	1    8500 2050
	1    0    0    -1  
$EndComp
$Comp
L AGND #PWR032
U 1 1 5574B643
P 8350 2350
F 0 "#PWR032" H 8350 2350 40  0001 C CNN
F 1 "AGND" H 8350 2280 50  0000 C CNN
F 2 "" H 8350 2350 60  0000 C CNN
F 3 "" H 8350 2350 60  0000 C CNN
	1    8350 2350
	1    0    0    -1  
$EndComp
$Comp
L +BATT #PWR033
U 1 1 5574B672
P 8350 1800
F 0 "#PWR033" H 8350 1750 20  0001 C CNN
F 1 "+BATT" H 8350 1900 30  0000 C CNN
F 2 "" H 8350 1800 60  0000 C CNN
F 3 "" H 8350 1800 60  0000 C CNN
	1    8350 1800
	1    0    0    -1  
$EndComp
Text HLabel 7050 3600 2    60   Output ~ 0
OUT1
Text HLabel 7050 3700 2    60   Output ~ 0
OUT2
$Comp
L AGND #PWR034
U 1 1 5574B7A8
P 6850 5200
F 0 "#PWR034" H 6850 5200 40  0001 C CNN
F 1 "AGND" H 6850 5130 50  0000 C CNN
F 2 "" H 6850 5200 60  0000 C CNN
F 3 "" H 6850 5200 60  0000 C CNN
	1    6850 5200
	1    0    0    -1  
$EndComp
Wire Wire Line
	6850 2400 6850 2850
Wire Wire Line
	6850 2550 6700 2550
Wire Wire Line
	6850 2650 6700 2650
Connection ~ 6850 2550
Wire Wire Line
	6850 2750 6700 2750
Connection ~ 6850 2650
Wire Wire Line
	6850 2850 6700 2850
Connection ~ 6850 2750
Wire Wire Line
	6700 3050 7100 3050
Wire Wire Line
	7100 3050 7100 2950
Wire Wire Line
	7100 2550 7100 2450
Wire Wire Line
	7100 2450 6850 2450
Connection ~ 6850 2450
Wire Wire Line
	8350 2350 8350 2300
Wire Wire Line
	8200 2300 8500 2300
Wire Wire Line
	8500 2300 8500 2250
Wire Wire Line
	8200 2300 8200 2250
Connection ~ 8350 2300
Wire Wire Line
	8200 1800 8500 1800
Wire Wire Line
	8500 1800 8500 1850
Wire Wire Line
	8200 1800 8200 1850
Connection ~ 8350 1800
Wire Wire Line
	6700 3250 6900 3250
Wire Wire Line
	6900 3250 6900 3600
Wire Wire Line
	6900 3600 7050 3600
Wire Wire Line
	6700 3350 6900 3350
Connection ~ 6900 3350
Wire Wire Line
	6700 3450 6900 3450
Connection ~ 6900 3450
Wire Wire Line
	6700 3550 6900 3550
Connection ~ 6900 3550
Wire Wire Line
	6700 4100 6900 4100
Wire Wire Line
	6900 4100 6900 3700
Wire Wire Line
	6900 3700 7050 3700
Wire Wire Line
	6700 4000 6900 4000
Connection ~ 6900 4000
Wire Wire Line
	6700 3900 6900 3900
Connection ~ 6900 3900
Wire Wire Line
	6700 3800 6900 3800
Connection ~ 6900 3800
Wire Wire Line
	6850 4350 6850 5200
Wire Wire Line
	6850 5050 6700 5050
Wire Wire Line
	6850 4950 6700 4950
Connection ~ 6850 5050
Wire Wire Line
	6850 4850 6700 4850
Connection ~ 6850 4950
Wire Wire Line
	6700 4750 6850 4750
Connection ~ 6850 4850
Wire Wire Line
	6700 4650 6850 4650
Connection ~ 6850 4750
Wire Wire Line
	6700 4550 6850 4550
Connection ~ 6850 4650
Wire Wire Line
	6700 4450 6850 4450
Connection ~ 6850 4550
Wire Wire Line
	6700 4350 6850 4350
Connection ~ 6850 4450
$Comp
L R-RESCUE-canmotor R302
U 1 1 5574BA1E
P 4750 4300
F 0 "R302" V 4830 4300 40  0000 C CNN
F 1 "37.5" V 4757 4301 40  0000 C CNN
F 2 "SM0402" V 4680 4300 30  0000 C CNN
F 3 "~" H 4750 4300 30  0000 C CNN
	1    4750 4300
	-1   0    0    1   
$EndComp
$Comp
L R-RESCUE-canmotor R301
U 1 1 5574BA2D
P 4500 3750
F 0 "R301" V 4580 3750 40  0000 C CNN
F 1 "100k" V 4507 3751 40  0000 C CNN
F 2 "SM0402" V 4430 3750 30  0000 C CNN
F 3 "~" H 4500 3750 30  0000 C CNN
	1    4500 3750
	0    -1   -1   0   
$EndComp
Wire Wire Line
	4750 3850 5250 3850
Wire Wire Line
	4650 3950 5250 3950
$Comp
L +5VA #PWR035
U 1 1 5574BAF9
P 4150 3650
F 0 "#PWR035" H 4150 3780 20  0001 C CNN
F 1 "+5VA" H 4150 3750 30  0000 C CNN
F 2 "" H 4150 3650 60  0000 C CNN
F 3 "" H 4150 3650 60  0000 C CNN
	1    4150 3650
	1    0    0    -1  
$EndComp
Wire Wire Line
	4150 3650 4150 3750
Wire Wire Line
	4150 3750 4250 3750
$Comp
L +5VA #PWR036
U 1 1 5574BB43
P 4950 3400
F 0 "#PWR036" H 4950 3530 20  0001 C CNN
F 1 "+5VA" H 4950 3500 30  0000 C CNN
F 2 "" H 4950 3400 60  0000 C CNN
F 3 "" H 4950 3400 60  0000 C CNN
	1    4950 3400
	0    -1   -1   0   
$EndComp
Wire Wire Line
	4950 3400 5250 3400
$Comp
L +5VA #PWR037
U 1 1 5574BB8A
P 4750 2900
F 0 "#PWR037" H 4750 3030 20  0001 C CNN
F 1 "+5VA" H 4750 3000 30  0000 C CNN
F 2 "" H 4750 2900 60  0000 C CNN
F 3 "" H 4750 2900 60  0000 C CNN
	1    4750 2900
	0    -1   -1   0   
$EndComp
$Comp
L AGND #PWR038
U 1 1 5574BB99
P 4950 3000
F 0 "#PWR038" H 4950 3000 40  0001 C CNN
F 1 "AGND" H 4950 2930 50  0000 C CNN
F 2 "" H 4950 3000 60  0000 C CNN
F 3 "" H 4950 3000 60  0000 C CNN
	1    4950 3000
	0    1    1    0   
$EndComp
Wire Wire Line
	4750 2900 5250 2900
Wire Wire Line
	5250 3000 4950 3000
Text HLabel 5000 3300 0    60   Input ~ 0
INV
Wire Wire Line
	5000 3300 5250 3300
Text HLabel 5000 2800 0    60   Input ~ 0
EN
Wire Wire Line
	5000 2800 5250 2800
$Comp
L +5VA #PWR039
U 1 1 5574BD7D
P 5100 3100
F 0 "#PWR039" H 5100 3230 20  0001 C CNN
F 1 "+5VA" H 5100 3200 30  0000 C CNN
F 2 "" H 5100 3100 60  0000 C CNN
F 3 "" H 5100 3100 60  0000 C CNN
	1    5100 3100
	0    -1   -1   0   
$EndComp
Wire Wire Line
	5100 3100 5250 3100
Text HLabel 5000 3200 0    60   Input ~ 0
DISABLE
Wire Wire Line
	5000 3200 5250 3200
Wire Wire Line
	4750 3850 4750 3750
Wire Wire Line
	4750 3950 4750 4050
$Comp
L AGND #PWR040
U 1 1 55793576
P 4750 4650
F 0 "#PWR040" H 4750 4650 40  0001 C CNN
F 1 "AGND" H 4750 4580 50  0000 C CNN
F 2 "" H 4750 4650 60  0000 C CNN
F 3 "" H 4750 4650 60  0000 C CNN
	1    4750 4650
	1    0    0    -1  
$EndComp
Wire Wire Line
	4750 4650 4750 4550
Text HLabel 4650 3950 0    60   Output ~ 0
CUR
Connection ~ 4750 3950
$EndSCHEMATC
