EESchema Schematic File Version 2
LIBS:canmotor-rescue
LIBS:power
LIBS:device
LIBS:transistors
LIBS:conn
LIBS:linear
LIBS:regul
LIBS:74xx
LIBS:cmos4000
LIBS:adc-dac
LIBS:memory
LIBS:xilinx
LIBS:microcontrollers
LIBS:dsp
LIBS:microchip
LIBS:analog_switches
LIBS:motorola
LIBS:texas
LIBS:intel
LIBS:audio
LIBS:interface
LIBS:digital-audio
LIBS:philips
LIBS:display
LIBS:cypress
LIBS:siliconi
LIBS:opto
LIBS:atmel
LIBS:contrib
LIBS:valves
LIBS:crap
LIBS:canmotor-cache
EELAYER 25 0
EELAYER END
$Descr A4 11693 8268
encoding utf-8
Sheet 5 7
Title ""
Date "30 sep 2015"
Rev ""
Comp ""
Comment1 ""
Comment2 ""
Comment3 ""
Comment4 ""
$EndDescr
$Comp
L MCP1702 U501
U 1 1 55749AE6
P 5850 3600
F 0 "U501" H 5950 3100 60  0000 C CNN
F 1 "MCP1702" H 5700 3550 60  0000 C CNN
F 2 "SOT23" H 5850 3600 60  0000 C CNN
F 3 "~" H 5850 3600 60  0000 C CNN
	1    5850 3600
	1    0    0    -1  
$EndComp
$Comp
L GND-RESCUE-canmotor #PWR051
U 1 1 55749AEC
P 5150 4050
F 0 "#PWR051" H 5150 4050 30  0001 C CNN
F 1 "GND" H 5150 3980 30  0001 C CNN
F 2 "" H 5150 4050 60  0000 C CNN
F 3 "" H 5150 4050 60  0000 C CNN
	1    5150 4050
	1    0    0    -1  
$EndComp
Wire Wire Line
	5150 4050 5150 3950
Wire Wire Line
	5150 3950 5250 3950
$Comp
L +5V #PWR052
U 1 1 55749AF4
P 5150 3700
F 0 "#PWR052" H 5150 3790 20  0001 C CNN
F 1 "+5V" H 5150 3790 30  0000 C CNN
F 2 "" H 5150 3700 60  0000 C CNN
F 3 "" H 5150 3700 60  0000 C CNN
	1    5150 3700
	1    0    0    -1  
$EndComp
Wire Wire Line
	5150 3700 5150 3800
Wire Wire Line
	5150 3800 5250 3800
$Comp
L VDD #PWR053
U 1 1 55749AFC
P 6400 3700
F 0 "#PWR053" H 6400 3800 30  0001 C CNN
F 1 "VDD" H 6400 3810 30  0000 C CNN
F 2 "" H 6400 3700 60  0000 C CNN
F 3 "" H 6400 3700 60  0000 C CNN
	1    6400 3700
	1    0    0    -1  
$EndComp
Wire Wire Line
	6400 3700 6400 3800
Wire Wire Line
	6400 3800 6300 3800
$Comp
L C-RESCUE-canmotor C501
U 1 1 55749B04
P 4800 3850
F 0 "C501" H 4800 3950 40  0000 L CNN
F 1 "1u" H 4806 3765 40  0000 L CNN
F 2 "SM0603" H 4838 3700 30  0000 C CNN
F 3 "~" H 4800 3850 60  0000 C CNN
	1    4800 3850
	1    0    0    -1  
$EndComp
$Comp
L GND-RESCUE-canmotor #PWR054
U 1 1 55749B0A
P 4800 4100
F 0 "#PWR054" H 4800 4100 30  0001 C CNN
F 1 "GND" H 4800 4030 30  0001 C CNN
F 2 "" H 4800 4100 60  0000 C CNN
F 3 "" H 4800 4100 60  0000 C CNN
	1    4800 4100
	1    0    0    -1  
$EndComp
Wire Wire Line
	4800 4100 4800 4050
$Comp
L +5V #PWR055
U 1 1 55749B11
P 4800 3600
F 0 "#PWR055" H 4800 3690 20  0001 C CNN
F 1 "+5V" H 4800 3690 30  0000 C CNN
F 2 "" H 4800 3600 60  0000 C CNN
F 3 "" H 4800 3600 60  0000 C CNN
	1    4800 3600
	1    0    0    -1  
$EndComp
Wire Wire Line
	4800 3600 4800 3650
$Comp
L C-RESCUE-canmotor C502
U 1 1 55749B18
P 6700 3900
F 0 "C502" H 6700 4000 40  0000 L CNN
F 1 "10u" H 6706 3815 40  0000 L CNN
F 2 "SM0805" H 6738 3750 30  0000 C CNN
F 3 "~" H 6700 3900 60  0000 C CNN
	1    6700 3900
	1    0    0    -1  
$EndComp
$Comp
L GND-RESCUE-canmotor #PWR056
U 1 1 55749B1E
P 6700 4150
F 0 "#PWR056" H 6700 4150 30  0001 C CNN
F 1 "GND" H 6700 4080 30  0001 C CNN
F 2 "" H 6700 4150 60  0000 C CNN
F 3 "" H 6700 4150 60  0000 C CNN
	1    6700 4150
	1    0    0    -1  
$EndComp
Wire Wire Line
	6700 4150 6700 4100
Wire Wire Line
	6700 3650 6700 3700
$Comp
L VDD #PWR057
U 1 1 55749B26
P 6700 3650
F 0 "#PWR057" H 6700 3750 30  0001 C CNN
F 1 "VDD" H 6700 3760 30  0000 C CNN
F 2 "" H 6700 3650 60  0000 C CNN
F 3 "" H 6700 3650 60  0000 C CNN
	1    6700 3650
	1    0    0    -1  
$EndComp
$Comp
L LED-RESCUE-canmotor D501
U 1 1 55749B2C
P 7100 3800
F 0 "D501" H 7100 3900 50  0000 C CNN
F 1 "LED" H 7100 3700 50  0000 C CNN
F 2 "LED-0603" H 7100 3800 60  0000 C CNN
F 3 "~" H 7100 3800 60  0000 C CNN
	1    7100 3800
	0    1    1    0   
$EndComp
$Comp
L R-RESCUE-canmotor R501
U 1 1 55749B32
P 7100 4300
F 0 "R501" V 7180 4300 40  0000 C CNN
F 1 "1k" V 7107 4301 40  0000 C CNN
F 2 "SM0402" V 7030 4300 30  0000 C CNN
F 3 "~" H 7100 4300 30  0000 C CNN
	1    7100 4300
	1    0    0    -1  
$EndComp
$Comp
L GND-RESCUE-canmotor #PWR058
U 1 1 55749B38
P 7100 4650
F 0 "#PWR058" H 7100 4650 30  0001 C CNN
F 1 "GND" H 7100 4580 30  0001 C CNN
F 2 "" H 7100 4650 60  0000 C CNN
F 3 "" H 7100 4650 60  0000 C CNN
	1    7100 4650
	1    0    0    -1  
$EndComp
Wire Wire Line
	7100 4650 7100 4550
Wire Wire Line
	7100 4050 7100 4000
$Comp
L VDD #PWR059
U 1 1 55749B40
P 7100 3500
F 0 "#PWR059" H 7100 3600 30  0001 C CNN
F 1 "VDD" H 7100 3610 30  0000 C CNN
F 2 "" H 7100 3500 60  0000 C CNN
F 3 "" H 7100 3500 60  0000 C CNN
	1    7100 3500
	1    0    0    -1  
$EndComp
Wire Wire Line
	7100 3500 7100 3600
$EndSCHEMATC
