EESchema Schematic File Version 2
LIBS:power
LIBS:device
LIBS:transistors
LIBS:conn
LIBS:linear
LIBS:regul
LIBS:74xx
LIBS:cmos4000
LIBS:adc-dac
LIBS:memory
LIBS:xilinx
LIBS:microcontrollers
LIBS:dsp
LIBS:microchip
LIBS:analog_switches
LIBS:motorola
LIBS:texas
LIBS:intel
LIBS:audio
LIBS:interface
LIBS:digital-audio
LIBS:philips
LIBS:display
LIBS:cypress
LIBS:siliconi
LIBS:opto
LIBS:atmel
LIBS:contrib
LIBS:valves
LIBS:crap
LIBS:pumpscur-cache
EELAYER 25 0
EELAYER END
$Descr A4 11693 8268
encoding utf-8
Sheet 1 1
Title ""
Date ""
Rev ""
Comp ""
Comment1 ""
Comment2 ""
Comment3 ""
Comment4 ""
$EndDescr
$Comp
L ISO7140 U106
U 1 1 582D9CC3
P 8450 3100
F 0 "U106" H 8950 2650 60  0000 C CNN
F 1 "ISO7140" H 8100 3600 60  0000 C CNN
F 2 "Housings_SSOP:SSOP-16_3.9x4.9mm_Pitch0.635mm" H 8350 3050 60  0001 C CNN
F 3 "" H 8350 3050 60  0000 C CNN
	1    8450 3100
	1    0    0    -1  
$EndComp
$Comp
L GND #PWR01
U 1 1 582D9E33
P 10350 3450
F 0 "#PWR01" H 10350 3200 50  0001 C CNN
F 1 "GND" H 10350 3300 50  0000 C CNN
F 2 "" H 10350 3450 50  0000 C CNN
F 3 "" H 10350 3450 50  0000 C CNN
	1    10350 3450
	1    0    0    -1  
$EndComp
$Comp
L VCC #PWR02
U 1 1 582D9E4F
P 10350 2650
F 0 "#PWR02" H 10350 2500 50  0001 C CNN
F 1 "VCC" H 10350 2800 50  0000 C CNN
F 2 "" H 10350 2650 50  0000 C CNN
F 3 "" H 10350 2650 50  0000 C CNN
	1    10350 2650
	1    0    0    -1  
$EndComp
$Comp
L VCC #PWR03
U 1 1 582D9E6D
P 9350 2650
F 0 "#PWR03" H 9350 2500 50  0001 C CNN
F 1 "VCC" H 9350 2800 50  0000 C CNN
F 2 "" H 9350 2650 50  0000 C CNN
F 3 "" H 9350 2650 50  0000 C CNN
	1    9350 2650
	1    0    0    -1  
$EndComp
Wire Wire Line
	9150 2750 9350 2750
$Comp
L GND #PWR04
U 1 1 582D9EAC
P 9250 3550
F 0 "#PWR04" H 9250 3300 50  0001 C CNN
F 1 "GND" H 9250 3400 50  0000 C CNN
F 2 "" H 9250 3550 50  0000 C CNN
F 3 "" H 9250 3550 50  0000 C CNN
	1    9250 3550
	1    0    0    -1  
$EndComp
Wire Wire Line
	9250 2850 9250 3550
Wire Wire Line
	9250 3450 9150 3450
Wire Wire Line
	9150 2850 9250 2850
Connection ~ 9250 3450
Wire Wire Line
	9350 3350 9150 3350
Wire Wire Line
	9350 2650 9350 3350
Connection ~ 9350 2750
$Comp
L CONN_01X02 P111
U 1 1 582D9F82
P 4700 1350
F 0 "P111" H 4700 1500 50  0000 C CNN
F 1 "CONN_01X02" V 4800 1350 50  0000 C CNN
F 2 "Connect:PINHEAD1-2" H 4700 1350 50  0001 C CNN
F 3 "" H 4700 1350 50  0000 C CNN
	1    4700 1350
	-1   0    0    1   
$EndComp
$Comp
L GNDA #PWR05
U 1 1 582D9FD3
P 5000 1500
F 0 "#PWR05" H 5000 1250 50  0001 C CNN
F 1 "GNDA" H 5000 1350 50  0000 C CNN
F 2 "" H 5000 1500 50  0000 C CNN
F 3 "" H 5000 1500 50  0000 C CNN
	1    5000 1500
	1    0    0    -1  
$EndComp
Wire Wire Line
	5000 1500 5000 1400
Wire Wire Line
	5000 1400 4900 1400
$Comp
L +5VA #PWR06
U 1 1 582DA020
P 5000 1200
F 0 "#PWR06" H 5000 1050 50  0001 C CNN
F 1 "+5VA" H 5000 1340 50  0000 C CNN
F 2 "" H 5000 1200 50  0000 C CNN
F 3 "" H 5000 1200 50  0000 C CNN
	1    5000 1200
	1    0    0    -1  
$EndComp
Wire Wire Line
	5000 1200 5000 1300
Wire Wire Line
	5000 1300 4900 1300
$Comp
L GNDA #PWR07
U 1 1 582DA0E7
P 7700 3550
F 0 "#PWR07" H 7700 3300 50  0001 C CNN
F 1 "GNDA" H 7700 3400 50  0000 C CNN
F 2 "" H 7700 3550 50  0000 C CNN
F 3 "" H 7700 3550 50  0000 C CNN
	1    7700 3550
	1    0    0    -1  
$EndComp
Wire Wire Line
	7700 2850 7700 3550
Wire Wire Line
	7700 3450 7800 3450
Wire Wire Line
	7700 2850 7800 2850
Connection ~ 7700 3450
$Comp
L +5VA #PWR08
U 1 1 582DA13B
P 7600 2650
F 0 "#PWR08" H 7600 2500 50  0001 C CNN
F 1 "+5VA" H 7600 2790 50  0000 C CNN
F 2 "" H 7600 2650 50  0000 C CNN
F 3 "" H 7600 2650 50  0000 C CNN
	1    7600 2650
	1    0    0    -1  
$EndComp
Wire Wire Line
	7600 2650 7600 2750
Wire Wire Line
	7600 2750 7800 2750
Wire Wire Line
	10350 2650 10350 2750
Wire Wire Line
	10350 2750 10450 2750
Wire Wire Line
	10350 3450 10350 3350
Wire Wire Line
	10350 3350 10450 3350
$Comp
L CONN_01X07 P112
U 1 1 582DA388
P 10650 3050
F 0 "P112" H 10650 3450 50  0000 C CNN
F 1 "CONN_01X07" V 10750 3050 50  0000 C CNN
F 2 "Pin_Headers:Pin_Header_Straight_1x07" H 10650 3050 50  0001 C CNN
F 3 "" H 10650 3050 50  0000 C CNN
	1    10650 3050
	1    0    0    1   
$EndComp
Text Label 10350 3250 2    60   ~ 0
CUR1
Text Label 10350 3150 2    60   ~ 0
CUR2
Text Label 10350 3050 2    60   ~ 0
CUR3
Text Label 10350 2950 2    60   ~ 0
CUR4
Wire Wire Line
	10350 2950 10450 2950
Wire Wire Line
	10450 3050 10350 3050
Wire Wire Line
	10350 3150 10450 3150
Wire Wire Line
	10450 3250 10350 3250
Text Label 9400 3250 0    60   ~ 0
CUR1
Text Label 9400 3150 0    60   ~ 0
CUR2
Text Label 9400 3050 0    60   ~ 0
CUR3
Text Label 9400 2950 0    60   ~ 0
CUR4
Wire Wire Line
	9400 2950 9150 2950
Wire Wire Line
	9150 3050 9400 3050
Wire Wire Line
	9400 3150 9150 3150
Wire Wire Line
	9150 3250 9400 3250
$Comp
L INA200 U102
U 1 1 582DA8C7
P 2550 1400
F 0 "U102" H 2800 1050 60  0000 C CNN
F 1 "INA201" H 2500 1700 60  0000 C CNN
F 2 "Housings_SOIC:SOIC-8_3.9x4.9mm_Pitch1.27mm" H 2550 1400 60  0001 C CNN
F 3 "" H 2550 1400 60  0000 C CNN
	1    2550 1400
	-1   0    0    -1  
$EndComp
$Comp
L CONN_01X02 P104
U 1 1 582DA97A
P 1500 1750
F 0 "P104" H 1500 1900 50  0000 C CNN
F 1 "CONN_01X02" V 1600 1750 50  0000 C CNN
F 2 "craplib:WE_CONN_3.5_vertical_2way" H 1500 1750 50  0001 C CNN
F 3 "" H 1500 1750 50  0000 C CNN
	1    1500 1750
	0    -1   1    0   
$EndComp
$Comp
L R R102
U 1 1 582DABAF
P 1550 1350
F 0 "R102" V 1630 1350 50  0000 C CNN
F 1 "0.2" V 1550 1350 50  0000 C CNN
F 2 "Resistors_SMD:R_0805_HandSoldering" V 1480 1350 50  0001 C CNN
F 3 "" H 1550 1350 50  0000 C CNN
	1    1550 1350
	-1   0    0    -1  
$EndComp
$Comp
L CONN_01X02 P103
U 1 1 582DAA0F
P 1500 950
F 0 "P103" H 1500 1100 50  0000 C CNN
F 1 "CONN_01X02" V 1600 950 50  0000 C CNN
F 2 "craplib:WE_CONN_3.5_vertical_2way" H 1500 950 50  0001 C CNN
F 3 "" H 1500 950 50  0000 C CNN
	1    1500 950 
	0    -1   -1   0   
$EndComp
Wire Wire Line
	1450 1550 1450 1150
Wire Wire Line
	1550 1150 1550 1200
Wire Wire Line
	1550 1500 1550 1550
Text Notes 800  1000 0    60   ~ 0
coté carte
Text Notes 750  1800 0    60   ~ 0
connecteur\npompe
Wire Wire Line
	1550 1200 1750 1200
Wire Wire Line
	1750 1200 1750 1250
Wire Wire Line
	1750 1250 1950 1250
Wire Wire Line
	1950 1350 1750 1350
Wire Wire Line
	1750 1350 1750 1500
Wire Wire Line
	1750 1500 1550 1500
NoConn ~ 1950 1550
$Comp
L GNDA #PWR09
U 1 1 582DB1EA
P 3100 1650
F 0 "#PWR09" H 3100 1400 50  0001 C CNN
F 1 "GNDA" H 3100 1500 50  0000 C CNN
F 2 "" H 3100 1650 50  0000 C CNN
F 3 "" H 3100 1650 50  0000 C CNN
	1    3100 1650
	1    0    0    -1  
$EndComp
Wire Wire Line
	3100 1650 3100 1550
Wire Wire Line
	3100 1550 3000 1550
$Comp
L +5VA #PWR010
U 1 1 582DB26B
P 3100 1150
F 0 "#PWR010" H 3100 1000 50  0001 C CNN
F 1 "+5VA" H 3100 1290 50  0000 C CNN
F 2 "" H 3100 1150 50  0000 C CNN
F 3 "" H 3100 1150 50  0000 C CNN
	1    3100 1150
	1    0    0    -1  
$EndComp
Wire Wire Line
	3100 1150 3100 1250
Wire Wire Line
	3100 1250 3000 1250
$Comp
L POT RV102
U 1 1 582DB362
P 3650 1200
F 0 "RV102" H 3650 1120 50  0000 C CNN
F 1 "10k" H 3650 1200 50  0000 C CNN
F 2 "craplib:TE_CB10V" H 3650 1200 50  0001 C CNN
F 3 "" H 3650 1200 50  0000 C CNN
	1    3650 1200
	0    -1   -1   0   
$EndComp
Wire Wire Line
	3350 1350 3000 1350
$Comp
L R R107
U 1 1 582DB3E4
P 3650 1600
F 0 "R107" V 3730 1600 50  0000 C CNN
F 1 "1k" V 3650 1600 50  0000 C CNN
F 2 "Resistors_SMD:R_0402" V 3580 1600 50  0001 C CNN
F 3 "" H 3650 1600 50  0000 C CNN
	1    3650 1600
	1    0    0    -1  
$EndComp
Wire Wire Line
	3000 1450 3650 1450
$Comp
L GNDA #PWR011
U 1 1 582DB619
P 3650 1800
F 0 "#PWR011" H 3650 1550 50  0001 C CNN
F 1 "GNDA" H 3650 1650 50  0000 C CNN
F 2 "" H 3650 1800 50  0000 C CNN
F 3 "" H 3650 1800 50  0000 C CNN
	1    3650 1800
	1    0    0    -1  
$EndComp
Wire Wire Line
	3650 1800 3650 1750
Wire Wire Line
	3350 1050 3350 1350
Wire Wire Line
	3350 1200 3500 1200
Wire Wire Line
	3350 1050 3650 1050
Connection ~ 3350 1200
Wire Wire Line
	3650 1450 3650 1350
Text Notes 2150 2100 0    60   ~ 0
OUT = 50 x Vin\nCMP thr = 0.6V
$Comp
L ISO7310 U107
U 1 1 582EB19F
P 8450 4450
F 0 "U107" H 9000 4050 60  0000 C CNN
F 1 "ISO7310" H 8100 4750 60  0000 C CNN
F 2 "Housings_SOIC:SOIC-8_3.9x4.9mm_Pitch1.27mm" H 8350 4200 60  0001 C CNN
F 3 "" H 8350 4200 60  0000 C CNN
	1    8450 4450
	1    0    0    -1  
$EndComp
Text Label 10350 2850 2    60   ~ 0
CUR5
Wire Wire Line
	10350 2850 10450 2850
Text Label 9300 4500 0    60   ~ 0
CUR5
$Comp
L GND #PWR012
U 1 1 582EB320
P 9300 4800
F 0 "#PWR012" H 9300 4550 50  0001 C CNN
F 1 "GND" H 9300 4650 50  0000 C CNN
F 2 "" H 9300 4800 50  0000 C CNN
F 3 "" H 9300 4800 50  0000 C CNN
	1    9300 4800
	1    0    0    -1  
$EndComp
Wire Wire Line
	9300 4600 9300 4800
Wire Wire Line
	9300 4700 9150 4700
Wire Wire Line
	9300 4600 9150 4600
Connection ~ 9300 4700
Wire Wire Line
	9300 4500 9150 4500
$Comp
L VCC #PWR013
U 1 1 582EB44C
P 9250 4200
F 0 "#PWR013" H 9250 4050 50  0001 C CNN
F 1 "VCC" H 9250 4350 50  0000 C CNN
F 2 "" H 9250 4200 50  0000 C CNN
F 3 "" H 9250 4200 50  0000 C CNN
	1    9250 4200
	1    0    0    -1  
$EndComp
Wire Wire Line
	9250 4200 9250 4300
Wire Wire Line
	9250 4300 9150 4300
$Comp
L GNDA #PWR014
U 1 1 582EB532
P 7700 4800
F 0 "#PWR014" H 7700 4550 50  0001 C CNN
F 1 "GNDA" H 7700 4650 50  0000 C CNN
F 2 "" H 7700 4800 50  0000 C CNN
F 3 "" H 7700 4800 50  0000 C CNN
	1    7700 4800
	1    0    0    -1  
$EndComp
Wire Wire Line
	7700 4800 7700 4700
Wire Wire Line
	7700 4700 7800 4700
$Comp
L +5VA #PWR015
U 1 1 582EB5F2
P 7650 4200
F 0 "#PWR015" H 7650 4050 50  0001 C CNN
F 1 "+5VA" H 7650 4340 50  0000 C CNN
F 2 "" H 7650 4200 50  0000 C CNN
F 3 "" H 7650 4200 50  0000 C CNN
	1    7650 4200
	1    0    0    -1  
$EndComp
Wire Wire Line
	7650 4200 7650 4400
Wire Wire Line
	7650 4300 7800 4300
Wire Wire Line
	7650 4400 7800 4400
Connection ~ 7650 4300
$Comp
L INA200 U103
U 1 1 582EBB6B
P 2550 2800
F 0 "U103" H 2800 2450 60  0000 C CNN
F 1 "INA201" H 2500 3100 60  0000 C CNN
F 2 "Housings_SOIC:SOIC-8_3.9x4.9mm_Pitch1.27mm" H 2550 2800 60  0001 C CNN
F 3 "" H 2550 2800 60  0000 C CNN
	1    2550 2800
	-1   0    0    -1  
$EndComp
$Comp
L CONN_01X02 P106
U 1 1 582EBB71
P 1500 3150
F 0 "P106" H 1500 3300 50  0000 C CNN
F 1 "CONN_01X02" V 1600 3150 50  0000 C CNN
F 2 "craplib:WE_CONN_3.5_vertical_2way" H 1500 3150 50  0001 C CNN
F 3 "" H 1500 3150 50  0000 C CNN
	1    1500 3150
	0    -1   1    0   
$EndComp
$Comp
L R R103
U 1 1 582EBB77
P 1550 2750
F 0 "R103" V 1630 2750 50  0000 C CNN
F 1 "0.2" V 1550 2750 50  0000 C CNN
F 2 "Resistors_SMD:R_0805_HandSoldering" V 1480 2750 50  0001 C CNN
F 3 "" H 1550 2750 50  0000 C CNN
	1    1550 2750
	-1   0    0    -1  
$EndComp
$Comp
L CONN_01X02 P105
U 1 1 582EBB7D
P 1500 2350
F 0 "P105" H 1500 2500 50  0000 C CNN
F 1 "CONN_01X02" V 1600 2350 50  0000 C CNN
F 2 "craplib:WE_CONN_3.5_vertical_2way" H 1500 2350 50  0001 C CNN
F 3 "" H 1500 2350 50  0000 C CNN
	1    1500 2350
	0    -1   -1   0   
$EndComp
Wire Wire Line
	1450 2950 1450 2550
Wire Wire Line
	1550 2550 1550 2600
Wire Wire Line
	1550 2900 1550 2950
Text Notes 800  2400 0    60   ~ 0
coté carte
Text Notes 750  3200 0    60   ~ 0
connecteur\npompe
Wire Wire Line
	1550 2600 1750 2600
Wire Wire Line
	1750 2600 1750 2650
Wire Wire Line
	1750 2650 1950 2650
Wire Wire Line
	1950 2750 1750 2750
Wire Wire Line
	1750 2750 1750 2900
Wire Wire Line
	1750 2900 1550 2900
NoConn ~ 1950 2950
$Comp
L GNDA #PWR016
U 1 1 582EBB8F
P 3100 3050
F 0 "#PWR016" H 3100 2800 50  0001 C CNN
F 1 "GNDA" H 3100 2900 50  0000 C CNN
F 2 "" H 3100 3050 50  0000 C CNN
F 3 "" H 3100 3050 50  0000 C CNN
	1    3100 3050
	1    0    0    -1  
$EndComp
Wire Wire Line
	3100 3050 3100 2950
Wire Wire Line
	3100 2950 3000 2950
$Comp
L +5VA #PWR017
U 1 1 582EBB97
P 3100 2550
F 0 "#PWR017" H 3100 2400 50  0001 C CNN
F 1 "+5VA" H 3100 2690 50  0000 C CNN
F 2 "" H 3100 2550 50  0000 C CNN
F 3 "" H 3100 2550 50  0000 C CNN
	1    3100 2550
	1    0    0    -1  
$EndComp
Wire Wire Line
	3100 2550 3100 2650
Wire Wire Line
	3100 2650 3000 2650
$Comp
L POT RV103
U 1 1 582EBB9F
P 3650 2600
F 0 "RV103" H 3650 2520 50  0000 C CNN
F 1 "10k" H 3650 2600 50  0000 C CNN
F 2 "craplib:TE_CB10V" H 3650 2600 50  0001 C CNN
F 3 "" H 3650 2600 50  0000 C CNN
	1    3650 2600
	0    -1   -1   0   
$EndComp
Wire Wire Line
	3350 2750 3000 2750
$Comp
L R R108
U 1 1 582EBBA6
P 3650 3000
F 0 "R108" V 3730 3000 50  0000 C CNN
F 1 "1k" V 3650 3000 50  0000 C CNN
F 2 "Resistors_SMD:R_0402" V 3580 3000 50  0001 C CNN
F 3 "" H 3650 3000 50  0000 C CNN
	1    3650 3000
	1    0    0    -1  
$EndComp
Wire Wire Line
	3000 2850 3650 2850
$Comp
L GNDA #PWR018
U 1 1 582EBBAD
P 3650 3200
F 0 "#PWR018" H 3650 2950 50  0001 C CNN
F 1 "GNDA" H 3650 3050 50  0000 C CNN
F 2 "" H 3650 3200 50  0000 C CNN
F 3 "" H 3650 3200 50  0000 C CNN
	1    3650 3200
	1    0    0    -1  
$EndComp
Wire Wire Line
	3650 3200 3650 3150
Wire Wire Line
	3350 2450 3350 2750
Wire Wire Line
	3350 2600 3500 2600
Wire Wire Line
	3350 2450 3650 2450
Connection ~ 3350 2600
Wire Wire Line
	3650 2850 3650 2750
Text Notes 2150 3500 0    60   ~ 0
OUT = 50 x Vin\nCMP thr = 0.6V
$Comp
L INA200 U104
U 1 1 582EBEA2
P 2550 4150
F 0 "U104" H 2800 3800 60  0000 C CNN
F 1 "INA201" H 2500 4450 60  0000 C CNN
F 2 "Housings_SOIC:SOIC-8_3.9x4.9mm_Pitch1.27mm" H 2550 4150 60  0001 C CNN
F 3 "" H 2550 4150 60  0000 C CNN
	1    2550 4150
	-1   0    0    -1  
$EndComp
$Comp
L CONN_01X02 P108
U 1 1 582EBEA8
P 1500 4500
F 0 "P108" H 1500 4650 50  0000 C CNN
F 1 "CONN_01X02" V 1600 4500 50  0000 C CNN
F 2 "craplib:WE_CONN_3.5_vertical_2way" H 1500 4500 50  0001 C CNN
F 3 "" H 1500 4500 50  0000 C CNN
	1    1500 4500
	0    -1   1    0   
$EndComp
$Comp
L R R104
U 1 1 582EBEAE
P 1550 4100
F 0 "R104" V 1630 4100 50  0000 C CNN
F 1 "0.2" V 1550 4100 50  0000 C CNN
F 2 "Resistors_SMD:R_0805_HandSoldering" V 1480 4100 50  0001 C CNN
F 3 "" H 1550 4100 50  0000 C CNN
	1    1550 4100
	-1   0    0    -1  
$EndComp
$Comp
L CONN_01X02 P107
U 1 1 582EBEB4
P 1500 3700
F 0 "P107" H 1500 3850 50  0000 C CNN
F 1 "CONN_01X02" V 1600 3700 50  0000 C CNN
F 2 "craplib:WE_CONN_3.5_vertical_2way" H 1500 3700 50  0001 C CNN
F 3 "" H 1500 3700 50  0000 C CNN
	1    1500 3700
	0    -1   -1   0   
$EndComp
Wire Wire Line
	1450 4300 1450 3900
Wire Wire Line
	1550 3900 1550 3950
Wire Wire Line
	1550 4250 1550 4300
Text Notes 800  3750 0    60   ~ 0
coté carte
Text Notes 750  4550 0    60   ~ 0
connecteur\npompe
Wire Wire Line
	1550 3950 1750 3950
Wire Wire Line
	1750 3950 1750 4000
Wire Wire Line
	1750 4000 1950 4000
Wire Wire Line
	1950 4100 1750 4100
Wire Wire Line
	1750 4100 1750 4250
Wire Wire Line
	1750 4250 1550 4250
NoConn ~ 1950 4300
$Comp
L GNDA #PWR019
U 1 1 582EBEC6
P 3100 4400
F 0 "#PWR019" H 3100 4150 50  0001 C CNN
F 1 "GNDA" H 3100 4250 50  0000 C CNN
F 2 "" H 3100 4400 50  0000 C CNN
F 3 "" H 3100 4400 50  0000 C CNN
	1    3100 4400
	1    0    0    -1  
$EndComp
Wire Wire Line
	3100 4400 3100 4300
Wire Wire Line
	3100 4300 3000 4300
$Comp
L +5VA #PWR020
U 1 1 582EBECE
P 3100 3900
F 0 "#PWR020" H 3100 3750 50  0001 C CNN
F 1 "+5VA" H 3100 4040 50  0000 C CNN
F 2 "" H 3100 3900 50  0000 C CNN
F 3 "" H 3100 3900 50  0000 C CNN
	1    3100 3900
	1    0    0    -1  
$EndComp
Wire Wire Line
	3100 3900 3100 4000
Wire Wire Line
	3100 4000 3000 4000
$Comp
L POT RV104
U 1 1 582EBED6
P 3650 3950
F 0 "RV104" H 3650 3870 50  0000 C CNN
F 1 "10k" H 3650 3950 50  0000 C CNN
F 2 "craplib:TE_CB10V" H 3650 3950 50  0001 C CNN
F 3 "" H 3650 3950 50  0000 C CNN
	1    3650 3950
	0    -1   -1   0   
$EndComp
Wire Wire Line
	3350 4100 3000 4100
$Comp
L R R109
U 1 1 582EBEDD
P 3650 4350
F 0 "R109" V 3730 4350 50  0000 C CNN
F 1 "1k" V 3650 4350 50  0000 C CNN
F 2 "Resistors_SMD:R_0402" V 3580 4350 50  0001 C CNN
F 3 "" H 3650 4350 50  0000 C CNN
	1    3650 4350
	1    0    0    -1  
$EndComp
Wire Wire Line
	3000 4200 3650 4200
$Comp
L GNDA #PWR021
U 1 1 582EBEE4
P 3650 4550
F 0 "#PWR021" H 3650 4300 50  0001 C CNN
F 1 "GNDA" H 3650 4400 50  0000 C CNN
F 2 "" H 3650 4550 50  0000 C CNN
F 3 "" H 3650 4550 50  0000 C CNN
	1    3650 4550
	1    0    0    -1  
$EndComp
Wire Wire Line
	3650 4550 3650 4500
Wire Wire Line
	3350 3800 3350 4100
Wire Wire Line
	3350 3950 3500 3950
Wire Wire Line
	3350 3800 3650 3800
Connection ~ 3350 3950
Wire Wire Line
	3650 4200 3650 4100
Text Notes 2150 4850 0    60   ~ 0
OUT = 50 x Vin\nCMP thr = 0.6V
$Comp
L INA200 U105
U 1 1 582EBEF1
P 2550 5550
F 0 "U105" H 2800 5200 60  0000 C CNN
F 1 "INA201" H 2500 5850 60  0000 C CNN
F 2 "Housings_SOIC:SOIC-8_3.9x4.9mm_Pitch1.27mm" H 2550 5550 60  0001 C CNN
F 3 "" H 2550 5550 60  0000 C CNN
	1    2550 5550
	-1   0    0    -1  
$EndComp
$Comp
L CONN_01X02 P110
U 1 1 582EBEF7
P 1500 5900
F 0 "P110" H 1500 6050 50  0000 C CNN
F 1 "CONN_01X02" V 1600 5900 50  0000 C CNN
F 2 "craplib:WE_CONN_3.5_vertical_2way" H 1500 5900 50  0001 C CNN
F 3 "" H 1500 5900 50  0000 C CNN
	1    1500 5900
	0    -1   1    0   
$EndComp
$Comp
L R R105
U 1 1 582EBEFD
P 1550 5500
F 0 "R105" V 1630 5500 50  0000 C CNN
F 1 "0.2" V 1550 5500 50  0000 C CNN
F 2 "Resistors_SMD:R_0805_HandSoldering" V 1480 5500 50  0001 C CNN
F 3 "" H 1550 5500 50  0000 C CNN
	1    1550 5500
	-1   0    0    -1  
$EndComp
$Comp
L CONN_01X02 P109
U 1 1 582EBF03
P 1500 5100
F 0 "P109" H 1500 5250 50  0000 C CNN
F 1 "CONN_01X02" V 1600 5100 50  0000 C CNN
F 2 "craplib:WE_CONN_3.5_vertical_2way" H 1500 5100 50  0001 C CNN
F 3 "" H 1500 5100 50  0000 C CNN
	1    1500 5100
	0    -1   -1   0   
$EndComp
Wire Wire Line
	1450 5700 1450 5300
Wire Wire Line
	1550 5300 1550 5350
Wire Wire Line
	1550 5650 1550 5700
Text Notes 800  5150 0    60   ~ 0
coté carte
Text Notes 750  5950 0    60   ~ 0
connecteur\npompe
Wire Wire Line
	1550 5350 1750 5350
Wire Wire Line
	1750 5350 1750 5400
Wire Wire Line
	1750 5400 1950 5400
Wire Wire Line
	1950 5500 1750 5500
Wire Wire Line
	1750 5500 1750 5650
Wire Wire Line
	1750 5650 1550 5650
NoConn ~ 1950 5700
$Comp
L GNDA #PWR022
U 1 1 582EBF15
P 3100 5800
F 0 "#PWR022" H 3100 5550 50  0001 C CNN
F 1 "GNDA" H 3100 5650 50  0000 C CNN
F 2 "" H 3100 5800 50  0000 C CNN
F 3 "" H 3100 5800 50  0000 C CNN
	1    3100 5800
	1    0    0    -1  
$EndComp
Wire Wire Line
	3100 5800 3100 5700
Wire Wire Line
	3100 5700 3000 5700
$Comp
L +5VA #PWR023
U 1 1 582EBF1D
P 3100 5300
F 0 "#PWR023" H 3100 5150 50  0001 C CNN
F 1 "+5VA" H 3100 5440 50  0000 C CNN
F 2 "" H 3100 5300 50  0000 C CNN
F 3 "" H 3100 5300 50  0000 C CNN
	1    3100 5300
	1    0    0    -1  
$EndComp
Wire Wire Line
	3100 5300 3100 5400
Wire Wire Line
	3100 5400 3000 5400
$Comp
L POT RV105
U 1 1 582EBF25
P 3650 5350
F 0 "RV105" H 3650 5270 50  0000 C CNN
F 1 "10k" H 3650 5350 50  0000 C CNN
F 2 "craplib:TE_CB10V" H 3650 5350 50  0001 C CNN
F 3 "" H 3650 5350 50  0000 C CNN
	1    3650 5350
	0    -1   -1   0   
$EndComp
Wire Wire Line
	3350 5500 3000 5500
$Comp
L R R110
U 1 1 582EBF2C
P 3650 5750
F 0 "R110" V 3730 5750 50  0000 C CNN
F 1 "1k" V 3650 5750 50  0000 C CNN
F 2 "Resistors_SMD:R_0402" V 3580 5750 50  0001 C CNN
F 3 "" H 3650 5750 50  0000 C CNN
	1    3650 5750
	1    0    0    -1  
$EndComp
Wire Wire Line
	3000 5600 3650 5600
$Comp
L GNDA #PWR024
U 1 1 582EBF33
P 3650 5950
F 0 "#PWR024" H 3650 5700 50  0001 C CNN
F 1 "GNDA" H 3650 5800 50  0000 C CNN
F 2 "" H 3650 5950 50  0000 C CNN
F 3 "" H 3650 5950 50  0000 C CNN
	1    3650 5950
	1    0    0    -1  
$EndComp
Wire Wire Line
	3650 5950 3650 5900
Wire Wire Line
	3350 5200 3350 5500
Wire Wire Line
	3350 5350 3500 5350
Wire Wire Line
	3350 5200 3650 5200
Connection ~ 3350 5350
Wire Wire Line
	3650 5600 3650 5500
Text Notes 2150 6250 0    60   ~ 0
OUT = 50 x Vin\nCMP thr = 0.6V
$Comp
L INA200 U101
U 1 1 582EC132
P 2500 6950
F 0 "U101" H 2750 6600 60  0000 C CNN
F 1 "INA201" H 2450 7250 60  0000 C CNN
F 2 "Housings_SOIC:SOIC-8_3.9x4.9mm_Pitch1.27mm" H 2500 6950 60  0001 C CNN
F 3 "" H 2500 6950 60  0000 C CNN
	1    2500 6950
	-1   0    0    -1  
$EndComp
$Comp
L CONN_01X02 P102
U 1 1 582EC138
P 1450 7300
F 0 "P102" H 1450 7450 50  0000 C CNN
F 1 "CONN_01X02" V 1550 7300 50  0000 C CNN
F 2 "craplib:WE_CONN_3.5_vertical_2way" H 1450 7300 50  0001 C CNN
F 3 "" H 1450 7300 50  0000 C CNN
	1    1450 7300
	0    -1   1    0   
$EndComp
$Comp
L R R101
U 1 1 582EC13E
P 1500 6900
F 0 "R101" V 1580 6900 50  0000 C CNN
F 1 "0.2" V 1500 6900 50  0000 C CNN
F 2 "Resistors_SMD:R_0805_HandSoldering" V 1430 6900 50  0001 C CNN
F 3 "" H 1500 6900 50  0000 C CNN
	1    1500 6900
	-1   0    0    -1  
$EndComp
$Comp
L CONN_01X02 P101
U 1 1 582EC144
P 1450 6500
F 0 "P101" H 1450 6650 50  0000 C CNN
F 1 "CONN_01X02" V 1550 6500 50  0000 C CNN
F 2 "craplib:WE_CONN_3.5_vertical_2way" H 1450 6500 50  0001 C CNN
F 3 "" H 1450 6500 50  0000 C CNN
	1    1450 6500
	0    -1   -1   0   
$EndComp
Wire Wire Line
	1400 7100 1400 6700
Wire Wire Line
	1500 6700 1500 6750
Wire Wire Line
	1500 7050 1500 7100
Text Notes 750  6550 0    60   ~ 0
coté carte
Text Notes 700  7350 0    60   ~ 0
connecteur\npompe
Wire Wire Line
	1500 6750 1700 6750
Wire Wire Line
	1700 6750 1700 6800
Wire Wire Line
	1700 6800 1900 6800
Wire Wire Line
	1900 6900 1700 6900
Wire Wire Line
	1700 6900 1700 7050
Wire Wire Line
	1700 7050 1500 7050
NoConn ~ 1900 7100
$Comp
L GNDA #PWR025
U 1 1 582EC156
P 3050 7200
F 0 "#PWR025" H 3050 6950 50  0001 C CNN
F 1 "GNDA" H 3050 7050 50  0000 C CNN
F 2 "" H 3050 7200 50  0000 C CNN
F 3 "" H 3050 7200 50  0000 C CNN
	1    3050 7200
	1    0    0    -1  
$EndComp
Wire Wire Line
	3050 7200 3050 7100
Wire Wire Line
	3050 7100 2950 7100
$Comp
L +5VA #PWR026
U 1 1 582EC15E
P 3050 6700
F 0 "#PWR026" H 3050 6550 50  0001 C CNN
F 1 "+5VA" H 3050 6840 50  0000 C CNN
F 2 "" H 3050 6700 50  0000 C CNN
F 3 "" H 3050 6700 50  0000 C CNN
	1    3050 6700
	1    0    0    -1  
$EndComp
Wire Wire Line
	3050 6700 3050 6800
Wire Wire Line
	3050 6800 2950 6800
$Comp
L POT RV101
U 1 1 582EC166
P 3600 6750
F 0 "RV101" H 3600 6670 50  0000 C CNN
F 1 "10k" H 3600 6750 50  0000 C CNN
F 2 "craplib:TE_CB10V" H 3600 6750 50  0001 C CNN
F 3 "" H 3600 6750 50  0000 C CNN
	1    3600 6750
	0    -1   -1   0   
$EndComp
Wire Wire Line
	3300 6900 2950 6900
$Comp
L R R106
U 1 1 582EC16D
P 3600 7150
F 0 "R106" V 3680 7150 50  0000 C CNN
F 1 "1k" V 3600 7150 50  0000 C CNN
F 2 "Resistors_SMD:R_0402" V 3530 7150 50  0001 C CNN
F 3 "" H 3600 7150 50  0000 C CNN
	1    3600 7150
	1    0    0    -1  
$EndComp
Wire Wire Line
	2950 7000 3600 7000
$Comp
L GNDA #PWR027
U 1 1 582EC174
P 3600 7350
F 0 "#PWR027" H 3600 7100 50  0001 C CNN
F 1 "GNDA" H 3600 7200 50  0000 C CNN
F 2 "" H 3600 7350 50  0000 C CNN
F 3 "" H 3600 7350 50  0000 C CNN
	1    3600 7350
	1    0    0    -1  
$EndComp
Wire Wire Line
	3600 7350 3600 7300
Wire Wire Line
	3300 6600 3300 6900
Wire Wire Line
	3300 6750 3450 6750
Wire Wire Line
	3300 6600 3600 6600
Connection ~ 3300 6750
Wire Wire Line
	3600 7000 3600 6900
Text Notes 2100 7650 0    60   ~ 0
OUT = 50 x Vin\nCMP thr = 0.6V
$Comp
L C C102
U 1 1 582EC46B
P 5700 1350
F 0 "C102" H 5725 1450 50  0000 L CNN
F 1 "0.1u" H 5725 1250 50  0000 L CNN
F 2 "Capacitors_SMD:C_0402" H 5738 1200 50  0001 C CNN
F 3 "" H 5700 1350 50  0000 C CNN
	1    5700 1350
	1    0    0    -1  
$EndComp
$Comp
L C C103
U 1 1 582EC4C8
P 5900 1350
F 0 "C103" H 5925 1450 50  0000 L CNN
F 1 "0.1u" H 5925 1250 50  0000 L CNN
F 2 "Capacitors_SMD:C_0402" H 5938 1200 50  0001 C CNN
F 3 "" H 5900 1350 50  0000 C CNN
	1    5900 1350
	1    0    0    -1  
$EndComp
$Comp
L +5VA #PWR028
U 1 1 582EC54A
P 5700 1100
F 0 "#PWR028" H 5700 950 50  0001 C CNN
F 1 "+5VA" H 5700 1240 50  0000 C CNN
F 2 "" H 5700 1100 50  0000 C CNN
F 3 "" H 5700 1100 50  0000 C CNN
	1    5700 1100
	1    0    0    -1  
$EndComp
$Comp
L GNDA #PWR029
U 1 1 582EC5C4
P 5700 1600
F 0 "#PWR029" H 5700 1350 50  0001 C CNN
F 1 "GNDA" H 5700 1450 50  0000 C CNN
F 2 "" H 5700 1600 50  0000 C CNN
F 3 "" H 5700 1600 50  0000 C CNN
	1    5700 1600
	1    0    0    -1  
$EndComp
Wire Wire Line
	5700 1600 5700 1500
Wire Wire Line
	5500 1550 6950 1550
Connection ~ 5700 1550
Wire Wire Line
	5700 1100 5700 1200
Wire Wire Line
	5900 1150 5900 1200
Wire Wire Line
	5900 1550 5900 1500
Connection ~ 5700 1150
$Comp
L C C104
U 1 1 582ECF49
P 6100 1350
F 0 "C104" H 6125 1450 50  0000 L CNN
F 1 "0.1u" H 6125 1250 50  0000 L CNN
F 2 "Capacitors_SMD:C_0402" H 6138 1200 50  0001 C CNN
F 3 "" H 6100 1350 50  0000 C CNN
	1    6100 1350
	1    0    0    -1  
$EndComp
$Comp
L C C105
U 1 1 582ECF4F
P 6300 1350
F 0 "C105" H 6325 1450 50  0000 L CNN
F 1 "0.1u" H 6325 1250 50  0000 L CNN
F 2 "Capacitors_SMD:C_0402" H 6338 1200 50  0001 C CNN
F 3 "" H 6300 1350 50  0000 C CNN
	1    6300 1350
	1    0    0    -1  
$EndComp
$Comp
L C C106
U 1 1 582ECF55
P 6500 1350
F 0 "C106" H 6525 1450 50  0000 L CNN
F 1 "0.1u" H 6525 1250 50  0000 L CNN
F 2 "Capacitors_SMD:C_0402" H 6538 1200 50  0001 C CNN
F 3 "" H 6500 1350 50  0000 C CNN
	1    6500 1350
	1    0    0    -1  
$EndComp
$Comp
L C C107
U 1 1 582ECFD7
P 6750 1350
F 0 "C107" H 6775 1450 50  0000 L CNN
F 1 "0.1u" H 6775 1250 50  0000 L CNN
F 2 "Capacitors_SMD:C_0402" H 6788 1200 50  0001 C CNN
F 3 "" H 6750 1350 50  0000 C CNN
	1    6750 1350
	1    0    0    -1  
$EndComp
$Comp
L C C108
U 1 1 582ECFDD
P 6950 1350
F 0 "C108" H 6975 1450 50  0000 L CNN
F 1 "0.1u" H 6975 1250 50  0000 L CNN
F 2 "Capacitors_SMD:C_0402" H 6988 1200 50  0001 C CNN
F 3 "" H 6950 1350 50  0000 C CNN
	1    6950 1350
	1    0    0    -1  
$EndComp
Wire Wire Line
	6100 1150 6100 1200
Connection ~ 5900 1150
Wire Wire Line
	6300 1150 6300 1200
Connection ~ 6100 1150
Wire Wire Line
	6500 1150 6500 1200
Connection ~ 6300 1150
Wire Wire Line
	6750 1150 6750 1200
Connection ~ 6500 1150
Wire Wire Line
	6950 1150 6950 1200
Connection ~ 6750 1150
Wire Wire Line
	6100 1550 6100 1500
Connection ~ 5900 1550
Wire Wire Line
	6300 1550 6300 1500
Connection ~ 6100 1550
Wire Wire Line
	6500 1550 6500 1500
Connection ~ 6300 1550
Wire Wire Line
	6750 1550 6750 1500
Connection ~ 6500 1550
Wire Wire Line
	6950 1550 6950 1500
Connection ~ 6750 1550
Text Label 1950 1450 2    60   ~ 0
AN_CUR1
Text Label 1950 2850 2    60   ~ 0
AN_CUR2
Text Label 1950 4200 2    60   ~ 0
AN_CUR3
Text Label 1950 5600 2    60   ~ 0
AN_CUR4
Text Label 1900 7000 2    60   ~ 0
AN_CUR5
Text Label 7800 4500 2    60   ~ 0
AN_CUR5
Text Label 7800 2950 2    60   ~ 0
AN_CUR4
Text Label 7800 3050 2    60   ~ 0
AN_CUR3
Text Label 7800 3150 2    60   ~ 0
AN_CUR2
Text Label 7800 3250 2    60   ~ 0
AN_CUR1
$Comp
L +5VA #PWR030
U 1 1 582EF4D1
P 4800 4200
F 0 "#PWR030" H 4800 4050 50  0001 C CNN
F 1 "+5VA" H 4800 4340 50  0000 C CNN
F 2 "" H 4800 4200 50  0000 C CNN
F 3 "" H 4800 4200 50  0000 C CNN
	1    4800 4200
	1    0    0    -1  
$EndComp
$Comp
L R R111
U 1 1 582EF532
P 4800 4400
F 0 "R111" V 4880 4400 50  0000 C CNN
F 1 "1k" V 4800 4400 50  0000 C CNN
F 2 "Resistors_SMD:R_0402" V 4730 4400 50  0001 C CNN
F 3 "" H 4800 4400 50  0000 C CNN
	1    4800 4400
	1    0    0    -1  
$EndComp
$Comp
L LED D101
U 1 1 582EF5AB
P 4800 4800
F 0 "D101" H 4800 4900 50  0000 C CNN
F 1 "LED" H 4800 4700 50  0000 C CNN
F 2 "Capacitors_SMD:C_0603_HandSoldering" H 4800 4800 50  0001 C CNN
F 3 "" H 4800 4800 50  0000 C CNN
	1    4800 4800
	0    -1   -1   0   
$EndComp
$Comp
L GNDA #PWR031
U 1 1 582EF652
P 4800 5500
F 0 "#PWR031" H 4800 5250 50  0001 C CNN
F 1 "GNDA" H 4800 5350 50  0000 C CNN
F 2 "" H 4800 5500 50  0000 C CNN
F 3 "" H 4800 5500 50  0000 C CNN
	1    4800 5500
	1    0    0    -1  
$EndComp
Wire Wire Line
	4800 5500 4800 5450
Wire Wire Line
	4800 4600 4800 4550
Wire Wire Line
	4800 4250 4800 4200
$Comp
L R R112
U 1 1 582EF9DD
P 4800 5300
F 0 "R112" V 4880 5300 50  0000 C CNN
F 1 "R" V 4800 5300 50  0000 C CNN
F 2 "Resistors_SMD:R_0402" V 4730 5300 50  0001 C CNN
F 3 "" H 4800 5300 50  0000 C CNN
	1    4800 5300
	1    0    0    -1  
$EndComp
Wire Wire Line
	4800 5150 4800 5000
Text Label 4600 4550 1    60   ~ 0
AN_CUR1
Wire Wire Line
	4600 4550 4600 4600
Wire Wire Line
	4600 4600 4800 4600
$Comp
L +5VA #PWR032
U 1 1 582EFE85
P 5300 4200
F 0 "#PWR032" H 5300 4050 50  0001 C CNN
F 1 "+5VA" H 5300 4340 50  0000 C CNN
F 2 "" H 5300 4200 50  0000 C CNN
F 3 "" H 5300 4200 50  0000 C CNN
	1    5300 4200
	1    0    0    -1  
$EndComp
$Comp
L R R113
U 1 1 582EFE8B
P 5300 4400
F 0 "R113" V 5380 4400 50  0000 C CNN
F 1 "1k" V 5300 4400 50  0000 C CNN
F 2 "Resistors_SMD:R_0402" V 5230 4400 50  0001 C CNN
F 3 "" H 5300 4400 50  0000 C CNN
	1    5300 4400
	1    0    0    -1  
$EndComp
$Comp
L LED D102
U 1 1 582EFE91
P 5300 4800
F 0 "D102" H 5300 4900 50  0000 C CNN
F 1 "LED" H 5300 4700 50  0000 C CNN
F 2 "Capacitors_SMD:C_0603_HandSoldering" H 5300 4800 50  0001 C CNN
F 3 "" H 5300 4800 50  0000 C CNN
	1    5300 4800
	0    -1   -1   0   
$EndComp
$Comp
L GNDA #PWR033
U 1 1 582EFE97
P 5300 5500
F 0 "#PWR033" H 5300 5250 50  0001 C CNN
F 1 "GNDA" H 5300 5350 50  0000 C CNN
F 2 "" H 5300 5500 50  0000 C CNN
F 3 "" H 5300 5500 50  0000 C CNN
	1    5300 5500
	1    0    0    -1  
$EndComp
Wire Wire Line
	5300 5500 5300 5450
Wire Wire Line
	5300 4600 5300 4550
Wire Wire Line
	5300 4250 5300 4200
$Comp
L R R114
U 1 1 582EFEA0
P 5300 5300
F 0 "R114" V 5380 5300 50  0000 C CNN
F 1 "R" V 5300 5300 50  0000 C CNN
F 2 "Resistors_SMD:R_0402" V 5230 5300 50  0001 C CNN
F 3 "" H 5300 5300 50  0000 C CNN
	1    5300 5300
	1    0    0    -1  
$EndComp
Wire Wire Line
	5300 5150 5300 5000
Text Label 5100 4550 1    60   ~ 0
AN_CUR2
Wire Wire Line
	5100 4550 5100 4600
Wire Wire Line
	5100 4600 5300 4600
$Comp
L +5VA #PWR034
U 1 1 582F006C
P 5800 4250
F 0 "#PWR034" H 5800 4100 50  0001 C CNN
F 1 "+5VA" H 5800 4390 50  0000 C CNN
F 2 "" H 5800 4250 50  0000 C CNN
F 3 "" H 5800 4250 50  0000 C CNN
	1    5800 4250
	1    0    0    -1  
$EndComp
$Comp
L R R115
U 1 1 582F0072
P 5800 4450
F 0 "R115" V 5880 4450 50  0000 C CNN
F 1 "1k" V 5800 4450 50  0000 C CNN
F 2 "Resistors_SMD:R_0402" V 5730 4450 50  0001 C CNN
F 3 "" H 5800 4450 50  0000 C CNN
	1    5800 4450
	1    0    0    -1  
$EndComp
$Comp
L LED D103
U 1 1 582F0078
P 5800 4850
F 0 "D103" H 5800 4950 50  0000 C CNN
F 1 "LED" H 5800 4750 50  0000 C CNN
F 2 "Capacitors_SMD:C_0603_HandSoldering" H 5800 4850 50  0001 C CNN
F 3 "" H 5800 4850 50  0000 C CNN
	1    5800 4850
	0    -1   -1   0   
$EndComp
$Comp
L GNDA #PWR035
U 1 1 582F007E
P 5800 5550
F 0 "#PWR035" H 5800 5300 50  0001 C CNN
F 1 "GNDA" H 5800 5400 50  0000 C CNN
F 2 "" H 5800 5550 50  0000 C CNN
F 3 "" H 5800 5550 50  0000 C CNN
	1    5800 5550
	1    0    0    -1  
$EndComp
Wire Wire Line
	5800 5550 5800 5500
Wire Wire Line
	5800 4650 5800 4600
Wire Wire Line
	5800 4300 5800 4250
$Comp
L R R116
U 1 1 582F0087
P 5800 5350
F 0 "R116" V 5880 5350 50  0000 C CNN
F 1 "R" V 5800 5350 50  0000 C CNN
F 2 "Resistors_SMD:R_0402" V 5730 5350 50  0001 C CNN
F 3 "" H 5800 5350 50  0000 C CNN
	1    5800 5350
	1    0    0    -1  
$EndComp
Wire Wire Line
	5800 5200 5800 5050
Text Label 5600 4600 1    60   ~ 0
AN_CUR3
Wire Wire Line
	5600 4600 5600 4650
Wire Wire Line
	5600 4650 5800 4650
$Comp
L +5VA #PWR036
U 1 1 582F0091
P 6300 4250
F 0 "#PWR036" H 6300 4100 50  0001 C CNN
F 1 "+5VA" H 6300 4390 50  0000 C CNN
F 2 "" H 6300 4250 50  0000 C CNN
F 3 "" H 6300 4250 50  0000 C CNN
	1    6300 4250
	1    0    0    -1  
$EndComp
$Comp
L R R117
U 1 1 582F0097
P 6300 4450
F 0 "R117" V 6380 4450 50  0000 C CNN
F 1 "1k" V 6300 4450 50  0000 C CNN
F 2 "Resistors_SMD:R_0402" V 6230 4450 50  0001 C CNN
F 3 "" H 6300 4450 50  0000 C CNN
	1    6300 4450
	1    0    0    -1  
$EndComp
$Comp
L LED D104
U 1 1 582F009D
P 6300 4850
F 0 "D104" H 6300 4950 50  0000 C CNN
F 1 "LED" H 6300 4750 50  0000 C CNN
F 2 "Capacitors_SMD:C_0603_HandSoldering" H 6300 4850 50  0001 C CNN
F 3 "" H 6300 4850 50  0000 C CNN
	1    6300 4850
	0    -1   -1   0   
$EndComp
$Comp
L GNDA #PWR037
U 1 1 582F00A3
P 6300 5550
F 0 "#PWR037" H 6300 5300 50  0001 C CNN
F 1 "GNDA" H 6300 5400 50  0000 C CNN
F 2 "" H 6300 5550 50  0000 C CNN
F 3 "" H 6300 5550 50  0000 C CNN
	1    6300 5550
	1    0    0    -1  
$EndComp
Wire Wire Line
	6300 5550 6300 5500
Wire Wire Line
	6300 4650 6300 4600
Wire Wire Line
	6300 4300 6300 4250
$Comp
L R R118
U 1 1 582F00AC
P 6300 5350
F 0 "R118" V 6380 5350 50  0000 C CNN
F 1 "R" V 6300 5350 50  0000 C CNN
F 2 "Resistors_SMD:R_0402" V 6230 5350 50  0001 C CNN
F 3 "" H 6300 5350 50  0000 C CNN
	1    6300 5350
	1    0    0    -1  
$EndComp
Wire Wire Line
	6300 5200 6300 5050
Text Label 6100 4600 1    60   ~ 0
AN_CUR4
Wire Wire Line
	6100 4600 6100 4650
Wire Wire Line
	6100 4650 6300 4650
$Comp
L +5VA #PWR038
U 1 1 582F040D
P 6850 4300
F 0 "#PWR038" H 6850 4150 50  0001 C CNN
F 1 "+5VA" H 6850 4440 50  0000 C CNN
F 2 "" H 6850 4300 50  0000 C CNN
F 3 "" H 6850 4300 50  0000 C CNN
	1    6850 4300
	1    0    0    -1  
$EndComp
$Comp
L R R119
U 1 1 582F0413
P 6850 4500
F 0 "R119" V 6930 4500 50  0000 C CNN
F 1 "1k" V 6850 4500 50  0000 C CNN
F 2 "Resistors_SMD:R_0402" V 6780 4500 50  0001 C CNN
F 3 "" H 6850 4500 50  0000 C CNN
	1    6850 4500
	1    0    0    -1  
$EndComp
$Comp
L LED D105
U 1 1 582F0419
P 6850 4900
F 0 "D105" H 6850 5000 50  0000 C CNN
F 1 "LED" H 6850 4800 50  0000 C CNN
F 2 "Capacitors_SMD:C_0603_HandSoldering" H 6850 4900 50  0001 C CNN
F 3 "" H 6850 4900 50  0000 C CNN
	1    6850 4900
	0    -1   -1   0   
$EndComp
$Comp
L GNDA #PWR039
U 1 1 582F041F
P 6850 5600
F 0 "#PWR039" H 6850 5350 50  0001 C CNN
F 1 "GNDA" H 6850 5450 50  0000 C CNN
F 2 "" H 6850 5600 50  0000 C CNN
F 3 "" H 6850 5600 50  0000 C CNN
	1    6850 5600
	1    0    0    -1  
$EndComp
Wire Wire Line
	6850 5600 6850 5550
Wire Wire Line
	6850 4700 6850 4650
Wire Wire Line
	6850 4350 6850 4300
$Comp
L R R120
U 1 1 582F0428
P 6850 5400
F 0 "R120" V 6930 5400 50  0000 C CNN
F 1 "R" V 6850 5400 50  0000 C CNN
F 2 "Resistors_SMD:R_0402" V 6780 5400 50  0001 C CNN
F 3 "" H 6850 5400 50  0000 C CNN
	1    6850 5400
	1    0    0    -1  
$EndComp
Wire Wire Line
	6850 5250 6850 5100
Text Label 6650 4650 1    60   ~ 0
AN_CUR5
Wire Wire Line
	6650 4650 6650 4700
Wire Wire Line
	6650 4700 6850 4700
$Comp
L C C109
U 1 1 582F09CE
P 9100 1600
F 0 "C109" H 9125 1700 50  0000 L CNN
F 1 "0.1u" H 9125 1500 50  0000 L CNN
F 2 "Capacitors_SMD:C_0402" H 9138 1450 50  0001 C CNN
F 3 "" H 9100 1600 50  0000 C CNN
	1    9100 1600
	1    0    0    -1  
$EndComp
$Comp
L C C110
U 1 1 582F09D4
P 9300 1600
F 0 "C110" H 9325 1700 50  0000 L CNN
F 1 "0.1u" H 9325 1500 50  0000 L CNN
F 2 "Capacitors_SMD:C_0402" H 9338 1450 50  0001 C CNN
F 3 "" H 9300 1600 50  0000 C CNN
	1    9300 1600
	1    0    0    -1  
$EndComp
Wire Wire Line
	9300 1850 9300 1750
Wire Wire Line
	9100 1800 9100 1750
Connection ~ 9300 1800
Wire Wire Line
	9300 1350 9300 1450
Wire Wire Line
	9100 1450 9100 1400
Connection ~ 9300 1400
Wire Wire Line
	9100 1800 9300 1800
Wire Wire Line
	9100 1400 9300 1400
$Comp
L VCC #PWR040
U 1 1 582F0DF1
P 9300 1350
F 0 "#PWR040" H 9300 1200 50  0001 C CNN
F 1 "VCC" H 9300 1500 50  0000 C CNN
F 2 "" H 9300 1350 50  0000 C CNN
F 3 "" H 9300 1350 50  0000 C CNN
	1    9300 1350
	1    0    0    -1  
$EndComp
$Comp
L GND #PWR041
U 1 1 582F0EAD
P 9300 1850
F 0 "#PWR041" H 9300 1600 50  0001 C CNN
F 1 "GND" H 9300 1700 50  0000 C CNN
F 2 "" H 9300 1850 50  0000 C CNN
F 3 "" H 9300 1850 50  0000 C CNN
	1    9300 1850
	1    0    0    -1  
$EndComp
Text Notes 3400 2200 0    60   ~ 0
potar: farnell 1227569, TE cb10mv103me
Wire Wire Line
	5500 1150 6950 1150
$EndSCHEMATC
