(export (version D)
  (design
    (source /home/burindes/crap/elec/testpressure/testpressure.sch)
    (date "lun. 15 févr. 2016 13:11:22 CET")
    (tool "Eeschema 4.0.1-4.201602110846+6195~38~ubuntu15.10.1-stable")
    (sheet (number 1) (name /) (tstamps /)
      (title_block
        (title)
        (company)
        (rev)
        (date)
        (source testpressure.sch)
        (comment (number 1) (value ""))
        (comment (number 2) (value ""))
        (comment (number 3) (value ""))
        (comment (number 4) (value "")))))
  (components
    (comp (ref U101)
      (value MPS20N0040D)
      (footprint craplib:MPS20N004D)
      (libsource (lib crap) (part MPS20N0040D))
      (sheetpath (names /) (tstamps /))
      (tstamp 56C1DBE5))
    (comp (ref U102)
      (value MCP6V11)
      (footprint TO_SOT_Packages_SMD:SC-70-5)
      (libsource (lib crap) (part MCP6V11))
      (sheetpath (names /) (tstamps /))
      (tstamp 56C1DC21))
    (comp (ref R102)
      (value 0.2)
      (footprint Resistors_SMD:R_0603_HandSoldering)
      (libsource (lib device) (part R_Small))
      (sheetpath (names /) (tstamps /))
      (tstamp 56C1DE52))
    (comp (ref R101)
      (value 0.2)
      (footprint Resistors_SMD:R_0603_HandSoldering)
      (libsource (lib device) (part R_Small))
      (sheetpath (names /) (tstamps /))
      (tstamp 56C1E1B2))
    (comp (ref R103)
      (value 100)
      (footprint Resistors_SMD:R_0603_HandSoldering)
      (libsource (lib device) (part R_Small))
      (sheetpath (names /) (tstamps /))
      (tstamp 56C1E367))
    (comp (ref C101)
      (value C)
      (footprint Capacitors_SMD:C_0603_HandSoldering)
      (libsource (lib device) (part C))
      (sheetpath (names /) (tstamps /))
      (tstamp 56C1E43C))
    (comp (ref R104)
      (value 1k)
      (footprint Resistors_SMD:R_0603_HandSoldering)
      (libsource (lib device) (part R))
      (sheetpath (names /) (tstamps /))
      (tstamp 56C1E4A4))
    (comp (ref P101)
      (value CONN_01X02)
      (footprint Pin_Headers:Pin_Header_Straight_1x02)
      (libsource (lib conn) (part CONN_01X02))
      (sheetpath (names /) (tstamps /))
      (tstamp 56C1E573))
    (comp (ref P102)
      (value CONN_01X02)
      (footprint Pin_Headers:Pin_Header_Straight_1x02)
      (libsource (lib conn) (part CONN_01X02))
      (sheetpath (names /) (tstamps /))
      (tstamp 56C1E87C))
    (comp (ref C102)
      (value 1u)
      (footprint Capacitors_SMD:C_0603_HandSoldering)
      (libsource (lib device) (part C_Small))
      (sheetpath (names /) (tstamps /))
      (tstamp 56C1EB42)))
  (libparts
    (libpart (lib device) (part C)
      (description "Unpolarized capacitor")
      (footprints
        (fp C?)
        (fp C_????_*)
        (fp C_????)
        (fp SMD*_c)
        (fp Capacitor*))
      (fields
        (field (name Reference) C)
        (field (name Value) C))
      (pins
        (pin (num 1) (name ~) (type passive))
        (pin (num 2) (name ~) (type passive))))
    (libpart (lib conn) (part CONN_01X02)
      (description "Connector 01x02")
      (footprints
        (fp Pin_Header_Straight_1X02)
        (fp Pin_Header_Angled_1X02)
        (fp Socket_Strip_Straight_1X02)
        (fp Socket_Strip_Angled_1X02))
      (fields
        (field (name Reference) P)
        (field (name Value) CONN_01X02))
      (pins
        (pin (num 1) (name P1) (type passive))
        (pin (num 2) (name P2) (type passive))))
    (libpart (lib device) (part C_Small)
      (description "Unpolarized capacitor")
      (footprints
        (fp C?)
        (fp C_????_*)
        (fp C_????)
        (fp SMD*_c)
        (fp Capacitor*))
      (fields
        (field (name Reference) C)
        (field (name Value) C_Small))
      (pins
        (pin (num 1) (name ~) (type passive))
        (pin (num 2) (name ~) (type passive))))
    (libpart (lib crap) (part MCP6V11)
      (fields
        (field (name Reference) U)
        (field (name Value) MCP6V11))
      (pins
        (pin (num 1) (name VIN+) (type input))
        (pin (num 2) (name VSS) (type input))
        (pin (num 3) (name VIN-) (type input))
        (pin (num 4) (name VOUT) (type input))
        (pin (num 5) (name VDD) (type input))))
    (libpart (lib crap) (part MPS20N0040D)
      (fields
        (field (name Reference) U)
        (field (name Value) MPS20N0040D))
      (pins
        (pin (num 1) (name OUT+) (type passive))
        (pin (num 2) (name IN+) (type passive))
        (pin (num 3) (name OUT-) (type passive))
        (pin (num 4) (name OUT-) (type passive))
        (pin (num 5) (name IN-) (type passive))))
    (libpart (lib device) (part R)
      (description Resistor)
      (footprints
        (fp R_*)
        (fp Resistor_*))
      (fields
        (field (name Reference) R)
        (field (name Value) R))
      (pins
        (pin (num 1) (name ~) (type passive))
        (pin (num 2) (name ~) (type passive))))
    (libpart (lib device) (part R_Small)
      (description Resistor)
      (footprints
        (fp Resistor_*)
        (fp R_*))
      (fields
        (field (name Reference) R)
        (field (name Value) R_Small))
      (pins
        (pin (num 1) (name ~) (type passive))
        (pin (num 2) (name ~) (type passive)))))
  (libraries
    (library (logical conn)
      (uri /usr/share/kicad/library/conn.lib))
    (library (logical device)
      (uri /usr/share/kicad/library/device.lib))
    (library (logical crap)
      (uri /home/burindes/crap/elec/lib/crap.lib)))
  (nets
    (net (code 1) (name "Net-(P101-Pad2)")
      (node (ref R104) (pin 1))
      (node (ref P101) (pin 2)))
    (net (code 2) (name "Net-(C101-Pad1)")
      (node (ref U102) (pin 4))
      (node (ref C101) (pin 1))
      (node (ref R103) (pin 2))
      (node (ref R104) (pin 2)))
    (net (code 3) (name GND)
      (node (ref P102) (pin 1))
      (node (ref P101) (pin 1))
      (node (ref U102) (pin 2))
      (node (ref U101) (pin 5))
      (node (ref C102) (pin 2)))
    (net (code 4) (name VDD)
      (node (ref U101) (pin 2))
      (node (ref U102) (pin 5))
      (node (ref C102) (pin 1))
      (node (ref P102) (pin 2)))
    (net (code 5) (name /V-)
      (node (ref R101) (pin 1))
      (node (ref U101) (pin 3))
      (node (ref U101) (pin 4)))
    (net (code 6) (name "Net-(R102-Pad2)")
      (node (ref U102) (pin 1))
      (node (ref R102) (pin 2)))
    (net (code 7) (name /V+)
      (node (ref R102) (pin 1))
      (node (ref U101) (pin 1)))
    (net (code 8) (name "Net-(C101-Pad2)")
      (node (ref R101) (pin 2))
      (node (ref C101) (pin 2))
      (node (ref U102) (pin 3))
      (node (ref R103) (pin 1)))))