EESchema Schematic File Version 2
LIBS:power
LIBS:device
LIBS:transistors
LIBS:conn
LIBS:linear
LIBS:regul
LIBS:74xx
LIBS:cmos4000
LIBS:adc-dac
LIBS:memory
LIBS:xilinx
LIBS:microcontrollers
LIBS:dsp
LIBS:microchip
LIBS:analog_switches
LIBS:motorola
LIBS:texas
LIBS:intel
LIBS:audio
LIBS:interface
LIBS:digital-audio
LIBS:philips
LIBS:display
LIBS:cypress
LIBS:siliconi
LIBS:opto
LIBS:atmel
LIBS:contrib
LIBS:valves
LIBS:crap
LIBS:testpressure-cache
EELAYER 25 0
EELAYER END
$Descr A4 11693 8268
encoding utf-8
Sheet 1 1
Title ""
Date ""
Rev ""
Comp ""
Comment1 ""
Comment2 ""
Comment3 ""
Comment4 ""
$EndDescr
$Comp
L MPS20N0040D U101
U 1 1 56C1DBE5
P 4450 3700
F 0 "U101" H 4550 3200 60  0000 C CNN
F 1 "MPS20N0040D" H 4400 4050 60  0000 C CNN
F 2 "craplib:MPS20N004D" H 4450 3700 60  0001 C CNN
F 3 "" H 4450 3700 60  0000 C CNN
	1    4450 3700
	1    0    0    -1  
$EndComp
$Comp
L MCP6V11 U102
U 1 1 56C1DC21
P 7000 3850
F 0 "U102" H 7150 3500 60  0000 C CNN
F 1 "MCP6V11" H 7000 4100 60  0000 C CNN
F 2 "TO_SOT_Packages_SMD:SC-70-5" H 7000 3850 60  0001 C CNN
F 3 "" H 7000 3850 60  0000 C CNN
	1    7000 3850
	1    0    0    -1  
$EndComp
$Comp
L VDD #PWR01
U 1 1 56C1DCA5
P 3900 3400
F 0 "#PWR01" H 3900 3250 50  0001 C CNN
F 1 "VDD" H 3900 3550 50  0000 C CNN
F 2 "" H 3900 3400 50  0000 C CNN
F 3 "" H 3900 3400 50  0000 C CNN
	1    3900 3400
	1    0    0    -1  
$EndComp
Wire Wire Line
	3900 3400 3900 3500
Wire Wire Line
	3900 3500 4000 3500
$Comp
L VDD #PWR02
U 1 1 56C1DCC1
P 7600 3700
F 0 "#PWR02" H 7600 3550 50  0001 C CNN
F 1 "VDD" H 7600 3850 50  0000 C CNN
F 2 "" H 7600 3700 50  0000 C CNN
F 3 "" H 7600 3700 50  0000 C CNN
	1    7600 3700
	1    0    0    -1  
$EndComp
Wire Wire Line
	7500 3800 7600 3800
Wire Wire Line
	7600 3800 7600 3700
$Comp
L GND #PWR03
U 1 1 56C1DCEA
P 7550 4100
F 0 "#PWR03" H 7550 3850 50  0001 C CNN
F 1 "GND" H 7550 3950 50  0000 C CNN
F 2 "" H 7550 4100 50  0000 C CNN
F 3 "" H 7550 4100 50  0000 C CNN
	1    7550 4100
	1    0    0    -1  
$EndComp
Wire Wire Line
	7550 4100 7550 4000
Wire Wire Line
	7550 4000 7500 4000
$Comp
L GND #PWR04
U 1 1 56C1DD0A
P 4850 4050
F 0 "#PWR04" H 4850 3800 50  0001 C CNN
F 1 "GND" H 4850 3900 50  0000 C CNN
F 2 "" H 4850 4050 50  0000 C CNN
F 3 "" H 4850 4050 50  0000 C CNN
	1    4850 4050
	1    0    0    -1  
$EndComp
Wire Wire Line
	4850 4050 4850 3950
Wire Wire Line
	4850 3950 4750 3950
Text Label 4850 3750 0    60   ~ 0
V+
Wire Wire Line
	4850 3750 4750 3750
Wire Wire Line
	4000 3800 3900 3800
Wire Wire Line
	3900 3800 3900 3700
Wire Wire Line
	3900 3700 4000 3700
Wire Wire Line
	3900 3750 3800 3750
Connection ~ 3900 3750
Text Label 3800 3750 2    60   ~ 0
V-
Text Label 6150 3800 2    60   ~ 0
V-
Text Label 6150 3950 2    60   ~ 0
V+
Wire Wire Line
	6500 3800 6600 3800
$Comp
L R_Small R102
U 1 1 56C1DE52
P 6400 3950
F 0 "R102" V 6250 3950 50  0000 L CNN
F 1 "47" V 6350 3900 50  0000 L CNN
F 2 "Resistors_SMD:R_0603_HandSoldering" H 6400 3950 50  0001 C CNN
F 3 "" H 6400 3950 50  0000 C CNN
	1    6400 3950
	0    -1   -1   0   
$EndComp
$Comp
L R_Small R101
U 1 1 56C1E1B2
P 6400 3800
F 0 "R101" V 6600 3750 50  0000 L CNN
F 1 "47" V 6500 3750 50  0000 L CNN
F 2 "Resistors_SMD:R_0603_HandSoldering" H 6400 3800 50  0001 C CNN
F 3 "" H 6400 3800 50  0000 C CNN
	1    6400 3800
	0    -1   -1   0   
$EndComp
Wire Wire Line
	6500 3950 6600 3950
Wire Wire Line
	6150 3950 6300 3950
Wire Wire Line
	6150 3800 6300 3800
$Comp
L R_Small R103
U 1 1 56C1E367
P 7150 3300
F 0 "R103" V 7350 3250 50  0000 L CNN
F 1 "100k" V 7250 3250 50  0000 L CNN
F 2 "Resistors_SMD:R_0603_HandSoldering" H 7150 3300 50  0001 C CNN
F 3 "" H 7150 3300 50  0000 C CNN
	1    7150 3300
	0    -1   -1   0   
$EndComp
Wire Wire Line
	7250 3300 7800 3300
Wire Wire Line
	7800 3300 7800 3900
Wire Wire Line
	7500 3900 7900 3900
Wire Wire Line
	6550 3800 6550 3300
Wire Wire Line
	6550 3300 7050 3300
Connection ~ 6550 3800
$Comp
L C C101
U 1 1 56C1E43C
P 7150 2950
F 0 "C101" H 7175 3050 50  0000 L CNN
F 1 "1u" H 7175 2850 50  0000 L CNN
F 2 "Capacitors_SMD:C_0603_HandSoldering" H 7188 2800 50  0001 C CNN
F 3 "" H 7150 2950 50  0000 C CNN
	1    7150 2950
	0    1    1    0   
$EndComp
Wire Wire Line
	7300 2950 7450 2950
Wire Wire Line
	7450 2950 7450 3300
Connection ~ 7450 3300
Wire Wire Line
	7000 2950 6850 2950
Wire Wire Line
	6850 2950 6850 3300
Connection ~ 6850 3300
$Comp
L R R104
U 1 1 56C1E4A4
P 8050 3900
F 0 "R104" V 8130 3900 50  0000 C CNN
F 1 "1k" V 8050 3900 50  0000 C CNN
F 2 "Resistors_SMD:R_0603_HandSoldering" V 7980 3900 50  0001 C CNN
F 3 "" H 8050 3900 50  0000 C CNN
	1    8050 3900
	0    1    1    0   
$EndComp
Connection ~ 7800 3900
Wire Wire Line
	8200 3900 8350 3900
$Comp
L CONN_01X02 P101
U 1 1 56C1E573
P 8550 3950
F 0 "P101" H 8550 4100 50  0000 C CNN
F 1 "CONN_01X02" V 8650 3950 50  0000 C CNN
F 2 "Pin_Headers:Pin_Header_Straight_1x02" H 8550 3950 50  0001 C CNN
F 3 "" H 8550 3950 50  0000 C CNN
	1    8550 3950
	1    0    0    1   
$EndComp
$Comp
L GND #PWR05
U 1 1 56C1E5CA
P 8250 4100
F 0 "#PWR05" H 8250 3850 50  0001 C CNN
F 1 "GND" H 8250 3950 50  0000 C CNN
F 2 "" H 8250 4100 50  0000 C CNN
F 3 "" H 8250 4100 50  0000 C CNN
	1    8250 4100
	1    0    0    -1  
$EndComp
Wire Wire Line
	8250 4100 8250 4000
Wire Wire Line
	8250 4000 8350 4000
$Comp
L CONN_01X02 P102
U 1 1 56C1E87C
P 9750 4000
F 0 "P102" H 9750 4150 50  0000 C CNN
F 1 "CONN_01X02" V 9850 4000 50  0000 C CNN
F 2 "Pin_Headers:Pin_Header_Straight_1x02" H 9750 4000 50  0001 C CNN
F 3 "" H 9750 4000 50  0000 C CNN
	1    9750 4000
	1    0    0    1   
$EndComp
$Comp
L GND #PWR06
U 1 1 56C1E8A8
P 9450 4150
F 0 "#PWR06" H 9450 3900 50  0001 C CNN
F 1 "GND" H 9450 4000 50  0000 C CNN
F 2 "" H 9450 4150 50  0000 C CNN
F 3 "" H 9450 4150 50  0000 C CNN
	1    9450 4150
	1    0    0    -1  
$EndComp
Wire Wire Line
	9450 4150 9450 4050
Wire Wire Line
	9450 4050 9550 4050
$Comp
L VDD #PWR07
U 1 1 56C1E8FB
P 9450 3850
F 0 "#PWR07" H 9450 3700 50  0001 C CNN
F 1 "VDD" H 9450 4000 50  0000 C CNN
F 2 "" H 9450 3850 50  0000 C CNN
F 3 "" H 9450 3850 50  0000 C CNN
	1    9450 3850
	1    0    0    -1  
$EndComp
Wire Wire Line
	9450 3850 9450 3950
Wire Wire Line
	9450 3950 9550 3950
$Comp
L C_Small C102
U 1 1 56C1EB42
P 9200 4000
F 0 "C102" H 9210 4070 50  0000 L CNN
F 1 "1u" H 9210 3920 50  0000 L CNN
F 2 "Capacitors_SMD:C_0603_HandSoldering" H 9200 4000 50  0001 C CNN
F 3 "" H 9200 4000 50  0000 C CNN
	1    9200 4000
	1    0    0    -1  
$EndComp
Wire Wire Line
	9200 4100 9200 4150
Wire Wire Line
	9200 4150 9450 4150
Wire Wire Line
	9200 3900 9200 3850
Wire Wire Line
	9200 3850 9450 3850
$EndSCHEMATC
