(kicad_pcb (version 4) (host pcbnew 4.0.1-4.201602110846+6195~38~ubuntu15.10.1-stable)

  (general
    (links 18)
    (no_connects 0)
    (area 119.605667 57.924999 164.620334 75.075001)
    (thickness 1.6)
    (drawings 4)
    (tracks 64)
    (zones 0)
    (modules 10)
    (nets 9)
  )

  (page A4)
  (layers
    (0 F.Cu signal)
    (31 B.Cu signal)
    (32 B.Adhes user)
    (33 F.Adhes user)
    (34 B.Paste user)
    (35 F.Paste user)
    (36 B.SilkS user)
    (37 F.SilkS user)
    (38 B.Mask user)
    (39 F.Mask user)
    (40 Dwgs.User user)
    (41 Cmts.User user)
    (42 Eco1.User user)
    (43 Eco2.User user)
    (44 Edge.Cuts user)
    (45 Margin user)
    (46 B.CrtYd user)
    (47 F.CrtYd user)
    (48 B.Fab user)
    (49 F.Fab user)
  )

  (setup
    (last_trace_width 0.3)
    (user_trace_width 0.3)
    (user_trace_width 0.5)
    (user_trace_width 1)
    (trace_clearance 0.2)
    (zone_clearance 0.1)
    (zone_45_only no)
    (trace_min 0.2)
    (segment_width 0.2)
    (edge_width 0.15)
    (via_size 0.6)
    (via_drill 0.4)
    (via_min_size 0.4)
    (via_min_drill 0.3)
    (uvia_size 0.3)
    (uvia_drill 0.1)
    (uvias_allowed no)
    (uvia_min_size 0.2)
    (uvia_min_drill 0.1)
    (pcb_text_width 0.3)
    (pcb_text_size 1.5 1.5)
    (mod_edge_width 0.15)
    (mod_text_size 1 1)
    (mod_text_width 0.15)
    (pad_size 1.524 1.524)
    (pad_drill 0.762)
    (pad_to_mask_clearance 0.2)
    (aux_axis_origin 120 75)
    (grid_origin 120 75)
    (visible_elements FFFCFF7F)
    (pcbplotparams
      (layerselection 0x00000_80000001)
      (usegerberextensions true)
      (excludeedgelayer true)
      (linewidth 0.100000)
      (plotframeref false)
      (viasonmask false)
      (mode 1)
      (useauxorigin true)
      (hpglpennumber 1)
      (hpglpenspeed 20)
      (hpglpendiameter 15)
      (hpglpenoverlay 2)
      (psnegative false)
      (psa4output false)
      (plotreference false)
      (plotvalue false)
      (plotinvisibletext false)
      (padsonsilk false)
      (subtractmaskfromsilk false)
      (outputformat 1)
      (mirror false)
      (drillshape 0)
      (scaleselection 1)
      (outputdirectory gerber))
  )

  (net 0 "")
  (net 1 "Net-(C101-Pad1)")
  (net 2 "Net-(C101-Pad2)")
  (net 3 VDD)
  (net 4 GND)
  (net 5 "Net-(P101-Pad2)")
  (net 6 /V-)
  (net 7 /V+)
  (net 8 "Net-(R102-Pad2)")

  (net_class Default "This is the default net class."
    (clearance 0.2)
    (trace_width 0.25)
    (via_dia 0.6)
    (via_drill 0.4)
    (uvia_dia 0.3)
    (uvia_drill 0.1)
    (add_net /V+)
    (add_net /V-)
    (add_net GND)
    (add_net "Net-(C101-Pad1)")
    (add_net "Net-(C101-Pad2)")
    (add_net "Net-(P101-Pad2)")
    (add_net "Net-(R102-Pad2)")
    (add_net VDD)
  )

  (module craplib:MPS20N004D (layer F.Cu) (tedit 56C194B4) (tstamp 56C1C0BF)
    (at 130.048 63.5)
    (descr "6-lead dip package, row spacing 7.62 mm (300 mils)")
    (tags "dil dip 2.54 300")
    (path /56C1DBE5)
    (fp_text reference U101 (at 5.75 9) (layer F.SilkS)
      (effects (font (size 1 1) (thickness 0.15)))
    )
    (fp_text value MPS20N0040D (at 5.75 -3.25) (layer F.Fab)
      (effects (font (size 1 1) (thickness 0.15)))
    )
    (fp_line (start 10 -1.25) (end 10 1.25) (layer F.SilkS) (width 0.15))
    (fp_line (start 10 6.25) (end 10 7) (layer F.SilkS) (width 0.15))
    (fp_line (start 10 7) (end 0 7) (layer F.SilkS) (width 0.15))
    (fp_line (start 0 7) (end 0 6.25) (layer F.SilkS) (width 0.15))
    (fp_line (start 0 -1.25) (end 0 -2) (layer F.SilkS) (width 0.15))
    (fp_line (start 0 -2) (end 10 -2) (layer F.SilkS) (width 0.15))
    (fp_line (start 10 -2) (end 10 -1.25) (layer F.SilkS) (width 0.15))
    (pad 1 thru_hole oval (at 0 0) (size 1.6 1.6) (drill 0.8) (layers *.Cu *.Mask F.SilkS)
      (net 7 /V+))
    (pad 2 thru_hole oval (at 0 2.54) (size 1.6 1.6) (drill 0.8) (layers *.Cu *.Mask F.SilkS)
      (net 3 VDD))
    (pad 3 thru_hole oval (at 0 5.08) (size 1.6 1.6) (drill 0.8) (layers *.Cu *.Mask F.SilkS)
      (net 6 /V-))
    (pad 4 thru_hole oval (at 10 5.08) (size 1.6 1.6) (drill 0.8) (layers *.Cu *.Mask F.SilkS)
      (net 6 /V-))
    (pad 5 thru_hole oval (at 10 2.54) (size 1.6 1.6) (drill 0.8) (layers *.Cu *.Mask F.SilkS)
      (net 4 GND))
    (model Housings_DIP.3dshapes/DIP-6_W7.62mm.wrl
      (at (xyz 0 0 0))
      (scale (xyz 1 1 1))
      (rotate (xyz 0 0 0))
    )
  )

  (module Capacitors_SMD:C_0603_HandSoldering (layer F.Cu) (tedit 541A9B4D) (tstamp 56C1C08C)
    (at 150.368 70.866 180)
    (descr "Capacitor SMD 0603, hand soldering")
    (tags "capacitor 0603")
    (path /56C1E43C)
    (attr smd)
    (fp_text reference C101 (at 0 -1.9 180) (layer F.SilkS)
      (effects (font (size 1 1) (thickness 0.15)))
    )
    (fp_text value C (at 0 1.9 180) (layer F.Fab)
      (effects (font (size 1 1) (thickness 0.15)))
    )
    (fp_line (start -1.85 -0.75) (end 1.85 -0.75) (layer F.CrtYd) (width 0.05))
    (fp_line (start -1.85 0.75) (end 1.85 0.75) (layer F.CrtYd) (width 0.05))
    (fp_line (start -1.85 -0.75) (end -1.85 0.75) (layer F.CrtYd) (width 0.05))
    (fp_line (start 1.85 -0.75) (end 1.85 0.75) (layer F.CrtYd) (width 0.05))
    (fp_line (start -0.35 -0.6) (end 0.35 -0.6) (layer F.SilkS) (width 0.15))
    (fp_line (start 0.35 0.6) (end -0.35 0.6) (layer F.SilkS) (width 0.15))
    (pad 1 smd rect (at -0.95 0 180) (size 1.2 0.75) (layers F.Cu F.Paste F.Mask)
      (net 1 "Net-(C101-Pad1)"))
    (pad 2 smd rect (at 0.95 0 180) (size 1.2 0.75) (layers F.Cu F.Paste F.Mask)
      (net 2 "Net-(C101-Pad2)"))
    (model Capacitors_SMD.3dshapes/C_0603_HandSoldering.wrl
      (at (xyz 0 0 0))
      (scale (xyz 1 1 1))
      (rotate (xyz 0 0 0))
    )
  )

  (module Capacitors_SMD:C_0603_HandSoldering (layer F.Cu) (tedit 541A9B4D) (tstamp 56C1C092)
    (at 151.384 64.262 180)
    (descr "Capacitor SMD 0603, hand soldering")
    (tags "capacitor 0603")
    (path /56C1EB42)
    (attr smd)
    (fp_text reference C102 (at 0 -1.9 180) (layer F.SilkS)
      (effects (font (size 1 1) (thickness 0.15)))
    )
    (fp_text value 1u (at 0 1.9 180) (layer F.Fab)
      (effects (font (size 1 1) (thickness 0.15)))
    )
    (fp_line (start -1.85 -0.75) (end 1.85 -0.75) (layer F.CrtYd) (width 0.05))
    (fp_line (start -1.85 0.75) (end 1.85 0.75) (layer F.CrtYd) (width 0.05))
    (fp_line (start -1.85 -0.75) (end -1.85 0.75) (layer F.CrtYd) (width 0.05))
    (fp_line (start 1.85 -0.75) (end 1.85 0.75) (layer F.CrtYd) (width 0.05))
    (fp_line (start -0.35 -0.6) (end 0.35 -0.6) (layer F.SilkS) (width 0.15))
    (fp_line (start 0.35 0.6) (end -0.35 0.6) (layer F.SilkS) (width 0.15))
    (pad 1 smd rect (at -0.95 0 180) (size 1.2 0.75) (layers F.Cu F.Paste F.Mask)
      (net 3 VDD))
    (pad 2 smd rect (at 0.95 0 180) (size 1.2 0.75) (layers F.Cu F.Paste F.Mask)
      (net 4 GND))
    (model Capacitors_SMD.3dshapes/C_0603_HandSoldering.wrl
      (at (xyz 0 0 0))
      (scale (xyz 1 1 1))
      (rotate (xyz 0 0 0))
    )
  )

  (module Pin_Headers:Pin_Header_Straight_1x02 (layer F.Cu) (tedit 54EA090C) (tstamp 56C1C098)
    (at 159.512 64.516)
    (descr "Through hole pin header")
    (tags "pin header")
    (path /56C1E573)
    (fp_text reference P101 (at 0 -5.1) (layer F.SilkS)
      (effects (font (size 1 1) (thickness 0.15)))
    )
    (fp_text value CONN_01X02 (at 0 -3.1) (layer F.Fab)
      (effects (font (size 1 1) (thickness 0.15)))
    )
    (fp_line (start 1.27 1.27) (end 1.27 3.81) (layer F.SilkS) (width 0.15))
    (fp_line (start 1.55 -1.55) (end 1.55 0) (layer F.SilkS) (width 0.15))
    (fp_line (start -1.75 -1.75) (end -1.75 4.3) (layer F.CrtYd) (width 0.05))
    (fp_line (start 1.75 -1.75) (end 1.75 4.3) (layer F.CrtYd) (width 0.05))
    (fp_line (start -1.75 -1.75) (end 1.75 -1.75) (layer F.CrtYd) (width 0.05))
    (fp_line (start -1.75 4.3) (end 1.75 4.3) (layer F.CrtYd) (width 0.05))
    (fp_line (start 1.27 1.27) (end -1.27 1.27) (layer F.SilkS) (width 0.15))
    (fp_line (start -1.55 0) (end -1.55 -1.55) (layer F.SilkS) (width 0.15))
    (fp_line (start -1.55 -1.55) (end 1.55 -1.55) (layer F.SilkS) (width 0.15))
    (fp_line (start -1.27 1.27) (end -1.27 3.81) (layer F.SilkS) (width 0.15))
    (fp_line (start -1.27 3.81) (end 1.27 3.81) (layer F.SilkS) (width 0.15))
    (pad 1 thru_hole rect (at 0 0) (size 2.032 2.032) (drill 1.016) (layers *.Cu *.Mask F.SilkS)
      (net 4 GND))
    (pad 2 thru_hole oval (at 0 2.54) (size 2.032 2.032) (drill 1.016) (layers *.Cu *.Mask F.SilkS)
      (net 5 "Net-(P101-Pad2)"))
    (model Pin_Headers.3dshapes/Pin_Header_Straight_1x02.wrl
      (at (xyz 0 -0.05 0))
      (scale (xyz 1 1 1))
      (rotate (xyz 0 0 90))
    )
  )

  (module Pin_Headers:Pin_Header_Straight_1x02 (layer F.Cu) (tedit 54EA090C) (tstamp 56C1C09E)
    (at 124.714 64.516)
    (descr "Through hole pin header")
    (tags "pin header")
    (path /56C1E87C)
    (fp_text reference P102 (at 0 -5.1) (layer F.SilkS)
      (effects (font (size 1 1) (thickness 0.15)))
    )
    (fp_text value CONN_01X02 (at 0 -3.1) (layer F.Fab)
      (effects (font (size 1 1) (thickness 0.15)))
    )
    (fp_line (start 1.27 1.27) (end 1.27 3.81) (layer F.SilkS) (width 0.15))
    (fp_line (start 1.55 -1.55) (end 1.55 0) (layer F.SilkS) (width 0.15))
    (fp_line (start -1.75 -1.75) (end -1.75 4.3) (layer F.CrtYd) (width 0.05))
    (fp_line (start 1.75 -1.75) (end 1.75 4.3) (layer F.CrtYd) (width 0.05))
    (fp_line (start -1.75 -1.75) (end 1.75 -1.75) (layer F.CrtYd) (width 0.05))
    (fp_line (start -1.75 4.3) (end 1.75 4.3) (layer F.CrtYd) (width 0.05))
    (fp_line (start 1.27 1.27) (end -1.27 1.27) (layer F.SilkS) (width 0.15))
    (fp_line (start -1.55 0) (end -1.55 -1.55) (layer F.SilkS) (width 0.15))
    (fp_line (start -1.55 -1.55) (end 1.55 -1.55) (layer F.SilkS) (width 0.15))
    (fp_line (start -1.27 1.27) (end -1.27 3.81) (layer F.SilkS) (width 0.15))
    (fp_line (start -1.27 3.81) (end 1.27 3.81) (layer F.SilkS) (width 0.15))
    (pad 1 thru_hole rect (at 0 0) (size 2.032 2.032) (drill 1.016) (layers *.Cu *.Mask F.SilkS)
      (net 4 GND))
    (pad 2 thru_hole oval (at 0 2.54) (size 2.032 2.032) (drill 1.016) (layers *.Cu *.Mask F.SilkS)
      (net 3 VDD))
    (model Pin_Headers.3dshapes/Pin_Header_Straight_1x02.wrl
      (at (xyz 0 -0.05 0))
      (scale (xyz 1 1 1))
      (rotate (xyz 0 0 90))
    )
  )

  (module Resistors_SMD:R_0603_HandSoldering (layer F.Cu) (tedit 5418A00F) (tstamp 56C1C0A4)
    (at 145.288 67.818)
    (descr "Resistor SMD 0603, hand soldering")
    (tags "resistor 0603")
    (path /56C1E1B2)
    (attr smd)
    (fp_text reference R101 (at 0 -1.9) (layer F.SilkS)
      (effects (font (size 1 1) (thickness 0.15)))
    )
    (fp_text value 0.2 (at 0 1.9) (layer F.Fab)
      (effects (font (size 1 1) (thickness 0.15)))
    )
    (fp_line (start -2 -0.8) (end 2 -0.8) (layer F.CrtYd) (width 0.05))
    (fp_line (start -2 0.8) (end 2 0.8) (layer F.CrtYd) (width 0.05))
    (fp_line (start -2 -0.8) (end -2 0.8) (layer F.CrtYd) (width 0.05))
    (fp_line (start 2 -0.8) (end 2 0.8) (layer F.CrtYd) (width 0.05))
    (fp_line (start 0.5 0.675) (end -0.5 0.675) (layer F.SilkS) (width 0.15))
    (fp_line (start -0.5 -0.675) (end 0.5 -0.675) (layer F.SilkS) (width 0.15))
    (pad 1 smd rect (at -1.1 0) (size 1.2 0.9) (layers F.Cu F.Paste F.Mask)
      (net 6 /V-))
    (pad 2 smd rect (at 1.1 0) (size 1.2 0.9) (layers F.Cu F.Paste F.Mask)
      (net 2 "Net-(C101-Pad2)"))
    (model Resistors_SMD.3dshapes/R_0603_HandSoldering.wrl
      (at (xyz 0 0 0))
      (scale (xyz 1 1 1))
      (rotate (xyz 0 0 0))
    )
  )

  (module Resistors_SMD:R_0603_HandSoldering (layer F.Cu) (tedit 5418A00F) (tstamp 56C1C0AA)
    (at 145.288 63.5)
    (descr "Resistor SMD 0603, hand soldering")
    (tags "resistor 0603")
    (path /56C1DE52)
    (attr smd)
    (fp_text reference R102 (at 0 -1.9) (layer F.SilkS)
      (effects (font (size 1 1) (thickness 0.15)))
    )
    (fp_text value 0.2 (at 0 1.9) (layer F.Fab)
      (effects (font (size 1 1) (thickness 0.15)))
    )
    (fp_line (start -2 -0.8) (end 2 -0.8) (layer F.CrtYd) (width 0.05))
    (fp_line (start -2 0.8) (end 2 0.8) (layer F.CrtYd) (width 0.05))
    (fp_line (start -2 -0.8) (end -2 0.8) (layer F.CrtYd) (width 0.05))
    (fp_line (start 2 -0.8) (end 2 0.8) (layer F.CrtYd) (width 0.05))
    (fp_line (start 0.5 0.675) (end -0.5 0.675) (layer F.SilkS) (width 0.15))
    (fp_line (start -0.5 -0.675) (end 0.5 -0.675) (layer F.SilkS) (width 0.15))
    (pad 1 smd rect (at -1.1 0) (size 1.2 0.9) (layers F.Cu F.Paste F.Mask)
      (net 7 /V+))
    (pad 2 smd rect (at 1.1 0) (size 1.2 0.9) (layers F.Cu F.Paste F.Mask)
      (net 8 "Net-(R102-Pad2)"))
    (model Resistors_SMD.3dshapes/R_0603_HandSoldering.wrl
      (at (xyz 0 0 0))
      (scale (xyz 1 1 1))
      (rotate (xyz 0 0 0))
    )
  )

  (module Resistors_SMD:R_0603_HandSoldering (layer F.Cu) (tedit 5418A00F) (tstamp 56C1C0B0)
    (at 150.368 69.088)
    (descr "Resistor SMD 0603, hand soldering")
    (tags "resistor 0603")
    (path /56C1E367)
    (attr smd)
    (fp_text reference R103 (at 0 -1.9) (layer F.SilkS)
      (effects (font (size 1 1) (thickness 0.15)))
    )
    (fp_text value 100 (at 0 1.9) (layer F.Fab)
      (effects (font (size 1 1) (thickness 0.15)))
    )
    (fp_line (start -2 -0.8) (end 2 -0.8) (layer F.CrtYd) (width 0.05))
    (fp_line (start -2 0.8) (end 2 0.8) (layer F.CrtYd) (width 0.05))
    (fp_line (start -2 -0.8) (end -2 0.8) (layer F.CrtYd) (width 0.05))
    (fp_line (start 2 -0.8) (end 2 0.8) (layer F.CrtYd) (width 0.05))
    (fp_line (start 0.5 0.675) (end -0.5 0.675) (layer F.SilkS) (width 0.15))
    (fp_line (start -0.5 -0.675) (end 0.5 -0.675) (layer F.SilkS) (width 0.15))
    (pad 1 smd rect (at -1.1 0) (size 1.2 0.9) (layers F.Cu F.Paste F.Mask)
      (net 2 "Net-(C101-Pad2)"))
    (pad 2 smd rect (at 1.1 0) (size 1.2 0.9) (layers F.Cu F.Paste F.Mask)
      (net 1 "Net-(C101-Pad1)"))
    (model Resistors_SMD.3dshapes/R_0603_HandSoldering.wrl
      (at (xyz 0 0 0))
      (scale (xyz 1 1 1))
      (rotate (xyz 0 0 0))
    )
  )

  (module Resistors_SMD:R_0603_HandSoldering (layer F.Cu) (tedit 5418A00F) (tstamp 56C1C0B6)
    (at 155.194 67.564 180)
    (descr "Resistor SMD 0603, hand soldering")
    (tags "resistor 0603")
    (path /56C1E4A4)
    (attr smd)
    (fp_text reference R104 (at 0 -1.9 180) (layer F.SilkS)
      (effects (font (size 1 1) (thickness 0.15)))
    )
    (fp_text value 1k (at 0 1.9 180) (layer F.Fab)
      (effects (font (size 1 1) (thickness 0.15)))
    )
    (fp_line (start -2 -0.8) (end 2 -0.8) (layer F.CrtYd) (width 0.05))
    (fp_line (start -2 0.8) (end 2 0.8) (layer F.CrtYd) (width 0.05))
    (fp_line (start -2 -0.8) (end -2 0.8) (layer F.CrtYd) (width 0.05))
    (fp_line (start 2 -0.8) (end 2 0.8) (layer F.CrtYd) (width 0.05))
    (fp_line (start 0.5 0.675) (end -0.5 0.675) (layer F.SilkS) (width 0.15))
    (fp_line (start -0.5 -0.675) (end 0.5 -0.675) (layer F.SilkS) (width 0.15))
    (pad 1 smd rect (at -1.1 0 180) (size 1.2 0.9) (layers F.Cu F.Paste F.Mask)
      (net 5 "Net-(P101-Pad2)"))
    (pad 2 smd rect (at 1.1 0 180) (size 1.2 0.9) (layers F.Cu F.Paste F.Mask)
      (net 1 "Net-(C101-Pad1)"))
    (model Resistors_SMD.3dshapes/R_0603_HandSoldering.wrl
      (at (xyz 0 0 0))
      (scale (xyz 1 1 1))
      (rotate (xyz 0 0 0))
    )
  )

  (module TO_SOT_Packages_SMD:SC-70-5 (layer F.Cu) (tedit 0) (tstamp 56C1C0C8)
    (at 150.368 66.548 270)
    (descr "SC70-5 SOT323-5")
    (path /56C1DC21)
    (attr smd)
    (fp_text reference U102 (at 1.5 -0.4 270) (layer F.SilkS)
      (effects (font (size 1 1) (thickness 0.15)))
    )
    (fp_text value MCP6V11 (at 2.2 0.3 270) (layer F.Fab)
      (effects (font (size 1 1) (thickness 0.15)))
    )
    (fp_line (start -1.1 0.3) (end -0.8 0.3) (layer F.SilkS) (width 0.15))
    (fp_line (start -0.8 0.3) (end -0.8 0.6) (layer F.SilkS) (width 0.15))
    (fp_line (start 1.1 -0.6) (end -1.1 -0.6) (layer F.SilkS) (width 0.15))
    (fp_line (start -1.1 -0.6) (end -1.1 0.6) (layer F.SilkS) (width 0.15))
    (fp_line (start -1.1 0.6) (end 1.1 0.6) (layer F.SilkS) (width 0.15))
    (fp_line (start 1.1 0.6) (end 1.1 -0.6) (layer F.SilkS) (width 0.15))
    (pad 1 smd rect (at -0.6604 1.016 270) (size 0.4064 0.6604) (layers F.Cu F.Paste F.Mask)
      (net 8 "Net-(R102-Pad2)"))
    (pad 3 smd rect (at 0.6604 1.016 270) (size 0.4064 0.6604) (layers F.Cu F.Paste F.Mask)
      (net 2 "Net-(C101-Pad2)"))
    (pad 2 smd rect (at 0 1.016 270) (size 0.4064 0.6604) (layers F.Cu F.Paste F.Mask)
      (net 4 GND))
    (pad 4 smd rect (at 0.6604 -1.016 270) (size 0.4064 0.6604) (layers F.Cu F.Paste F.Mask)
      (net 1 "Net-(C101-Pad1)"))
    (pad 5 smd rect (at -0.6604 -1.016 270) (size 0.4064 0.6604) (layers F.Cu F.Paste F.Mask)
      (net 3 VDD))
    (model TO_SOT_Packages_SMD.3dshapes/SC-70-5.wrl
      (at (xyz 0 0 0))
      (scale (xyz 1 1 1))
      (rotate (xyz 0 0 0))
    )
  )

  (gr_line (start 120 58) (end 164 58) (angle 90) (layer Edge.Cuts) (width 0.15))
  (gr_line (start 120 75) (end 120 58) (angle 90) (layer Edge.Cuts) (width 0.15))
  (gr_line (start 164 75) (end 120 75) (angle 90) (layer Edge.Cuts) (width 0.15))
  (gr_line (start 164 58) (end 164 75) (angle 90) (layer Edge.Cuts) (width 0.15))

  (segment (start 151.468 69.088) (end 151.468 68.75) (width 1) (layer F.Cu) (net 1))
  (segment (start 151.468 68.75) (end 152.654 67.564) (width 1) (layer F.Cu) (net 1) (tstamp 56C1C1BE))
  (segment (start 152.2984 67.2084) (end 152.654 67.564) (width 1) (layer F.Cu) (net 1))
  (segment (start 152.654 67.564) (end 154.094 67.564) (width 1) (layer F.Cu) (net 1) (tstamp 56C1C1B4))
  (segment (start 151.318 70.866) (end 151.318 70.424) (width 1) (layer F.Cu) (net 1))
  (segment (start 151.468 70.274) (end 151.468 69.088) (width 1) (layer F.Cu) (net 1) (tstamp 56C1C1B0))
  (segment (start 151.318 70.424) (end 151.468 70.274) (width 1) (layer F.Cu) (net 1) (tstamp 56C1C1AF))
  (segment (start 151.384 67.2084) (end 152.2984 67.2084) (width 0.3) (layer F.Cu) (net 1))
  (segment (start 152.654 67.564) (end 154.094 67.564) (width 0.3) (layer F.Cu) (net 1) (tstamp 56C1C1A4))
  (segment (start 149.418 70.866) (end 149.418 70.17) (width 1) (layer F.Cu) (net 2))
  (segment (start 149.268 70.02) (end 149.268 69.088) (width 1) (layer F.Cu) (net 2) (tstamp 56C1C1C8))
  (segment (start 149.418 70.17) (end 149.268 70.02) (width 1) (layer F.Cu) (net 2) (tstamp 56C1C1C7))
  (segment (start 149.268 69.088) (end 148.59 69.088) (width 1) (layer F.Cu) (net 2))
  (segment (start 147.32 67.818) (end 146.388 67.818) (width 1) (layer F.Cu) (net 2) (tstamp 56C1C1C4))
  (segment (start 148.59 69.088) (end 147.32 67.818) (width 1) (layer F.Cu) (net 2) (tstamp 56C1C1C3))
  (segment (start 146.388 67.818) (end 147.574 67.818) (width 0.3) (layer F.Cu) (net 2))
  (segment (start 148.1836 67.2084) (end 149.352 67.2084) (width 0.3) (layer F.Cu) (net 2) (tstamp 56C1C1A0))
  (segment (start 147.574 67.818) (end 148.1836 67.2084) (width 0.3) (layer F.Cu) (net 2) (tstamp 56C1C19F))
  (segment (start 128.27 66.04) (end 127.508 65.278) (width 1) (layer F.Cu) (net 3))
  (segment (start 152.334 62.926) (end 152.334 64.262) (width 1) (layer F.Cu) (net 3) (tstamp 56C1C21B))
  (segment (start 149.352 59.944) (end 152.334 62.926) (width 1) (layer F.Cu) (net 3) (tstamp 56C1C21A))
  (segment (start 129.794 59.944) (end 149.352 59.944) (width 1) (layer F.Cu) (net 3) (tstamp 56C1C218))
  (segment (start 127.508 62.23) (end 129.794 59.944) (width 1) (layer F.Cu) (net 3) (tstamp 56C1C217))
  (segment (start 127.508 65.278) (end 127.508 62.23) (width 1) (layer F.Cu) (net 3) (tstamp 56C1C214))
  (segment (start 151.384 65.8876) (end 152.0444 65.8876) (width 0.3) (layer F.Cu) (net 3))
  (segment (start 152.0444 65.8876) (end 152.334 65.598) (width 0.3) (layer F.Cu) (net 3) (tstamp 56C1C1EB))
  (segment (start 152.334 65.598) (end 152.334 64.262) (width 0.3) (layer F.Cu) (net 3) (tstamp 56C1C1EC))
  (segment (start 124.714 67.056) (end 127.254 67.056) (width 1) (layer F.Cu) (net 3))
  (segment (start 128.27 66.04) (end 130.048 66.04) (width 1) (layer F.Cu) (net 3) (tstamp 56C1C193))
  (segment (start 127.254 67.056) (end 128.27 66.04) (width 1) (layer F.Cu) (net 3) (tstamp 56C1C192))
  (segment (start 140.048 66.04) (end 147.574 66.04) (width 0.5) (layer F.Cu) (net 4))
  (segment (start 124.841 71.247) (end 125.349 71.247) (width 0.5) (layer F.Cu) (net 4))
  (segment (start 137.414 66.04) (end 140.048 66.04) (width 0.5) (layer F.Cu) (net 4) (tstamp 56C1C235))
  (segment (start 136.144 67.31) (end 137.414 66.04) (width 0.5) (layer F.Cu) (net 4) (tstamp 56C1C234))
  (segment (start 129.286 67.31) (end 136.144 67.31) (width 0.5) (layer F.Cu) (net 4) (tstamp 56C1C233))
  (segment (start 125.349 71.247) (end 129.286 67.31) (width 0.5) (layer F.Cu) (net 4) (tstamp 56C1C232))
  (segment (start 124.714 64.516) (end 122.428 64.516) (width 1) (layer F.Cu) (net 4))
  (segment (start 161.544 64.516) (end 159.512 64.516) (width 1) (layer F.Cu) (net 4) (tstamp 56C1C228))
  (segment (start 162.306 65.278) (end 161.544 64.516) (width 1) (layer F.Cu) (net 4) (tstamp 56C1C227))
  (segment (start 162.306 69.85) (end 162.306 65.278) (width 1) (layer F.Cu) (net 4) (tstamp 56C1C226))
  (segment (start 159.512 72.644) (end 162.306 69.85) (width 1) (layer F.Cu) (net 4) (tstamp 56C1C225))
  (segment (start 126.238 72.644) (end 159.512 72.644) (width 1) (layer F.Cu) (net 4) (tstamp 56C1C221))
  (segment (start 122.428 68.834) (end 124.841 71.247) (width 1) (layer F.Cu) (net 4) (tstamp 56C1C220))
  (segment (start 124.841 71.247) (end 126.238 72.644) (width 1) (layer F.Cu) (net 4) (tstamp 56C1C230))
  (segment (start 122.428 64.516) (end 122.428 68.834) (width 1) (layer F.Cu) (net 4) (tstamp 56C1C21E))
  (segment (start 149.352 66.548) (end 150.368 66.548) (width 0.3) (layer F.Cu) (net 4))
  (segment (start 150.434 64.704) (end 150.434 64.262) (width 0.3) (layer F.Cu) (net 4) (tstamp 56C1C1E8))
  (segment (start 150.368 64.77) (end 150.434 64.704) (width 0.3) (layer F.Cu) (net 4) (tstamp 56C1C1E7))
  (segment (start 150.368 66.548) (end 150.368 64.77) (width 0.3) (layer F.Cu) (net 4) (tstamp 56C1C1E6))
  (segment (start 149.352 66.548) (end 148.082 66.548) (width 0.3) (layer F.Cu) (net 4))
  (segment (start 148.082 66.548) (end 147.574 66.04) (width 0.3) (layer F.Cu) (net 4) (tstamp 56C1C1AA))
  (segment (start 156.294 67.564) (end 157.48 67.564) (width 1) (layer F.Cu) (net 5))
  (segment (start 157.988 67.056) (end 159.512 67.056) (width 1) (layer F.Cu) (net 5) (tstamp 56C1C1DC))
  (segment (start 157.48 67.564) (end 157.988 67.056) (width 1) (layer F.Cu) (net 5) (tstamp 56C1C1DB))
  (segment (start 140.048 68.58) (end 141.986 68.58) (width 1) (layer F.Cu) (net 6))
  (segment (start 142.748 67.818) (end 144.188 67.818) (width 1) (layer F.Cu) (net 6) (tstamp 56C1C17D))
  (segment (start 141.986 68.58) (end 142.748 67.818) (width 1) (layer F.Cu) (net 6) (tstamp 56C1C17C))
  (segment (start 130.048 68.58) (end 140.048 68.58) (width 1) (layer F.Cu) (net 6))
  (segment (start 130.048 63.5) (end 144.188 63.5) (width 1) (layer F.Cu) (net 7))
  (segment (start 149.352 65.8876) (end 149.352 65.786) (width 0.3) (layer F.Cu) (net 8))
  (segment (start 149.352 65.786) (end 148.7756 65.2096) (width 0.3) (layer F.Cu) (net 8) (tstamp 56C1C2B6))
  (segment (start 146.388 63.5) (end 147.828 63.5) (width 0.5) (layer F.Cu) (net 8))
  (segment (start 148.7756 64.4476) (end 148.7756 65.2096) (width 0.5) (layer F.Cu) (net 8) (tstamp 56C1C23B))
  (segment (start 147.828 63.5) (end 148.7756 64.4476) (width 0.5) (layer F.Cu) (net 8) (tstamp 56C1C23A))

  (zone (net 4) (net_name GND) (layer B.Cu) (tstamp 56C1C2F2) (hatch edge 0.508)
    (connect_pads (clearance 0.1))
    (min_thickness 0.1)
    (fill yes (arc_segments 16) (thermal_gap 0.45) (thermal_bridge_width 0.45))
    (polygon
      (pts
        (xy 120 58) (xy 164 58) (xy 164 75) (xy 120 75)
      )
    )
    (filled_polygon
      (pts
        (xy 163.775 74.775) (xy 120.225 74.775) (xy 120.225 68.58) (xy 128.977429 68.58) (xy 129.057355 68.981818)
        (xy 129.284967 69.322462) (xy 129.625611 69.550074) (xy 130.027429 69.63) (xy 130.068571 69.63) (xy 130.470389 69.550074)
        (xy 130.811033 69.322462) (xy 131.038645 68.981818) (xy 131.118571 68.58) (xy 138.977429 68.58) (xy 139.057355 68.981818)
        (xy 139.284967 69.322462) (xy 139.625611 69.550074) (xy 140.027429 69.63) (xy 140.068571 69.63) (xy 140.470389 69.550074)
        (xy 140.811033 69.322462) (xy 141.038645 68.981818) (xy 141.118571 68.58) (xy 141.038645 68.178182) (xy 140.811033 67.837538)
        (xy 140.470389 67.609926) (xy 140.068571 67.53) (xy 140.027429 67.53) (xy 139.625611 67.609926) (xy 139.284967 67.837538)
        (xy 139.057355 68.178182) (xy 138.977429 68.58) (xy 131.118571 68.58) (xy 131.038645 68.178182) (xy 130.811033 67.837538)
        (xy 130.470389 67.609926) (xy 130.068571 67.53) (xy 130.027429 67.53) (xy 129.625611 67.609926) (xy 129.284967 67.837538)
        (xy 129.057355 68.178182) (xy 128.977429 68.58) (xy 120.225 68.58) (xy 120.225 64.816) (xy 123.198 64.816)
        (xy 123.198 65.631456) (xy 123.274121 65.815227) (xy 123.414773 65.95588) (xy 123.598544 66.032) (xy 123.986769 66.032)
        (xy 123.794001 66.160803) (xy 123.519567 66.571523) (xy 123.423198 67.056) (xy 123.519567 67.540477) (xy 123.794001 67.951197)
        (xy 124.204721 68.225631) (xy 124.689198 68.322) (xy 124.738802 68.322) (xy 125.223279 68.225631) (xy 125.633999 67.951197)
        (xy 125.908433 67.540477) (xy 126.004802 67.056) (xy 125.908433 66.571523) (xy 125.633999 66.160803) (xy 125.453204 66.04)
        (xy 128.977429 66.04) (xy 129.057355 66.441818) (xy 129.284967 66.782462) (xy 129.625611 67.010074) (xy 130.027429 67.09)
        (xy 130.068571 67.09) (xy 130.470389 67.010074) (xy 130.811033 66.782462) (xy 131.038645 66.441818) (xy 131.044106 66.414359)
        (xy 138.803069 66.414359) (xy 138.902976 66.655597) (xy 139.225714 67.046919) (xy 139.673638 67.284947) (xy 139.873 67.203183)
        (xy 139.873 66.215) (xy 140.223 66.215) (xy 140.223 67.203183) (xy 140.422362 67.284947) (xy 140.870286 67.046919)
        (xy 141.193024 66.655597) (xy 141.292931 66.414359) (xy 141.209895 66.215) (xy 140.223 66.215) (xy 139.873 66.215)
        (xy 138.886105 66.215) (xy 138.803069 66.414359) (xy 131.044106 66.414359) (xy 131.118571 66.04) (xy 131.044107 65.665641)
        (xy 138.803069 65.665641) (xy 138.886105 65.865) (xy 139.873 65.865) (xy 139.873 64.876817) (xy 140.223 64.876817)
        (xy 140.223 65.865) (xy 141.209895 65.865) (xy 141.292931 65.665641) (xy 141.193024 65.424403) (xy 140.870286 65.033081)
        (xy 140.461781 64.816) (xy 157.996 64.816) (xy 157.996 65.631456) (xy 158.072121 65.815227) (xy 158.212773 65.95588)
        (xy 158.396544 66.032) (xy 158.784769 66.032) (xy 158.592001 66.160803) (xy 158.317567 66.571523) (xy 158.221198 67.056)
        (xy 158.317567 67.540477) (xy 158.592001 67.951197) (xy 159.002721 68.225631) (xy 159.487198 68.322) (xy 159.536802 68.322)
        (xy 160.021279 68.225631) (xy 160.431999 67.951197) (xy 160.706433 67.540477) (xy 160.802802 67.056) (xy 160.706433 66.571523)
        (xy 160.431999 66.160803) (xy 160.239231 66.032) (xy 160.627456 66.032) (xy 160.811227 65.95588) (xy 160.951879 65.815227)
        (xy 161.028 65.631456) (xy 161.028 64.816) (xy 160.903 64.691) (xy 159.687 64.691) (xy 159.687 64.711)
        (xy 159.337 64.711) (xy 159.337 64.691) (xy 158.121 64.691) (xy 157.996 64.816) (xy 140.461781 64.816)
        (xy 140.422362 64.795053) (xy 140.223 64.876817) (xy 139.873 64.876817) (xy 139.673638 64.795053) (xy 139.225714 65.033081)
        (xy 138.902976 65.424403) (xy 138.803069 65.665641) (xy 131.044107 65.665641) (xy 131.038645 65.638182) (xy 130.811033 65.297538)
        (xy 130.470389 65.069926) (xy 130.068571 64.99) (xy 130.027429 64.99) (xy 129.625611 65.069926) (xy 129.284967 65.297538)
        (xy 129.057355 65.638182) (xy 128.977429 66.04) (xy 125.453204 66.04) (xy 125.441231 66.032) (xy 125.829456 66.032)
        (xy 126.013227 65.95588) (xy 126.153879 65.815227) (xy 126.23 65.631456) (xy 126.23 64.816) (xy 126.105 64.691)
        (xy 124.889 64.691) (xy 124.889 64.711) (xy 124.539 64.711) (xy 124.539 64.691) (xy 123.323 64.691)
        (xy 123.198 64.816) (xy 120.225 64.816) (xy 120.225 63.400544) (xy 123.198 63.400544) (xy 123.198 64.216)
        (xy 123.323 64.341) (xy 124.539 64.341) (xy 124.539 63.125) (xy 124.889 63.125) (xy 124.889 64.341)
        (xy 126.105 64.341) (xy 126.23 64.216) (xy 126.23 63.5) (xy 128.977429 63.5) (xy 129.057355 63.901818)
        (xy 129.284967 64.242462) (xy 129.625611 64.470074) (xy 130.027429 64.55) (xy 130.068571 64.55) (xy 130.470389 64.470074)
        (xy 130.811033 64.242462) (xy 131.038645 63.901818) (xy 131.118571 63.5) (xy 131.098789 63.400544) (xy 157.996 63.400544)
        (xy 157.996 64.216) (xy 158.121 64.341) (xy 159.337 64.341) (xy 159.337 63.125) (xy 159.687 63.125)
        (xy 159.687 64.341) (xy 160.903 64.341) (xy 161.028 64.216) (xy 161.028 63.400544) (xy 160.951879 63.216773)
        (xy 160.811227 63.07612) (xy 160.627456 63) (xy 159.812 63) (xy 159.687 63.125) (xy 159.337 63.125)
        (xy 159.212 63) (xy 158.396544 63) (xy 158.212773 63.07612) (xy 158.072121 63.216773) (xy 157.996 63.400544)
        (xy 131.098789 63.400544) (xy 131.038645 63.098182) (xy 130.811033 62.757538) (xy 130.470389 62.529926) (xy 130.068571 62.45)
        (xy 130.027429 62.45) (xy 129.625611 62.529926) (xy 129.284967 62.757538) (xy 129.057355 63.098182) (xy 128.977429 63.5)
        (xy 126.23 63.5) (xy 126.23 63.400544) (xy 126.153879 63.216773) (xy 126.013227 63.07612) (xy 125.829456 63)
        (xy 125.014 63) (xy 124.889 63.125) (xy 124.539 63.125) (xy 124.414 63) (xy 123.598544 63)
        (xy 123.414773 63.07612) (xy 123.274121 63.216773) (xy 123.198 63.400544) (xy 120.225 63.400544) (xy 120.225 58.225)
        (xy 163.775 58.225)
      )
    )
  )
)
