PCBNEW-LibModule-V1  mar. 16 juin 2015 17:12:53 CEST
# encoding utf-8
Units mm
$INDEX
R-PDSO-G6
TI-SOIC8
$EndINDEX
$MODULE R-PDSO-G6
Po 0 0 0 15 55803CF3 00000000 ~~
Li R-PDSO-G6
Sc 0
AR 
Op 0 0 0
T0 -0.05 -2.95 1 1 0 0.15 N V 21 N "R-PDSO-G6"
T1 0.25 2.95 1 1 0 0.15 N V 21 N "VAL**"
DC -1.85 1.15 -1.8 1.1 0.15 21
DS -1.5 0.35 -1.05 0.8 0.15 21
DS 1.5 -0.8 -1.5 -0.8 0.15 21
DS -1.5 -0.8 -1.5 0.8 0.15 21
DS -1.5 0.8 1.5 0.8 0.15 21
DS 1.5 0.8 1.5 -0.8 0.15 21
$PAD
Sh "1" R 0.6 1.1 0 0 0
Dr 0 0 0
At SMD N 00888000
Ne 0 ""
Po -0.95 1.35
$EndPAD
$PAD
Sh "2" R 0.6 1.1 0 0 0
Dr 0 0 0
At SMD N 00888000
Ne 0 ""
Po 0 1.35
$EndPAD
$PAD
Sh "3" R 0.6 1.1 0 0 0
Dr 0 0 0
At SMD N 00888000
Ne 0 ""
Po 0.95 1.35
$EndPAD
$PAD
Sh "4" R 0.6 1.1 0 0 0
Dr 0 0 0
At SMD N 00888000
Ne 0 ""
Po 0.95 -1.35
$EndPAD
$PAD
Sh "5" R 0.6 1.1 0 0 0
Dr 0 0 0
At SMD N 00888000
Ne 0 ""
Po 0 -1.35
$EndPAD
$PAD
Sh "6" R 0.6 1.1 0 0 0
Dr 0 0 0
At SMD N 00888000
Ne 0 ""
Po -0.95 -1.35
$EndPAD
$EndMODULE R-PDSO-G6
$MODULE TI-SOIC8
Po 0 0 0 15 55795DE7 00000000 ~~
Li TI-SOIC8
Sc 0
AR 
Op 0 0 0
T0 -0.2 -3.9 1 1 0 0.15 N V 21 N "TI-SOIC8"
T1 3 4 1 1 0 0.15 N V 21 N "VAL**"
DC -4.5 -4.1 -4.3 -3.8 0.15 21
DS 3.5 0 3.5 -3 0.15 21
DS 3.5 -3 -3.5 -3 0.15 21
DS -3.5 -3 -3.5 3 0.15 21
DS -3.5 3 3.5 3 0.15 21
DS 3.5 3 3.5 0 0.15 21
$PAD
Sh "5" R 1.8 0.6 0 0 0
Dr 0 0 0
At SMD N 00888000
Ne 0 ""
Po 5.45 1.905
$EndPAD
$PAD
Sh "6" R 1.8 0.6 0 0 0
Dr 0 0 0
At SMD N 00888000
Ne 0 ""
Po 5.45 0.635
$EndPAD
$PAD
Sh "7" R 1.8 0.6 0 0 0
Dr 0 0 0
At SMD N 00888000
Ne 0 ""
Po 5.45 -0.635
$EndPAD
$PAD
Sh "8" R 1.8 0.6 0 0 0
Dr 0 0 0
At SMD N 00888000
Ne 0 ""
Po 5.45 -1.905
$EndPAD
$PAD
Sh "1" R 1.8 0.6 0 0 0
Dr 0 0 0
At SMD N 00888000
Ne 0 ""
Po -5.45 -1.905
$EndPAD
$PAD
Sh "2" R 1.8 0.6 0 0 0
Dr 0 0 0
At SMD N 00888000
Ne 0 ""
Po -5.45 -0.635
$EndPAD
$PAD
Sh "3" R 1.8 0.6 0 0 0
Dr 0 0 0
At SMD N 00888000
Ne 0 ""
Po -5.45 0.635
$EndPAD
$PAD
Sh "4" R 1.8 0.6 0 0 0
Dr 0 0 0
At SMD N 00888000
Ne 0 ""
Po -5.45 1.905
$EndPAD
$EndMODULE TI-SOIC8
$EndLIBRARY
