PCBNEW-LibModule-V1  Wed 18 May 2016 12:10:31 AM CEST
# encoding utf-8
Units mm
$INDEX
2450BM15A0015
ANT_3216
BM06B-SRSS-TB
COILCRAFT_L_4x4mm
CRAP-CRYSTAL-2.5x2
CRAP-CRYSTAL-3.2x2.5
CRAP-MSOP10-0.5-EXPOSED-PAD
CRAP-QFN32
CRAP-SM0402
CRAP-SM0603
CRAP-SM0805
CRAP-SM1210
CRAP-SMA-JACK_RIGHT
CRAP-SOT23-5
CRAP-SOT363
CRAP-TSSOP14
CRAP_2SMD
CRAP_3SMD
CRAP_4SMD
CX2520SB
DIODE_SMC_B520C
FOXTEST
HTSSOP16_LTC3569
HTSSOP32_TLC5947
KMR211G
KMR2_series
LGA12
LGA24-4x4
LQFP48
PG-DSO-12-2
PG-DSO-20
PG-DSO-8-24
PIN_ARRAY_23X2
PIN_ARRAY_2X2_FUTABA
PIN_ARRAY_3_BLUE
PLCC4_EDGE_H
PLCC4_EDGE_V
PLCC6
PQFN32-0.8
R-PDSO-G8
R-PVQFN-N20
S-PVSON-N10
S-PWSON-N8
SO-POWERPAD-8
SOD-123
SOIC18
SOIC8-EIAJ
SOT-6L
SOT23-MOSN
SOT323-MOSN
SSOP16
TE_MICROMATCH_SMD_FEM_6PIN
TE_MICROMATCH_SMD_FEM_8PIN
TP
TP0.5
VFQFPN36
WE_CONN_3.81_vertical_2way
WE_SMD_INDUCTOR_1040
WS-TATL
WSON-DRV883x
avago-plcc6
he10-6d
he10-8d
soic-8-wide
$EndINDEX
$MODULE 2450BM15A0015
Po 0 0 0 15 55732494 00000000 ~~
Li 2450BM15A0015
Sc 0
AR 
Op 0 0 0
T0 0 0 1 1 900 0.15 N V 21 N "2450BM15A0015"
T1 2.1 0 1 1 900 0.15 N I 21 N "VAL**"
DS 1.2 -1.45 1.2 1.75 0.15 21
DS 1.2 1.75 -1.2 1.75 0.15 21
DS -1.2 1.75 -1.2 -1.75 0.15 21
DS -1.2 -1.75 0.9 -1.75 0.15 21
DS 0.9 -1.75 1.2 -1.45 0.15 21
$PAD
Sh "1" R 0.35 1 0 0 0
Dr 0 0 0
At SMD N 00888000
Ne 0 ""
Po 0.65 -0.9
$EndPAD
$PAD
Sh "2" R 0.35 1 0 0 0
Dr 0 0 0
At SMD N 00888000
Ne 0 ""
Po 0 -0.9
$EndPAD
$PAD
Sh "3" R 0.35 1 0 0 0
Dr 0 0 0
At SMD N 00888000
Ne 0 ""
Po -0.65 -0.9
$EndPAD
$PAD
Sh "4" R 0.35 1 0 0 0
Dr 0 0 0
At SMD N 00888000
Ne 0 ""
Po -0.65 0.9
$EndPAD
$PAD
Sh "5" R 0.35 1 0 0 0
Dr 0 0 0
At SMD N 00888000
Ne 0 ""
Po 0 0.9
$EndPAD
$PAD
Sh "6" R 0.35 1 0 0 0
Dr 0 0 0
At SMD N 00888000
Ne 0 ""
Po 0.65 0.9
$EndPAD
$EndMODULE 2450BM15A0015
$MODULE ANT_3216
Po 0 0 0 15 542C64BB 00000000 ~~
Li ANT_3216
Sc 0
AR 
Op 0 0 0
T0 0 -2.54 1 1 0 0.15 N V 21 N "ANT_3216"
T1 0 6.35 1 1 0 0.15 N V 21 N "VAL**"
$PAD
Sh "2" R 1.6 2.1 0 0 0
Dr 0 0 0
At SMD N 00888000
Ne 0 ""
Po 0 0
$EndPAD
$PAD
Sh "1" R 1.6 0.3 0 0 0
Dr 0 0 0
At SMD N 00888000
Ne 0 ""
Po 0 4.2
$EndPAD
$EndMODULE ANT_3216
$MODULE BM06B-SRSS-TB
Po 0 0 0 15 55786931 00000000 ~~
Li BM06B-SRSS-TB
Sc 0
AR 
Op 0 0 0
T0 0.3 -1.8 1 1 0 0.15 N V 21 N "BM06B-SRSS-TB"
T1 0.5 4.5 1 1 0 0.15 N V 21 N "VAL**"
DS -4.1 -0.6 4.1 -0.6 0.15 21
DS 4.1 -0.6 4.1 2.2 0.15 21
DS 4.1 2.2 -4.1 2.2 0.15 21
DS -4.1 2.2 -4.1 -0.6 0.15 21
$PAD
Sh "7" R 1.2 1.8 0 0 0
Dr 0 0 0
At SMD N 00888000
Ne 0 ""
Po -3.8 0.1
$EndPAD
$PAD
Sh "8" R 1.2 1.8 0 0 0
Dr 0 0 0
At SMD N 00888000
Ne 0 ""
Po 3.8 0.1
$EndPAD
$PAD
Sh "1" R 0.6 1.55 0 0 0
Dr 0 0 0
At SMD N 00888000
Ne 0 ""
Po -2.5 2.625
$EndPAD
$PAD
Sh "2" R 0.6 1.55 0 0 0
Dr 0 0 0
At SMD N 00888000
Ne 0 ""
Po -1.5 2.625
$EndPAD
$PAD
Sh "3" R 0.6 1.55 0 0 0
Dr 0 0 0
At SMD N 00888000
Ne 0 ""
Po -0.5 2.625
$EndPAD
$PAD
Sh "4" R 0.6 1.55 0 0 0
Dr 0 0 0
At SMD N 00888000
Ne 0 ""
Po 0.5 2.625
$EndPAD
$PAD
Sh "5" R 0.6 1.55 0 0 0
Dr 0 0 0
At SMD N 00888000
Ne 0 ""
Po 1.5 2.625
$EndPAD
$PAD
Sh "6" R 0.6 1.55 0 0 0
Dr 0 0 0
At SMD N 00888000
Ne 0 ""
Po 2.5 2.625
$EndPAD
$EndMODULE BM06B-SRSS-TB
$MODULE COILCRAFT_L_4x4mm
Po 0 0 0 15 54B9273F 00000000 ~~
Li COILCRAFT_L_4x4mm
Sc 0
AR 
Op 0 0 0
T0 0 -3 1 1 0 0.15 N V 21 N "COILCRAFT_L_4x4mm"
T1 0 3 1 1 0 0.15 N V 21 N "VAL**"
DS -2 -2 2 -2 0.15 21
DS 2 -2 2 2 0.15 21
DS 2 2 -2 2 0.15 21
DS -2 2 -2 -2 0.15 21
$PAD
Sh "1" R 0.98 3.4 0 0 0
Dr 0 0 0
At SMD N 00888000
Ne 0 ""
Po -1.185 0
$EndPAD
$PAD
Sh "2" R 0.98 3.4 0 0 0
Dr 0 0 0
At SMD N 00888000
Ne 0 ""
Po 1.185 0
$EndPAD
$EndMODULE COILCRAFT_L_4x4mm
$MODULE CRAP-CRYSTAL-2.5x2
Po 0 0 0 15 5573136D 00000000 ~~
Li CRAP-CRYSTAL-2.5x2
Sc 0
AR 
Op 0 0 0
T0 0 -0.625 1 1 0 0.15 N V 21 N "REF"
T1 0 0.775 1 1 0 0.15 N I 21 N "VAL"
DS -1.75 1.3 -1.75 -1.5 0.15 21
DS -1.75 -1.5 1.75 -1.5 0.15 21
DS -1.55 1.5 1.75 1.5 0.15 21
DS -1.55 1.5 -1.75 1.3 0.15 21
DS 1.75 -1.5 1.75 1.5 0.15 21
$PAD
Sh "1" R 1.1 0.95 0 0 0
Dr 0 0 0
At SMD N 00888000
Ne 0 ""
Po -0.875 0.7
$EndPAD
$PAD
Sh "2" R 1.1 0.95 0 0 0
Dr 0 0 0
At SMD N 00888000
Ne 0 ""
Po 0.875 0.7
$EndPAD
$PAD
Sh "3" R 1.1 0.95 0 0 0
Dr 0 0 0
At SMD N 00888000
Ne 0 ""
Po 0.875 -0.7
$EndPAD
$PAD
Sh "4" R 1.1 0.95 0 0 0
Dr 0 0 0
At SMD N 00888000
Ne 0 ""
Po -0.875 -0.7
$EndPAD
$EndMODULE CRAP-CRYSTAL-2.5x2
$MODULE CRAP-CRYSTAL-3.2x2.5
Po 0 0 0 15 5573133E 00000000 ~~
Li CRAP-CRYSTAL-3.2x2.5
Sc 0
AR 
Op 0 0 0
T0 0.025 -0.825 1 1 0 0.15 N V 21 N "REF"
T1 0 1 1 1 0 0.15 N I 21 N "VAL"
DS -2.15 -1.8 -2.15 1.6 0.15 21
DS 2.15 1.8 -1.95 1.8 0.15 21
DS -1.95 1.8 -2.15 1.6 0.15 21
DS 2.15 1.8 2.15 -1.8 0.15 21
DS 2.15 -1.8 -2.15 -1.8 0.15 21
$PAD
Sh "1" R 1.35 1.15 0 0 0
Dr 0 0 0
At SMD N 00888000
Ne 0 ""
Po -1.15 0.9
$EndPAD
$PAD
Sh "2" R 1.35 1.15 0 0 0
Dr 0 0 0
At SMD N 00888000
Ne 0 ""
Po 1.15 0.9
$EndPAD
$PAD
Sh "3" R 1.35 1.15 0 0 0
Dr 0 0 0
At SMD N 00888000
Ne 0 ""
Po 1.15 -0.9
$EndPAD
$PAD
Sh "4" R 1.35 1.15 0 0 0
Dr 0 0 0
At SMD N 00888000
Ne 0 ""
Po -1.15 -0.9
$EndPAD
$EndMODULE CRAP-CRYSTAL-3.2x2.5
$MODULE CRAP-MSOP10-0.5-EXPOSED-PAD
Po 0 0 0 15 557350F0 00000000 ~~
Li CRAP-MSOP10-0.5-EXPOSED-PAD
Cd MSOP10 10pins pitch 0.5mm
Sc 0
AR /556B38DD/556B3E00
Op 0 0 0
.LocalClearance 0.175
At SMD
T0 0 -0.635 0.762 0.762 0 0.1524 N V 21 N "U301"
T1 0 0.762 0.762 0.762 0 0.1524 N I 21 N "LTC3407"
DS -1.7 1.45 -1.45 1.7 0.15 21
DS -1.45 -1.7 -1.7 -1.7 0.15 21
DS -1.7 -1.7 -1.7 1.45 0.15 21
DS 1.7 1.7 1.7 -1.7 0.15 21
DS 1.7 -1.7 1.45 -1.7 0.15 21
DS 1.7 1.7 1.45 1.7 0.15 21
$PAD
Sh "1" R 0.305 1 0 0 0
Dr 0 0 0
At SMD N 00888000
Ne 0 ""
Po -1 2.2
$EndPAD
$PAD
Sh "2" R 0.305 1 0 0 0
Dr 0 0 0
At SMD N 00888000
Ne 0 ""
Po -0.5 2.2
$EndPAD
$PAD
Sh "3" R 0.305 1 0 0 0
Dr 0 0 0
At SMD N 00888000
Ne 0 ""
Po 0 2.2
$EndPAD
$PAD
Sh "4" R 0.305 1 0 0 0
Dr 0 0 0
At SMD N 00888000
Ne 0 ""
Po 0.5 2.2
$EndPAD
$PAD
Sh "5" R 0.305 1 0 0 0
Dr 0 0 0
At SMD N 00888000
Ne 0 ""
Po 1 2.2
$EndPAD
$PAD
Sh "6" R 0.305 1 0 0 0
Dr 0 0 0
At SMD N 00888000
Ne 0 ""
Po 1 -2.2
$EndPAD
$PAD
Sh "7" R 0.305 1 0 0 0
Dr 0 0 0
At SMD N 00888000
Ne 0 ""
Po 0.5 -2.2
$EndPAD
$PAD
Sh "8" R 0.305 1 0 0 0
Dr 0 0 0
At SMD N 00888000
Ne 0 ""
Po 0 -2.2
$EndPAD
$PAD
Sh "9" R 0.305 1 0 0 0
Dr 0 0 0
At SMD N 00888000
Ne 0 ""
Po -0.5 -2.2
$EndPAD
$PAD
Sh "10" R 0.305 1 0 0 0
Dr 0 0 0
At SMD N 00888000
Ne 0 ""
Po -1 -2.2
$EndPAD
$PAD
Sh "11" R 2.8 2.1 0 0 0
Dr 0 0 0
At SMD N 00888000
Ne 0 ""
Po 0 0
.LocalClearance 0.2
$EndPAD
$SHAPE3D
Na "smd\\MSOP_10.wrl"
Sc 0.3 0.35 0.3
Of 0 0 0
Ro 0 0 0
$EndSHAPE3D
$EndMODULE CRAP-MSOP10-0.5-EXPOSED-PAD
$MODULE CRAP-QFN32
Po 0 0 0 15 5573131A 00000000 ~~
Li CRAP-QFN32
Cd Support CMS Plcc 32 pins
Kw CMS Plcc
Sc 0
AR /556B2CE7/556B80F4
Op 0 0 0
.LocalClearance 0.2
At SMD
T0 0 -1.016 0.762 0.762 0 0.1524 N V 21 N "REF"
T1 0 0.762 0.762 0.762 0 0.1524 N I 21 N "VAL"
DS 3.25 -3.25 -2.2 -3.25 0.15 21
DS -2.2 -3.25 -3.25 -2.2 0.15 21
DS -3.25 -2.2 -3.25 3.25 0.15 21
DS 3.25 -3.25 3.25 3.25 0.15 21
DS 3.25 3.25 -3.25 3.25 0.15 21
$PAD
Sh "31" R 0.254 0.762 0 0 0
Dr 0 0 0
At SMD N 00888000
Ne 2 "GND"
Po -1.24968 -2.49936
$EndPAD
$PAD
Sh "30" R 0.254 0.762 0 0 0
Dr 0 0 0
At SMD N 00888000
Ne 2 "GND"
Po -0.7493 -2.49936
$EndPAD
$PAD
Sh "29" R 0.254 0.762 0 0 0
Dr 0 0 0
At SMD N 00888000
Ne 3 "N-00000139"
Po -0.24892 -2.49936
$EndPAD
$PAD
Sh "32" R 0.254 0.762 0 0 0
Dr 0 0 0
At SMD N 00888000
Ne 2 "GND"
Po -1.75006 -2.49936
$EndPAD
$PAD
Sh "1" R 0.254 0.762 0 0 900
Dr 0 0 0
At SMD N 00888000
Ne 0 ""
Po -2.49936 -1.75006
$EndPAD
$PAD
Sh "2" R 0.254 0.762 0 0 900
Dr 0 0 0
At SMD N 00888000
Ne 0 ""
Po -2.49936 -1.24968
$EndPAD
$PAD
Sh "3" R 0.254 0.762 0 0 900
Dr 0 0 0
At SMD N 00888000
Ne 2 "GND"
Po -2.49936 -0.7493
$EndPAD
$PAD
Sh "4" R 0.254 0.762 0 0 900
Dr 0 0 0
At SMD N 00888000
Ne 5 "N-00000141"
Po -2.49936 -0.24892
$EndPAD
$PAD
Sh "5" R 0.254 0.762 0 0 900
Dr 0 0 0
At SMD N 00888000
Ne 6 "N-00000142"
Po -2.49936 0.24892
$EndPAD
$PAD
Sh "6" R 0.254 0.762 0 0 900
Dr 0 0 0
At SMD N 00888000
Ne 2 "GND"
Po -2.49936 0.7493
$EndPAD
$PAD
Sh "7" R 0.254 0.762 0 0 900
Dr 0 0 0
At SMD N 00888000
Ne 2 "GND"
Po -2.49936 1.24968
$EndPAD
$PAD
Sh "8" R 0.254 0.762 0 0 900
Dr 0 0 0
At SMD N 00888000
Ne 16 "~RF_RST"
Po -2.49936 1.75006
$EndPAD
$PAD
Sh "16" R 0.254 0.762 0 0 0
Dr 0 0 0
At SMD N 00888000
Ne 2 "GND"
Po 1.75006 2.49936
$EndPAD
$PAD
Sh "9" R 0.254 0.762 0 0 0
Dr 0 0 0
At SMD N 00888000
Ne 0 ""
Po -1.75006 2.49936
$EndPAD
$PAD
Sh "10" R 0.254 0.762 0 0 0
Dr 0 0 0
At SMD N 00888000
Ne 10 "RF_DIG2"
Po -1.24968 2.49936
$EndPAD
$PAD
Sh "11" R 0.254 0.762 0 0 0
Dr 0 0 0
At SMD N 00888000
Ne 15 "RF_SLPTR"
Po -0.7493 2.49936
$EndPAD
$PAD
Sh "12" R 0.254 0.762 0 0 0
Dr 0 0 0
At SMD N 00888000
Ne 2 "GND"
Po -0.24892 2.49936
$EndPAD
$PAD
Sh "13" R 0.254 0.762 0 0 0
Dr 0 0 0
At SMD N 00888000
Ne 4 "N-00000140"
Po 0.24892 2.49936
$EndPAD
$PAD
Sh "14" R 0.254 0.762 0 0 0
Dr 0 0 0
At SMD N 00888000
Ne 4 "N-00000140"
Po 0.7493 2.49936
$EndPAD
$PAD
Sh "15" R 0.254 0.762 0 0 0
Dr 0 0 0
At SMD N 00888000
Ne 1 "+3.3V"
Po 1.24968 2.49936
$EndPAD
$PAD
Sh "17" R 0.254 0.762 0 0 900
Dr 0 0 0
At SMD N 00888000
Ne 9 "N-00000147"
Po 2.49936 1.75006
$EndPAD
$PAD
Sh "18" R 0.254 0.762 0 0 900
Dr 0 0 0
At SMD N 00888000
Ne 2 "GND"
Po 2.49936 1.24968
$EndPAD
$PAD
Sh "19" R 0.254 0.762 0 0 900
Dr 0 0 0
At SMD N 00888000
Ne 14 "RF_SCLK"
Po 2.49936 0.7493
$EndPAD
$PAD
Sh "20" R 0.254 0.762 0 0 900
Dr 0 0 0
At SMD N 00888000
Ne 12 "RF_MISO"
Po 2.49936 0.24892
$EndPAD
$PAD
Sh "21" R 0.254 0.762 0 0 900
Dr 0 0 0
At SMD N 00888000
Ne 2 "GND"
Po 2.49936 -0.24892
$EndPAD
$PAD
Sh "22" R 0.254 0.762 0 0 900
Dr 0 0 0
At SMD N 00888000
Ne 13 "RF_MOSI"
Po 2.49936 -0.7493
$EndPAD
$PAD
Sh "23" R 0.254 0.762 0 0 900
Dr 0 0 0
At SMD N 00888000
Ne 17 "~RF_SEL"
Po 2.49936 -1.24968
$EndPAD
$PAD
Sh "24" R 0.254 0.762 0 0 900
Dr 0 0 0
At SMD N 00888000
Ne 11 "RF_IRQ"
Po 2.49936 -1.75006
$EndPAD
$PAD
Sh "25" R 0.254 0.762 0 0 0
Dr 0 0 0
At SMD N 00888000
Ne 7 "N-00000145"
Po 1.75006 -2.49936
$EndPAD
$PAD
Sh "26" R 0.254 0.762 0 0 0
Dr 0 0 0
At SMD N 00888000
Ne 8 "N-00000146"
Po 1.24968 -2.49936
$EndPAD
$PAD
Sh "27" R 0.254 0.762 0 0 0
Dr 0 0 0
At SMD N 00888000
Ne 2 "GND"
Po 0.7493 -2.49936
$EndPAD
$PAD
Sh "28" R 0.254 0.762 0 0 0
Dr 0 0 0
At SMD N 00888000
Ne 1 "+3.3V"
Po 0.24892 -2.49936
$EndPAD
$PAD
Sh "33" R 3.3 3.3 0 0 0
Dr 0 0 0
At SMD N 00888000
Ne 2 "GND"
Po 0 0
$EndPAD
$EndMODULE CRAP-QFN32
$MODULE CRAP-SM0402
Po 0 0 0 15 55731304 00000000 ~~
Li CRAP-SM0402
Sc 0
AR /556B2CE7/556B7BA2
Op 0 0 0
At SMD
T0 0 0 0.35052 0.3048 0 0.07112 N V 21 N "REF"
T1 0.09906 0 0.35052 0.3048 0 0.07112 N I 21 N "VAL"
DS -0.3 -0.55 -0.975 -0.55 0.15 21
DS -0.975 -0.55 -0.975 0.55 0.15 21
DS -0.975 0.55 -0.3 0.55 0.15 21
DS 0.3 -0.55 0.975 -0.55 0.15 21
DS 0.975 -0.55 0.975 0.55 0.15 21
DS 0.975 0.55 0.3 0.55 0.15 21
$PAD
Sh "1" R 0.5 0.6 0 0 0
Dr 0 0 0
At SMD N 00888000
Ne 2 "N-00000146"
Po -0.475 0
$EndPAD
$PAD
Sh "2" R 0.5 0.6 0 0 0
Dr 0 0 0
At SMD N 00888000
Ne 1 "GND"
Po 0.475 0
$EndPAD
$SHAPE3D
Na "smd\\chip_cms.wrl"
Sc 0.05 0.05 0.05
Of 0 0 0.002
Ro 0 0 0
$EndSHAPE3D
$EndMODULE CRAP-SM0402
$MODULE CRAP-SM0603
Po 0 0 0 15 55731606 00000000 ~~
Li CRAP-SM0603
Sc 0
AR 
Op 0 0 0
At SMD
T0 0 0 0.508 0.4572 0 0.1143 N V 21 N "REF"
T1 0 0.45 0.508 0.4572 0 0.1143 N I 21 N "VAL"
DS -0.5 0.825 -1.325 0.825 0.15 21
DS -1.325 0.825 -1.325 -0.825 0.15 21
DS -1.325 -0.825 -0.5 -0.825 0.15 21
DS 0.5 -0.825 1.325 -0.825 0.15 21
DS 1.325 -0.825 1.325 0.825 0.15 21
DS 1.325 0.825 0.5 0.825 0.15 21
$PAD
Sh "1" R 0.65 1.15 0 0 0
Dr 0 0 0
At SMD N 00888000
Ne 0 ""
Po -0.75 0
$EndPAD
$PAD
Sh "2" R 0.65 1.15 0 0 0
Dr 0 0 0
At SMD N 00888000
Ne 0 ""
Po 0.75 0
$EndPAD
$SHAPE3D
Na "smd\\resistors\\R0603.wrl"
Sc 0.5 0.5 0.5
Of 0 0 0.001
Ro 0 0 0
$EndSHAPE3D
$EndMODULE CRAP-SM0603
$MODULE CRAP-SM0805
Po 0 0 0 15 557312E9 00000000 ~~
Li CRAP-SM0805
Sc 0
AR /556B38DD/556B4169
Op 0 0 0
At SMD
T0 0 -0.3175 0.50038 0.50038 0 0.10922 N V 21 N "REF"
T1 0 0.381 0.50038 0.50038 0 0.10922 N I 21 N "VAL"
DS -0.575 -0.95 -1.65 -0.95 0.15 21
DS -1.65 -0.95 -1.65 0.95 0.15 21
DS -1.65 0.95 -0.575 0.95 0.15 21
DS 0.575 -0.95 1.65 -0.95 0.15 21
DS 1.65 -0.95 1.65 0.95 0.15 21
DS 1.65 0.95 0.575 0.95 0.15 21
$PAD
Sh "1" R 0.9 1.4 0 0 0
Dr 0 0 0
At SMD N 00888000
Ne 1 "+3.3V"
Po -0.95 0
$EndPAD
$PAD
Sh "2" R 0.9 1.4 0 0 0
Dr 0 0 0
At SMD N 00888000
Ne 2 "GND"
Po 0.95 0
$EndPAD
$SHAPE3D
Na "smd/chip_cms.wrl"
Sc 0.1 0.1 0.1
Of 0 0 0
Ro 0 0 0
$EndSHAPE3D
$EndMODULE CRAP-SM0805
$MODULE CRAP-SM1210
Po 0 0 0 15 55734A17 00000000 ~~
Li CRAP-SM1210
Kw CMS SM
Sc 0
AR 
Op 0 0 0
At SMD
T0 0 -0.508 0.762 0.762 0 0.127 N V 21 N "REF"
T1 0 0.508 0.762 0.762 0 0.127 N I 21 N "Val**"
DS 2.5 1.6 0.95 1.6 0.15 21
DS 2.5 -1.6 0.95 -1.6 0.15 21
DS -0.975 1.6 -2.5 1.6 0.15 21
DS -2.5 1.6 -2.5 -1.6 0.15 21
DS -2.5 -1.6 -0.95 -1.6 0.15 21
DS 2.5 -1.6 2.5 1.6 0.15 21
$PAD
Sh "1" R 1.275 2.55 0 0 0
Dr 0 0 0
At SMD N 00888000
Ne 0 ""
Po -1.525 0
$EndPAD
$PAD
Sh "2" R 1.275 2.55 0 0 0
Dr 0 0 0
At SMD N 00888000
Ne 0 ""
Po 1.525 0
$EndPAD
$SHAPE3D
Na "smd/chip_cms.wrl"
Sc 0.17 0.2 0.17
Of 0 0 0
Ro 0 0 0
$EndSHAPE3D
$EndMODULE CRAP-SM1210
$MODULE CRAP-SMA-JACK_RIGHT
Po 0 0 0 15 557330D6 00000000 ~~
Li CRAP-SMA-JACK_RIGHT
Sc 0
AR 
Op 0 0 0
T0 0 1.7 1 1 0 0.15 N V 21 N "SMA"
T1 0.1 -1.8 1 1 0 0.15 N I 21 N "VAL**"
DS -4.1 -4.1 4.1 -4.1 0.15 21
DS 4.1 -4.1 4.1 4.1 0.15 21
DS 4.1 4.1 -4.1 4.1 0.15 21
DS -4.1 4.1 -4.1 -4.1 0.15 21
$PAD
Sh "1" C 2.5 2.5 0 0 0
Dr 1.6 0 0
At STD N 00E0FFFF
Ne 0 ""
Po 0 0
.LocalClearance 0.5
$EndPAD
$PAD
Sh "2" C 2.5 2.5 0 0 0
Dr 1.6 0 0
At STD N 00E0FFFF
Ne 0 ""
Po -2.55 -2.55
$EndPAD
$PAD
Sh "2" C 2.5 2.5 0 0 0
Dr 1.6 0 0
At STD N 00E0FFFF
Ne 0 ""
Po 2.55 -2.55
$EndPAD
$PAD
Sh "2" C 2.5 2.5 0 0 0
Dr 1.6 0 0
At STD N 00E0FFFF
Ne 0 ""
Po 2.55 2.55
$EndPAD
$PAD
Sh "2" C 2.5 2.5 0 0 0
Dr 1.6 0 0
At STD N 00E0FFFF
Ne 0 ""
Po -2.55 2.55
$EndPAD
$EndMODULE CRAP-SMA-JACK_RIGHT
$MODULE CRAP-SOT23-5
Po 0 0 0 15 543BB8C2 00000000 ~~
Li CRAP-SOT23-5
Sc 0
AR 
Op 0 0 0
At SMD
T0 2.19964 -0.29972 0.635 0.635 900 0.127 N V 21 N "SOT23-5"
T1 0 0 0.635 0.635 0 0.127 N V 21 N "VAL***"
DS -1.5 -0.7 -1.5 0.7 0.15 21
DS 1.5 -0.7 1.5 0.7 0.15 21
DS 1.524 0.689 -1.524 0.689 0.127 21
DS -1.524 -0.689 1.524 -0.689 0.127 21
$PAD
Sh "1" R 0.6 1.05 0 0 0
Dr 0 0 0
At SMD N 00888000
Ne 0 ""
Po -0.9525 1.35
$EndPAD
$PAD
Sh "3" R 0.6 1.05 0 0 0
Dr 0 0 0
At SMD N 00888000
Ne 0 ""
Po 0.9525 1.35
$EndPAD
$PAD
Sh "5" R 0.6 1.05 0 0 0
Dr 0 0 0
At SMD N 00888000
Ne 0 ""
Po -0.9525 -1.35
$EndPAD
$PAD
Sh "2" R 0.6 1.05 0 0 0
Dr 0 0 0
At SMD N 00888000
Ne 0 ""
Po 0 1.35
$EndPAD
$PAD
Sh "4" R 0.6 1.05 0 0 0
Dr 0 0 0
At SMD N 00888000
Ne 0 ""
Po 0.9525 -1.35
$EndPAD
$SHAPE3D
Na "smd/SOT23_5.wrl"
Sc 0.1 0.1 0.1
Of 0 0 0
Ro 0 0 0
$EndSHAPE3D
$EndMODULE CRAP-SOT23-5
$MODULE CRAP-SOT363
Po 0 0 0 15 543BBC7F 00000000 ~~
Li CRAP-SOT363
Sc 0
AR SOT363
Op 0 0 0
T0 1.30048 0 0.508 0.508 900 0.0762 N V 21 N "SOT363"
T1 0.0635 0 0.381 0.381 0 0.0762 N V 21 N "VAL"
DS -0.89916 0 -0.59944 0.29972 0.0762 21
DS -0.89916 -0.29972 0.89916 -0.29972 0.0762 21
DS 0.89916 -0.29972 0.89916 0.29972 0.0762 21
DS 0.89916 0.29972 -0.89916 0.29972 0.0762 21
DS -0.89916 0.29972 -0.89916 -0.29972 0.0762 21
$PAD
Sh "6" R 0.3 0.66 0 0 0
Dr 0 0 0
At SMD N 00888000
Ne 0 ""
Po -0.65 -0.92
$EndPAD
$PAD
Sh "5" R 0.3 0.66 0 0 0
Dr 0 0 0
At SMD N 00888000
Ne 0 ""
Po 0 -0.92
$EndPAD
$PAD
Sh "4" R 0.3 0.66 0 0 0
Dr 0 0 0
At SMD N 00888000
Ne 0 ""
Po 0.65 -0.92
$EndPAD
$PAD
Sh "3" R 0.3 0.66 0 0 0
Dr 0 0 0
At SMD N 00888000
Ne 0 ""
Po 0.65 0.92
$EndPAD
$PAD
Sh "2" R 0.3 0.66 0 0 0
Dr 0 0 0
At SMD N 00888000
Ne 0 ""
Po 0 0.92
$EndPAD
$PAD
Sh "1" R 0.3 0.66 0 0 0
Dr 0 0 0
At SMD N 00888000
Ne 0 ""
Po -0.65 0.92
$EndPAD
$SHAPE3D
Na "smd\\SOT23_6.wrl"
Sc 0.06 0.06 0.06
Of 0 0 0
Ro 0 0 -180
$EndSHAPE3D
$EndMODULE CRAP-SOT363
$MODULE CRAP-TSSOP14
Po 0 0 0 15 543BC0FE 00000000 ~~
Li CRAP-TSSOP14
Cd TSSOP-14
Sc 0
AR 
Op 0 0 0
T0 -0.05 1.45 0.50038 0.50038 0 0.09906 N V 21 N "TSSOP-14"
T1 0 -1.143 0.50038 0.50038 0 0.09906 N V 21 N "U***"
DS -2.55 -1.9 -2.55 1.9 0.15 21
DS 2.55 1.9 2.55 -1.9 0.15 21
DC -3.055 2.374 -3.182 2.628 0.127 21
DS 2.54 -1.886 -2.54 -1.886 0.127 21
DS -2.54 1.886 2.54 1.886 0.127 21
$PAD
Sh "4" R 0.4 1.45 0 0 0
Dr 0 0 0
At SMD N 00888000
Ne 0 ""
Po 0 2.94908
$EndPAD
$PAD
Sh "5" R 0.4 1.45 0 0 0
Dr 0 0 0
At SMD N 00888000
Ne 0 ""
Po 0.65024 2.94908
$EndPAD
$PAD
Sh "6" R 0.4 1.45 0 0 0
Dr 0 0 0
At SMD N 00888000
Ne 0 ""
Po 1.30048 2.94908
$EndPAD
$PAD
Sh "7" R 0.4 1.45 0 0 0
Dr 0 0 0
At SMD N 00888000
Ne 0 ""
Po 1.95072 2.94908
$EndPAD
$PAD
Sh "8" R 0.4 1.45 0 0 0
Dr 0 0 0
At SMD N 00888000
Ne 0 ""
Po 1.95072 -2.94908
$EndPAD
$PAD
Sh "1" R 0.4 1.45 0 0 0
Dr 0 0 0
At SMD N 00888000
Ne 0 ""
Po -1.95 2.95
$EndPAD
$PAD
Sh "2" R 0.4 1.45 0 0 0
Dr 0 0 0
At SMD N 00888000
Ne 0 ""
Po -1.30048 2.94908
$EndPAD
$PAD
Sh "3" R 0.4 1.45 0 0 0
Dr 0 0 0
At SMD N 00888000
Ne 0 ""
Po -0.65024 2.94908
$EndPAD
$PAD
Sh "9" R 0.4 1.45 0 0 0
Dr 0 0 0
At SMD N 00888000
Ne 0 ""
Po 1.30048 -2.94908
$EndPAD
$PAD
Sh "10" R 0.4 1.45 0 0 0
Dr 0 0 0
At SMD N 00888000
Ne 0 ""
Po 0.65024 -2.94908
$EndPAD
$PAD
Sh "11" R 0.4 1.45 0 0 0
Dr 0 0 0
At SMD N 00888000
Ne 0 ""
Po 0 -2.94908
$EndPAD
$PAD
Sh "12" R 0.4 1.45 0 0 0
Dr 0 0 0
At SMD N 00888000
Ne 0 ""
Po -0.65024 -2.94908
$EndPAD
$PAD
Sh "13" R 0.4 1.45 0 0 0
Dr 0 0 0
At SMD N 00888000
Ne 0 ""
Po -1.30048 -2.94908
$EndPAD
$PAD
Sh "14" R 0.4 1.45 0 0 0
Dr 0 0 0
At SMD N 00888000
Ne 0 ""
Po -1.95072 -2.94908
$EndPAD
$SHAPE3D
Na "smd/smd_dil/tssop-14.wrl"
Sc 1 1 1
Of 0 0 0
Ro 0 0 0
$EndSHAPE3D
$EndMODULE CRAP-TSSOP14
$MODULE CRAP_2SMD
Po 0 0 0 15 543796E0 00000000 ~~
Li CRAP_2SMD
Sc 0
AR 
Op 0 0 0
T0 0 1.651 1 1 0 0.15 N V 21 N "CRAP_2SMD"
T1 0 -1.524 1 1 0 0.15 N V 21 N "VAL**"
$PAD
Sh "1" R 0.635 1.27 0 0 0
Dr 0 0 0
At SMD N 00888000
Ne 0 ""
Po -0.635 0
$EndPAD
$PAD
Sh "2" R 0.635 1.27 0 0 0
Dr 0 0 0
At SMD N 00888000
Ne 0 ""
Po 0.635 0
$EndPAD
$EndMODULE CRAP_2SMD
$MODULE CRAP_3SMD
Po 0 0 0 15 5437969D 00000000 ~~
Li CRAP_3SMD
Sc 0
AR 
Op 0 0 0
T0 0 1.651 1 1 0 0.15 N V 21 N "CRAP_3SMD"
T1 0 -1.524 1 1 0 0.15 N V 21 N "VAL**"
$PAD
Sh "1" R 0.635 1.27 0 0 0
Dr 0 0 0
At SMD N 00888000
Ne 0 ""
Po -1.27 0
$EndPAD
$PAD
Sh "2" R 0.635 1.27 0 0 0
Dr 0 0 0
At SMD N 00888000
Ne 0 ""
Po 0 0
$EndPAD
$PAD
Sh "3" R 0.635 1.27 0 0 0
Dr 0 0 0
At SMD N 00888000
Ne 0 ""
Po 1.27 0
$EndPAD
$EndMODULE CRAP_3SMD
$MODULE CRAP_4SMD
Po 0 0 0 15 54352F5F 00000000 ~~
Li CRAP_4SMD
Sc 0
AR 
Op 0 0 0
T0 0 1.651 1 1 0 0.15 N V 21 N "CRAP_4SMD"
T1 0 -1.524 1 1 0 0.15 N V 21 N "VAL**"
$PAD
Sh "1" R 0.635 1.27 0 0 0
Dr 0 0 0
At SMD N 00888000
Ne 0 ""
Po -1.905 0
$EndPAD
$PAD
Sh "2" R 0.635 1.27 0 0 0
Dr 0 0 0
At SMD N 00888000
Ne 0 ""
Po -0.635 0
$EndPAD
$PAD
Sh "3" R 0.635 1.27 0 0 0
Dr 0 0 0
At SMD N 00888000
Ne 0 ""
Po 0.635 0
$EndPAD
$PAD
Sh "4" R 0.635 1.27 0 0 0
Dr 0 0 0
At SMD N 00888000
Ne 0 ""
Po 1.905 0
$EndPAD
$EndMODULE CRAP_4SMD
$MODULE CX2520SB
Po 0 0 0 15 542EC20F 00000000 ~~
Li CX2520SB
Sc 0
AR 
Op 0 0 0
T0 0 -3.81 0.7 0.7 0 0.15 N V 21 N "CX2520SB"
T1 0 5.08 0.7 0.7 0 0.15 N V 21 N "VAL**"
DC -2.03 1.69 -2 1.63 0.15 21
$PAD
Sh "1" R 1.2 1 0 0 0
Dr 0 0 0
At SMD N 00888000
Ne 0 ""
Po -0.85 0.65
$EndPAD
$PAD
Sh "2" R 1.2 1 0 0 0
Dr 0 0 0
At SMD N 00888000
Ne 0 ""
Po 0.85 0.65
$EndPAD
$PAD
Sh "3" R 1.2 1 0 0 0
Dr 0 0 0
At SMD N 00888000
Ne 0 ""
Po 0.85 -0.65
$EndPAD
$PAD
Sh "4" R 1.2 1 0 0 0
Dr 0 0 0
At SMD N 00888000
Ne 0 ""
Po -0.85 -0.65
$EndPAD
$EndMODULE CX2520SB
$MODULE DIODE_SMC_B520C
Po 0 0 0 15 556383A5 00000000 ~~
Li DIODE_SMC_B520C
Sc 0
AR 
Op 0 0 0
T0 0 -4 1 1 0 0.15 N V 21 N "DIODE_SMC_B520C"
T1 0.5 4 1 1 0 0.15 N V 21 N "VAL**"
DS -2 -3 -2 3 0.15 21
DS -3.5 -3 3.5 -3 0.15 21
DS 3.5 -3 3.5 3 0.15 21
DS 3.5 3 -3.5 3 0.15 21
DS -3.5 3 -3.5 -3 0.15 21
$PAD
Sh "1" R 2.5 3.3 0 0 0
Dr 0 0 0
At SMD N 00888000
Ne 0 ""
Po -3.4 0
$EndPAD
$PAD
Sh "2" R 2.5 3.3 0 0 0
Dr 0 0 0
At SMD N 00888000
Ne 0 ""
Po 3.4 0
$EndPAD
$EndMODULE DIODE_SMC_B520C
$MODULE FOXTEST
Po 0 0 0 15 573B96BF 00000000 ~~
Li FOXTEST
Sc 0
AR 
Op 0 0 0
T0 -7.62 0 1 1 900 0.15 N V 21 N "FOXTEST"
T1 -7.62 0 1 1 900 0.15 N V 21 N "VAL**"
DS 6.35 -6.35 -6.35 -6.35 0.15 21
DS -6.35 -6.35 -6.35 6.35 0.15 21
DS -6.35 6.35 6.35 6.35 0.15 21
DS 6.35 6.35 6.35 -6.35 0.15 21
DS 8.89 -10.16 8.89 10.16 0.15 21
DS 8.89 10.16 -13.97 10.16 0.15 21
DS -13.97 10.16 -13.97 -10.16 0.15 21
DS -13.97 -10.16 8.89 -10.16 0.15 21
$PAD
Sh "1" C 1.5 1.5 0 0 0
Dr 1 0 0
At STD N 00E0FFFF
Ne 0 ""
Po -5.08 -5.08
$EndPAD
$PAD
Sh "2" C 1.5 1.5 0 0 0
Dr 1 0 0
At STD N 00E0FFFF
Ne 0 ""
Po -5.08 -2.54
$EndPAD
$PAD
Sh "3" C 1.5 1.5 0 0 0
Dr 1 0 0
At STD N 00E0FFFF
Ne 0 ""
Po -5.08 0
$EndPAD
$PAD
Sh "4" C 1.5 1.5 0 0 0
Dr 1 0 0
At STD N 00E0FFFF
Ne 0 ""
Po -5.08 2.54
$EndPAD
$PAD
Sh "5" C 1.5 1.5 0 0 0
Dr 1 0 0
At STD N 00E0FFFF
Ne 0 ""
Po -5.08 5.08
$EndPAD
$PAD
Sh "6" C 1.5 1.5 0 0 0
Dr 1 0 0
At STD N 00E0FFFF
Ne 0 ""
Po -2.54 -5.08
$EndPAD
$PAD
Sh "7" C 1.5 1.5 0 0 0
Dr 1 0 0
At STD N 00E0FFFF
Ne 0 ""
Po -2.54 -2.54
$EndPAD
$PAD
Sh "8" C 1.5 1.5 0 0 0
Dr 1 0 0
At STD N 00E0FFFF
Ne 0 ""
Po -2.54 0
$EndPAD
$PAD
Sh "9" C 1.5 1.5 0 0 0
Dr 1 0 0
At STD N 00E0FFFF
Ne 0 ""
Po -2.54 2.54
$EndPAD
$PAD
Sh "10" C 1.5 1.5 0 0 0
Dr 1 0 0
At STD N 00E0FFFF
Ne 0 ""
Po -2.54 5.08
$EndPAD
$PAD
Sh "11" C 1.5 1.5 0 0 0
Dr 1 0 0
At STD N 00E0FFFF
Ne 0 ""
Po 0 -5.08
$EndPAD
$PAD
Sh "12" C 1.5 1.5 0 0 0
Dr 1 0 0
At STD N 00E0FFFF
Ne 0 ""
Po 0 -2.54
$EndPAD
$PAD
Sh "13" C 1.5 1.5 0 0 0
Dr 1 0 0
At STD N 00E0FFFF
Ne 0 ""
Po 0 0
$EndPAD
$PAD
Sh "14" C 1.5 1.5 0 0 0
Dr 1 0 0
At STD N 00E0FFFF
Ne 0 ""
Po 0 2.54
$EndPAD
$PAD
Sh "15" C 1.5 1.5 0 0 0
Dr 1 0 0
At STD N 00E0FFFF
Ne 0 ""
Po 0 5.08
$EndPAD
$PAD
Sh "16" C 1.5 1.5 0 0 0
Dr 1 0 0
At STD N 00E0FFFF
Ne 0 ""
Po 2.54 -5.08
$EndPAD
$PAD
Sh "17" C 1.5 1.5 0 0 0
Dr 1 0 0
At STD N 00E0FFFF
Ne 0 ""
Po 2.54 -2.54
$EndPAD
$PAD
Sh "18" C 1.5 1.5 0 0 0
Dr 1 0 0
At STD N 00E0FFFF
Ne 0 ""
Po 2.54 0
$EndPAD
$PAD
Sh "19" C 1.5 1.5 0 0 0
Dr 1 0 0
At STD N 00E0FFFF
Ne 0 ""
Po 2.54 2.54
$EndPAD
$PAD
Sh "20" C 1.5 1.5 0 0 0
Dr 1 0 0
At STD N 00E0FFFF
Ne 0 ""
Po 2.54 5.08
$EndPAD
$PAD
Sh "21" C 1.5 1.5 0 0 0
Dr 1 0 0
At STD N 00E0FFFF
Ne 0 ""
Po 5.08 -5.08
$EndPAD
$PAD
Sh "21" C 1.5 1.5 0 0 0
Dr 1 0 0
At STD N 00E0FFFF
Ne 0 ""
Po 5.08 -2.54
$EndPAD
$PAD
Sh "21" C 1.5 1.5 0 0 0
Dr 1 0 0
At STD N 00E0FFFF
Ne 0 ""
Po 5.08 0
$EndPAD
$PAD
Sh "21" C 1.5 1.5 0 0 0
Dr 1 0 0
At STD N 00E0FFFF
Ne 0 ""
Po 5.08 2.54
$EndPAD
$PAD
Sh "21" C 1.5 1.5 0 0 0
Dr 1 0 0
At STD N 00E0FFFF
Ne 0 ""
Po 5.08 5.08
$EndPAD
$EndMODULE FOXTEST
$MODULE HTSSOP16_LTC3569
Po 0 0 0 15 55BBD0FC 00000000 ~~
Li HTSSOP16_LTC3569
Sc 0
AR /55859355/5585935D
Op 0 0 0
.LocalClearance 0.15
T0 0 0 1 1 0 0.15 N V 21 N "U301"
T1 0 0 1 1 0 0.15 N I 21 N "VAL**"
DS 2.75 -2.5 2.75 2.5 0.15 21
DS -2.75 -2.5 -2.75 2.5 0.15 21
DC -2.25 1.5 -2.25 1.75 0.15 21
$PAD
Sh "1" R 0.45 1.05 0 0 0
Dr 0 0 0
At SMD N 00888000
Ne 0 ""
Po -2.275 2.775
$EndPAD
$PAD
Sh "2" R 0.45 1.05 0 0 0
Dr 0 0 0
At SMD N 00888000
Ne 0 ""
Po -1.625 2.775
$EndPAD
$PAD
Sh "3" R 0.45 1.05 0 0 0
Dr 0 0 0
At SMD N 00888000
Ne 0 ""
Po -0.975 2.775
$EndPAD
$PAD
Sh "4" R 0.45 1.05 0 0 0
Dr 0 0 0
At SMD N 00888000
Ne 0 ""
Po -0.325 2.775
$EndPAD
$PAD
Sh "5" R 0.45 1.05 0 0 0
Dr 0 0 0
At SMD N 00888000
Ne 0 ""
Po 0.325 2.775
$EndPAD
$PAD
Sh "6" R 0.45 1.05 0 0 0
Dr 0 0 0
At SMD N 00888000
Ne 0 ""
Po 0.975 2.775
$EndPAD
$PAD
Sh "7" R 0.45 1.05 0 0 0
Dr 0 0 0
At SMD N 00888000
Ne 0 ""
Po 1.625 2.775
$EndPAD
$PAD
Sh "8" R 0.45 1.05 0 0 0
Dr 0 0 0
At SMD N 00888000
Ne 0 ""
Po 2.275 2.775
$EndPAD
$PAD
Sh "9" R 0.45 1.05 0 0 0
Dr 0 0 0
At SMD N 00888000
Ne 0 ""
Po 2.275 -2.775
$EndPAD
$PAD
Sh "10" R 0.45 1.05 0 0 0
Dr 0 0 0
At SMD N 00888000
Ne 0 ""
Po 1.625 -2.775
$EndPAD
$PAD
Sh "11" R 0.45 1.05 0 0 0
Dr 0 0 0
At SMD N 00888000
Ne 0 ""
Po 0.975 -2.775
$EndPAD
$PAD
Sh "12" R 0.45 1.05 0 0 0
Dr 0 0 0
At SMD N 00888000
Ne 0 ""
Po 0.325 -2.775
$EndPAD
$PAD
Sh "13" R 0.45 1.05 0 0 0
Dr 0 0 0
At SMD N 00888000
Ne 0 ""
Po -0.325 -2.775
$EndPAD
$PAD
Sh "14" R 0.45 1.05 0 0 0
Dr 0 0 0
At SMD N 00888000
Ne 0 ""
Po -0.975 -2.775
$EndPAD
$PAD
Sh "15" R 0.45 1.05 0 0 0
Dr 0 0 0
At SMD N 00888000
Ne 0 ""
Po -1.625 -2.775
$EndPAD
$PAD
Sh "16" R 0.45 1.05 0 0 0
Dr 0 0 0
At SMD N 00888000
Ne 0 ""
Po -2.275 -2.775
$EndPAD
$PAD
Sh "17" R 2.74 2.74 0 0 0
Dr 0 0 0
At SMD N 00888000
Ne 0 ""
Po 0 0
$EndPAD
$EndMODULE HTSSOP16_LTC3569
$MODULE HTSSOP32_TLC5947
Po 0 0 0 15 55BB6083 00000000 ~~
Li HTSSOP32_TLC5947
Sc 0
AR /55859355/5585935D
Op 0 0 0
T0 0 0 1 1 0 0.15 N V 21 N "U301"
T1 0 0 1 1 0 0.15 N I 21 N "TLC5947"
DS -5.75 -3.25 -5.5 -3.25 0.15 21
DS -5.75 3.25 -5.5 3.25 0.15 21
DS 5.75 3.25 5.5 3.25 0.15 21
DS 5.75 -3.25 5.5 -3.25 0.15 21
DC -5 1.75 -5 2.25 0.15 21
DS 5.75 -3.25 5.75 3.25 0.15 21
DS -5.75 3.25 -5.75 -3.25 0.15 21
$PAD
Sh "1" R 0.3 1.8 0 0 0
Dr 0 0 0
At SMD N 00888000
Ne 0 ""
Po -4.875 3.7
$EndPAD
$PAD
Sh "2" R 0.3 1.8 0 0 0
Dr 0 0 0
At SMD N 00888000
Ne 0 ""
Po -4.225 3.7
$EndPAD
$PAD
Sh "3" R 0.3 1.8 0 0 0
Dr 0 0 0
At SMD N 00888000
Ne 0 ""
Po -3.575 3.7
$EndPAD
$PAD
Sh "4" R 0.3 1.8 0 0 0
Dr 0 0 0
At SMD N 00888000
Ne 0 ""
Po -2.925 3.7
$EndPAD
$PAD
Sh "5" R 0.3 1.8 0 0 0
Dr 0 0 0
At SMD N 00888000
Ne 0 ""
Po -2.275 3.7
$EndPAD
$PAD
Sh "6" R 0.3 1.8 0 0 0
Dr 0 0 0
At SMD N 00888000
Ne 0 ""
Po -1.625 3.7
$EndPAD
$PAD
Sh "7" R 0.3 1.8 0 0 0
Dr 0 0 0
At SMD N 00888000
Ne 0 ""
Po -0.975 3.7
$EndPAD
$PAD
Sh "8" R 0.3 1.8 0 0 0
Dr 0 0 0
At SMD N 00888000
Ne 0 ""
Po -0.325 3.7
$EndPAD
$PAD
Sh "9" R 0.3 1.8 0 0 0
Dr 0 0 0
At SMD N 00888000
Ne 0 ""
Po 0.325 3.7
$EndPAD
$PAD
Sh "10" R 0.3 1.8 0 0 0
Dr 0 0 0
At SMD N 00888000
Ne 0 ""
Po 0.975 3.7
$EndPAD
$PAD
Sh "11" R 0.3 1.8 0 0 0
Dr 0 0 0
At SMD N 00888000
Ne 0 ""
Po 1.625 3.7
$EndPAD
$PAD
Sh "12" R 0.3 1.8 0 0 0
Dr 0 0 0
At SMD N 00888000
Ne 0 ""
Po 2.275 3.7
$EndPAD
$PAD
Sh "13" R 0.3 1.8 0 0 0
Dr 0 0 0
At SMD N 00888000
Ne 0 ""
Po 2.925 3.7
$EndPAD
$PAD
Sh "14" R 0.3 1.8 0 0 0
Dr 0 0 0
At SMD N 00888000
Ne 0 ""
Po 3.575 3.7
$EndPAD
$PAD
Sh "15" R 0.3 1.8 0 0 0
Dr 0 0 0
At SMD N 00888000
Ne 0 ""
Po 4.225 3.7
$EndPAD
$PAD
Sh "16" R 0.3 1.8 0 0 0
Dr 0 0 0
At SMD N 00888000
Ne 0 ""
Po 4.875 3.7
$EndPAD
$PAD
Sh "17" R 0.3 1.8 0 0 0
Dr 0 0 0
At SMD N 00888000
Ne 0 ""
Po 4.875 -3.7
$EndPAD
$PAD
Sh "18" R 0.3 1.8 0 0 0
Dr 0 0 0
At SMD N 00888000
Ne 0 ""
Po 4.225 -3.7
$EndPAD
$PAD
Sh "19" R 0.3 1.8 0 0 0
Dr 0 0 0
At SMD N 00888000
Ne 0 ""
Po 3.575 -3.7
$EndPAD
$PAD
Sh "20" R 0.3 1.8 0 0 0
Dr 0 0 0
At SMD N 00888000
Ne 0 ""
Po 2.925 -3.7
$EndPAD
$PAD
Sh "21" R 0.3 1.8 0 0 0
Dr 0 0 0
At SMD N 00888000
Ne 0 ""
Po 2.275 -3.7
$EndPAD
$PAD
Sh "22" R 0.3 1.8 0 0 0
Dr 0 0 0
At SMD N 00888000
Ne 0 ""
Po 1.625 -3.7
$EndPAD
$PAD
Sh "23" R 0.3 1.8 0 0 0
Dr 0 0 0
At SMD N 00888000
Ne 0 ""
Po 0.975 -3.7
$EndPAD
$PAD
Sh "24" R 0.3 1.8 0 0 0
Dr 0 0 0
At SMD N 00888000
Ne 0 ""
Po 0.325 -3.7
$EndPAD
$PAD
Sh "25" R 0.3 1.8 0 0 0
Dr 0 0 0
At SMD N 00888000
Ne 0 ""
Po -0.325 -3.7
$EndPAD
$PAD
Sh "26" R 0.3 1.8 0 0 0
Dr 0 0 0
At SMD N 00888000
Ne 0 ""
Po -0.975 -3.7
$EndPAD
$PAD
Sh "27" R 0.3 1.8 0 0 0
Dr 0 0 0
At SMD N 00888000
Ne 0 ""
Po -1.625 -3.7
$EndPAD
$PAD
Sh "28" R 0.3 1.8 0 0 0
Dr 0 0 0
At SMD N 00888000
Ne 0 ""
Po -2.275 -3.7
$EndPAD
$PAD
Sh "29" R 0.3 1.8 0 0 0
Dr 0 0 0
At SMD N 00888000
Ne 0 ""
Po -2.925 -3.7
$EndPAD
$PAD
Sh "30" R 0.3 1.8 0 0 0
Dr 0 0 0
At SMD N 00888000
Ne 0 ""
Po -3.575 -3.7
$EndPAD
$PAD
Sh "31" R 0.3 1.8 0 0 0
Dr 0 0 0
At SMD N 00888000
Ne 0 ""
Po -4.225 -3.7
$EndPAD
$PAD
Sh "32" R 0.3 1.8 0 0 0
Dr 0 0 0
At SMD N 00888000
Ne 0 ""
Po -4.875 -3.7
$EndPAD
$PAD
Sh "33" R 4.36 4.11 0 0 0
Dr 0 0 0
At SMD N 00888000
Ne 0 ""
Po 0 0
$EndPAD
$EndMODULE HTSSOP32_TLC5947
$MODULE KMR211G
Po 0 0 0 15 54801909 00000000 ~~
Li KMR211G
Sc 0
AR 
Op 0 0 0
T0 -0.18 -5.79 1 1 0 0.15 N V 21 N "KMR211G"
T1 6.45 6.58 1 1 0 0.15 N V 21 N "VAL**"
DS -2.7 -1.6 2.8 -1.6 0.15 21
DS 2.8 -1.6 2.8 1.6 0.15 21
DS 2.8 1.6 -2.8 1.6 0.15 21
DS -2.8 1.6 -2.8 -1.6 0.15 21
DS -2.8 -1.6 -2.7 -1.6 0.15 21
$PAD
Sh "1" R 0.9 1 0 0 0
Dr 0 0 0
At SMD N 00888000
Ne 0 ""
Po -2.05 -0.8
$EndPAD
$PAD
Sh "1" R 0.9 1 0 0 0
Dr 0 0 0
At SMD N 00888000
Ne 0 ""
Po 2.05 -0.8
$EndPAD
$PAD
Sh "2" R 0.9 1 0 0 0
Dr 0 0 0
At SMD N 00888000
Ne 0 ""
Po 2.05 0.8
$EndPAD
$PAD
Sh "2" R 0.9 1 0 0 0
Dr 0 0 0
At SMD N 00888000
Ne 0 ""
Po -2.05 0.8
$EndPAD
$EndMODULE KMR211G
$MODULE KMR2_series
Po 0 0 0 15 557C9178 00000000 ~~
Li KMR2_series
Sc 0
AR 
Op 0 0 0
T0 0 0 1 1 0 0.15 N V 21 N "KMR2_series"
T1 0 0 1 1 0 0.15 N V 21 N "VAL**"
$PAD
Sh "2" R 0.9 1 0 0 0
Dr 0 0 0
At SMD N 00888000
Ne 0 ""
Po -2.05 0.8
$EndPAD
$PAD
Sh "3" R 0.9 1 0 0 0
Dr 0 0 0
At SMD N 00888000
Ne 0 ""
Po 2.05 0.8
$EndPAD
$PAD
Sh "1" R 0.9 1 0 0 0
Dr 0 0 0
At SMD N 00888000
Ne 0 ""
Po -2.05 -0.8
$EndPAD
$PAD
Sh "4" R 0.9 1 0 0 0
Dr 0 0 0
At SMD N 00888000
Ne 0 ""
Po 2.05 -0.8
$EndPAD
$PAD
Sh "5" R 1.7 0.55 0 0 0
Dr 0 0 0
At SMD N 00888000
Ne 0 ""
Po 0 -1.42
$EndPAD
$EndMODULE KMR2_series
$MODULE LGA12
Po 0 0 0 15 5480A7B4 00000000 ~~
Li LGA12
Sc 0
AR 
Op 0 0 0
T0 0 -3 1 1 0 0.15 N V 21 N "LGA12"
T1 0 3.25 1 1 0 0.15 N V 21 N "VAL**"
DS 2.4 -1.4 2.4 1.4 0.15 21
DS 2.4 1.4 -2.4 1.4 0.15 21
DS -2.4 1.4 -2.4 -1.4 0.15 21
DS -2.4 -1.4 2.4 -1.4 0.15 21
DC -2.6 1.85 -2.55 1.75 0.15 21
$PAD
Sh "1" R 0.55 0.6 0 0 0
Dr 0 0 0
At SMD N 00888000
Ne 0 ""
Po -1.85 1
$EndPAD
$PAD
Sh "2" R 0.55 0.6 0 0 0
Dr 0 0 0
At SMD N 00888000
Ne 0 ""
Po -1.1 1
$EndPAD
$PAD
Sh "3" R 0.55 0.6 0 0 0
Dr 0 0 0
At SMD N 00888000
Ne 0 ""
Po -0.35 1
$EndPAD
$PAD
Sh "4" R 0.55 0.6 0 0 0
Dr 0 0 0
At SMD N 00888000
Ne 0 ""
Po 0.4 1
$EndPAD
$PAD
Sh "5" R 0.55 0.6 0 0 0
Dr 0 0 0
At SMD N 00888000
Ne 0 ""
Po 1.15 1
$EndPAD
$PAD
Sh "6" R 0.55 0.6 0 0 0
Dr 0 0 0
At SMD N 00888000
Ne 0 ""
Po 1.9 1
$EndPAD
$PAD
Sh "7" R 0.55 0.6 0 0 0
Dr 0 0 0
At SMD N 00888000
Ne 0 ""
Po 1.9 -1
$EndPAD
$PAD
Sh "8" R 0.55 0.6 0 0 0
Dr 0 0 0
At SMD N 00888000
Ne 0 ""
Po 1.15 -1
$EndPAD
$PAD
Sh "9" R 0.55 0.6 0 0 0
Dr 0 0 0
At SMD N 00888000
Ne 0 ""
Po 0.4 -1
$EndPAD
$PAD
Sh "10" R 0.55 0.6 0 0 0
Dr 0 0 0
At SMD N 00888000
Ne 0 ""
Po -0.35 -1
$EndPAD
$PAD
Sh "11" R 0.55 0.6 0 0 0
Dr 0 0 0
At SMD N 00888000
Ne 0 ""
Po -1.1 -1
$EndPAD
$PAD
Sh "12" R 0.55 0.6 0 0 0
Dr 0 0 0
At SMD N 00888000
Ne 0 ""
Po -1.85 -1
$EndPAD
$EndMODULE LGA12
$MODULE LGA24-4x4
Po 0 0 0 15 549A8B22 00000000 ~~
Li LGA24-4x4
Sc 0
AR 
Op 0 0 0
T0 0 -3 1 1 0 0.15 N V 21 N "LGA24"
T1 0 3.25 1 1 0 0.15 N V 21 N "VAL**"
DS -2.15 1.6 -1.65 2.15 0.15 21
DS 2.15 -2.15 2.15 2.15 0.15 21
DS 2.15 2.15 -2.15 2.15 0.15 21
DS -2.15 -2.15 -2.15 2.15 0.15 21
DS -2.15 -2.15 2.15 -2.15 0.15 21
DC -2.5 2.45 -2.45 2.35 0.15 21
$PAD
Sh "1" R 0.3 0.45 0 0 0
Dr 0 0 0
At SMD N 00888000
Ne 0 ""
Po -1.25 1.725
$EndPAD
$PAD
Sh "2" R 0.3 0.45 0 0 0
Dr 0 0 0
At SMD N 00888000
Ne 0 ""
Po -0.75 1.725
$EndPAD
$PAD
Sh "3" R 0.3 0.45 0 0 0
Dr 0 0 0
At SMD N 00888000
Ne 0 ""
Po -0.25 1.725
$EndPAD
$PAD
Sh "4" R 0.3 0.45 0 0 0
Dr 0 0 0
At SMD N 00888000
Ne 0 ""
Po 0.25 1.725
$EndPAD
$PAD
Sh "5" R 0.3 0.45 0 0 0
Dr 0 0 0
At SMD N 00888000
Ne 0 ""
Po 0.75 1.725
$EndPAD
$PAD
Sh "6" R 0.3 0.45 0 0 0
Dr 0 0 0
At SMD N 00888000
Ne 0 ""
Po 1.25 1.725
$EndPAD
$PAD
Sh "7" R 0.3 0.45 0 0 900
Dr 0 0 0
At SMD N 00888000
Ne 0 ""
Po 1.725 1.25
$EndPAD
$PAD
Sh "8" R 0.3 0.45 0 0 900
Dr 0 0 0
At SMD N 00888000
Ne 0 ""
Po 1.725 0.75
$EndPAD
$PAD
Sh "9" R 0.3 0.45 0 0 900
Dr 0 0 0
At SMD N 00888000
Ne 0 ""
Po 1.725 0.25
$EndPAD
$PAD
Sh "10" R 0.3 0.45 0 0 900
Dr 0 0 0
At SMD N 00888000
Ne 0 ""
Po 1.725 -0.25
$EndPAD
$PAD
Sh "11" R 0.3 0.45 0 0 900
Dr 0 0 0
At SMD N 00888000
Ne 0 ""
Po 1.725 -0.75
$EndPAD
$PAD
Sh "12" R 0.3 0.45 0 0 900
Dr 0 0 0
At SMD N 00888000
Ne 0 ""
Po 1.725 -1.25
$EndPAD
$PAD
Sh "13" R 0.3 0.45 0 0 0
Dr 0 0 0
At SMD N 00888000
Ne 0 ""
Po 1.25 -1.725
$EndPAD
$PAD
Sh "14" R 0.3 0.45 0 0 0
Dr 0 0 0
At SMD N 00888000
Ne 0 ""
Po 0.75 -1.725
$EndPAD
$PAD
Sh "15" R 0.3 0.45 0 0 0
Dr 0 0 0
At SMD N 00888000
Ne 0 ""
Po 0.25 -1.725
$EndPAD
$PAD
Sh "16" R 0.3 0.45 0 0 0
Dr 0 0 0
At SMD N 00888000
Ne 0 ""
Po -0.25 -1.725
$EndPAD
$PAD
Sh "17" R 0.3 0.45 0 0 0
Dr 0 0 0
At SMD N 00888000
Ne 0 ""
Po -0.75 -1.725
$EndPAD
$PAD
Sh "18" R 0.3 0.45 0 0 0
Dr 0 0 0
At SMD N 00888000
Ne 0 ""
Po -1.25 -1.725
$EndPAD
$PAD
Sh "19" R 0.3 0.45 0 0 900
Dr 0 0 0
At SMD N 00888000
Ne 0 ""
Po -1.725 -1.25
$EndPAD
$PAD
Sh "20" R 0.3 0.45 0 0 900
Dr 0 0 0
At SMD N 00888000
Ne 0 ""
Po -1.725 -0.75
$EndPAD
$PAD
Sh "21" R 0.3 0.45 0 0 900
Dr 0 0 0
At SMD N 00888000
Ne 0 ""
Po -1.725 -0.25
$EndPAD
$PAD
Sh "22" R 0.3 0.45 0 0 900
Dr 0 0 0
At SMD N 00888000
Ne 0 ""
Po -1.725 0.25
$EndPAD
$PAD
Sh "23" R 0.3 0.45 0 0 900
Dr 0 0 0
At SMD N 00888000
Ne 0 ""
Po -1.725 0.75
$EndPAD
$PAD
Sh "24" R 0.3 0.45 0 0 900
Dr 0 0 0
At SMD N 00888000
Ne 0 ""
Po -1.725 1.25
$EndPAD
$EndMODULE LGA24-4x4
$MODULE LQFP48
Po 0 0 0 15 5578963B 00000000 ~~
Li LQFP48
Sc 0
AR 
Op 0 0 0
.LocalClearance 0.2
T0 0 0 1 1 0 0.15 N V 21 N "LQFP48"
T1 0 0 1 1 0 0.15 N V 21 N "VAL**"
DC -3 3 -3.25 3 0.15 21
DS -3.25 4 -3.5 4 0.15 21
DS -3.5 4 -4 3.5 0.15 21
DS -4 3.5 -4 3.25 0.15 21
DS 4 3.25 4 4 0.15 21
DS 4 4 3.25 4 0.15 21
DS 3.25 -4 4 -4 0.15 21
DS 4 -4 4 -3.25 0.15 21
DS -4 -4 -3.25 -4 0.15 21
DS -4 -3.25 -4 -4 0.15 21
$PAD
Sh "1" R 0.3 1.2 0 0 0
Dr 0 0 0
At SMD N 00888000
Ne 0 ""
Po -2.75 4.25
$EndPAD
$PAD
Sh "2" R 0.3 1.2 0 0 0
Dr 0 0 0
At SMD N 00888000
Ne 0 ""
Po -2.25 4.25
$EndPAD
$PAD
Sh "3" R 0.3 1.2 0 0 0
Dr 0 0 0
At SMD N 00888000
Ne 0 ""
Po -1.75 4.25
$EndPAD
$PAD
Sh "4" R 0.3 1.2 0 0 0
Dr 0 0 0
At SMD N 00888000
Ne 0 ""
Po -1.25 4.25
$EndPAD
$PAD
Sh "5" R 0.3 1.2 0 0 0
Dr 0 0 0
At SMD N 00888000
Ne 0 ""
Po -0.75 4.25
$EndPAD
$PAD
Sh "6" R 0.3 1.2 0 0 0
Dr 0 0 0
At SMD N 00888000
Ne 0 ""
Po -0.25 4.25
$EndPAD
$PAD
Sh "7" R 0.3 1.2 0 0 0
Dr 0 0 0
At SMD N 00888000
Ne 0 ""
Po 0.25 4.25
$EndPAD
$PAD
Sh "8" R 0.3 1.2 0 0 0
Dr 0 0 0
At SMD N 00888000
Ne 0 ""
Po 0.75 4.25
$EndPAD
$PAD
Sh "9" R 0.3 1.2 0 0 0
Dr 0 0 0
At SMD N 00888000
Ne 0 ""
Po 1.25 4.25
$EndPAD
$PAD
Sh "10" R 0.3 1.2 0 0 0
Dr 0 0 0
At SMD N 00888000
Ne 0 ""
Po 1.75 4.25
$EndPAD
$PAD
Sh "11" R 0.3 1.2 0 0 0
Dr 0 0 0
At SMD N 00888000
Ne 0 ""
Po 2.25 4.25
$EndPAD
$PAD
Sh "12" R 0.3 1.2 0 0 0
Dr 0 0 0
At SMD N 00888000
Ne 0 ""
Po 2.75 4.25
$EndPAD
$PAD
Sh "13" R 0.3 1.2 0 0 900
Dr 0 0 0
At SMD N 00888000
Ne 0 ""
Po 4.25 2.75
$EndPAD
$PAD
Sh "14" R 0.3 1.2 0 0 900
Dr 0 0 0
At SMD N 00888000
Ne 0 ""
Po 4.25 2.25
$EndPAD
$PAD
Sh "15" R 0.3 1.2 0 0 900
Dr 0 0 0
At SMD N 00888000
Ne 0 ""
Po 4.25 1.75
$EndPAD
$PAD
Sh "16" R 0.3 1.2 0 0 900
Dr 0 0 0
At SMD N 00888000
Ne 0 ""
Po 4.25 1.25
$EndPAD
$PAD
Sh "17" R 0.3 1.2 0 0 900
Dr 0 0 0
At SMD N 00888000
Ne 0 ""
Po 4.25 0.75
$EndPAD
$PAD
Sh "18" R 0.3 1.2 0 0 900
Dr 0 0 0
At SMD N 00888000
Ne 0 ""
Po 4.25 0.25
$EndPAD
$PAD
Sh "19" R 0.3 1.2 0 0 900
Dr 0 0 0
At SMD N 00888000
Ne 0 ""
Po 4.25 -0.25
$EndPAD
$PAD
Sh "20" R 0.3 1.2 0 0 900
Dr 0 0 0
At SMD N 00888000
Ne 0 ""
Po 4.25 -0.75
$EndPAD
$PAD
Sh "21" R 0.3 1.2 0 0 900
Dr 0 0 0
At SMD N 00888000
Ne 0 ""
Po 4.25 -1.25
$EndPAD
$PAD
Sh "22" R 0.3 1.2 0 0 900
Dr 0 0 0
At SMD N 00888000
Ne 0 ""
Po 4.25 -1.75
$EndPAD
$PAD
Sh "23" R 0.3 1.2 0 0 900
Dr 0 0 0
At SMD N 00888000
Ne 0 ""
Po 4.25 -2.25
$EndPAD
$PAD
Sh "24" R 0.3 1.2 0 0 900
Dr 0 0 0
At SMD N 00888000
Ne 0 ""
Po 4.25 -2.75
$EndPAD
$PAD
Sh "25" R 0.3 1.2 0 0 1800
Dr 0 0 0
At SMD N 00888000
Ne 0 ""
Po 2.75 -4.25
$EndPAD
$PAD
Sh "26" R 0.3 1.2 0 0 1800
Dr 0 0 0
At SMD N 00888000
Ne 0 ""
Po 2.25 -4.25
$EndPAD
$PAD
Sh "27" R 0.3 1.2 0 0 1800
Dr 0 0 0
At SMD N 00888000
Ne 0 ""
Po 1.75 -4.25
$EndPAD
$PAD
Sh "28" R 0.3 1.2 0 0 1800
Dr 0 0 0
At SMD N 00888000
Ne 0 ""
Po 1.25 -4.25
$EndPAD
$PAD
Sh "29" R 0.3 1.2 0 0 1800
Dr 0 0 0
At SMD N 00888000
Ne 0 ""
Po 0.75 -4.25
$EndPAD
$PAD
Sh "30" R 0.3 1.2 0 0 1800
Dr 0 0 0
At SMD N 00888000
Ne 0 ""
Po 0.25 -4.25
$EndPAD
$PAD
Sh "31" R 0.3 1.2 0 0 1800
Dr 0 0 0
At SMD N 00888000
Ne 0 ""
Po -0.25 -4.25
$EndPAD
$PAD
Sh "32" R 0.3 1.2 0 0 1800
Dr 0 0 0
At SMD N 00888000
Ne 0 ""
Po -0.75 -4.25
$EndPAD
$PAD
Sh "33" R 0.3 1.2 0 0 1800
Dr 0 0 0
At SMD N 00888000
Ne 0 ""
Po -1.25 -4.25
$EndPAD
$PAD
Sh "34" R 0.3 1.2 0 0 1800
Dr 0 0 0
At SMD N 00888000
Ne 0 ""
Po -1.75 -4.25
$EndPAD
$PAD
Sh "35" R 0.3 1.2 0 0 1800
Dr 0 0 0
At SMD N 00888000
Ne 0 ""
Po -2.25 -4.25
$EndPAD
$PAD
Sh "36" R 0.3 1.2 0 0 1800
Dr 0 0 0
At SMD N 00888000
Ne 0 ""
Po -2.75 -4.25
$EndPAD
$PAD
Sh "37" R 0.3 1.2 0 0 2700
Dr 0 0 0
At SMD N 00888000
Ne 0 ""
Po -4.25 -2.75
$EndPAD
$PAD
Sh "38" R 0.3 1.2 0 0 2700
Dr 0 0 0
At SMD N 00888000
Ne 0 ""
Po -4.25 -2.25
$EndPAD
$PAD
Sh "39" R 0.3 1.2 0 0 2700
Dr 0 0 0
At SMD N 00888000
Ne 0 ""
Po -4.25 -1.75
$EndPAD
$PAD
Sh "40" R 0.3 1.2 0 0 2700
Dr 0 0 0
At SMD N 00888000
Ne 0 ""
Po -4.25 -1.25
$EndPAD
$PAD
Sh "41" R 0.3 1.2 0 0 2700
Dr 0 0 0
At SMD N 00888000
Ne 0 ""
Po -4.25 -0.75
$EndPAD
$PAD
Sh "42" R 0.3 1.2 0 0 2700
Dr 0 0 0
At SMD N 00888000
Ne 0 ""
Po -4.25 -0.25
$EndPAD
$PAD
Sh "43" R 0.3 1.2 0 0 2700
Dr 0 0 0
At SMD N 00888000
Ne 0 ""
Po -4.25 0.25
$EndPAD
$PAD
Sh "44" R 0.3 1.2 0 0 2700
Dr 0 0 0
At SMD N 00888000
Ne 0 ""
Po -4.25 0.75
$EndPAD
$PAD
Sh "45" R 0.3 1.2 0 0 2700
Dr 0 0 0
At SMD N 00888000
Ne 0 ""
Po -4.25 1.25
$EndPAD
$PAD
Sh "46" R 0.3 1.2 0 0 2700
Dr 0 0 0
At SMD N 00888000
Ne 0 ""
Po -4.25 1.75
$EndPAD
$PAD
Sh "47" R 0.3 1.2 0 0 2700
Dr 0 0 0
At SMD N 00888000
Ne 0 ""
Po -4.25 2.25
$EndPAD
$PAD
Sh "48" R 0.3 1.2 0 0 2700
Dr 0 0 0
At SMD N 00888000
Ne 0 ""
Po -4.25 2.75
$EndPAD
$EndMODULE LQFP48
$MODULE PG-DSO-12-2
Po 0 0 0 15 5583B5EC 00000000 ~~
Li PG-DSO-12-2
Sc 0
AR 
Op 0 0 0
T0 0.1 -2.6 1 1 0 0.15 N V 21 N "PG-DSO-12-2"
T1 0.2 2.9 1 1 0 0.15 N V 21 N "VAL**"
DC -4.7 4.5 -4.5 4.5 0.15 21
DS -3.2 3 -2.4 3.8 0.15 21
DS 3.2 0 3.2 -3.8 0.15 21
DS 3.2 -3.8 -3.2 -3.8 0.15 21
DS -3.2 -3.8 -3.2 3.8 0.15 21
DS -3.2 3.8 3.2 3.8 0.15 21
DS 3.2 3.8 3.2 0 0.15 21
$PAD
Sh "8" R 0.65 1.67 0 0 0
Dr 0 0 0
At SMD N 00888000
Ne 0 ""
Po 1.905 -4.7
$EndPAD
$PAD
Sh "9" R 0.65 1.67 0 0 0
Dr 0 0 0
At SMD N 00888000
Ne 0 ""
Po 0.635 -4.7
$EndPAD
$PAD
Sh "10" R 0.65 1.67 0 0 0
Dr 0 0 0
At SMD N 00888000
Ne 0 ""
Po -0.635 -4.7
$EndPAD
$PAD
Sh "11" R 0.65 1.67 0 0 0
Dr 0 0 0
At SMD N 00888000
Ne 0 ""
Po -1.905 -4.7
$EndPAD
$PAD
Sh "12" R 0.65 1.67 0 0 0
Dr 0 0 0
At SMD N 00888000
Ne 0 ""
Po -3.175 -4.7
$EndPAD
$PAD
Sh "7" R 0.65 1.67 0 0 0
Dr 0 0 0
At SMD N 00888000
Ne 0 ""
Po 3.175 -4.7
$EndPAD
$PAD
Sh "6" R 0.65 1.67 0 0 0
Dr 0 0 0
At SMD N 00888000
Ne 0 ""
Po 3.175 4.7
$EndPAD
$PAD
Sh "1" R 0.65 1.67 0 0 0
Dr 0 0 0
At SMD N 00888000
Ne 0 ""
Po -3.175 4.7
$EndPAD
$PAD
Sh "2" R 0.65 1.67 0 0 0
Dr 0 0 0
At SMD N 00888000
Ne 0 ""
Po -1.905 4.7
$EndPAD
$PAD
Sh "3" R 0.65 1.67 0 0 0
Dr 0 0 0
At SMD N 00888000
Ne 0 ""
Po -0.635 4.7
$EndPAD
$PAD
Sh "4" R 0.65 1.67 0 0 0
Dr 0 0 0
At SMD N 00888000
Ne 0 ""
Po 0.635 4.7
$EndPAD
$PAD
Sh "5" R 0.65 1.67 0 0 0
Dr 0 0 0
At SMD N 00888000
Ne 0 ""
Po 1.905 4.7
$EndPAD
$PAD
Sh "13" R 8.1 4.5 0 0 0
Dr 0 0 0
At SMD N 00888000
Ne 0 ""
Po 0 0
$EndPAD
$EndMODULE PG-DSO-12-2
$MODULE PG-DSO-20
Po 0 0 0 15 55804912 00000000 ~~
Li PG-DSO-20
Sc 0
AR 
Op 0 0 0
T0 0.1 -2.6 1 1 0 0.15 N V 21 N "PG-DSO-20"
T1 0.2 2.9 1 1 0 0.15 N V 21 N "VAL**"
DC -7.2 4.4 -7 4.3 0.15 21
DS -6.4 2.7 -5.3 3.8 0.15 21
DS 6.4 0.05 6.4 -3.75 0.15 21
DS 6.4 -3.75 -6.4 -3.75 0.15 21
DS -6.4 -3.75 -6.4 3.85 0.15 21
DS -6.4 3.8 6.4 3.8 0.15 21
DS 6.4 3.8 6.4 0 0.15 21
$PAD
Sh "16" R 0.65 1.67 0 0 0
Dr 0 0 0
At SMD N 00888000
Ne 0 ""
Po -0.635 -4.865
$EndPAD
$PAD
Sh "17" R 0.65 1.67 0 0 0
Dr 0 0 0
At SMD N 00888000
Ne 0 ""
Po -1.907 -4.865
$EndPAD
$PAD
Sh "18" R 0.65 1.67 0 0 0
Dr 0 0 0
At SMD N 00888000
Ne 0 ""
Po -3.175 -4.865
$EndPAD
$PAD
Sh "19" R 0.65 1.67 0 0 0
Dr 0 0 0
At SMD N 00888000
Ne 0 ""
Po -4.45 -4.865
$EndPAD
$PAD
Sh "20" R 0.65 1.67 0 0 0
Dr 0 0 0
At SMD N 00888000
Ne 0 ""
Po -5.715 -4.865
$EndPAD
$PAD
Sh "15" R 0.65 1.67 0 0 0
Dr 0 0 0
At SMD N 00888000
Ne 0 ""
Po 0.635 -4.865
$EndPAD
$PAD
Sh "14" R 0.65 1.67 0 0 0
Dr 0 0 0
At SMD N 00888000
Ne 0 ""
Po 1.907 -4.865
$EndPAD
$PAD
Sh "13" R 0.65 1.67 0 0 0
Dr 0 0 0
At SMD N 00888000
Ne 0 ""
Po 3.175 -4.865
$EndPAD
$PAD
Sh "12" R 0.65 1.67 0 0 0
Dr 0 0 0
At SMD N 00888000
Ne 0 ""
Po 4.45 -4.865
$EndPAD
$PAD
Sh "11" R 0.65 1.67 0 0 0
Dr 0 0 0
At SMD N 00888000
Ne 0 ""
Po 5.715 -4.865
$EndPAD
$PAD
Sh "10" R 0.65 1.67 0 0 0
Dr 0 0 0
At SMD N 00888000
Ne 0 ""
Po 5.715 4.865
$EndPAD
$PAD
Sh "9" R 0.65 1.67 0 0 0
Dr 0 0 0
At SMD N 00888000
Ne 0 ""
Po 4.445 4.865
$EndPAD
$PAD
Sh "8" R 0.65 1.67 0 0 0
Dr 0 0 0
At SMD N 00888000
Ne 0 ""
Po 3.175 4.865
$EndPAD
$PAD
Sh "7" R 0.65 1.67 0 0 0
Dr 0 0 0
At SMD N 00888000
Ne 0 ""
Po 1.9 4.865
$EndPAD
$PAD
Sh "6" R 0.65 1.67 0 0 0
Dr 0 0 0
At SMD N 00888000
Ne 0 ""
Po 0.635 4.865
$EndPAD
$PAD
Sh "1" R 0.65 1.67 0 0 0
Dr 0 0 0
At SMD N 00888000
Ne 0 ""
Po -5.715 4.865
$EndPAD
$PAD
Sh "2" R 0.65 1.67 0 0 0
Dr 0 0 0
At SMD N 00888000
Ne 0 ""
Po -4.45 4.865
$EndPAD
$PAD
Sh "3" R 0.65 1.67 0 0 0
Dr 0 0 0
At SMD N 00888000
Ne 0 ""
Po -3.175 4.865
$EndPAD
$PAD
Sh "4" R 0.65 1.67 0 0 0
Dr 0 0 0
At SMD N 00888000
Ne 0 ""
Po -1.905 4.865
$EndPAD
$PAD
Sh "5" R 0.65 1.67 0 0 0
Dr 0 0 0
At SMD N 00888000
Ne 0 ""
Po -0.635 4.865
$EndPAD
$EndMODULE PG-DSO-20
$MODULE PG-DSO-8-24
Po 0 0 0 15 5583B720 00000000 ~~
Li PG-DSO-8-24
Sc 0
AR 
Op 0 0 0
T0 0.5 -4.8 1 1 0 0.15 N V 21 N "PG-DSO-8-24"
T1 0 0 1 1 0 0.15 N V 21 N "VAL**"
DS 2.5 0 2.5 -2 0.15 21
DS 2.5 -2 -2.5 -2 0.15 21
DS -2.5 -2 -2.5 2 0.15 21
DS -2.5 2 2.5 2 0.15 21
DS 2.5 2 2.5 0 0.15 21
$PAD
Sh "5" R 0.65 1.31 0 0 0
Dr 0 0 0
At SMD N 00888000
Ne 0 ""
Po 1.905 -2.845
$EndPAD
$PAD
Sh "6" R 0.65 1.31 0 0 0
Dr 0 0 0
At SMD N 00888000
Ne 0 ""
Po 0.635 -2.845
$EndPAD
$PAD
Sh "7" R 0.65 1.31 0 0 0
Dr 0 0 0
At SMD N 00888000
Ne 0 ""
Po -0.635 -2.845
$EndPAD
$PAD
Sh "8" R 0.65 1.31 0 0 0
Dr 0 0 0
At SMD N 00888000
Ne 0 ""
Po -1.905 -2.845
$EndPAD
$PAD
Sh "1" R 0.65 1.31 0 0 0
Dr 0 0 0
At SMD N 00888000
Ne 0 ""
Po -1.905 2.845
$EndPAD
$PAD
Sh "2" R 0.65 1.31 0 0 0
Dr 0 0 0
At SMD N 00888000
Ne 0 ""
Po -0.635 2.845
$EndPAD
$PAD
Sh "3" R 0.65 1.31 0 0 0
Dr 0 0 0
At SMD N 00888000
Ne 0 ""
Po 0.635 2.845
$EndPAD
$PAD
Sh "4" R 0.65 1.31 0 0 0
Dr 0 0 0
At SMD N 00888000
Ne 0 ""
Po 1.905 2.845
$EndPAD
$EndMODULE PG-DSO-8-24
$MODULE PIN_ARRAY_23X2
Po 0 0 0 15 555CC6A5 00000000 ~~
Li PIN_ARRAY_23X2
Cd Double rangee de contacts 2 x 23 pins
Kw CONN
Sc 0
AR 
Op 0 0 0
T0 -13 -4 1.016 1.016 0 0.27432 N V 21 N "REF*"
T1 -10 4 1.016 1.016 0 0.2032 N V 21 N "PIN_ARRAY_23X2"
DS 5.7 2.54 31.1 2.54 0.3048 21
DS 5.7 -2.54 31.1 -2.54 0.3048 21
DS 22.7 2.54 -28.1 2.54 0.3048 21
DS 22.7 -2.54 -28.1 -2.54 0.3048 21
DS 31.1 -2.54 31.1 2.54 0.3048 21
DS -28.1 -2.54 -28.1 2.54 0.3048 21
$PAD
Sh "1" R 1.524 1.524 0 0 0
Dr 1.016 0 0
At STD N 00E0FFFF
Ne 0 ""
Po -26.83 1.27
$EndPAD
$PAD
Sh "2" C 1.524 1.524 0 0 0
Dr 1.016 0 0
At STD N 00E0FFFF
Ne 1 "GND"
Po -26.83 -1.27
$EndPAD
$PAD
Sh "11" C 1.524 1.524 0 0 0
Dr 1.016 0 0
At STD N 00E0FFFF
Ne 18 "PA8_1"
Po -14.13 1.27
$EndPAD
$PAD
Sh "4" C 1.524 1.524 0 0 0
Dr 1.016 0 0
At STD N 00E0FFFF
Ne 11 "PA1_1"
Po -24.29 -1.27
$EndPAD
$PAD
Sh "13" C 1.524 1.524 0 0 0
Dr 1.016 0 0
At STD N 00E0FFFF
Ne 5 "PA10_1"
Po -11.59 1.27
$EndPAD
$PAD
Sh "6" C 1.524 1.524 0 0 0
Dr 1.016 0 0
At STD N 00E0FFFF
Ne 13 "PA3_1"
Po -21.75 -1.27
$EndPAD
$PAD
Sh "15" C 1.524 1.524 0 0 0
Dr 1.016 0 0
At STD N 00E0FFFF
Ne 7 "PA12_1"
Po -9.05 1.27
$EndPAD
$PAD
Sh "8" C 1.524 1.524 0 0 0
Dr 1.016 0 0
At STD N 00E0FFFF
Ne 15 "PA5_1"
Po -19.21 -1.27
$EndPAD
$PAD
Sh "17" C 1.524 1.524 0 0 0
Dr 1.016 0 0
At STD N 00E0FFFF
Ne 9 "PA14_1"
Po -6.51 1.27
$EndPAD
$PAD
Sh "10" C 1.524 1.524 0 0 0
Dr 1.016 0 0
At STD N 00E0FFFF
Ne 17 "PA7_1"
Po -16.67 -1.27
$EndPAD
$PAD
Sh "19" C 1.524 1.524 0 0 0
Dr 1.016 0 0
At STD N 00E0FFFF
Ne 0 ""
Po -3.97 1.27
$EndPAD
$PAD
Sh "12" C 1.524 1.524 0 0 0
Dr 1.016 0 0
At STD N 00E0FFFF
Ne 19 "PA9_1"
Po -14.13 -1.27
$EndPAD
$PAD
Sh "21" C 1.524 1.524 0 0 0
Dr 1.016 0 0
At STD N 00E0FFFF
Ne 0 ""
Po -1.43 1.27
$EndPAD
$PAD
Sh "14" C 1.524 1.524 0 0 0
Dr 1.016 0 0
At STD N 00E0FFFF
Ne 6 "PA11_1"
Po -11.59 -1.27
$EndPAD
$PAD
Sh "23" C 1.524 1.524 0 0 0
Dr 1.016 0 0
At STD N 00E0FFFF
Ne 2 "INT1_1"
Po 1.11 1.27
$EndPAD
$PAD
Sh "16" C 1.524 1.524 0 0 0
Dr 1.016 0 0
At STD N 00E0FFFF
Ne 8 "PA13_1"
Po -9.05 -1.27
$EndPAD
$PAD
Sh "25" C 1.524 1.524 0 0 0
Dr 1.016 0 0
At STD N 00E0FFFF
Ne 0 ""
Po 3.65 1.27
$EndPAD
$PAD
Sh "18" C 1.524 1.524 0 0 0
Dr 1.016 0 0
At STD N 00E0FFFF
Ne 10 "PA15_1"
Po -6.51 -1.27
$EndPAD
$PAD
Sh "27" C 1.524 1.524 0 0 0
Dr 1.016 0 0
At STD N 00E0FFFF
Ne 0 ""
Po 6.19 1.27
$EndPAD
$PAD
Sh "20" C 1.524 1.524 0 0 0
Dr 1.016 0 0
At STD N 00E0FFFF
Ne 0 ""
Po -3.97 -1.27
$EndPAD
$PAD
Sh "29" C 1.524 1.524 0 0 0
Dr 1.016 0 0
At STD N 00E0FFFF
Ne 22 "VCC"
Po 8.73 1.27
$EndPAD
$PAD
Sh "22" C 1.524 1.524 0 0 0
Dr 1.016 0 0
At STD N 00E0FFFF
Ne 0 ""
Po -1.43 -1.27
$EndPAD
$PAD
Sh "31" C 1.524 1.524 0 0 0
Dr 1.016 0 0
At STD N 00E0FFFF
Ne 22 "VCC"
Po 11.27 1.27
$EndPAD
$PAD
Sh "24" C 1.524 1.524 0 0 0
Dr 1.016 0 0
At STD N 00E0FFFF
Ne 3 "INT2_1"
Po 1.11 -1.27
$EndPAD
$PAD
Sh "26" C 1.524 1.524 0 0 0
Dr 1.016 0 0
At STD N 00E0FFFF
Ne 0 ""
Po 3.65 -1.27
$EndPAD
$PAD
Sh "33" C 1.524 1.524 0 0 0
Dr 1.016 0 0
At STD N 00E0FFFF
Ne 21 "Tin1_cold_1"
Po 13.81 1.27
$EndPAD
$PAD
Sh "28" C 1.524 1.524 0 0 0
Dr 1.016 0 0
At STD N 00E0FFFF
Ne 10 "PA15_1"
Po 6.19 -1.27
$EndPAD
$PAD
Sh "32" C 1.524 1.524 0 0 0
Dr 1.016 0 0
At STD N 00E0FFFF
Ne 1 "GND"
Po 11.27 -1.27
$EndPAD
$PAD
Sh "34" C 1.524 1.524 0 0 0
Dr 1.016 0 0
At STD N 00E0FFFF
Ne 0 ""
Po 13.81 -1.27
$EndPAD
$PAD
Sh "36" C 1.524 1.524 0 0 0
Dr 1.016 0 0
At STD N 00E0FFFF
Ne 0 ""
Po 16.35 -1.27
$EndPAD
$PAD
Sh "38" C 1.524 1.524 0 0 0
Dr 1.016 0 0
At STD N 00E0FFFF
Ne 0 ""
Po 18.89 -1.27
$EndPAD
$PAD
Sh "35" C 1.524 1.524 0 0 0
Dr 1.016 0 0
At STD N 00E0FFFF
Ne 0 ""
Po 16.35 1.27
$EndPAD
$PAD
Sh "37" C 1.524 1.524 0 0 0
Dr 1.016 0 0
At STD N 00E0FFFF
Ne 20 "PB4_1"
Po 18.89 1.27
$EndPAD
$PAD
Sh "3" C 1.524 1.524 0 0 0
Dr 1.016 0 0
At STD N 00E0FFFF
Ne 4 "PA0_1"
Po -24.29 1.27
$EndPAD
$PAD
Sh "5" C 1.524 1.524 0 0 0
Dr 1.016 0 0
At STD N 00E0FFFF
Ne 12 "PA2_1"
Po -21.75 1.27
$EndPAD
$PAD
Sh "7" C 1.524 1.524 0 0 0
Dr 1.016 0 0
At STD N 00E0FFFF
Ne 14 "PA4_1"
Po -19.21 1.27
$EndPAD
$PAD
Sh "9" C 1.524 1.524 0 0 0
Dr 1.016 0 0
At STD N 00E0FFFF
Ne 16 "PA6_1"
Po -16.67 1.27
$EndPAD
$PAD
Sh "39" C 1.524 1.524 0 0 0
Dr 1.016 0 0
At STD N 00E0FFFF
Ne 0 ""
Po 21.43 1.27
$EndPAD
$PAD
Sh "40" C 1.524 1.524 0 0 0
Dr 1.016 0 0
At STD N 00E0FFFF
Ne 0 ""
Po 21.43 -1.27
$EndPAD
$PAD
Sh "30" C 1.524 1.524 0 0 0
Dr 1.016 0 0
At STD N 00E0FFFF
Ne 1 "GND"
Po 8.73 -1.27
$EndPAD
$PAD
Sh "41" C 1.524 1.524 0 0 0
Dr 1.016 0 0
At STD N 00E0FFFF
Ne 0 ""
Po 23.97 1.27
$EndPAD
$PAD
Sh "42" C 1.524 1.524 0 0 0
Dr 1.016 0 0
At STD N 00E0FFFF
Ne 0 ""
Po 23.97 -1.27
$EndPAD
$PAD
Sh "43" C 1.524 1.524 0 0 0
Dr 1.016 0 0
At STD N 00E0FFFF
Ne 0 ""
Po 26.51 1.27
$EndPAD
$PAD
Sh "44" C 1.524 1.524 0 0 0
Dr 1.016 0 0
At STD N 00E0FFFF
Ne 0 ""
Po 26.51 -1.27
$EndPAD
$PAD
Sh "45" C 1.524 1.524 0 0 0
Dr 1.016 0 0
At STD N 00E0FFFF
Ne 0 ""
Po 29.05 1.27
$EndPAD
$PAD
Sh "46" C 1.524 1.524 0 0 0
Dr 1.016 0 0
At STD N 00E0FFFF
Ne 0 ""
Po 29.05 -1.27
$EndPAD
$SHAPE3D
Na "pin_array/pins_array_30x2.wrl"
Sc 1 1 1
Of 0 0 0
Ro 0 0 0
$EndSHAPE3D
$EndMODULE PIN_ARRAY_23X2
$MODULE PIN_ARRAY_2X2_FUTABA
Po 0 0 0 15 55EFDC04 00000000 ~~
Li PIN_ARRAY_2X2_FUTABA
Cd Double rangee de contacts 2 x 2 pins
Kw CONN
Sc 0
AR /557EF1AF
Op 0 0 0
T0 -0.381 -3.429 1.016 1.016 0 0.2032 N V 21 N "P?"
T1 0 3.048 1.016 1.016 0 0.2032 N I 21 N "CONN_2X2_FUTABA"
DS -1 -2.5 -1 -2 0.15 21
DS -1 -2 1 -2 0.15 21
DS 1 -2 1 -2.5 0.15 21
DS 3 0 3 -2.5 0.15 21
DS 3 -2.5 -3 -2.5 0.15 21
DS -3 -2.5 -3 2.5 0.15 21
DS -3 2.5 3 2.5 0.15 21
DS 3 2.5 3 0 0.15 21
$PAD
Sh "1" R 1.524 1.524 0 0 0
Dr 1.016 0 0
At STD N 00E0FFFF
Ne 0 ""
Po -1 1
$EndPAD
$PAD
Sh "2" C 1.524 1.524 0 0 0
Dr 1.016 0 0
At STD N 00E0FFFF
Ne 0 ""
Po -1 -1
$EndPAD
$PAD
Sh "3" C 1.524 1.524 0 0 0
Dr 1.016 0 0
At STD N 00E0FFFF
Ne 0 ""
Po 1 1
$EndPAD
$PAD
Sh "4" C 1.524 1.524 0 0 0
Dr 1.016 0 0
At STD N 00E0FFFF
Ne 0 ""
Po 1 -1
$EndPAD
$SHAPE3D
Na "pin_array/pins_array_2x2.wrl"
Sc 1 1 1
Of 0 0 0
Ro 0 0 0
$EndSHAPE3D
$EndMODULE PIN_ARRAY_2X2_FUTABA
$MODULE PIN_ARRAY_3_BLUE
Po 0 0 0 15 558051A2 00000000 ~~
Li PIN_ARRAY_3_BLUE
Cd Connecteur 3 pins
Kw CONN DEV
Sc 0
AR /5580296F
Op 0 0 0
T0 0.254 -2.159 0.5 0.5 0 0.05 N V 21 N "K101"
T1 0 -2.159 0.5 0.5 0 0.05 N I 21 N "CONN_3"
DS -3.8 -1.3 -1.3 -1.3 0.15 21
DS -1.3 -1.3 -1.3 1.3 0.15 21
DS -1.3 1.3 -3.8 1.3 0.15 21
DS 3.8 0 3.8 -2.5 0.15 21
DS 3.8 -2.5 -3.8 -2.5 0.15 21
DS -3.8 -2.5 -3.8 2.5 0.15 21
DS -3.8 2.5 3.8 2.5 0.15 21
DS 3.8 2.5 3.8 0 0.15 21
$PAD
Sh "1" R 1.524 1.524 0 0 0
Dr 1.016 0 0
At STD N 00E0FFFF
Ne 2 "GND"
Po -2.54 0
$EndPAD
$PAD
Sh "2" C 1.524 1.524 0 0 0
Dr 1.016 0 0
At STD N 00E0FFFF
Ne 1 "/Power/24V_1"
Po 0 0
$EndPAD
$PAD
Sh "3" C 1.524 1.524 0 0 0
Dr 1.016 0 0
At STD N 00E0FFFF
Ne 0 ""
Po 2.54 0
$EndPAD
$SHAPE3D
Na "pin_array/pins_array_3x1.wrl"
Sc 1 1 1
Of 0 0 0
Ro 0 0 0
$EndSHAPE3D
$EndMODULE PIN_ARRAY_3_BLUE
$MODULE PLCC4_EDGE_H
Po 0 0 0 15 55BB4CA8 00000000 ~~
Li PLCC4_EDGE_H
Sc 0
AR /55859355/5585AD02
Op 0 0 0
T0 0 2.5 1 1 0 0.15 N V 21 N "D301"
T1 0 2.5 1 1 0 0.15 N I 21 N "TRIPLE_LED_COMMON_ANODE"
DC -1.7 0.4 -1.6 0.5 0.15 24
DS 1.4 -1.6 1.2 -1.6 0.15 24
DS 0.7 -0.4 1.4 -1.6 0.15 24
DS 1.4 -1.6 1.5 -1.4 0.15 24
DS 0.6 -1.6 0.7 -1.4 0.15 24
DS -0.1 -0.4 0.6 -1.6 0.15 24
DS 0.6 -1.6 0.4 -1.6 0.15 24
DS -0.4 -1.6 -0.6 -1.6 0.15 24
DS -1.1 -0.4 -0.4 -1.6 0.15 24
DS -0.4 -1.6 -0.3 -1.4 0.15 24
$PAD
Sh "3" R 1.5 1.5 0 0 0
Dr 0 0 0
At SMD N 00888000
Ne 0 ""
Po 1.5 0.75
$EndPAD
$PAD
Sh "2" R 1.5 1.5 0 0 0
Dr 0 0 0
At SMD N 00440001
Ne 0 ""
Po 1.5 0.75
$EndPAD
$PAD
Sh "1" R 1.5 1.5 0 0 0
Dr 0 0 0
At SMD N 00440001
Ne 0 ""
Po -1.5 0.75
$EndPAD
$PAD
Sh "4" R 1.5 1.5 0 0 0
Dr 0 0 0
At SMD N 00888000
Ne 0 ""
Po -1.5 0.75
$EndPAD
$EndMODULE PLCC4_EDGE_H
$MODULE PLCC4_EDGE_V
Po 0 0 0 15 5585B07A 00000000 ~~
Li PLCC4_EDGE_V
Sc 0
AR /55859355/5585AD02
Op 0 0 0
T0 0 -2.4 1 1 0 0.15 N V 21 N "D301"
T1 0.1 -0.6 1 1 0 0.15 N I 21 N "TRIPLE_LED_COMMON_ANODE"
DC -1.7 0.4 -1.6 0.5 0.15 21
DS 1.4 -1.6 1.2 -1.6 0.15 21
DS 0.7 -0.4 1.4 -1.6 0.15 21
DS 1.4 -1.6 1.5 -1.4 0.15 21
DS 0.6 -1.6 0.7 -1.4 0.15 21
DS -0.1 -0.4 0.6 -1.6 0.15 21
DS 0.6 -1.6 0.4 -1.6 0.15 21
DS -0.4 -1.6 -0.6 -1.6 0.15 21
DS -1.1 -0.4 -0.4 -1.6 0.15 21
DS -0.4 -1.6 -0.3 -1.4 0.15 21
$PAD
Sh "1" R 1.1 1.5 0 0 0
Dr 0 0 0
At SMD N 00888000
Ne 4 ""
Po -0.75 0.75
$EndPAD
$PAD
Sh "4" R 1.1 1.5 0 0 0
Dr 0 0 0
At SMD N 00888000
Ne 3 ""
Po 0.75 0.75
$EndPAD
$PAD
Sh "3" R 1.1 1.5 0 0 0
Dr 0 0 0
At SMD N 00440001
Ne 2 ""
Po 0.75 0.75
$EndPAD
$PAD
Sh "2" R 1.1 1.5 0 0 0
Dr 0 0 0
At SMD N 00440001
Ne 1 ""
Po -0.75 0.75
$EndPAD
$EndMODULE PLCC4_EDGE_V
$MODULE PLCC6
Po 0 0 0 15 55EE0776 00000000 ~~
Li PLCC6
Sc 0
AR 
Op 0 0 0
T0 0 -1.8 0.4 0.4 0 0.1 N V 21 N "PLCC6"
T1 0.1 1.9 0.4 0.4 0 0.1 N V 21 N "VAL**"
DC -2.3 -1.8 -2.2 -1.7 0.15 21
$PAD
Sh "1" R 1.6 0.5 0 0 0
Dr 0 0 0
At SMD N 00888000
Ne 0 ""
Po -1.475 -0.9
$EndPAD
$PAD
Sh "2" R 1.6 0.5 0 0 0
Dr 0 0 0
At SMD N 00888000
Ne 0 ""
Po -1.475 0
$EndPAD
$PAD
Sh "3" R 1.6 0.5 0 0 0
Dr 0 0 0
At SMD N 00888000
Ne 0 ""
Po -1.475 0.9
$EndPAD
$PAD
Sh "4" R 1.6 0.5 0 0 0
Dr 0 0 0
At SMD N 00888000
Ne 0 ""
Po 1.475 0.9
$EndPAD
$PAD
Sh "5" R 1.6 0.5 0 0 0
Dr 0 0 0
At SMD N 00888000
Ne 0 ""
Po 1.475 0
$EndPAD
$PAD
Sh "6" R 1.6 0.5 0 0 0
Dr 0 0 0
At SMD N 00888000
Ne 0 ""
Po 1.475 -0.9
$EndPAD
$EndMODULE PLCC6
$MODULE PQFN32-0.8
Po 0 0 0 15 557ADE96 00000000 ~~
Li PQFN32-0.8
Sc 0
AR 
Op 0 0 0
T0 0.4 -5.2 1 1 0 0.15 N V 21 N "PQFN32-0.8"
T1 0.1 5.3 1 1 0 0.15 N V 21 N "VAL**"
DC -4.4 -4.4 -4.3 -4.2 0.15 21
DS -4 0 -4 -4 0.15 21
DS -4 -4 4 -4 0.15 21
DS 4 -4 4 4 0.15 21
DS 4 4 -4 4 0.15 21
DS -4 4 -4 0 0.15 21
$PAD
Sh "9" R 1.2 1.2 0 0 0
Dr 0 0 0
At SMD N 00888000
Ne 0 ""
Po -3.6 3.6
$EndPAD
$PAD
Sh "17" R 1.2 1.2 0 0 0
Dr 0 0 0
At SMD N 00888000
Ne 0 ""
Po 3.6 3.6
$EndPAD
$PAD
Sh "25" R 1.2 1.2 0 0 0
Dr 0 0 0
At SMD N 00888000
Ne 0 ""
Po 3.6 -3.6
$EndPAD
$PAD
Sh "20" R 0.5 1.3 0 0 900
Dr 0 0 0
At SMD N 00888000
Ne 0 ""
Po 3.5 0.8
$EndPAD
$PAD
Sh "19" R 0.5 1.3 0 0 900
Dr 0 0 0
At SMD N 00888000
Ne 0 ""
Po 3.5 1.6
$EndPAD
$PAD
Sh "18" R 0.5 1.3 0 0 900
Dr 0 0 0
At SMD N 00888000
Ne 0 ""
Po 3.5 2.4
$EndPAD
$PAD
Sh "24" R 0.5 1.3 0 0 900
Dr 0 0 0
At SMD N 00888000
Ne 0 ""
Po 3.5 -2.4
$EndPAD
$PAD
Sh "23" R 0.5 1.3 0 0 900
Dr 0 0 0
At SMD N 00888000
Ne 0 ""
Po 3.5 -1.6
$EndPAD
$PAD
Sh "22" R 0.5 1.3 0 0 900
Dr 0 0 0
At SMD N 00888000
Ne 0 ""
Po 3.5 -0.8
$EndPAD
$PAD
Sh "21" R 0.5 1.3 0 0 900
Dr 0 0 0
At SMD N 00888000
Ne 0 ""
Po 3.5 0
$EndPAD
$PAD
Sh "5" R 0.5 1.3 0 0 900
Dr 0 0 0
At SMD N 00888000
Ne 0 ""
Po -3.5 0
$EndPAD
$PAD
Sh "4" R 0.5 1.3 0 0 900
Dr 0 0 0
At SMD N 00888000
Ne 0 ""
Po -3.5 -0.8
$EndPAD
$PAD
Sh "3" R 0.5 1.3 0 0 900
Dr 0 0 0
At SMD N 00888000
Ne 0 ""
Po -3.5 -1.6
$EndPAD
$PAD
Sh "2" R 0.5 1.3 0 0 900
Dr 0 0 0
At SMD N 00888000
Ne 0 ""
Po -3.5 -2.4
$EndPAD
$PAD
Sh "8" R 0.5 1.3 0 0 900
Dr 0 0 0
At SMD N 00888000
Ne 0 ""
Po -3.5 2.4
$EndPAD
$PAD
Sh "7" R 0.5 1.3 0 0 900
Dr 0 0 0
At SMD N 00888000
Ne 0 ""
Po -3.5 1.6
$EndPAD
$PAD
Sh "6" R 0.5 1.3 0 0 900
Dr 0 0 0
At SMD N 00888000
Ne 0 ""
Po -3.5 0.8
$EndPAD
$PAD
Sh "30" R 0.5 1.3 0 0 0
Dr 0 0 0
At SMD N 00888000
Ne 0 ""
Po -0.8 -3.5
$EndPAD
$PAD
Sh "31" R 0.5 1.3 0 0 0
Dr 0 0 0
At SMD N 00888000
Ne 0 ""
Po -1.6 -3.5
$EndPAD
$PAD
Sh "32" R 0.5 1.3 0 0 0
Dr 0 0 0
At SMD N 00888000
Ne 0 ""
Po -2.4 -3.5
$EndPAD
$PAD
Sh "26" R 0.5 1.3 0 0 0
Dr 0 0 0
At SMD N 00888000
Ne 0 ""
Po 2.4 -3.5
$EndPAD
$PAD
Sh "27" R 0.5 1.3 0 0 0
Dr 0 0 0
At SMD N 00888000
Ne 0 ""
Po 1.6 -3.5
$EndPAD
$PAD
Sh "28" R 0.5 1.3 0 0 0
Dr 0 0 0
At SMD N 00888000
Ne 0 ""
Po 0.8 -3.5
$EndPAD
$PAD
Sh "29" R 0.5 1.3 0 0 0
Dr 0 0 0
At SMD N 00888000
Ne 0 ""
Po 0 -3.5
$EndPAD
$PAD
Sh "33" R 5 5 0 0 0
Dr 0 0 0
At SMD N 00888000
Ne 0 ""
Po 0 0
$EndPAD
$PAD
Sh "13" R 0.5 1.3 0 0 0
Dr 0 0 0
At SMD N 00888000
Ne 0 ""
Po 0 3.5
$EndPAD
$PAD
Sh "14" R 0.5 1.3 0 0 0
Dr 0 0 0
At SMD N 00888000
Ne 0 ""
Po 0.8 3.5
$EndPAD
$PAD
Sh "15" R 0.5 1.3 0 0 0
Dr 0 0 0
At SMD N 00888000
Ne 0 ""
Po 1.6 3.5
$EndPAD
$PAD
Sh "16" R 0.5 1.3 0 0 0
Dr 0 0 0
At SMD N 00888000
Ne 0 ""
Po 2.4 3.5
$EndPAD
$PAD
Sh "10" R 0.5 1.3 0 0 0
Dr 0 0 0
At SMD N 00888000
Ne 0 ""
Po -2.4 3.5
$EndPAD
$PAD
Sh "11" R 0.5 1.3 0 0 0
Dr 0 0 0
At SMD N 00888000
Ne 0 ""
Po -1.6 3.5
$EndPAD
$PAD
Sh "12" R 0.5 1.3 0 0 0
Dr 0 0 0
At SMD N 00888000
Ne 0 ""
Po -0.8 3.5
$EndPAD
$PAD
Sh "1" R 1.2 1.2 0 0 0
Dr 0 0 0
At SMD N 00888000
Ne 0 ""
Po -3.6 -3.6
$EndPAD
$EndMODULE PQFN32-0.8
$MODULE R-PDSO-G8
Po 0 0 0 15 555CE8B1 00000000 ~~
Li R-PDSO-G8
Sc 0
AR 
Op 0 0 0
At SMD
T0 0 -0.889 1.143 1.143 0 0.1524 N V 21 N "R-PDSO-G8"
T1 0 1.016 0.889 0.889 0 0.1524 N V 21 N "VAL**"
DS -5.08 -1.016 -4.572 -1.016 0.15 21
DS -4.572 -1.016 -4.572 1.016 0.15 21
DS -4.572 1.016 -5.08 1.016 0.15 21
DS -5.08 -2.54 5.08 -2.54 0.15 21
DS 5.08 -2.54 5.08 2.54 0.15 21
DS 5.08 2.54 -5.08 2.54 0.15 21
DS -5.08 2.54 -5.08 -2.54 0.15 21
$PAD
Sh "8" R 0.8 3 0 0 0
Dr 0 0 0
At SMD N 00888000
Ne 0 ""
Po -3.81 -4.8
$EndPAD
$PAD
Sh "1" R 0.8 3 0 0 0
Dr 0 0 0
At SMD N 00888000
Ne 0 ""
Po -3.81 4.8
$EndPAD
$PAD
Sh "7" R 0.8 3 0 0 0
Dr 0 0 0
At SMD N 00888000
Ne 0 ""
Po -1.27 -4.8
$EndPAD
$PAD
Sh "6" R 0.8 3 0 0 0
Dr 0 0 0
At SMD N 00888000
Ne 0 ""
Po 1.27 -4.8
$EndPAD
$PAD
Sh "5" R 0.8 3 0 0 0
Dr 0 0 0
At SMD N 00888000
Ne 0 ""
Po 3.81 -4.8
$EndPAD
$PAD
Sh "2" R 0.8 3 0 0 0
Dr 0 0 0
At SMD N 00888000
Ne 0 ""
Po -1.27 4.8
$EndPAD
$PAD
Sh "3" R 0.8 3 0 0 0
Dr 0 0 0
At SMD N 00888000
Ne 0 ""
Po 1.27 4.8
$EndPAD
$PAD
Sh "4" R 0.8 3 0 0 0
Dr 0 0 0
At SMD N 00888000
Ne 0 ""
Po 3.81 4.8
$EndPAD
$SHAPE3D
Na "smd/cms_so8.wrl"
Sc 0.5 0.32 0.5
Of 0 0 0
Ro 0 0 0
$EndSHAPE3D
$EndMODULE R-PDSO-G8
$MODULE R-PVQFN-N20
Po 0 0 0 15 5499AFCC 00000000 ~~
Li R-PVQFN-N20
Sc 0
AR 
Op 0 0 0
T0 0.1 -3.1 1 1 0 0.15 N V 21 N "R-PVQFN-N20"
T1 0.5 3.2 1 1 0 0.15 N V 21 N "VAL**"
DC -2.9 2.2 -2.8 2.2 0.15 21
DS -2.4 -1.9 2.4 -1.9 0.15 21
DS 2.4 -1.9 2.4 1.9 0.15 21
DS 2.4 1.9 -2.4 1.9 0.15 21
DS -2.4 1.9 -2.4 -1.9 0.15 21
$PAD
Sh "12" R 0.85 0.28 0 0 900
Dr 0 0 0
At SMD N 00888000
Ne 0 ""
Po 1.75 -1.725
$EndPAD
$PAD
Sh "13" R 0.85 0.28 0 0 900
Dr 0 0 0
At SMD N 00888000
Ne 0 ""
Po 1.25 -1.725
$EndPAD
$PAD
Sh "14" R 0.85 0.28 0 0 900
Dr 0 0 0
At SMD N 00888000
Ne 0 ""
Po 0.75 -1.725
$EndPAD
$PAD
Sh "15" R 0.85 0.28 0 0 900
Dr 0 0 0
At SMD N 00888000
Ne 0 ""
Po 0.25 -1.725
$EndPAD
$PAD
Sh "16" R 0.85 0.28 0 0 900
Dr 0 0 0
At SMD N 00888000
Ne 0 ""
Po -0.25 -1.725
$EndPAD
$PAD
Sh "17" R 0.85 0.28 0 0 900
Dr 0 0 0
At SMD N 00888000
Ne 0 ""
Po -0.75 -1.725
$EndPAD
$PAD
Sh "18" R 0.85 0.28 0 0 900
Dr 0 0 0
At SMD N 00888000
Ne 0 ""
Po -1.25 -1.725
$EndPAD
$PAD
Sh "19" R 0.85 0.28 0 0 900
Dr 0 0 0
At SMD N 00888000
Ne 0 ""
Po -1.75 -1.725
$EndPAD
$PAD
Sh "21" R 3.05 2.05 0 0 0
Dr 0 0 0
At SMD N 00888000
Ne 0 ""
Po 0 0
$EndPAD
$PAD
Sh "1" R 0.28 0.85 0 0 900
Dr 0 0 0
At SMD N 00888000
Ne 0 ""
Po -2.225 0.75
$EndPAD
$PAD
Sh "2" R 0.85 0.28 0 0 900
Dr 0 0 0
At SMD N 00888000
Ne 0 ""
Po -1.75 1.725
$EndPAD
$PAD
Sh "3" R 0.85 0.28 0 0 900
Dr 0 0 0
At SMD N 00888000
Ne 0 ""
Po -1.25 1.725
$EndPAD
$PAD
Sh "4" R 0.85 0.28 0 0 900
Dr 0 0 0
At SMD N 00888000
Ne 0 ""
Po -0.75 1.725
$EndPAD
$PAD
Sh "5" R 0.85 0.28 0 0 900
Dr 0 0 0
At SMD N 00888000
Ne 0 ""
Po -0.25 1.725
$EndPAD
$PAD
Sh "6" R 0.85 0.28 0 0 900
Dr 0 0 0
At SMD N 00888000
Ne 0 ""
Po 0.25 1.725
$EndPAD
$PAD
Sh "7" R 0.85 0.28 0 0 900
Dr 0 0 0
At SMD N 00888000
Ne 0 ""
Po 0.75 1.725
$EndPAD
$PAD
Sh "8" R 0.85 0.28 0 0 900
Dr 0 0 0
At SMD N 00888000
Ne 0 ""
Po 1.25 1.725
$EndPAD
$PAD
Sh "9" R 0.85 0.28 0 0 900
Dr 0 0 0
At SMD N 00888000
Ne 0 ""
Po 1.75 1.725
$EndPAD
$PAD
Sh "10" R 0.28 0.85 0 0 900
Dr 0 0 0
At SMD N 00888000
Ne 0 ""
Po 2.225 0.75
$EndPAD
$PAD
Sh "11" R 0.28 0.85 0 0 900
Dr 0 0 0
At SMD N 00888000
Ne 0 ""
Po 2.225 -0.75
$EndPAD
$PAD
Sh "20" R 0.28 0.85 0 0 900
Dr 0 0 0
At SMD N 00888000
Ne 0 ""
Po -2.225 -0.75
$EndPAD
$EndMODULE R-PVQFN-N20
$MODULE S-PVSON-N10
Po 0 0 0 15 54B92A76 00000000 ~~
Li S-PVSON-N10
Sc 0
AR 
Op 0 0 0
T0 -0.1 -2.7 1 1 0 0.15 N V 21 N "S-PVSON-N10"
T1 0.6 2.9 1 1 0 0.15 N V 21 N "VAL**"
DC -1.9 1.9 -1.8 1.9 0.15 21
DS -1.5 1 -1 1.5 0.15 21
DS -1.5 -1.5 1.5 -1.5 0.15 21
DS 1.5 -1.5 1.5 1.5 0.15 21
DS 1.5 1.5 -1.5 1.5 0.15 21
DS -1.5 1.5 -1.5 -1.5 0.15 21
$PAD
Sh "1" R 0.28 0.85 0 0 0
Dr 0 0 0
At SMD N 00888000
Ne 0 ""
Po -1 1.475
$EndPAD
$PAD
Sh "2" R 0.28 0.85 0 0 0
Dr 0 0 0
At SMD N 00888000
Ne 0 ""
Po -0.5 1.475
$EndPAD
$PAD
Sh "3" R 0.28 0.85 0 0 0
Dr 0 0 0
At SMD N 00888000
Ne 0 ""
Po 0 1.475
$EndPAD
$PAD
Sh "4" R 0.28 0.85 0 0 0
Dr 0 0 0
At SMD N 00888000
Ne 0 ""
Po 0.5 1.475
$EndPAD
$PAD
Sh "5" R 0.28 0.85 0 0 0
Dr 0 0 0
At SMD N 00888000
Ne 0 ""
Po 1 1.475
$EndPAD
$PAD
Sh "6" R 0.28 0.85 0 0 0
Dr 0 0 0
At SMD N 00888000
Ne 0 ""
Po 1 -1.475
$EndPAD
$PAD
Sh "7" R 0.28 0.85 0 0 0
Dr 0 0 0
At SMD N 00888000
Ne 0 ""
Po 0.5 -1.475
$EndPAD
$PAD
Sh "8" R 0.28 0.85 0 0 0
Dr 0 0 0
At SMD N 00888000
Ne 0 ""
Po 0 -1.475
$EndPAD
$PAD
Sh "9" R 0.28 0.85 0 0 0
Dr 0 0 0
At SMD N 00888000
Ne 0 ""
Po -0.5 -1.475
$EndPAD
$PAD
Sh "10" R 0.28 0.85 0 0 0
Dr 0 0 0
At SMD N 00888000
Ne 0 ""
Po -1 -1.475
$EndPAD
$PAD
Sh "11" R 2.4 1.65 0 0 0
Dr 0 0 0
At SMD N 00888000
Ne 0 ""
Po 0 0
$EndPAD
$PAD
Sh "11" R 0.7 0.28 0 0 0
Dr 0 0 0
At SMD N 00888000
Ne 0 ""
Po 1.55 -0.25
$EndPAD
$PAD
Sh "11" R 0.7 0.28 0 0 0
Dr 0 0 0
At SMD N 00888000
Ne 0 ""
Po 1.55 0.25
$EndPAD
$PAD
Sh "11" R 0.7 0.28 0 0 0
Dr 0 0 0
At SMD N 00888000
Ne 0 ""
Po -1.55 -0.25
$EndPAD
$PAD
Sh "11" R 0.7 0.28 0 0 0
Dr 0 0 0
At SMD N 00888000
Ne 0 ""
Po -1.55 0.25
$EndPAD
$EndMODULE S-PVSON-N10
$MODULE S-PWSON-N8
Po 0 0 0 15 5446B89E 00000000 ~~
Li S-PWSON-N8
Sc 0
AR 
Op 0 0 0
T0 0.3 -2.2 1 1 0 0.15 N V 21 N "S-PWSON-N8"
T1 1.6 2.5 1 1 0 0.15 N V 21 N "VAL**"
DC -1.3 1.6 -1.2 1.6 0.15 21
$PAD
Sh "5" R 0.28 0.5 0 0 0
Dr 0 0 0
At SMD N 00888000
Ne 0 ""
Po 0.75 -0.95
$EndPAD
$PAD
Sh "6" R 0.28 0.5 0 0 0
Dr 0 0 0
At SMD N 00888000
Ne 0 ""
Po 0.25 -0.95
$EndPAD
$PAD
Sh "7" R 0.28 0.5 0 0 0
Dr 0 0 0
At SMD N 00888000
Ne 0 ""
Po -0.25 -0.95
$EndPAD
$PAD
Sh "8" R 0.28 0.5 0 0 0
Dr 0 0 0
At SMD N 00888000
Ne 0 ""
Po -0.75 -0.95
$EndPAD
$PAD
Sh "1" R 0.28 0.5 0 0 0
Dr 0 0 0
At SMD N 00888000
Ne 0 ""
Po -0.75 0.95
$EndPAD
$PAD
Sh "2" R 0.28 0.5 0 0 0
Dr 0 0 0
At SMD N 00888000
Ne 0 ""
Po -0.25 0.95
$EndPAD
$PAD
Sh "3" R 0.28 0.5 0 0 0
Dr 0 0 0
At SMD N 00888000
Ne 0 ""
Po 0.25 0.95
$EndPAD
$PAD
Sh "4" R 0.28 0.5 0 0 0
Dr 0 0 0
At SMD N 00888000
Ne 0 ""
Po 0.75 0.95
$EndPAD
$PAD
Sh "9" R 0.9 0.9 0 0 0
Dr 0 0 0
At SMD N 00888000
Ne 0 ""
Po 0.35 0
$EndPAD
$PAD
Sh "9" R 0.9 0.9 0 0 0
Dr 0 0 0
At SMD N 00888000
Ne 0 ""
Po -0.35 0
$EndPAD
$EndMODULE S-PWSON-N8
$MODULE SO-POWERPAD-8
Po 0 0 0 15 55637D55 00000000 ~~
Li SO-POWERPAD-8
Sc 0
AR 
Op 0 0 0
T0 0.3 -4.9 1 1 0 0.15 N V 21 N "SO-POWERPAD-8"
T1 0.4 5.1 1 1 0 0.15 N V 21 N "VAL**"
DC -3.7 3.3 -3.4 3.2 0.15 21
DS -3 0 -3 -2.5 0.15 21
DS -3 -2.5 3 -2.5 0.15 21
DS 3 -2.5 3 2.5 0.15 21
DS 3 2.5 -3 2.5 0.15 21
DS -3 2.5 -3 0 0.15 21
$PAD
Sh "9" R 3.1 2.4 0 0 0
Dr 0 0 0
At SMD N 00888000
Ne 0 ""
Po 0 0
$EndPAD
$PAD
Sh "1" R 0.5 2.2 0 0 0
Dr 0 0 0
At SMD N 00888000
Ne 0 ""
Po -1.905 2.875
$EndPAD
$PAD
Sh "2" R 0.5 2.2 0 0 0
Dr 0 0 0
At SMD N 00888000
Ne 0 ""
Po -0.635 2.875
$EndPAD
$PAD
Sh "3" R 0.5 2.2 0 0 0
Dr 0 0 0
At SMD N 00888000
Ne 0 ""
Po 0.635 2.875
$EndPAD
$PAD
Sh "4" R 0.5 2.2 0 0 0
Dr 0 0 0
At SMD N 00888000
Ne 0 ""
Po 1.905 2.875
$EndPAD
$PAD
Sh "5" R 0.5 2.2 0 0 0
Dr 0 0 0
At SMD N 00888000
Ne 0 ""
Po 1.905 -2.875
$EndPAD
$PAD
Sh "6" R 0.5 2.2 0 0 0
Dr 0 0 0
At SMD N 00888000
Ne 0 ""
Po 0.635 -2.875
$EndPAD
$PAD
Sh "7" R 0.5 2.2 0 0 0
Dr 0 0 0
At SMD N 00888000
Ne 0 ""
Po -0.635 -2.875
$EndPAD
$PAD
Sh "8" R 0.5 2.2 0 0 0
Dr 0 0 0
At SMD N 00888000
Ne 0 ""
Po -1.905 -2.875
$EndPAD
$EndMODULE SO-POWERPAD-8
$MODULE SOD-123
Po 0 0 0 15 542EDD60 00000000 ~~
Li SOD-123
Sc 0
AR 
Op 0 0 0
T0 0 -1.7 0.7 0.7 0 0.15 N V 21 N "SOD-123"
T1 0.2 1.7 0.7 0.7 0 0.15 N V 21 N "VAL**"
DS -0.8 -1 -0.8 1 0.15 21
DS -2.4 -1 2.5 -1 0.15 21
DS 2.5 -1 2.5 1 0.15 21
DS 2.5 1 -2.4 1 0.15 21
DS -2.4 1 -2.4 -1 0.15 21
$PAD
Sh "1" R 0.91 1.22 0 0 0
Dr 0 0 0
At SMD N 00888000
Ne 0 ""
Po -1.64 0
$EndPAD
$PAD
Sh "2" R 0.91 1.22 0 0 0
Dr 0 0 0
At SMD N 00888000
Ne 0 ""
Po 1.64 0
$EndPAD
$EndMODULE SOD-123
$MODULE SOIC18
Po 0 0 0 15 557814C1 00000000 ~~
Li SOIC18
Sc 0
AR 
Op 0 0 0
At SMD
T0 0 -1.524 1.016 1.016 0 0.2032 N V 21 N "SOIC18"
T1 0 1.143 1.016 1.016 0 0.2032 N V 21 N "VAL**"
DS -5.715 2.794 5.842 2.794 0.15 21
DS 5.842 -2.794 -5.715 -2.794 0.15 21
DS 5.842 -2.794 5.842 2.794 0.2032 21
DS -5.715 -2.794 -5.715 2.794 0.2032 21
DS -5.715 -0.635 -4.445 -0.635 0.2032 21
DS -4.445 -0.635 -4.445 0.635 0.2032 21
DS -4.445 0.635 -5.715 0.635 0.2032 21
$PAD
Sh "1" R 0.6 2 0 0 0
Dr 0 0 0
At SMD N 00888000
Ne 0 ""
Po -5.08 4.7
$EndPAD
$PAD
Sh "2" R 0.6 2 0 0 0
Dr 0 0 0
At SMD N 00888000
Ne 0 ""
Po -3.81 4.71
$EndPAD
$PAD
Sh "3" R 0.6 2 0 0 0
Dr 0 0 0
At SMD N 00888000
Ne 0 ""
Po -2.54 4.71
$EndPAD
$PAD
Sh "4" R 0.6 2 0 0 0
Dr 0 0 0
At SMD N 00888000
Ne 0 ""
Po -1.27 4.71
$EndPAD
$PAD
Sh "5" R 0.6 2 0 0 0
Dr 0 0 0
At SMD N 00888000
Ne 0 ""
Po 0 4.7
$EndPAD
$PAD
Sh "6" R 0.6 2 0 0 0
Dr 0 0 0
At SMD N 00888000
Ne 0 ""
Po 1.27 4.7
$EndPAD
$PAD
Sh "7" R 0.6 2 0 0 0
Dr 0 0 0
At SMD N 00888000
Ne 0 ""
Po 2.54 4.71
$EndPAD
$PAD
Sh "8" R 0.6 2 0 0 0
Dr 0 0 0
At SMD N 00888000
Ne 0 ""
Po 3.81 4.71
$EndPAD
$PAD
Sh "9" R 0.6 2 0 0 0
Dr 0 0 0
At SMD N 00888000
Ne 0 ""
Po 5.08 4.7
$EndPAD
$PAD
Sh "18" R 0.6 2 0 0 0
Dr 0 0 0
At SMD N 00888000
Ne 0 ""
Po -5.08 -4.71
$EndPAD
$PAD
Sh "17" R 0.6 2 0 0 0
Dr 0 0 0
At SMD N 00888000
Ne 0 ""
Po -3.81 -4.71
$EndPAD
$PAD
Sh "16" R 0.6 2 0 0 0
Dr 0 0 0
At SMD N 00888000
Ne 0 ""
Po -2.54 -4.71
$EndPAD
$PAD
Sh "15" R 0.6 2 0 0 0
Dr 0 0 0
At SMD N 00888000
Ne 0 ""
Po -1.27 -4.71
$EndPAD
$PAD
Sh "14" R 0.6 2 0 0 0
Dr 0 0 0
At SMD N 00888000
Ne 0 ""
Po 0 -4.7
$EndPAD
$PAD
Sh "13" R 0.6 2 0 0 0
Dr 0 0 0
At SMD N 00888000
Ne 0 ""
Po 1.27 -4.699
$EndPAD
$PAD
Sh "12" R 0.6 2 0 0 0
Dr 0 0 0
At SMD N 00888000
Ne 0 ""
Po 2.54 -4.699
$EndPAD
$PAD
Sh "11" R 0.6 2 0 0 0
Dr 0 0 0
At SMD N 00888000
Ne 0 ""
Po 3.81 -4.699
$EndPAD
$PAD
Sh "10" R 0.6 2 0 0 0
Dr 0 0 0
At SMD N 00888000
Ne 0 ""
Po 5.08 -4.699
$EndPAD
$SHAPE3D
Na "smd/cms_soj24.wrl"
Sc 0.5 0.6 0.5
Of 0 0 0
Ro 0 0 0
$EndSHAPE3D
$EndMODULE SOIC18
$MODULE SOIC8-EIAJ
Po 0 0 0 15 5579EC01 00000000 ~~
Li SOIC8-EIAJ
Sc 0
AR 
Op 0 0 0
T0 0 0 1 1 0 0.15 N V 21 N "SOIC8-D"
T1 0 0 1 1 0 0.15 N V 21 N "VAL**"
$PAD
Sh "1" R 0.6 1.5 0 0 0
Dr 0 0 0
At SMD N 00888000
Ne 0 ""
Po -1.905 2.7
$EndPAD
$PAD
Sh "2" R 0.6 1.5 0 0 0
Dr 0 0 0
At SMD N 00888000
Ne 0 ""
Po -0.635 2.7
$EndPAD
$PAD
Sh "3" R 0.6 1.5 0 0 0
Dr 0 0 0
At SMD N 00888000
Ne 0 ""
Po 0.635 2.7
$EndPAD
$PAD
Sh "4" R 0.6 1.5 0 0 0
Dr 0 0 0
At SMD N 00888000
Ne 0 ""
Po 1.905 2.7
$EndPAD
$PAD
Sh "5" R 0.6 1.5 0 0 0
Dr 0 0 0
At SMD N 00888000
Ne 0 ""
Po 1.905 -2.7
$EndPAD
$PAD
Sh "6" R 0.6 1.5 0 0 0
Dr 0 0 0
At SMD N 00888000
Ne 0 ""
Po 0.635 -2.7
$EndPAD
$PAD
Sh "7" R 0.6 1.5 0 0 0
Dr 0 0 0
At SMD N 00888000
Ne 0 ""
Po -0.635 -2.7
$EndPAD
$PAD
Sh "8" R 0.6 1.5 0 0 0
Dr 0 0 0
At SMD N 00888000
Ne 0 ""
Po -1.905 -2.7
$EndPAD
$EndMODULE SOIC8-EIAJ
$MODULE SOT-6L
Po 0 0 0 15 55638130 00000000 ~~
Li SOT-6L
Sc 0
AR 
Op 0 0 0
T0 0 -2.7 1 1 0 0.15 N V 21 N "SOT-6L"
T1 0.3 3 1 1 0 0.15 N V 21 N "VAL**"
DC -1.9 1.2 -1.8 1.1 0.15 21
DS -1.6 0 -1.6 -0.9 0.15 21
DS -1.6 -0.9 1.6 -0.9 0.15 21
DS 1.6 -0.9 1.6 0.9 0.15 21
DS 1.6 0.9 -1.6 0.9 0.15 21
DS -1.6 0.9 -1.6 0 0.15 21
$PAD
Sh "1" R 0.6 1.1 0 0 0
Dr 0 0 0
At SMD N 00888000
Ne 0 ""
Po -0.95 1.35
$EndPAD
$PAD
Sh "2" R 0.6 1.1 0 0 0
Dr 0 0 0
At SMD N 00888000
Ne 0 ""
Po 0 1.35
$EndPAD
$PAD
Sh "3" R 0.6 1.1 0 0 0
Dr 0 0 0
At SMD N 00888000
Ne 0 ""
Po 0.95 1.35
$EndPAD
$PAD
Sh "4" R 0.6 1.1 0 0 0
Dr 0 0 0
At SMD N 00888000
Ne 0 ""
Po 0.95 -1.35
$EndPAD
$PAD
Sh "5" R 0.6 1.1 0 0 0
Dr 0 0 0
At SMD N 00888000
Ne 0 ""
Po 0 -1.35
$EndPAD
$PAD
Sh "6" R 0.6 1.1 0 0 0
Dr 0 0 0
At SMD N 00888000
Ne 0 ""
Po -0.95 -1.35
$EndPAD
$EndMODULE SOT-6L
$MODULE SOT23-MOSN
Po 0 0 0 15 5499A3E8 00000000 ~~
Li SOT23-MOSN
Kw SOT23
Sc 0
AR 
Op 0 0 0
T0 1.99898 -0.09906 0.762 0.762 900 0.11938 N V 21 N "SOT23"
T1 0.0635 0 0.50038 0.50038 0 0.09906 N V 21 N "VAL"
DC -1.17602 0.35052 -1.30048 0.44958 0.07874 21
DS 1.27 -0.508 1.27 0.508 0.07874 21
DS -1.3335 -0.508 -1.3335 0.508 0.07874 21
DS 1.27 0.508 -1.3335 0.508 0.07874 21
DS -1.3335 -0.508 1.27 -0.508 0.07874 21
$PAD
Sh "D" R 0.8001 1.00076 0 0 0
Dr 0 0 0
At SMD N 00888000
Ne 0 ""
Po 0 -1.09982
$EndPAD
$PAD
Sh "S" R 0.8001 1.00076 0 0 0
Dr 0 0 0
At SMD N 00888000
Ne 0 ""
Po 0.9525 1.09982
$EndPAD
$PAD
Sh "G" R 0.8001 1.00076 0 0 0
Dr 0 0 0
At SMD N 00888000
Ne 0 ""
Po -0.9525 1.09982
$EndPAD
$SHAPE3D
Na "smd\\SOT23_3.wrl"
Sc 0.4 0.4 0.4
Of 0 0 0
Ro 0 0 180
$EndSHAPE3D
$EndMODULE SOT23-MOSN
$MODULE SOT323-MOSN
Po 0 0 0 15 5499A483 00000000 ~~
Li SOT323-MOSN
Kw SMD SOT
Sc 0
AR 
Op 0 0 0
At SMD
T0 0.127 -2.032 0.762 0.762 0 0.09906 N V 21 N "SOT323"
T1 0 0 0.70104 0.70104 0 0.09906 N I 21 N "VAL"
DS 0.254 0.508 0.889 0.508 0.127 21
DS 0.889 0.508 0.889 -0.508 0.127 21
DS -0.889 -0.508 -0.889 0.508 0.127 21
DS -0.889 0.508 -0.254 0.508 0.127 21
DS 0.254 0.635 0.254 0.508 0.127 21
DS -0.254 0.508 -0.254 0.635 0.127 21
DS 0.889 -0.508 -0.889 -0.508 0.127 21
DS -0.254 0.635 0.254 0.635 0.127 21
$PAD
Sh "S" R 0.59944 1.00076 0 0 0
Dr 0 0 0
At SMD N 00888000
Ne 0 ""
Po -0.65024 -0.94996
$EndPAD
$PAD
Sh "G" R 0.59944 1.00076 0 0 0
Dr 0 0 0
At SMD N 00888000
Ne 0 ""
Po 0.65024 -0.94996
$EndPAD
$PAD
Sh "D" R 0.59944 1.00076 0 0 0
Dr 0 0 0
At SMD N 00888000
Ne 0 ""
Po 0 0.94996
$EndPAD
$SHAPE3D
Na "smd/SOT323.wrl"
Sc 0.3937 0.3937 0.3937
Of 0 0 0.001
Ro 0 0 0
$EndSHAPE3D
$EndMODULE SOT323-MOSN
$MODULE SSOP16
Po 0 0 0 15 555EF66A 00000000 ~~
Li SSOP16
Cd SSOP16pins
Sc 0
AR 
Op 0 0 0
At SMD
T0 -3.302 -0.127 0.762 0.762 900 0.0762 N V 21 N "SSOP16"
T1 3.175 0 0.762 0.762 900 0.127 N V 21 N "VAL***"
DS 2.55 -2.85 2.55 2.75 0.15 21
DS -2.55 2.75 -2.55 -2.85 0.15 21
DC -2.0701 2.1637 -2.2733 2.4177 0.1524 21
DS 2.54 -2.8479 -2.54 -2.8479 0.1524 21
DS -2.54 2.7479 2.54 2.7479 0.1524 21
$PAD
Sh "1" R 0.4318 1.15062 0 0 0
Dr 0 0 0
At SMD N 00888000
Ne 0 ""
Po -2.2606 3.594
$EndPAD
$PAD
Sh "2" R 0.4318 1.15062 0 0 0
Dr 0 0 0
At SMD N 00888000
Ne 0 ""
Po -1.6256 3.594
$EndPAD
$PAD
Sh "3" R 0.4318 1.15062 0 0 0
Dr 0 0 0
At SMD N 00888000
Ne 0 ""
Po -0.9652 3.594
$EndPAD
$PAD
Sh "4" R 0.4318 1.15062 0 0 0
Dr 0 0 0
At SMD N 00888000
Ne 0 ""
Po -0.3302 3.594
$EndPAD
$PAD
Sh "5" R 0.4318 1.15062 0 0 0
Dr 0 0 0
At SMD N 00888000
Ne 0 ""
Po 0.3302 3.594
$EndPAD
$PAD
Sh "6" R 0.4318 1.15062 0 0 0
Dr 0 0 0
At SMD N 00888000
Ne 0 ""
Po 0.9779 3.594
$EndPAD
$PAD
Sh "7" R 0.4318 1.15062 0 0 0
Dr 0 0 0
At SMD N 00888000
Ne 0 ""
Po 1.6256 3.594
$EndPAD
$PAD
Sh "8" R 0.4318 1.15062 0 0 0
Dr 0 0 0
At SMD N 00888000
Ne 0 ""
Po 2.2733 3.594
$EndPAD
$PAD
Sh "9" R 0.4318 1.15062 0 0 0
Dr 0 0 0
At SMD N 00888000
Ne 0 ""
Po 2.2733 -3.594
$EndPAD
$PAD
Sh "10" R 0.4318 1.15062 0 0 0
Dr 0 0 0
At SMD N 00888000
Ne 0 ""
Po 1.6256 -3.594
$EndPAD
$PAD
Sh "11" R 0.4318 1.15062 0 0 0
Dr 0 0 0
At SMD N 00888000
Ne 0 ""
Po 0.9779 -3.594
$EndPAD
$PAD
Sh "12" R 0.4318 1.15062 0 0 0
Dr 0 0 0
At SMD N 00888000
Ne 0 ""
Po 0.3302 -3.594
$EndPAD
$PAD
Sh "13" R 0.4318 1.15062 0 0 0
Dr 0 0 0
At SMD N 00888000
Ne 0 ""
Po -0.3302 -3.594
$EndPAD
$PAD
Sh "14" R 0.4318 1.15062 0 0 0
Dr 0 0 0
At SMD N 00888000
Ne 0 ""
Po -0.9779 -3.594
$EndPAD
$PAD
Sh "15" R 0.4318 1.15062 0 0 0
Dr 0 0 0
At SMD N 00888000
Ne 0 ""
Po -1.6256 -3.594
$EndPAD
$PAD
Sh "16" R 0.4318 1.15062 0 0 0
Dr 0 0 0
At SMD N 00888000
Ne 0 ""
Po -2.2733 -3.594
$EndPAD
$SHAPE3D
Na "smd/cms_so16.wrl"
Sc 0.25 0.35 0.25
Of 0 0 0
Ro 0 0 0
$EndSHAPE3D
$EndMODULE SSOP16
$MODULE TE_MICROMATCH_SMD_FEM_6PIN
Po 0 0 0 15 5561E25E 00000000 ~~
Li TE_MICROMATCH_SMD_FEM_6PIN
Sc 0
AR 
Op 0 0 0
T0 1.75 -5 1 1 0 0.15 N V 21 N "TE_MICROMATCH_SMD_FEM_6PIN"
T1 0 5.25 1 1 0 0.15 N V 21 N "VAL**"
DS 5 -1 4.5 -1 0.15 21
DS 4.5 -1 4.5 1 0.15 21
DS 4.5 1 5 1 0.15 21
DS 5 2.75 5 -2.75 0.15 21
DS -4.75 -2.75 -4.75 2.75 0.15 21
DS -4.75 -2.75 5 -2.75 0.15 21
DS -4.75 2.75 5 2.75 0.15 21
$PAD
Sh "1" R 1.5 3 0 0 0
Dr 0 0 0
At SMD N 00888000
Ne 0 ""
Po 3.25 2.25
$EndPAD
$PAD
Sh "2" R 1.5 3 0 0 0
Dr 0 0 0
At SMD N 00888000
Ne 0 ""
Po 1.98 -2.25
$EndPAD
$PAD
Sh "3" R 1.5 3 0 0 0
Dr 0 0 0
At SMD N 00888000
Ne 0 ""
Po 0.71 2.25
$EndPAD
$PAD
Sh "4" R 1.5 3 0 0 0
Dr 0 0 0
At SMD N 00888000
Ne 0 ""
Po -0.56 -2.25
$EndPAD
$PAD
Sh "5" R 1.5 3 0 0 0
Dr 0 0 0
At SMD N 00888000
Ne 0 ""
Po -1.83 2.25
$EndPAD
$PAD
Sh "6" R 1.5 3 0 0 0
Dr 0 0 0
At SMD N 00888000
Ne 0 ""
Po -3.1 -2.25
$EndPAD
$EndMODULE TE_MICROMATCH_SMD_FEM_6PIN
$MODULE TE_MICROMATCH_SMD_FEM_8PIN
Po 0 0 0 15 55680627 00000000 ~~
Li TE_MICROMATCH_SMD_FEM_8PIN
Sc 0
AR 
Op 0 0 0
T0 1.75 -5 1 1 0 0.15 N V 21 N "TE_MICROMATCH_SMD_FEM_8PIN"
T1 0 5.25 1 1 0 0.15 N V 21 N "VAL**"
DS 6.27 0 6.27 -3 0.15 21
DS 6.27 -3 -6.23 -3 0.15 21
DS -6.23 -3 -6.23 3 0.15 21
DS -6.23 3 6.27 3 0.15 21
DS 6.27 3 6.27 0 0.15 21
DS 6.27 -1 5.77 -1 0.15 21
DS 5.77 -1 5.77 1 0.15 21
DS 5.77 1 6.27 1 0.15 21
$PAD
Sh "8" R 1.5 3 0 0 0
Dr 0 0 0
At SMD N 00888000
Ne 0 ""
Po -4.37 -2.25
$EndPAD
$PAD
Sh "7" R 1.5 3 0 0 0
Dr 0 0 0
At SMD N 00888000
Ne 0 ""
Po -3.25 2.25
$EndPAD
$PAD
Sh "1" R 1.5 3 0 0 0
Dr 0 0 0
At SMD N 00888000
Ne 0 ""
Po 4.52 2.25
$EndPAD
$PAD
Sh "2" R 1.5 3 0 0 0
Dr 0 0 0
At SMD N 00888000
Ne 0 ""
Po 3.25 -2.25
$EndPAD
$PAD
Sh "3" R 1.5 3 0 0 0
Dr 0 0 0
At SMD N 00888000
Ne 0 ""
Po 1.98 2.25
$EndPAD
$PAD
Sh "4" R 1.5 3 0 0 0
Dr 0 0 0
At SMD N 00888000
Ne 0 ""
Po 0.71 -2.25
$EndPAD
$PAD
Sh "5" R 1.5 3 0 0 0
Dr 0 0 0
At SMD N 00888000
Ne 0 ""
Po -0.56 2.25
$EndPAD
$PAD
Sh "6" R 1.5 3 0 0 0
Dr 0 0 0
At SMD N 00888000
Ne 0 ""
Po -1.83 -2.25
$EndPAD
$EndMODULE TE_MICROMATCH_SMD_FEM_8PIN
$MODULE TP
Po 0 0 0 15 543A7C31 00000000 ~~
Li TP
Sc 0
AR 
Op 0 0 0
T0 0.1 -1.5 0.5 0.5 0 0.125 N I 21 N "TP"
T1 0.2 1.2 0.5 0.5 0 0.125 N V 21 N "VAL**"
$PAD
Sh "1" C 1 1 0 0 0
Dr 0 0 0
At SMD N 00888000
Ne 0 ""
Po 0 0
$EndPAD
$EndMODULE TP
$MODULE TP0.5
Po 0 0 0 15 55744073 00000000 ~~
Li TP0.5
Sc 0
AR 
Op 0 0 0
T0 0.1 -1.5 0.5 0.5 0 0.125 N I 21 N "TP"
T1 0.2 0.05 0.5 0.5 0 0.125 N V 21 N "VAL**"
$PAD
Sh "1" C 0.5 0.5 0 0 0
Dr 0 0 0
At SMD N 00888000
Ne 0 ""
Po 0 0
$EndPAD
$EndMODULE TP0.5
$MODULE VFQFPN36
Po 0 0 0 15 55637E4A 00000000 ~~
Li VFQFPN36
Cd Support CMS Plcc 32 pins
Kw CMS Plcc
Sc 0
AR 
Op 0 0 0
At SMD
T0 0.2 -4 0.762 0.762 0 0.1524 N V 21 N "VFQFPN36"
T1 2 4.2 0.762 0.762 0 0.1524 N V 21 N "Val**"
DS -2.4 3.4 3.4 3.4 0.15 21
DS 3.4 3.4 3.4 -3.4 0.15 21
DS 3.4 -3.4 -3.4 -3.4 0.15 21
DS -3.4 -3.4 -3.4 2.4 0.15 21
DS -3.4 2.4 -2.4 3.4 0.15 21
$PAD
Sh "36" R 0.3 0.75 0 0 900
Dr 0 0 0
At SMD N 00888000
Ne 0 ""
Po -2.775 2
$EndPAD
$PAD
Sh "35" R 0.3 0.75 0 0 900
Dr 0 0 0
At SMD N 00888000
Ne 0 ""
Po -2.775 1.5
$EndPAD
$PAD
Sh "34" R 0.3 0.75 0 0 900
Dr 0 0 0
At SMD N 00888000
Ne 0 ""
Po -2.775 1
$EndPAD
$PAD
Sh "33" R 0.3 0.75 0 0 900
Dr 0 0 0
At SMD N 00888000
Ne 0 ""
Po -2.775 0.5
$EndPAD
$PAD
Sh "32" R 0.3 0.75 0 0 900
Dr 0 0 0
At SMD N 00888000
Ne 0 ""
Po -2.775 0
$EndPAD
$PAD
Sh "31" R 0.3 0.75 0 0 900
Dr 0 0 0
At SMD N 00888000
Ne 0 ""
Po -2.775 -0.5
$EndPAD
$PAD
Sh "30" R 0.3 0.75 0 0 900
Dr 0 0 0
At SMD N 00888000
Ne 0 ""
Po -2.775 -1
$EndPAD
$PAD
Sh "29" R 0.3 0.75 0 0 900
Dr 0 0 0
At SMD N 00888000
Ne 0 ""
Po -2.775 -1.5
$EndPAD
$PAD
Sh "28" R 0.3 0.75 0 0 900
Dr 0 0 0
At SMD N 00888000
Ne 0 ""
Po -2.775 -2
$EndPAD
$PAD
Sh "18" R 0.3 0.75 0 0 900
Dr 0 0 0
At SMD N 00888000
Ne 0 ""
Po 2.775 -2
$EndPAD
$PAD
Sh "17" R 0.3 0.75 0 0 900
Dr 0 0 0
At SMD N 00888000
Ne 0 ""
Po 2.775 -1.5
$EndPAD
$PAD
Sh "16" R 0.3 0.75 0 0 900
Dr 0 0 0
At SMD N 00888000
Ne 0 ""
Po 2.775 -1
$EndPAD
$PAD
Sh "15" R 0.3 0.75 0 0 900
Dr 0 0 0
At SMD N 00888000
Ne 0 ""
Po 2.775 -0.5
$EndPAD
$PAD
Sh "14" R 0.3 0.75 0 0 900
Dr 0 0 0
At SMD N 00888000
Ne 0 ""
Po 2.775 0
$EndPAD
$PAD
Sh "13" R 0.3 0.75 0 0 900
Dr 0 0 0
At SMD N 00888000
Ne 0 ""
Po 2.775 0.5
$EndPAD
$PAD
Sh "12" R 0.3 0.75 0 0 900
Dr 0 0 0
At SMD N 00888000
Ne 0 ""
Po 2.775 1
$EndPAD
$PAD
Sh "11" R 0.3 0.75 0 0 900
Dr 0 0 0
At SMD N 00888000
Ne 0 ""
Po 2.775 1.5
$EndPAD
$PAD
Sh "10" R 0.3 0.75 0 0 900
Dr 0 0 0
At SMD N 00888000
Ne 0 ""
Po 2.775 2
$EndPAD
$PAD
Sh "19" R 0.3 0.75 0 0 0
Dr 0 0 0
At SMD N 00888000
Ne 0 ""
Po 2 -2.775
$EndPAD
$PAD
Sh "20" R 0.3 0.75 0 0 0
Dr 0 0 0
At SMD N 00888000
Ne 0 ""
Po 1.5 -2.775
$EndPAD
$PAD
Sh "21" R 0.3 0.75 0 0 0
Dr 0 0 0
At SMD N 00888000
Ne 0 ""
Po 1 -2.775
$EndPAD
$PAD
Sh "22" R 0.3 0.75 0 0 0
Dr 0 0 0
At SMD N 00888000
Ne 0 ""
Po 0.5 -2.775
$EndPAD
$PAD
Sh "23" R 0.3 0.75 0 0 0
Dr 0 0 0
At SMD N 00888000
Ne 0 ""
Po 0 -2.775
$EndPAD
$PAD
Sh "24" R 0.3 0.75 0 0 0
Dr 0 0 0
At SMD N 00888000
Ne 0 ""
Po -0.5 -2.775
$EndPAD
$PAD
Sh "25" R 0.3 0.75 0 0 0
Dr 0 0 0
At SMD N 00888000
Ne 0 ""
Po -1 -2.775
$EndPAD
$PAD
Sh "26" R 0.3 0.75 0 0 0
Dr 0 0 0
At SMD N 00888000
Ne 0 ""
Po -1.5 -2.775
$EndPAD
$PAD
Sh "27" R 0.3 0.75 0 0 0
Dr 0 0 0
At SMD N 00888000
Ne 0 ""
Po -2 -2.775
$EndPAD
$PAD
Sh "1" R 0.3 0.75 0 0 0
Dr 0 0 0
At SMD N 00888000
Ne 0 ""
Po -2 2.775
$EndPAD
$PAD
Sh "2" R 0.3 0.75 0 0 0
Dr 0 0 0
At SMD N 00888000
Ne 0 ""
Po -1.5 2.775
$EndPAD
$PAD
Sh "3" R 0.3 0.75 0 0 0
Dr 0 0 0
At SMD N 00888000
Ne 0 ""
Po -1 2.775
$EndPAD
$PAD
Sh "4" R 0.3 0.75 0 0 0
Dr 0 0 0
At SMD N 00888000
Ne 0 ""
Po -0.5 2.775
$EndPAD
$PAD
Sh "5" R 0.3 0.75 0 0 0
Dr 0 0 0
At SMD N 00888000
Ne 0 ""
Po 0 2.775
$EndPAD
$PAD
Sh "6" R 0.3 0.75 0 0 0
Dr 0 0 0
At SMD N 00888000
Ne 0 ""
Po 0.5 2.775
$EndPAD
$PAD
Sh "7" R 0.3 0.75 0 0 0
Dr 0 0 0
At SMD N 00888000
Ne 0 ""
Po 1 2.775
$EndPAD
$PAD
Sh "8" R 0.3 0.75 0 0 0
Dr 0 0 0
At SMD N 00888000
Ne 0 ""
Po 1.5 2.775
$EndPAD
$PAD
Sh "9" R 0.3 0.75 0 0 0
Dr 0 0 0
At SMD N 00888000
Ne 0 ""
Po 2 2.775
$EndPAD
$PAD
Sh "37" R 4.1 4.1 0 0 0
Dr 0 0 0
At SMD N 00888000
Ne 0 ""
Po 0 0
$EndPAD
$EndMODULE VFQFPN36
$MODULE WE_CONN_3.81_vertical_2way
Po 0 0 0 15 556D6894 00000000 ~~
Li WE_CONN_3.81_vertical_2way
Sc 0
AR 
Op 0 0 0
T0 0 -5.3 1 1 0 0.15 N V 21 N "WE_CONN_3.81_vertical_2way"
T1 0.3 3.7 1 1 0 0.15 N V 21 N "VAL**"
DS 4.5 0 4.5 2.8 0.15 21
DS 4.5 2.8 -4.5 2.8 0.15 21
DS -4.5 2.8 -4.5 0 0.15 21
DS -4.5 0 -4.5 -4.4 0.15 21
DS -4.5 -4.4 4.5 -4.4 0.15 21
DS 4.5 -4.4 4.5 0 0.15 21
$PAD
Sh "1" R 1.7 1.7 0 0 0
Dr 1.4 0 0
At STD N 00E0FFFF
Ne 0 ""
Po 1.905 0
$EndPAD
$PAD
Sh "2" C 1.7 1.7 0 0 0
Dr 1.4 0 0
At STD N 00E0FFFF
Ne 0 ""
Po -1.905 0
$EndPAD
$EndMODULE WE_CONN_3.81_vertical_2way
$MODULE WE_SMD_INDUCTOR_1040
Po 0 0 0 15 5563856E 00000000 ~~
Li WE_SMD_INDUCTOR_1040
Sc 0
AR 
Op 0 0 0
T0 0 -6 1 1 0 0.15 N V 21 N "WE_SMD_INDUCTOR_1040"
T1 0 6 1 1 0 0.15 N V 21 N "VAL**"
DS 5 0 5 -5 0.15 21
DS 5 -5 -5 -5 0.15 21
DS -5 -5 -5 5 0.15 21
DS -5 5 5 5 0.15 21
DS 5 5 5 0 0.15 21
$PAD
Sh "1" R 4.1 3.5 0 0 0
Dr 0 0 0
At SMD N 00888000
Ne 0 ""
Po -4.75 0
$EndPAD
$PAD
Sh "2" R 4.1 3.5 0 0 0
Dr 0 0 0
At SMD N 00888000
Ne 0 ""
Po 4.75 0
$EndPAD
$SHAPE3D
Na "3d/wurth_induc_4.7u.wrl"
Sc 0.3937 0.3937 0.3937
Of -0.1968 -0.1968 0
Ro 0 0 0
$EndSHAPE3D
$EndMODULE WE_SMD_INDUCTOR_1040
$MODULE WS-TATL
Po 0 0 0 15 54896154 00000000 ~~
Li WS-TATL
Sc 0
AR /5489613D
Op 0 0 0
T0 -0.25 -6.04 1 1 0 0.15 N V 21 N "U101"
T1 5.01 6.01 1 1 0 0.15 N V 21 N "WS-TATL"
DS 0 -5.08 5.08 -5.08 0.15 21
DS 5.08 -5.08 5.08 5.08 0.15 21
DS 5.08 5.08 -5.08 5.08 0.15 21
DS -5.08 5.08 -5.08 -5.08 0.15 21
DS -5.08 -5.08 0 -5.08 0.15 21
$PAD
Sh "1" C 1.5 1.5 0 0 0
Dr 1.2 0 0
At STD N 00E0FFFF
Ne 1 "+BATT"
Po 5.08 2.54
$EndPAD
$PAD
Sh "2" C 1.5 1.5 0 0 0
Dr 1.2 0 0
At STD N 00E0FFFF
Ne 4 "N-0000011"
Po 5.08 -2.54
$EndPAD
$PAD
Sh "3" C 1.5 1.5 0 0 0
Dr 1.2 0 0
At STD N 00E0FFFF
Ne 0 ""
Po -5.08 -2.54
$EndPAD
$PAD
Sh "4" C 1.5 1.5 0 0 0
Dr 1.2 0 0
At STD N 00E0FFFF
Ne 0 ""
Po -5.08 2.54
$EndPAD
$PAD
Sh "A" C 1.5 1.5 0 0 0
Dr 1.2 0 0
At STD N 00E0FFFF
Ne 3 "GND"
Po 5.08 0
$EndPAD
$PAD
Sh "B" C 1.5 1.5 0 0 0
Dr 1.2 0 0
At STD N 00E0FFFF
Ne 2 "/~RST"
Po -5.08 0
$EndPAD
$PAD
Sh "" C 1 1 0 0 0
Dr 1 0 0
At HOLE N 00E0FFFF
Ne 0 ""
Po -2.54 -2.54
$EndPAD
$PAD
Sh "" C 1 1 0 0 0
Dr 1 0 0
At HOLE N 00E0FFFF
Ne 0 ""
Po 2.54 -2.54
$EndPAD
$EndMODULE WS-TATL
$MODULE WSON-DRV883x
Po 0 0 0 15 5736429B 00000000 ~~
Li WSON-DRV883x
Sc 0
AR 
Op 0 0 0
.LocalClearance 0.15
T0 0 -8.89 1 1 0 0.15 N V 21 N "WSON-DRV883x"
T1 0 -7.62 1 1 0 0.15 N V 21 N "VAL**"
DS 1 1.2 1.2 1.2 0.1 21
DS 1.2 1.2 1.2 -1.2 0.1 21
DS 1.2 -1.2 1 -1.2 0.1 21
DS -1 -1.2 -1.2 -1.2 0.1 21
DS -1.2 -1.2 -1.2 1 0.1 21
DS -1.2 1 -1 1.2 0.1 21
$PAD
Sh "9" R 1.6 0.9 0 0 0
Dr 0 0 0
At SMD N 00888000
Ne 0 ""
Po 0 0
$EndPAD
$PAD
Sh "1" R 0.25 0.6 0 0 0
Dr 0 0 0
At SMD N 00888000
Ne 0 ""
Po -0.75 1
$EndPAD
$PAD
Sh "2" R 0.25 0.6 0 0 0
Dr 0 0 0
At SMD N 00888000
Ne 0 ""
Po -0.25 1
$EndPAD
$PAD
Sh "3" R 0.25 0.6 0 0 0
Dr 0 0 0
At SMD N 00888000
Ne 0 ""
Po 0.25 1
$EndPAD
$PAD
Sh "4" R 0.25 0.6 0 0 0
Dr 0 0 0
At SMD N 00888000
Ne 0 ""
Po 0.75 1
$EndPAD
$PAD
Sh "5" R 0.25 0.6 0 0 0
Dr 0 0 0
At SMD N 00888000
Ne 0 ""
Po 0.75 -1
$EndPAD
$PAD
Sh "6" R 0.25 0.6 0 0 0
Dr 0 0 0
At SMD N 00888000
Ne 0 ""
Po 0.25 -1
$EndPAD
$PAD
Sh "7" R 0.25 0.6 0 0 0
Dr 0 0 0
At SMD N 00888000
Ne 0 ""
Po -0.25 -1
$EndPAD
$PAD
Sh "8" R 0.25 0.6 0 0 0
Dr 0 0 0
At SMD N 00888000
Ne 0 ""
Po -0.75 -1
$EndPAD
$EndMODULE WSON-DRV883x
$MODULE avago-plcc6
Po 0 0 0 15 549A9089 00000000 ~~
Li avago-plcc6
Sc 0
AR 
Op 0 0 0
T0 -0.2 -2.3 1 1 0 0.15 N V 21 N "avago-plcc6"
T1 0 2.6 1 1 0 0.15 N V 21 N "VAL**"
DC 1.8 1.8 1.9 1.8 0.15 21
DS -1.6 -1.5 1.6 -1.5 0.15 21
DS 1.6 -1.5 1.6 1.5 0.15 21
DS 1.6 1.5 -1.6 1.5 0.15 21
DS -1.6 1.5 -1.6 -1.5 0.15 21
$PAD
Sh "4" R 0.5 1.6 0 0 900
Dr 0 0 0
At SMD N 00888000
Ne 0 ""
Po -1.475 -0.9
$EndPAD
$PAD
Sh "5" R 0.5 1.6 0 0 900
Dr 0 0 0
At SMD N 00888000
Ne 0 ""
Po -1.475 0
$EndPAD
$PAD
Sh "6" R 0.5 1.6 0 0 900
Dr 0 0 0
At SMD N 00888000
Ne 0 ""
Po -1.475 0.9
$EndPAD
$PAD
Sh "1" R 0.5 1.6 0 0 900
Dr 0 0 0
At SMD N 00888000
Ne 0 ""
Po 1.475 0.9
$EndPAD
$PAD
Sh "2" R 0.5 1.6 0 0 900
Dr 0 0 0
At SMD N 00888000
Ne 0 ""
Po 1.475 0
$EndPAD
$PAD
Sh "3" R 0.5 1.6 0 0 900
Dr 0 0 0
At SMD N 00888000
Ne 0 ""
Po 1.475 -0.9
$EndPAD
$EndMODULE avago-plcc6
$MODULE he10-6d
Po 0 0 0 15 560C27E2 00000000 ~~
Li he10-6d
Cd Connecteur HE10 6 contacts droit
Kw CONN HE10
Sc 0
AR 
Op 0 0 0
T0 -0.2 -5.6 1.778 1.778 0 0.3048 N V 21 N "HE10-6D"
T1 2.8 6 1.778 1.778 0 0.3048 N V 21 N "Val**"
DS 7.5 0 7.5 -4.5 0.15 21
DS 7.5 -4.5 -7.5 -4.5 0.15 21
DS -7.5 -4.5 -7.5 4.5 0.15 21
DS -7.5 4.5 7.5 4.5 0.15 21
DS 7.5 4.5 7.5 0 0.15 21
DS 2.2 4.4 2.2 3.2 0.15 21
DS 2.2 3.2 -2.2 3.2 0.15 21
DS -2.2 3.2 -2.2 4.4 0.15 21
$PAD
Sh "1" R 1.524 1.524 0 0 0
Dr 0.9144 0 0
At STD N 00E0FFFF
Ne 0 ""
Po -2.54 1.27
$EndPAD
$PAD
Sh "2" C 1.524 1.524 0 0 0
Dr 0.9144 0 0
At STD N 00E0FFFF
Ne 0 ""
Po -2.54 -1.27
$EndPAD
$PAD
Sh "3" C 1.524 1.524 0 0 0
Dr 0.9144 0 0
At STD N 00E0FFFF
Ne 0 ""
Po 0 1.27
$EndPAD
$PAD
Sh "4" C 1.524 1.524 0 0 0
Dr 0.9144 0 0
At STD N 00E0FFFF
Ne 0 ""
Po 0 -1.27
$EndPAD
$PAD
Sh "5" C 1.524 1.524 0 0 0
Dr 0.9144 0 0
At STD N 00E0FFFF
Ne 0 ""
Po 2.54 1.27
$EndPAD
$PAD
Sh "6" C 1.524 1.524 0 0 0
Dr 0.9144 0 0
At STD N 00E0FFFF
Ne 0 ""
Po 2.54 -1.27
$EndPAD
$EndMODULE he10-6d
$MODULE he10-8d
Po 0 0 0 15 557D7270 00000000 ~~
Li he10-8d
Cd Connecteur HE10 10 contacts droit
Kw CONN HE10
Sc 0
AR 
Op 0 0 0
T0 0 -5.207 1.778 1.778 0 0.3048 N V 21 N "HE10-8D"
T1 0.889 5.842 1.778 1.778 0 0.3048 N V 21 N "Val**"
DS -7.62 3.556 -2.54 3.556 0.3 21
DS 7.62 3.556 2.54 3.556 0.3 21
DS -7.62 -3.556 7.62 -3.556 0.3 21
DS -2.54 4.318 2.54 4.318 0.3 21
DS -7.62 3.556 -7.62 -3.556 0.3 21
DS 7.62 3.556 7.62 -3.556 0.3 21
DS -2.54 4.318 -2.54 3.556 0.3 21
DS 2.54 3.556 2.54 4.318 0.3 21
DS -5.334 1.397 -6.604 0.635 0.3 21
DS -6.604 0.635 -6.604 2.159 0.3 21
DS -6.604 2.159 -5.334 1.397 0.3 21
$PAD
Sh "1" R 1.524 1.524 0 0 0
Dr 0.9144 0 0
At STD N 00E0FFFF
Ne 0 ""
Po -3.81 1.27
$EndPAD
$PAD
Sh "2" C 1.524 1.524 0 0 0
Dr 0.9144 0 0
At STD N 00E0FFFF
Ne 0 ""
Po -3.81 -1.27
$EndPAD
$PAD
Sh "3" C 1.524 1.524 0 0 0
Dr 0.9144 0 0
At STD N 00E0FFFF
Ne 0 ""
Po -1.27 1.27
$EndPAD
$PAD
Sh "4" C 1.524 1.524 0 0 0
Dr 0.9144 0 0
At STD N 00E0FFFF
Ne 0 ""
Po -1.27 -1.27
$EndPAD
$PAD
Sh "5" C 1.524 1.524 0 0 0
Dr 0.9144 0 0
At STD N 00E0FFFF
Ne 0 ""
Po 1.27 1.27
$EndPAD
$PAD
Sh "6" C 1.524 1.524 0 0 0
Dr 0.9144 0 0
At STD N 00E0FFFF
Ne 0 ""
Po 1.27 -1.27
$EndPAD
$PAD
Sh "7" C 1.524 1.524 0 0 0
Dr 0.9144 0 0
At STD N 00E0FFFF
Ne 0 ""
Po 3.81 1.27
$EndPAD
$PAD
Sh "8" C 1.524 1.524 0 0 0
Dr 0.9144 0 0
At STD N 00E0FFFF
Ne 0 ""
Po 3.81 -1.27
$EndPAD
$SHAPE3D
Na "conn_HExx/he10_10.wrl"
Sc 1 1 1
Of 0 0 0
Ro 0 0 0
$EndSHAPE3D
$EndMODULE he10-8d
$MODULE soic-8-wide
Po 0 0 0 15 5485A41A 00000000 ~~
Li soic-8-wide
Cd SOIC-8 wide
Sc 0
AR 
Op 0 0 0
T0 0 -1.016 0.7493 0.7493 0 0.14986 N V 21 N "SOIC-8"
T1 0 1.016 0.7493 0.7493 0 0.14986 N V 21 N "U***"
DS -2.413 -1.9812 -2.413 1.9812 0.127 21
DS -2.413 1.9812 2.413 1.9812 0.127 21
DS 2.413 1.9812 2.413 -1.9812 0.127 21
DS 2.413 -1.9812 -2.413 -1.9812 0.127 21
DS -1.905 -1.9812 -1.905 -3.0734 0.127 21
DS -0.635 -1.9812 -0.635 -3.0734 0.127 21
DS 0.635 -1.9812 0.635 -3.0734 0.127 21
DS 1.905 -3.0734 1.905 -1.9812 0.127 21
DS 1.905 1.9812 1.905 3.0734 0.127 21
DS 0.635 3.0734 0.635 1.9812 0.127 21
DS -0.635 3.0734 -0.635 1.9812 0.127 21
DS -1.905 3.0734 -1.905 1.9812 0.127 21
DC -1.6764 1.2446 -1.9558 1.6256 0.127 21
$PAD
Sh "1" R 0.635 1.27 0 0 0
Dr 0 0 0
At SMD N 00888000
Ne 0 ""
Po -1.905 4
$EndPAD
$PAD
Sh "2" R 0.635 1.27 0 0 0
Dr 0 0 0
At SMD N 00888000
Ne 0 ""
Po -0.635 4
$EndPAD
$PAD
Sh "3" R 0.635 1.27 0 0 0
Dr 0 0 0
At SMD N 00888000
Ne 0 ""
Po 0.635 4
$EndPAD
$PAD
Sh "4" R 0.635 1.27 0 0 0
Dr 0 0 0
At SMD N 00888000
Ne 0 ""
Po 1.905 4
$EndPAD
$PAD
Sh "5" R 0.635 1.27 0 0 0
Dr 0 0 0
At SMD N 00888000
Ne 0 ""
Po 1.905 -4
$EndPAD
$PAD
Sh "6" R 0.635 1.27 0 0 0
Dr 0 0 0
At SMD N 00888000
Ne 0 ""
Po 0.635 -4
$EndPAD
$PAD
Sh "7" R 0.635 1.27 0 0 0
Dr 0 0 0
At SMD N 00888000
Ne 0 ""
Po -0.635 -4
$EndPAD
$PAD
Sh "8" R 0.635 1.27 0 0 0
Dr 0 0 0
At SMD N 00888000
Ne 0 ""
Po -1.905 -4
$EndPAD
$SHAPE3D
Na "smd/smd_dil/so-8.wrl"
Sc 1 1 1
Of 0 0 0
Ro 0 0 0
$EndSHAPE3D
$EndMODULE soic-8-wide
$EndLIBRARY
