PCBNEW-LibModule-V1  
# encoding utf-8
Units mm
$INDEX
QFN24G-0.5-4X4MM
$EndINDEX
$MODULE QFN24G-0.5-4X4MM
Po 0 0 0 15 00000000 00000000 ~~
Li QFN24G-0.5-4X4MM
Cd 
Sc 00000000
At SMD
Op 0 0 0
.SolderMask 0.1
.SolderPaste 0
T0 -0.127 -3.2385 0.7 0.7 0 0.05 N V 21 "QFN24G-0.5-4X4MM"
T1 0.3175 3.2385 0.7 0.7 0 0.05 N V 21 "VAL**"
DC 0 0 0.2 0 0.1 24
DS -2 -2 2 -2 0.127 24
DS 2 -2 2 2 0.127 24
DS 2 2 -2 2 0.127 24
DS -2 2 -2 -2 0.127 24
DS 0 -0.2 0 -1.4 0.1 24
DS -0.2 -1.2 0 -1.4 0.1 24
DS 0 -1.4 0.2 -1.2 0.1 24
DA 0 -0.649999 0.3 -0.7 -1610 0.1 24
DS 0.4 -0.8 0.3 -0.7 0.1 24
DS 0.3 -0.7 0.2 -0.7 0.1 24
DS 0.2 0 1.4 0 0.1 24
DS 1.2 -0.2 1.4 0 0.1 24
DS 1.4 0 1.2 0.2 0.1 24
DA 0.649999 0 0.7 0.3 -1610 0.1 24
DS 0.8 0.4 0.7 0.3 0.1 24
DS 0.7 0.3 0.7 0.2 0.1 24
DP 0 0 0 0 4 0.381 24
Dl 0.6775 2.0043
Dl 0.7689 2.0043
Dl 0.7689 2.0225
Dl 0.6775 2.0225
DP 0 0 0 0 4 0.381 24
Dl 0.7872 2.0043
Dl 0.8055 2.0043
Dl 0.8055 2.0225
Dl 0.7872 2.0225
DP 0 0 0 0 4 0.381 24
Dl 2.0308 2.0043
Dl 2.0491 2.0043
Dl 2.0491 2.0225
Dl 2.0308 2.0225
DP 0 0 0 0 4 0.381 24
Dl -1.3708 1.986
Dl -1.1696 1.986
Dl -1.1696 2.0043
Dl -1.3708 2.0043
DP 0 0 0 0 4 0.381 24
Dl -0.8587 1.986
Dl -0.6758 1.986
Dl -0.6758 2.0043
Dl -0.8587 2.0043
DP 0 0 0 0 4 0.381 24
Dl -0.3466 1.986
Dl -0.1637 1.986
Dl -0.1637 2.0043
Dl -0.3466 2.0043
DP 0 0 0 0 4 0.381 24
Dl 0.1654 1.986
Dl 0.3666 1.986
Dl 0.3666 2.0043
Dl 0.1654 2.0043
DP 0 0 0 0 4 0.381 24
Dl 0.6775 1.986
Dl 0.8787 1.986
Dl 0.8787 2.0043
Dl 0.6775 2.0043
DP 0 0 0 0 4 0.381 24
Dl 1.1896 1.986
Dl 1.3907 1.986
Dl 1.3907 2.0043
Dl 1.1896 2.0043
DP 0 0 0 0 4 0.381 24
Dl 2.0308 1.986
Dl 2.0491 1.986
Dl 2.0491 2.0043
Dl 2.0308 2.0043
DP 0 0 0 0 4 0.381 24
Dl -1.389 1.9677
Dl -1.1513 1.9677
Dl -1.1513 1.986
Dl -1.389 1.986
DP 0 0 0 0 4 0.381 24
Dl -0.877 1.9677
Dl -0.6575 1.9677
Dl -0.6575 1.986
Dl -0.877 1.986
DP 0 0 0 0 4 0.381 24
Dl -0.3649 1.9677
Dl -0.1455 1.9677
Dl -0.1455 1.986
Dl -0.3649 1.986
DP 0 0 0 0 4 0.381 24
Dl 0.1472 1.9677
Dl 0.3849 1.9677
Dl 0.3849 1.986
Dl 0.1472 1.986
DP 0 0 0 0 4 0.381 24
Dl 0.6592 1.9677
Dl 0.8787 1.9677
Dl 0.8787 1.986
Dl 0.6592 1.986
DP 0 0 0 0 4 0.381 24
Dl 1.1713 1.9677
Dl 1.3907 1.9677
Dl 1.3907 1.986
Dl 1.1713 1.986
DP 0 0 0 0 4 0.381 24
Dl -1.389 1.9494
Dl -1.1513 1.9494
Dl -1.1513 1.9677
Dl -1.389 1.9677
DP 0 0 0 0 4 0.381 24
Dl -0.877 1.9494
Dl -0.6575 1.9494
Dl -0.6575 1.9677
Dl -0.877 1.9677
DP 0 0 0 0 4 0.381 24
Dl -0.3649 1.9494
Dl -0.1455 1.9494
Dl -0.1455 1.9677
Dl -0.3649 1.9677
DP 0 0 0 0 4 0.381 24
Dl 0.1654 1.9494
Dl 0.3849 1.9494
Dl 0.3849 1.9677
Dl 0.1654 1.9677
DP 0 0 0 0 4 0.381 24
Dl 0.6592 1.9494
Dl 0.8787 1.9494
Dl 0.8787 1.9677
Dl 0.6592 1.9677
DP 0 0 0 0 4 0.381 24
Dl 1.1713 1.9494
Dl 1.409 1.9494
Dl 1.409 1.9677
Dl 1.1713 1.9677
DP 0 0 0 0 4 0.381 24
Dl -1.389 1.9311
Dl -1.1513 1.9311
Dl -1.1513 1.9494
Dl -1.389 1.9494
DP 0 0 0 0 4 0.381 24
Dl -0.877 1.9311
Dl -0.6392 1.9311
Dl -0.6392 1.9494
Dl -0.877 1.9494
DP 0 0 0 0 4 0.381 24
Dl -0.3649 1.9311
Dl -0.1455 1.9311
Dl -0.1455 1.9494
Dl -0.3649 1.9494
DP 0 0 0 0 4 0.381 24
Dl 0.1472 1.9311
Dl 0.3849 1.9311
Dl 0.3849 1.9494
Dl 0.1472 1.9494
DP 0 0 0 0 4 0.381 24
Dl 0.6592 1.9311
Dl 0.8787 1.9311
Dl 0.8787 1.9494
Dl 0.6592 1.9494
DP 0 0 0 0 4 0.381 24
Dl 1.1713 1.9311
Dl 1.409 1.9311
Dl 1.409 1.9494
Dl 1.1713 1.9494
DP 0 0 0 0 4 0.381 24
Dl -1.389 1.9128
Dl -1.1513 1.9128
Dl -1.1513 1.9311
Dl -1.389 1.9311
DP 0 0 0 0 4 0.381 24
Dl -0.877 1.9128
Dl -0.6392 1.9128
Dl -0.6392 1.9311
Dl -0.877 1.9311
DP 0 0 0 0 4 0.381 24
Dl -0.3649 1.9128
Dl -0.1272 1.9128
Dl -0.1272 1.9311
Dl -0.3649 1.9311
DP 0 0 0 0 4 0.381 24
Dl 0.1472 1.9128
Dl 0.3849 1.9128
Dl 0.3849 1.9311
Dl 0.1472 1.9311
DP 0 0 0 0 4 0.381 24
Dl 0.6592 1.9128
Dl 0.897 1.9128
Dl 0.897 1.9311
Dl 0.6592 1.9311
DP 0 0 0 0 4 0.381 24
Dl 1.1713 1.9128
Dl 1.409 1.9128
Dl 1.409 1.9311
Dl 1.1713 1.9311
DP 0 0 0 0 4 0.381 24
Dl -1.389 1.8945
Dl -1.1513 1.8945
Dl -1.1513 1.9128
Dl -1.389 1.9128
DP 0 0 0 0 4 0.381 24
Dl -0.877 1.8945
Dl -0.6392 1.8945
Dl -0.6392 1.9128
Dl -0.877 1.9128
DP 0 0 0 0 4 0.381 24
Dl -0.3649 1.8945
Dl -0.1272 1.8945
Dl -0.1272 1.9128
Dl -0.3649 1.9128
DP 0 0 0 0 4 0.381 24
Dl 0.1472 1.8945
Dl 0.3849 1.8945
Dl 0.3849 1.9128
Dl 0.1472 1.9128
DP 0 0 0 0 4 0.381 24
Dl 0.6409 1.8945
Dl 0.897 1.8945
Dl 0.897 1.9128
Dl 0.6409 1.9128
DP 0 0 0 0 4 0.381 24
Dl 1.153 1.8945
Dl 1.409 1.8945
Dl 1.409 1.9128
Dl 1.153 1.9128
DP 0 0 0 0 4 0.381 24
Dl -1.389 1.8762
Dl -1.133 1.8762
Dl -1.133 1.8945
Dl -1.389 1.8945
DP 0 0 0 0 4 0.381 24
Dl -0.877 1.8762
Dl -0.6392 1.8762
Dl -0.6392 1.8945
Dl -0.877 1.8945
DP 0 0 0 0 4 0.381 24
Dl -0.3832 1.8762
Dl -0.1272 1.8762
Dl -0.1272 1.8945
Dl -0.3832 1.8945
DP 0 0 0 0 4 0.381 24
Dl 0.1472 1.8762
Dl 0.3849 1.8762
Dl 0.3849 1.8945
Dl 0.1472 1.8945
DP 0 0 0 0 4 0.381 24
Dl 0.6409 1.8762
Dl 0.897 1.8762
Dl 0.897 1.8945
Dl 0.6409 1.8945
DP 0 0 0 0 4 0.381 24
Dl 1.153 1.8762
Dl 1.409 1.8762
Dl 1.409 1.8945
Dl 1.153 1.8945
DP 0 0 0 0 4 0.381 24
Dl -1.389 1.858
Dl -1.133 1.858
Dl -1.133 1.8762
Dl -1.389 1.8762
DP 0 0 0 0 4 0.381 24
Dl -0.877 1.858
Dl -0.6209 1.858
Dl -0.6209 1.8762
Dl -0.877 1.8762
DP 0 0 0 0 4 0.381 24
Dl -0.3832 1.858
Dl -0.1272 1.858
Dl -0.1272 1.8762
Dl -0.3832 1.8762
DP 0 0 0 0 4 0.381 24
Dl 0.1289 1.858
Dl 0.4032 1.858
Dl 0.4032 1.8762
Dl 0.1289 1.8762
DP 0 0 0 0 4 0.381 24
Dl 0.6409 1.858
Dl 0.897 1.858
Dl 0.897 1.8762
Dl 0.6409 1.8762
DP 0 0 0 0 4 0.381 24
Dl 1.153 1.858
Dl 1.409 1.858
Dl 1.409 1.8762
Dl 1.153 1.8762
DP 0 0 0 0 4 0.381 24
Dl -1.389 1.8397
Dl -1.133 1.8397
Dl -1.133 1.858
Dl -1.389 1.858
DP 0 0 0 0 4 0.381 24
Dl -0.8953 1.8397
Dl -0.6209 1.8397
Dl -0.6209 1.858
Dl -0.8953 1.858
DP 0 0 0 0 4 0.381 24
Dl -0.3832 1.8397
Dl -0.1272 1.8397
Dl -0.1272 1.858
Dl -0.3832 1.858
DP 0 0 0 0 4 0.381 24
Dl 0.1289 1.8397
Dl 0.3849 1.8397
Dl 0.3849 1.858
Dl 0.1289 1.858
DP 0 0 0 0 4 0.381 24
Dl 0.6409 1.8397
Dl 0.897 1.8397
Dl 0.897 1.858
Dl 0.6409 1.858
DP 0 0 0 0 4 0.381 24
Dl 1.153 1.8397
Dl 1.409 1.8397
Dl 1.409 1.858
Dl 1.153 1.858
DP 0 0 0 0 4 0.381 24
Dl -1.389 1.8214
Dl -1.1513 1.8214
Dl -1.1513 1.8397
Dl -1.389 1.8397
DP 0 0 0 0 4 0.381 24
Dl -0.8953 1.8214
Dl -0.6209 1.8214
Dl -0.6209 1.8397
Dl -0.8953 1.8397
DP 0 0 0 0 4 0.381 24
Dl -0.3832 1.8214
Dl -0.1272 1.8214
Dl -0.1272 1.8397
Dl -0.3832 1.8397
DP 0 0 0 0 4 0.381 24
Dl 0.1289 1.8214
Dl 0.3849 1.8214
Dl 0.3849 1.8397
Dl 0.1289 1.8397
DP 0 0 0 0 4 0.381 24
Dl 0.6409 1.8214
Dl 0.897 1.8214
Dl 0.897 1.8397
Dl 0.6409 1.8397
DP 0 0 0 0 4 0.381 24
Dl 1.153 1.8214
Dl 1.409 1.8214
Dl 1.409 1.8397
Dl 1.153 1.8397
DP 0 0 0 0 4 0.381 24
Dl -1.389 1.8031
Dl -1.1513 1.8031
Dl -1.1513 1.8214
Dl -1.389 1.8214
DP 0 0 0 0 4 0.381 24
Dl -0.8953 1.8031
Dl -0.6209 1.8031
Dl -0.6209 1.8214
Dl -0.8953 1.8214
DP 0 0 0 0 4 0.381 24
Dl -0.3832 1.8031
Dl -0.1089 1.8031
Dl -0.1089 1.8214
Dl -0.3832 1.8214
DP 0 0 0 0 4 0.381 24
Dl 0.1289 1.8031
Dl 0.3849 1.8031
Dl 0.3849 1.8214
Dl 0.1289 1.8214
DP 0 0 0 0 4 0.381 24
Dl 0.6409 1.8031
Dl 0.897 1.8031
Dl 0.897 1.8214
Dl 0.6409 1.8214
DP 0 0 0 0 4 0.381 24
Dl 1.153 1.8031
Dl 1.409 1.8031
Dl 1.409 1.8214
Dl 1.153 1.8214
DP 0 0 0 0 4 0.381 24
Dl -1.389 1.7848
Dl -1.1513 1.7848
Dl -1.1513 1.8031
Dl -1.389 1.8031
DP 0 0 0 0 4 0.381 24
Dl -0.8953 1.7848
Dl -0.6392 1.7848
Dl -0.6392 1.8031
Dl -0.8953 1.8031
DP 0 0 0 0 4 0.381 24
Dl -0.3832 1.7848
Dl -0.1272 1.7848
Dl -0.1272 1.8031
Dl -0.3832 1.8031
DP 0 0 0 0 4 0.381 24
Dl 0.1289 1.7848
Dl 0.3849 1.7848
Dl 0.3849 1.8031
Dl 0.1289 1.8031
DP 0 0 0 0 4 0.381 24
Dl 0.6409 1.7848
Dl 0.897 1.7848
Dl 0.897 1.8031
Dl 0.6409 1.8031
DP 0 0 0 0 4 0.381 24
Dl 1.153 1.7848
Dl 1.409 1.7848
Dl 1.409 1.8031
Dl 1.153 1.8031
DP 0 0 0 0 4 0.381 24
Dl -1.389 1.7665
Dl -1.133 1.7665
Dl -1.133 1.7848
Dl -1.389 1.7848
DP 0 0 0 0 4 0.381 24
Dl -0.8953 1.7665
Dl -0.6209 1.7665
Dl -0.6209 1.7848
Dl -0.8953 1.7848
DP 0 0 0 0 4 0.381 24
Dl -0.3832 1.7665
Dl -0.1272 1.7665
Dl -0.1272 1.7848
Dl -0.3832 1.7848
DP 0 0 0 0 4 0.381 24
Dl 0.1289 1.7665
Dl 0.3849 1.7665
Dl 0.3849 1.7848
Dl 0.1289 1.7848
DP 0 0 0 0 4 0.381 24
Dl 0.6409 1.7665
Dl 0.897 1.7665
Dl 0.897 1.7848
Dl 0.6409 1.7848
DP 0 0 0 0 4 0.381 24
Dl 1.153 1.7665
Dl 1.3907 1.7665
Dl 1.3907 1.7848
Dl 1.153 1.7848
DP 0 0 0 0 4 0.381 24
Dl -1.3708 1.7482
Dl -1.133 1.7482
Dl -1.133 1.7665
Dl -1.3708 1.7665
DP 0 0 0 0 4 0.381 24
Dl -0.8953 1.7482
Dl -0.6209 1.7482
Dl -0.6209 1.7665
Dl -0.8953 1.7665
DP 0 0 0 0 4 0.381 24
Dl -0.3649 1.7482
Dl -0.1272 1.7482
Dl -0.1272 1.7665
Dl -0.3649 1.7665
DP 0 0 0 0 4 0.381 24
Dl 0.1289 1.7482
Dl 0.3849 1.7482
Dl 0.3849 1.7665
Dl 0.1289 1.7665
DP 0 0 0 0 4 0.381 24
Dl 0.6409 1.7482
Dl 0.897 1.7482
Dl 0.897 1.7665
Dl 0.6409 1.7665
DP 0 0 0 0 4 0.381 24
Dl 1.153 1.7482
Dl 1.3907 1.7482
Dl 1.3907 1.7665
Dl 1.153 1.7665
DP 0 0 0 0 4 0.381 24
Dl -1.3525 1.7299
Dl -1.133 1.7299
Dl -1.133 1.7482
Dl -1.3525 1.7482
DP 0 0 0 0 4 0.381 24
Dl -0.8953 1.7299
Dl -0.6209 1.7299
Dl -0.6209 1.7482
Dl -0.8953 1.7482
DP 0 0 0 0 4 0.381 24
Dl -0.3832 1.7299
Dl -0.1272 1.7299
Dl -0.1272 1.7482
Dl -0.3832 1.7482
DP 0 0 0 0 4 0.381 24
Dl 0.1289 1.7299
Dl 0.3849 1.7299
Dl 0.3849 1.7482
Dl 0.1289 1.7482
DP 0 0 0 0 4 0.381 24
Dl 0.6409 1.7299
Dl 0.897 1.7299
Dl 0.897 1.7482
Dl 0.6409 1.7482
DP 0 0 0 0 4 0.381 24
Dl 1.153 1.7299
Dl 1.3724 1.7299
Dl 1.3724 1.7482
Dl 1.153 1.7482
DP 0 0 0 0 4 0.381 24
Dl -1.3342 1.7116
Dl -1.1513 1.7116
Dl -1.1513 1.7299
Dl -1.3342 1.7299
DP 0 0 0 0 4 0.381 24
Dl -0.8953 1.7116
Dl -0.6209 1.7116
Dl -0.6209 1.7299
Dl -0.8953 1.7299
DP 0 0 0 0 4 0.381 24
Dl -0.3832 1.7116
Dl -0.1272 1.7116
Dl -0.1272 1.7299
Dl -0.3832 1.7299
DP 0 0 0 0 4 0.381 24
Dl 0.1289 1.7116
Dl 0.3849 1.7116
Dl 0.3849 1.7299
Dl 0.1289 1.7299
DP 0 0 0 0 4 0.381 24
Dl 0.6409 1.7116
Dl 0.897 1.7116
Dl 0.897 1.7299
Dl 0.6409 1.7299
DP 0 0 0 0 4 0.381 24
Dl 1.153 1.7116
Dl 1.3542 1.7116
Dl 1.3542 1.7299
Dl 1.153 1.7299
DP 0 0 0 0 4 0.381 24
Dl -1.3159 1.6934
Dl -1.1513 1.6934
Dl -1.1513 1.7116
Dl -1.3159 1.7116
DP 0 0 0 0 4 0.381 24
Dl -0.877 1.6934
Dl -0.6392 1.6934
Dl -0.6392 1.7116
Dl -0.877 1.7116
DP 0 0 0 0 4 0.381 24
Dl -0.3649 1.6934
Dl -0.1272 1.6934
Dl -0.1272 1.7116
Dl -0.3649 1.7116
DP 0 0 0 0 4 0.381 24
Dl 0.1472 1.6934
Dl 0.3849 1.6934
Dl 0.3849 1.7116
Dl 0.1472 1.7116
DP 0 0 0 0 4 0.381 24
Dl 0.6592 1.6934
Dl 0.897 1.6934
Dl 0.897 1.7116
Dl 0.6592 1.7116
DP 0 0 0 0 4 0.381 24
Dl 1.1713 1.6934
Dl 1.3176 1.6934
Dl 1.3176 1.7116
Dl 1.1713 1.7116
DP 0 0 0 0 4 0.381 24
Dl -1.2793 1.6751
Dl -1.1696 1.6751
Dl -1.1696 1.6934
Dl -1.2793 1.6934
DP 0 0 0 0 4 0.381 24
Dl -0.8587 1.6751
Dl -0.6575 1.6751
Dl -0.6575 1.6934
Dl -0.8587 1.6934
DP 0 0 0 0 4 0.381 24
Dl -0.3466 1.6751
Dl -0.1455 1.6751
Dl -0.1455 1.6934
Dl -0.3466 1.6934
DP 0 0 0 0 4 0.381 24
Dl 0.1654 1.6751
Dl 0.3666 1.6751
Dl 0.3666 1.6934
Dl 0.1654 1.6934
DP 0 0 0 0 4 0.381 24
Dl 0.6592 1.6751
Dl 0.8787 1.6751
Dl 0.8787 1.6934
Dl 0.6592 1.6934
DP 0 0 0 0 4 0.381 24
Dl 1.2079 1.6751
Dl 1.281 1.6751
Dl 1.281 1.6934
Dl 1.2079 1.6934
DP 0 0 0 0 4 0.381 24
Dl -1.9377 1.3642
Dl -1.7365 1.3642
Dl -1.7365 1.3825
Dl -1.9377 1.3825
DP 0 0 0 0 4 0.381 24
Dl 1.7748 1.3642
Dl 1.8479 1.3642
Dl 1.8479 1.3825
Dl 1.7748 1.3825
DP 0 0 0 0 4 0.381 24
Dl 1.8845 1.3642
Dl 1.9394 1.3642
Dl 1.9394 1.3825
Dl 1.8845 1.3825
DP 0 0 0 0 4 0.381 24
Dl -1.9925 1.3459
Dl -1.7182 1.3459
Dl -1.7182 1.3642
Dl -1.9925 1.3642
DP 0 0 0 0 4 0.381 24
Dl -1.1513 1.3459
Dl -1.0599 1.3459
Dl -1.0599 1.3642
Dl -1.1513 1.3642
DP 0 0 0 0 4 0.381 24
Dl -1.0416 1.3459
Dl -0.9684 1.3459
Dl -0.9684 1.3642
Dl -1.0416 1.3642
DP 0 0 0 0 4 0.381 24
Dl -0.9501 1.3459
Dl -0.5112 1.3459
Dl -0.5112 1.3642
Dl -0.9501 1.3642
DP 0 0 0 0 4 0.381 24
Dl -0.4746 1.3459
Dl -0.4564 1.3459
Dl -0.4564 1.3642
Dl -0.4746 1.3642
DP 0 0 0 0 4 0.381 24
Dl -0.4381 1.3459
Dl -0.31 1.3459
Dl -0.31 1.3642
Dl -0.4381 1.3642
DP 0 0 0 0 4 0.381 24
Dl -0.2918 1.3459
Dl -0.0357 1.3459
Dl -0.0357 1.3642
Dl -0.2918 1.3642
DP 0 0 0 0 4 0.381 24
Dl 0.0008 1.3459
Dl 0.8055 1.3459
Dl 0.8055 1.3642
Dl 0.0008 1.3642
DP 0 0 0 0 4 0.381 24
Dl 0.8238 1.3459
Dl 0.897 1.3459
Dl 0.897 1.3642
Dl 0.8238 1.3642
DP 0 0 0 0 4 0.381 24
Dl 0.9152 1.3459
Dl 1.025 1.3459
Dl 1.025 1.3642
Dl 0.9152 1.3642
DP 0 0 0 0 4 0.381 24
Dl 1.0616 1.3459
Dl 1.0981 1.3459
Dl 1.0981 1.3642
Dl 1.0616 1.3642
DP 0 0 0 0 4 0.381 24
Dl 1.153 1.3459
Dl 1.1713 1.3459
Dl 1.1713 1.3642
Dl 1.153 1.3642
DP 0 0 0 0 4 0.381 24
Dl 1.7199 1.3459
Dl 2.0308 1.3459
Dl 2.0308 1.3642
Dl 1.7199 1.3642
DP 0 0 0 0 4 0.381 24
Dl -1.9925 1.3276
Dl -1.6816 1.3276
Dl -1.6816 1.3459
Dl -1.9925 1.3459
DP 0 0 0 0 4 0.381 24
Dl -1.261 1.3276
Dl 1.2627 1.3276
Dl 1.2627 1.3459
Dl -1.261 1.3459
DP 0 0 0 0 4 0.381 24
Dl 1.7199 1.3276
Dl 2.0308 1.3276
Dl 2.0308 1.3459
Dl 1.7199 1.3459
DP 0 0 0 0 4 0.381 24
Dl -1.9925 1.3093
Dl -1.6816 1.3093
Dl -1.6816 1.3276
Dl -1.9925 1.3276
DP 0 0 0 0 4 0.381 24
Dl -1.2793 1.3093
Dl 1.2993 1.3093
Dl 1.2993 1.3276
Dl -1.2793 1.3276
DP 0 0 0 0 4 0.381 24
Dl 1.6833 1.3093
Dl 2.0491 1.3093
Dl 2.0491 1.3276
Dl 1.6833 1.3276
DP 0 0 0 0 4 0.381 24
Dl -1.9925 1.291
Dl -1.6634 1.291
Dl -1.6634 1.3093
Dl -1.9925 1.3093
DP 0 0 0 0 4 0.381 24
Dl -1.2976 1.291
Dl 1.2993 1.291
Dl 1.2993 1.3093
Dl -1.2976 1.3093
DP 0 0 0 0 4 0.381 24
Dl 1.6833 1.291
Dl 2.0491 1.291
Dl 2.0491 1.3093
Dl 1.6833 1.3093
DP 0 0 0 0 4 0.381 24
Dl -1.9925 1.2727
Dl -1.6451 1.2727
Dl -1.6451 1.291
Dl -1.9925 1.291
DP 0 0 0 0 4 0.381 24
Dl -1.2976 1.2727
Dl 1.3176 1.2727
Dl 1.3176 1.291
Dl -1.2976 1.291
DP 0 0 0 0 4 0.381 24
Dl 1.6651 1.2727
Dl 2.0491 1.2727
Dl 2.0491 1.291
Dl 1.6651 1.291
DP 0 0 0 0 4 0.381 24
Dl -1.9925 1.2544
Dl -1.6268 1.2544
Dl -1.6268 1.2727
Dl -1.9925 1.2727
DP 0 0 0 0 4 0.381 24
Dl -1.2976 1.2544
Dl 1.3176 1.2544
Dl 1.3176 1.2727
Dl -1.2976 1.2727
DP 0 0 0 0 4 0.381 24
Dl 1.6468 1.2544
Dl 2.0491 1.2544
Dl 2.0491 1.2727
Dl 1.6468 1.2727
DP 0 0 0 0 4 0.381 24
Dl -1.9925 1.2362
Dl -1.6268 1.2362
Dl -1.6268 1.2544
Dl -1.9925 1.2544
DP 0 0 0 0 4 0.381 24
Dl -1.3159 1.2362
Dl 1.3176 1.2362
Dl 1.3176 1.2544
Dl -1.3159 1.2544
DP 0 0 0 0 4 0.381 24
Dl 1.6468 1.2362
Dl 2.0491 1.2362
Dl 2.0491 1.2544
Dl 1.6468 1.2544
DP 0 0 0 0 4 0.381 24
Dl -1.9925 1.2179
Dl -1.6268 1.2179
Dl -1.6268 1.2362
Dl -1.9925 1.2362
DP 0 0 0 0 4 0.381 24
Dl -1.3159 1.2179
Dl 1.3359 1.2179
Dl 1.3359 1.2362
Dl -1.3159 1.2362
DP 0 0 0 0 4 0.381 24
Dl 1.6468 1.2179
Dl 2.0491 1.2179
Dl 2.0491 1.2362
Dl 1.6468 1.2362
DP 0 0 0 0 4 0.381 24
Dl -1.9925 1.1996
Dl -1.6268 1.1996
Dl -1.6268 1.2179
Dl -1.9925 1.2179
DP 0 0 0 0 4 0.381 24
Dl -1.3159 1.1996
Dl 1.3359 1.1996
Dl 1.3359 1.2179
Dl -1.3159 1.2179
DP 0 0 0 0 4 0.381 24
Dl 1.6468 1.1996
Dl 2.0491 1.1996
Dl 2.0491 1.2179
Dl 1.6468 1.2179
DP 0 0 0 0 4 0.381 24
Dl -1.9925 1.1813
Dl -1.6268 1.1813
Dl -1.6268 1.1996
Dl -1.9925 1.1996
DP 0 0 0 0 4 0.381 24
Dl -1.3159 1.1813
Dl 1.3176 1.1813
Dl 1.3176 1.1996
Dl -1.3159 1.1996
DP 0 0 0 0 4 0.381 24
Dl 1.6468 1.1813
Dl 2.0491 1.1813
Dl 2.0491 1.1996
Dl 1.6468 1.1996
DP 0 0 0 0 4 0.381 24
Dl -1.9925 1.163
Dl -1.6268 1.163
Dl -1.6268 1.1813
Dl -1.9925 1.1813
DP 0 0 0 0 4 0.381 24
Dl -1.3159 1.163
Dl 1.3359 1.163
Dl 1.3359 1.1813
Dl -1.3159 1.1813
DP 0 0 0 0 4 0.381 24
Dl 1.6468 1.163
Dl 2.0491 1.163
Dl 2.0491 1.1813
Dl 1.6468 1.1813
DP 0 0 0 0 4 0.381 24
Dl -1.9925 1.1447
Dl -1.9743 1.1447
Dl -1.9743 1.163
Dl -1.9925 1.163
DP 0 0 0 0 4 0.381 24
Dl -1.9377 1.1447
Dl -1.6451 1.1447
Dl -1.6451 1.163
Dl -1.9377 1.163
DP 0 0 0 0 4 0.381 24
Dl -1.3159 1.1447
Dl 1.3359 1.1447
Dl 1.3359 1.163
Dl -1.3159 1.163
DP 0 0 0 0 4 0.381 24
Dl 1.6651 1.1447
Dl 1.9577 1.1447
Dl 1.9577 1.163
Dl 1.6651 1.163
DP 0 0 0 0 4 0.381 24
Dl 2.0125 1.1447
Dl 2.0491 1.1447
Dl 2.0491 1.163
Dl 2.0125 1.163
DP 0 0 0 0 4 0.381 24
Dl -1.9011 1.1264
Dl -1.8828 1.1264
Dl -1.8828 1.1447
Dl -1.9011 1.1447
DP 0 0 0 0 4 0.381 24
Dl -1.3159 1.1264
Dl 1.3359 1.1264
Dl 1.3359 1.1447
Dl -1.3159 1.1447
DP 0 0 0 0 4 0.381 24
Dl -1.3159 1.1081
Dl 1.3359 1.1081
Dl 1.3359 1.1264
Dl -1.3159 1.1264
DP 0 0 0 0 4 0.381 24
Dl -1.3159 1.0899
Dl 1.3359 1.0899
Dl 1.3359 1.1081
Dl -1.3159 1.1081
DP 0 0 0 0 4 0.381 24
Dl -1.3159 1.0716
Dl 1.3359 1.0716
Dl 1.3359 1.0899
Dl -1.3159 1.0899
DP 0 0 0 0 4 0.381 24
Dl -1.3159 1.0533
Dl 1.3359 1.0533
Dl 1.3359 1.0716
Dl -1.3159 1.0716
DP 0 0 0 0 4 0.381 24
Dl -1.3159 1.035
Dl 1.3359 1.035
Dl 1.3359 1.0533
Dl -1.3159 1.0533
DP 0 0 0 0 4 0.381 24
Dl -1.3159 1.0167
Dl 1.3359 1.0167
Dl 1.3359 1.035
Dl -1.3159 1.035
DP 0 0 0 0 4 0.381 24
Dl -1.3159 0.9984
Dl 1.3359 0.9984
Dl 1.3359 1.0167
Dl -1.3159 1.0167
DP 0 0 0 0 4 0.381 24
Dl -1.3159 0.9801
Dl 1.3359 0.9801
Dl 1.3359 0.9984
Dl -1.3159 0.9984
DP 0 0 0 0 4 0.381 24
Dl -1.3159 0.9618
Dl 1.3359 0.9618
Dl 1.3359 0.9801
Dl -1.3159 0.9801
DP 0 0 0 0 4 0.381 24
Dl -1.3159 0.9436
Dl 1.3359 0.9436
Dl 1.3359 0.9618
Dl -1.3159 0.9618
DP 0 0 0 0 4 0.381 24
Dl -1.3159 0.9253
Dl 1.3359 0.9253
Dl 1.3359 0.9436
Dl -1.3159 0.9436
DP 0 0 0 0 4 0.381 24
Dl -1.3159 0.907
Dl 1.3359 0.907
Dl 1.3359 0.9253
Dl -1.3159 0.9253
DP 0 0 0 0 4 0.381 24
Dl -1.3159 0.8887
Dl 1.3359 0.8887
Dl 1.3359 0.907
Dl -1.3159 0.907
DP 0 0 0 0 4 0.381 24
Dl -1.8645 0.8704
Dl -1.7365 0.8704
Dl -1.7365 0.8887
Dl -1.8645 0.8887
DP 0 0 0 0 4 0.381 24
Dl -1.3159 0.8704
Dl 1.3359 0.8704
Dl 1.3359 0.8887
Dl -1.3159 0.8887
DP 0 0 0 0 4 0.381 24
Dl 1.8114 0.8704
Dl 1.8296 0.8704
Dl 1.8296 0.8887
Dl 1.8114 0.8887
DP 0 0 0 0 4 0.381 24
Dl 1.8662 0.8704
Dl 1.9028 0.8704
Dl 1.9028 0.8887
Dl 1.8662 0.8887
DP 0 0 0 0 4 0.381 24
Dl -1.9377 0.8521
Dl -1.6451 0.8521
Dl -1.6451 0.8704
Dl -1.9377 0.8704
DP 0 0 0 0 4 0.381 24
Dl -1.3159 0.8521
Dl 1.3359 0.8521
Dl 1.3359 0.8704
Dl -1.3159 0.8704
DP 0 0 0 0 4 0.381 24
Dl 1.6468 0.8521
Dl 1.9577 0.8521
Dl 1.9577 0.8704
Dl 1.6468 0.8704
DP 0 0 0 0 4 0.381 24
Dl -1.9925 0.8338
Dl -1.6268 0.8338
Dl -1.6268 0.8521
Dl -1.9925 0.8521
DP 0 0 0 0 4 0.381 24
Dl -1.3159 0.8338
Dl 1.3359 0.8338
Dl 1.3359 0.8521
Dl -1.3159 0.8521
DP 0 0 0 0 4 0.381 24
Dl 1.6468 0.8338
Dl 2.0308 0.8338
Dl 2.0308 0.8521
Dl 1.6468 0.8521
DP 0 0 0 0 4 0.381 24
Dl -1.9925 0.8155
Dl -1.6268 0.8155
Dl -1.6268 0.8338
Dl -1.9925 0.8338
DP 0 0 0 0 4 0.381 24
Dl -1.3159 0.8155
Dl 1.3359 0.8155
Dl 1.3359 0.8338
Dl -1.3159 0.8338
DP 0 0 0 0 4 0.381 24
Dl 1.6468 0.8155
Dl 2.0491 0.8155
Dl 2.0491 0.8338
Dl 1.6468 0.8338
DP 0 0 0 0 4 0.381 24
Dl -1.9925 0.7972
Dl -1.6268 0.7972
Dl -1.6268 0.8155
Dl -1.9925 0.8155
DP 0 0 0 0 4 0.381 24
Dl -1.3159 0.7972
Dl 1.3359 0.7972
Dl 1.3359 0.8155
Dl -1.3159 0.8155
DP 0 0 0 0 4 0.381 24
Dl 1.6468 0.7972
Dl 2.0491 0.7972
Dl 2.0491 0.8155
Dl 1.6468 0.8155
DP 0 0 0 0 4 0.381 24
Dl -1.9925 0.779
Dl -1.6268 0.779
Dl -1.6268 0.7972
Dl -1.9925 0.7972
DP 0 0 0 0 4 0.381 24
Dl -1.3159 0.779
Dl 1.3359 0.779
Dl 1.3359 0.7972
Dl -1.3159 0.7972
DP 0 0 0 0 4 0.381 24
Dl 1.6468 0.779
Dl 2.0491 0.779
Dl 2.0491 0.7972
Dl 1.6468 0.7972
DP 0 0 0 0 4 0.381 24
Dl -1.9925 0.7607
Dl -1.6268 0.7607
Dl -1.6268 0.779
Dl -1.9925 0.779
DP 0 0 0 0 4 0.381 24
Dl -1.3159 0.7607
Dl 1.3359 0.7607
Dl 1.3359 0.779
Dl -1.3159 0.779
DP 0 0 0 0 4 0.381 24
Dl 1.6468 0.7607
Dl 2.0491 0.7607
Dl 2.0491 0.779
Dl 1.6468 0.779
DP 0 0 0 0 4 0.381 24
Dl -1.9925 0.7424
Dl -1.6268 0.7424
Dl -1.6268 0.7607
Dl -1.9925 0.7607
DP 0 0 0 0 4 0.381 24
Dl -1.3159 0.7424
Dl 1.3359 0.7424
Dl 1.3359 0.7607
Dl -1.3159 0.7607
DP 0 0 0 0 4 0.381 24
Dl 1.6468 0.7424
Dl 2.0491 0.7424
Dl 2.0491 0.7607
Dl 1.6468 0.7607
DP 0 0 0 0 4 0.381 24
Dl -1.9925 0.7241
Dl -1.6268 0.7241
Dl -1.6268 0.7424
Dl -1.9925 0.7424
DP 0 0 0 0 4 0.381 24
Dl -1.3159 0.7241
Dl 1.3359 0.7241
Dl 1.3359 0.7424
Dl -1.3159 0.7424
DP 0 0 0 0 4 0.381 24
Dl 1.6468 0.7241
Dl 2.0491 0.7241
Dl 2.0491 0.7424
Dl 1.6468 0.7424
DP 0 0 0 0 4 0.381 24
Dl -1.9925 0.7058
Dl -1.6268 0.7058
Dl -1.6268 0.7241
Dl -1.9925 0.7241
DP 0 0 0 0 4 0.381 24
Dl -1.3159 0.7058
Dl 1.3359 0.7058
Dl 1.3359 0.7241
Dl -1.3159 0.7241
DP 0 0 0 0 4 0.381 24
Dl 1.6468 0.7058
Dl 2.0491 0.7058
Dl 2.0491 0.7241
Dl 1.6468 0.7241
DP 0 0 0 0 4 0.381 24
Dl -1.9925 0.6875
Dl -1.6268 0.6875
Dl -1.6268 0.7058
Dl -1.9925 0.7058
DP 0 0 0 0 4 0.381 24
Dl -1.3159 0.6875
Dl 1.3359 0.6875
Dl 1.3359 0.7058
Dl -1.3159 0.7058
DP 0 0 0 0 4 0.381 24
Dl 1.6468 0.6875
Dl 2.0491 0.6875
Dl 2.0491 0.7058
Dl 1.6468 0.7058
DP 0 0 0 0 4 0.381 24
Dl -1.9925 0.6692
Dl -1.6268 0.6692
Dl -1.6268 0.6875
Dl -1.9925 0.6875
DP 0 0 0 0 4 0.381 24
Dl -1.3159 0.6692
Dl 1.3359 0.6692
Dl 1.3359 0.6875
Dl -1.3159 0.6875
DP 0 0 0 0 4 0.381 24
Dl 1.6468 0.6692
Dl 2.0491 0.6692
Dl 2.0491 0.6875
Dl 1.6468 0.6875
DP 0 0 0 0 4 0.381 24
Dl -1.956 0.6509
Dl -1.6451 0.6509
Dl -1.6451 0.6692
Dl -1.956 0.6692
DP 0 0 0 0 4 0.381 24
Dl -1.3159 0.6509
Dl 1.3359 0.6509
Dl 1.3359 0.6692
Dl -1.3159 0.6692
DP 0 0 0 0 4 0.381 24
Dl 1.6468 0.6509
Dl 1.9577 0.6509
Dl 1.9577 0.6692
Dl 1.6468 0.6692
DP 0 0 0 0 4 0.381 24
Dl 1.9942 0.6509
Dl 2.0491 0.6509
Dl 2.0491 0.6692
Dl 1.9942 0.6692
DP 0 0 0 0 4 0.381 24
Dl -1.8462 0.6327
Dl -1.7365 0.6327
Dl -1.7365 0.6509
Dl -1.8462 0.6509
DP 0 0 0 0 4 0.381 24
Dl -1.3159 0.6327
Dl 1.3359 0.6327
Dl 1.3359 0.6509
Dl -1.3159 0.6509
DP 0 0 0 0 4 0.381 24
Dl 1.6833 0.6327
Dl 1.7016 0.6327
Dl 1.7016 0.6509
Dl 1.6833 0.6509
DP 0 0 0 0 4 0.381 24
Dl 1.7199 0.6327
Dl 1.7748 0.6327
Dl 1.7748 0.6509
Dl 1.7199 0.6509
DP 0 0 0 0 4 0.381 24
Dl 1.8662 0.6327
Dl 1.9211 0.6327
Dl 1.9211 0.6509
Dl 1.8662 0.6509
DP 0 0 0 0 4 0.381 24
Dl -1.3159 0.6144
Dl 1.3359 0.6144
Dl 1.3359 0.6327
Dl -1.3159 0.6327
DP 0 0 0 0 4 0.381 24
Dl -1.3159 0.5961
Dl 1.3359 0.5961
Dl 1.3359 0.6144
Dl -1.3159 0.6144
DP 0 0 0 0 4 0.381 24
Dl -1.3159 0.5778
Dl 1.3359 0.5778
Dl 1.3359 0.5961
Dl -1.3159 0.5961
DP 0 0 0 0 4 0.381 24
Dl -1.3159 0.5595
Dl 1.3359 0.5595
Dl 1.3359 0.5778
Dl -1.3159 0.5778
DP 0 0 0 0 4 0.381 24
Dl -1.3159 0.5412
Dl 1.3359 0.5412
Dl 1.3359 0.5595
Dl -1.3159 0.5595
DP 0 0 0 0 4 0.381 24
Dl -1.3159 0.5229
Dl 1.3359 0.5229
Dl 1.3359 0.5412
Dl -1.3159 0.5412
DP 0 0 0 0 4 0.381 24
Dl -1.3159 0.5046
Dl 1.3359 0.5046
Dl 1.3359 0.5229
Dl -1.3159 0.5229
DP 0 0 0 0 4 0.381 24
Dl -1.3159 0.4864
Dl 1.3359 0.4864
Dl 1.3359 0.5046
Dl -1.3159 0.5046
DP 0 0 0 0 4 0.381 24
Dl -1.3159 0.4681
Dl 1.3359 0.4681
Dl 1.3359 0.4864
Dl -1.3159 0.4864
DP 0 0 0 0 4 0.381 24
Dl -1.3159 0.4498
Dl 1.3359 0.4498
Dl 1.3359 0.4681
Dl -1.3159 0.4681
DP 0 0 0 0 4 0.381 24
Dl -1.3159 0.4315
Dl 1.3359 0.4315
Dl 1.3359 0.4498
Dl -1.3159 0.4498
DP 0 0 0 0 4 0.381 24
Dl -1.3159 0.4132
Dl 1.3359 0.4132
Dl 1.3359 0.4315
Dl -1.3159 0.4315
DP 0 0 0 0 4 0.381 24
Dl -1.3159 0.3949
Dl 1.3359 0.3949
Dl 1.3359 0.4132
Dl -1.3159 0.4132
DP 0 0 0 0 4 0.381 24
Dl -1.3159 0.3766
Dl 1.3359 0.3766
Dl 1.3359 0.3949
Dl -1.3159 0.3949
DP 0 0 0 0 4 0.381 24
Dl -1.9194 0.3583
Dl -1.6268 0.3583
Dl -1.6268 0.3766
Dl -1.9194 0.3766
DP 0 0 0 0 4 0.381 24
Dl -1.3159 0.3583
Dl 1.3359 0.3583
Dl 1.3359 0.3766
Dl -1.3159 0.3766
DP 0 0 0 0 4 0.381 24
Dl 1.6651 0.3583
Dl 1.9394 0.3583
Dl 1.9394 0.3766
Dl 1.6651 0.3766
DP 0 0 0 0 4 0.381 24
Dl 1.976 0.3583
Dl 1.9942 0.3583
Dl 1.9942 0.3766
Dl 1.976 0.3766
DP 0 0 0 0 4 0.381 24
Dl -1.9743 0.34
Dl -1.6268 0.34
Dl -1.6268 0.3583
Dl -1.9743 0.3583
DP 0 0 0 0 4 0.381 24
Dl -1.3159 0.34
Dl 1.3359 0.34
Dl 1.3359 0.3583
Dl -1.3159 0.3583
DP 0 0 0 0 4 0.381 24
Dl 1.6468 0.34
Dl 2.0125 0.34
Dl 2.0125 0.3583
Dl 1.6468 0.3583
DP 0 0 0 0 4 0.381 24
Dl -1.9925 0.3218
Dl -1.6268 0.3218
Dl -1.6268 0.34
Dl -1.9925 0.34
DP 0 0 0 0 4 0.381 24
Dl -1.3159 0.3218
Dl 1.3359 0.3218
Dl 1.3359 0.34
Dl -1.3159 0.34
DP 0 0 0 0 4 0.381 24
Dl 1.6468 0.3218
Dl 2.0491 0.3218
Dl 2.0491 0.34
Dl 1.6468 0.34
DP 0 0 0 0 4 0.381 24
Dl -1.9925 0.3035
Dl -1.6268 0.3035
Dl -1.6268 0.3218
Dl -1.9925 0.3218
DP 0 0 0 0 4 0.381 24
Dl -1.3159 0.3035
Dl 1.3359 0.3035
Dl 1.3359 0.3218
Dl -1.3159 0.3218
DP 0 0 0 0 4 0.381 24
Dl 1.6468 0.3035
Dl 2.0491 0.3035
Dl 2.0491 0.3218
Dl 1.6468 0.3218
DP 0 0 0 0 4 0.381 24
Dl -1.9925 0.2852
Dl -1.6268 0.2852
Dl -1.6268 0.3035
Dl -1.9925 0.3035
DP 0 0 0 0 4 0.381 24
Dl -1.3159 0.2852
Dl 1.3359 0.2852
Dl 1.3359 0.3035
Dl -1.3159 0.3035
DP 0 0 0 0 4 0.381 24
Dl 1.6285 0.2852
Dl 2.0491 0.2852
Dl 2.0491 0.3035
Dl 1.6285 0.3035
DP 0 0 0 0 4 0.381 24
Dl -1.9925 0.2669
Dl -1.6268 0.2669
Dl -1.6268 0.2852
Dl -1.9925 0.2852
DP 0 0 0 0 4 0.381 24
Dl -1.3159 0.2669
Dl 1.3359 0.2669
Dl 1.3359 0.2852
Dl -1.3159 0.2852
DP 0 0 0 0 4 0.381 24
Dl 1.6468 0.2669
Dl 2.0308 0.2669
Dl 2.0308 0.2852
Dl 1.6468 0.2852
DP 0 0 0 0 4 0.381 24
Dl -1.9925 0.2486
Dl -1.6268 0.2486
Dl -1.6268 0.2669
Dl -1.9925 0.2669
DP 0 0 0 0 4 0.381 24
Dl -1.3159 0.2486
Dl 1.3359 0.2486
Dl 1.3359 0.2669
Dl -1.3159 0.2669
DP 0 0 0 0 4 0.381 24
Dl 1.6468 0.2486
Dl 2.0308 0.2486
Dl 2.0308 0.2669
Dl 1.6468 0.2669
DP 0 0 0 0 4 0.381 24
Dl -1.9925 0.2303
Dl -1.6268 0.2303
Dl -1.6268 0.2486
Dl -1.9925 0.2486
DP 0 0 0 0 4 0.381 24
Dl -1.3159 0.2303
Dl 1.3359 0.2303
Dl 1.3359 0.2486
Dl -1.3159 0.2486
DP 0 0 0 0 4 0.381 24
Dl 1.6285 0.2303
Dl 2.0491 0.2303
Dl 2.0491 0.2486
Dl 1.6285 0.2486
DP 0 0 0 0 4 0.381 24
Dl -1.9743 0.212
Dl -1.6268 0.212
Dl -1.6268 0.2303
Dl -1.9743 0.2303
DP 0 0 0 0 4 0.381 24
Dl -1.3159 0.212
Dl 1.3359 0.212
Dl 1.3359 0.2303
Dl -1.3159 0.2303
DP 0 0 0 0 4 0.381 24
Dl 1.6285 0.212
Dl 2.0491 0.212
Dl 2.0491 0.2303
Dl 1.6285 0.2303
DP 0 0 0 0 4 0.381 24
Dl -1.9743 0.1937
Dl -1.6268 0.1937
Dl -1.6268 0.212
Dl -1.9743 0.212
DP 0 0 0 0 4 0.381 24
Dl -1.3159 0.1937
Dl 1.3359 0.1937
Dl 1.3359 0.212
Dl -1.3159 0.212
DP 0 0 0 0 4 0.381 24
Dl 1.6285 0.1937
Dl 2.0491 0.1937
Dl 2.0491 0.212
Dl 1.6285 0.212
DP 0 0 0 0 4 0.381 24
Dl -1.9925 0.1755
Dl -1.6268 0.1755
Dl -1.6268 0.1937
Dl -1.9925 0.1937
DP 0 0 0 0 4 0.381 24
Dl -1.3159 0.1755
Dl 1.3359 0.1755
Dl 1.3359 0.1937
Dl -1.3159 0.1937
DP 0 0 0 0 4 0.381 24
Dl 1.6468 0.1755
Dl 2.0491 0.1755
Dl 2.0491 0.1937
Dl 1.6468 0.1937
DP 0 0 0 0 4 0.381 24
Dl -1.9743 0.1572
Dl -1.6268 0.1572
Dl -1.6268 0.1755
Dl -1.9743 0.1755
DP 0 0 0 0 4 0.381 24
Dl -1.3159 0.1572
Dl 1.3359 0.1572
Dl 1.3359 0.1755
Dl -1.3159 0.1755
DP 0 0 0 0 4 0.381 24
Dl 1.6468 0.1572
Dl 2.0491 0.1572
Dl 2.0491 0.1755
Dl 1.6468 0.1755
DP 0 0 0 0 4 0.381 24
Dl -1.9011 0.1389
Dl -1.6634 0.1389
Dl -1.6634 0.1572
Dl -1.9011 0.1572
DP 0 0 0 0 4 0.381 24
Dl -1.3159 0.1389
Dl 1.3359 0.1389
Dl 1.3359 0.1572
Dl -1.3159 0.1572
DP 0 0 0 0 4 0.381 24
Dl 1.7016 0.1389
Dl 1.9394 0.1389
Dl 1.9394 0.1572
Dl 1.7016 0.1572
DP 0 0 0 0 4 0.381 24
Dl 1.9942 0.1389
Dl 2.0491 0.1389
Dl 2.0491 0.1572
Dl 1.9942 0.1572
DP 0 0 0 0 4 0.381 24
Dl -1.3159 0.1206
Dl 1.3359 0.1206
Dl 1.3359 0.1389
Dl -1.3159 0.1389
DP 0 0 0 0 4 0.381 24
Dl -1.3159 0.1023
Dl 1.3359 0.1023
Dl 1.3359 0.1206
Dl -1.3159 0.1206
DP 0 0 0 0 4 0.381 24
Dl 2.0308 0.1023
Dl 2.0491 0.1023
Dl 2.0491 0.1206
Dl 2.0308 0.1206
DP 0 0 0 0 4 0.381 24
Dl -1.3159 0.084
Dl 1.3359 0.084
Dl 1.3359 0.1023
Dl -1.3159 0.1023
DP 0 0 0 0 4 0.381 24
Dl 2.0308 0.084
Dl 2.0491 0.084
Dl 2.0491 0.1023
Dl 2.0308 0.1023
DP 0 0 0 0 4 0.381 24
Dl -1.3159 0.0657
Dl 1.3359 0.0657
Dl 1.3359 0.084
Dl -1.3159 0.084
DP 0 0 0 0 4 0.381 24
Dl 2.0308 0.0657
Dl 2.0491 0.0657
Dl 2.0491 0.084
Dl 2.0308 0.084
DP 0 0 0 0 4 0.381 24
Dl -1.3159 0.0474
Dl 1.3359 0.0474
Dl 1.3359 0.0657
Dl -1.3159 0.0657
DP 0 0 0 0 4 0.381 24
Dl -1.3159 0.0292
Dl 1.3176 0.0292
Dl 1.3176 0.0474
Dl -1.3159 0.0474
DP 0 0 0 0 4 0.381 24
Dl -1.3159 0.0109
Dl 1.3176 0.0109
Dl 1.3176 0.0292
Dl -1.3159 0.0292
DP 0 0 0 0 4 0.381 24
Dl -1.3159 -0.0074
Dl 1.3176 -0.0074
Dl 1.3176 0.0109
Dl -1.3159 0.0109
DP 0 0 0 0 4 0.381 24
Dl -1.3159 -0.0257
Dl 1.3176 -0.0257
Dl 1.3176 -0.0074
Dl -1.3159 -0.0074
DP 0 0 0 0 4 0.381 24
Dl 2.0308 -0.0257
Dl 2.0491 -0.0257
Dl 2.0491 -0.0074
Dl 2.0308 -0.0074
DP 0 0 0 0 4 0.381 24
Dl -1.3159 -0.044
Dl 1.3176 -0.044
Dl 1.3176 -0.0257
Dl -1.3159 -0.0257
DP 0 0 0 0 4 0.381 24
Dl -1.3159 -0.0623
Dl 1.3176 -0.0623
Dl 1.3176 -0.044
Dl -1.3159 -0.044
DP 0 0 0 0 4 0.381 24
Dl -1.3159 -0.0806
Dl 1.3176 -0.0806
Dl 1.3176 -0.0623
Dl -1.3159 -0.0623
DP 0 0 0 0 4 0.381 24
Dl -1.3159 -0.0989
Dl 1.3176 -0.0989
Dl 1.3176 -0.0806
Dl -1.3159 -0.0806
DP 0 0 0 0 4 0.381 24
Dl -1.3159 -0.1172
Dl 1.3359 -0.1172
Dl 1.3359 -0.0989
Dl -1.3159 -0.0989
DP 0 0 0 0 4 0.381 24
Dl -1.9011 -0.1354
Dl -1.6451 -0.1354
Dl -1.6451 -0.1172
Dl -1.9011 -0.1172
DP 0 0 0 0 4 0.381 24
Dl -1.3159 -0.1354
Dl 1.3359 -0.1354
Dl 1.3359 -0.1172
Dl -1.3159 -0.1172
DP 0 0 0 0 4 0.381 24
Dl 1.6833 -0.1354
Dl 1.7199 -0.1354
Dl 1.7199 -0.1172
Dl 1.6833 -0.1172
DP 0 0 0 0 4 0.381 24
Dl 1.7382 -0.1354
Dl 1.8662 -0.1354
Dl 1.8662 -0.1172
Dl 1.7382 -0.1172
DP 0 0 0 0 4 0.381 24
Dl 1.8845 -0.1354
Dl 1.9211 -0.1354
Dl 1.9211 -0.1172
Dl 1.8845 -0.1172
DP 0 0 0 0 4 0.381 24
Dl -1.9743 -0.1537
Dl -1.6268 -0.1537
Dl -1.6268 -0.1354
Dl -1.9743 -0.1354
DP 0 0 0 0 4 0.381 24
Dl -1.3159 -0.1537
Dl 1.3359 -0.1537
Dl 1.3359 -0.1354
Dl -1.3159 -0.1354
DP 0 0 0 0 4 0.381 24
Dl 1.6468 -0.1537
Dl 1.9942 -0.1537
Dl 1.9942 -0.1354
Dl 1.6468 -0.1354
DP 0 0 0 0 4 0.381 24
Dl -1.9925 -0.172
Dl -1.6268 -0.172
Dl -1.6268 -0.1537
Dl -1.9925 -0.1537
DP 0 0 0 0 4 0.381 24
Dl -1.3159 -0.172
Dl 1.3359 -0.172
Dl 1.3359 -0.1537
Dl -1.3159 -0.1537
DP 0 0 0 0 4 0.381 24
Dl 1.6468 -0.172
Dl 2.0491 -0.172
Dl 2.0491 -0.1537
Dl 1.6468 -0.1537
DP 0 0 0 0 4 0.381 24
Dl -1.9925 -0.1903
Dl -1.6085 -0.1903
Dl -1.6085 -0.172
Dl -1.9925 -0.172
DP 0 0 0 0 4 0.381 24
Dl -1.3159 -0.1903
Dl 1.3359 -0.1903
Dl 1.3359 -0.172
Dl -1.3159 -0.172
DP 0 0 0 0 4 0.381 24
Dl 1.6285 -0.1903
Dl 2.0491 -0.1903
Dl 2.0491 -0.172
Dl 1.6285 -0.172
DP 0 0 0 0 4 0.381 24
Dl -1.9925 -0.2086
Dl -1.6085 -0.2086
Dl -1.6085 -0.1903
Dl -1.9925 -0.1903
DP 0 0 0 0 4 0.381 24
Dl -1.3159 -0.2086
Dl 1.3359 -0.2086
Dl 1.3359 -0.1903
Dl -1.3159 -0.1903
DP 0 0 0 0 4 0.381 24
Dl 1.6285 -0.2086
Dl 2.0491 -0.2086
Dl 2.0491 -0.1903
Dl 1.6285 -0.1903
DP 0 0 0 0 4 0.381 24
Dl -1.9925 -0.2269
Dl -1.6085 -0.2269
Dl -1.6085 -0.2086
Dl -1.9925 -0.2086
DP 0 0 0 0 4 0.381 24
Dl -1.3159 -0.2269
Dl 1.3359 -0.2269
Dl 1.3359 -0.2086
Dl -1.3159 -0.2086
DP 0 0 0 0 4 0.381 24
Dl 1.6285 -0.2269
Dl 2.0491 -0.2269
Dl 2.0491 -0.2086
Dl 1.6285 -0.2086
DP 0 0 0 0 4 0.381 24
Dl -1.9925 -0.2452
Dl -1.6085 -0.2452
Dl -1.6085 -0.2269
Dl -1.9925 -0.2269
DP 0 0 0 0 4 0.381 24
Dl -1.3159 -0.2452
Dl 1.3359 -0.2452
Dl 1.3359 -0.2269
Dl -1.3159 -0.2269
DP 0 0 0 0 4 0.381 24
Dl 1.6285 -0.2452
Dl 2.0491 -0.2452
Dl 2.0491 -0.2269
Dl 1.6285 -0.2269
DP 0 0 0 0 4 0.381 24
Dl -1.9925 -0.2635
Dl -1.6085 -0.2635
Dl -1.6085 -0.2452
Dl -1.9925 -0.2452
DP 0 0 0 0 4 0.381 24
Dl -1.3159 -0.2635
Dl 1.3359 -0.2635
Dl 1.3359 -0.2452
Dl -1.3159 -0.2452
DP 0 0 0 0 4 0.381 24
Dl 1.6285 -0.2635
Dl 2.0491 -0.2635
Dl 2.0491 -0.2452
Dl 1.6285 -0.2452
DP 0 0 0 0 4 0.381 24
Dl -1.9925 -0.2817
Dl -1.6085 -0.2817
Dl -1.6085 -0.2635
Dl -1.9925 -0.2635
DP 0 0 0 0 4 0.381 24
Dl -1.3159 -0.2817
Dl 1.3359 -0.2817
Dl 1.3359 -0.2635
Dl -1.3159 -0.2635
DP 0 0 0 0 4 0.381 24
Dl 1.6285 -0.2817
Dl 2.0491 -0.2817
Dl 2.0491 -0.2635
Dl 1.6285 -0.2635
DP 0 0 0 0 4 0.381 24
Dl -1.9925 -0.3
Dl -1.6268 -0.3
Dl -1.6268 -0.2817
Dl -1.9925 -0.2817
DP 0 0 0 0 4 0.381 24
Dl -1.3159 -0.3
Dl 1.3359 -0.3
Dl 1.3359 -0.2817
Dl -1.3159 -0.2817
DP 0 0 0 0 4 0.381 24
Dl 1.6285 -0.3
Dl 2.0491 -0.3
Dl 2.0491 -0.2817
Dl 1.6285 -0.2817
DP 0 0 0 0 4 0.381 24
Dl -1.9925 -0.3183
Dl -1.6268 -0.3183
Dl -1.6268 -0.3
Dl -1.9925 -0.3
DP 0 0 0 0 4 0.381 24
Dl -1.3159 -0.3183
Dl 1.3359 -0.3183
Dl 1.3359 -0.3
Dl -1.3159 -0.3
DP 0 0 0 0 4 0.381 24
Dl 1.6285 -0.3183
Dl 2.0491 -0.3183
Dl 2.0491 -0.3
Dl 1.6285 -0.3
DP 0 0 0 0 4 0.381 24
Dl -1.9925 -0.3366
Dl -1.6268 -0.3366
Dl -1.6268 -0.3183
Dl -1.9925 -0.3183
DP 0 0 0 0 4 0.381 24
Dl -1.3159 -0.3366
Dl 1.3359 -0.3366
Dl 1.3359 -0.3183
Dl -1.3159 -0.3183
DP 0 0 0 0 4 0.381 24
Dl 1.6468 -0.3366
Dl 2.0491 -0.3366
Dl 2.0491 -0.3183
Dl 1.6468 -0.3183
DP 0 0 0 0 4 0.381 24
Dl -1.9925 -0.3549
Dl -1.9377 -0.3549
Dl -1.9377 -0.3366
Dl -1.9925 -0.3366
DP 0 0 0 0 4 0.381 24
Dl -1.9194 -0.3549
Dl -1.6451 -0.3549
Dl -1.6451 -0.3366
Dl -1.9194 -0.3366
DP 0 0 0 0 4 0.381 24
Dl -1.3159 -0.3549
Dl 1.3359 -0.3549
Dl 1.3359 -0.3366
Dl -1.3159 -0.3366
DP 0 0 0 0 4 0.381 24
Dl 1.6468 -0.3549
Dl 1.6651 -0.3549
Dl 1.6651 -0.3366
Dl 1.6468 -0.3366
DP 0 0 0 0 4 0.381 24
Dl 1.6833 -0.3549
Dl 1.9211 -0.3549
Dl 1.9211 -0.3366
Dl 1.6833 -0.3366
DP 0 0 0 0 4 0.381 24
Dl 1.9942 -0.3549
Dl 2.0491 -0.3549
Dl 2.0491 -0.3366
Dl 1.9942 -0.3366
DP 0 0 0 0 4 0.381 24
Dl -1.9925 -0.3732
Dl -1.9743 -0.3732
Dl -1.9743 -0.3549
Dl -1.9925 -0.3549
DP 0 0 0 0 4 0.381 24
Dl -1.3159 -0.3732
Dl 1.3359 -0.3732
Dl 1.3359 -0.3549
Dl -1.3159 -0.3549
DP 0 0 0 0 4 0.381 24
Dl 2.0308 -0.3732
Dl 2.0491 -0.3732
Dl 2.0491 -0.3549
Dl 2.0308 -0.3549
DP 0 0 0 0 4 0.381 24
Dl -1.3159 -0.3915
Dl 1.3176 -0.3915
Dl 1.3176 -0.3732
Dl -1.3159 -0.3732
DP 0 0 0 0 4 0.381 24
Dl -1.3159 -0.4098
Dl 1.3176 -0.4098
Dl 1.3176 -0.3915
Dl -1.3159 -0.3915
DP 0 0 0 0 4 0.381 24
Dl -1.3159 -0.428
Dl 1.3176 -0.428
Dl 1.3176 -0.4098
Dl -1.3159 -0.4098
DP 0 0 0 0 4 0.381 24
Dl -1.3159 -0.4463
Dl 1.3176 -0.4463
Dl 1.3176 -0.428
Dl -1.3159 -0.428
DP 0 0 0 0 4 0.381 24
Dl -1.3159 -0.4646
Dl 1.3176 -0.4646
Dl 1.3176 -0.4463
Dl -1.3159 -0.4463
DP 0 0 0 0 4 0.381 24
Dl 2.0308 -0.4646
Dl 2.0491 -0.4646
Dl 2.0491 -0.4463
Dl 2.0308 -0.4463
DP 0 0 0 0 4 0.381 24
Dl -1.3159 -0.4829
Dl 1.3176 -0.4829
Dl 1.3176 -0.4646
Dl -1.3159 -0.4646
DP 0 0 0 0 4 0.381 24
Dl 2.0308 -0.4829
Dl 2.0491 -0.4829
Dl 2.0491 -0.4646
Dl 2.0308 -0.4646
DP 0 0 0 0 4 0.381 24
Dl -1.3159 -0.5012
Dl 1.3176 -0.5012
Dl 1.3176 -0.4829
Dl -1.3159 -0.4829
DP 0 0 0 0 4 0.381 24
Dl -1.3159 -0.5195
Dl 1.3176 -0.5195
Dl 1.3176 -0.5012
Dl -1.3159 -0.5012
DP 0 0 0 0 4 0.381 24
Dl -1.3159 -0.5378
Dl 1.3176 -0.5378
Dl 1.3176 -0.5195
Dl -1.3159 -0.5195
DP 0 0 0 0 4 0.381 24
Dl -1.3159 -0.5561
Dl 1.3359 -0.5561
Dl 1.3359 -0.5378
Dl -1.3159 -0.5378
DP 0 0 0 0 4 0.381 24
Dl -1.3159 -0.5744
Dl 1.3359 -0.5744
Dl 1.3359 -0.5561
Dl -1.3159 -0.5561
DP 0 0 0 0 4 0.381 24
Dl -1.3159 -0.5926
Dl 1.3176 -0.5926
Dl 1.3176 -0.5744
Dl -1.3159 -0.5744
DP 0 0 0 0 4 0.381 24
Dl -1.3159 -0.6109
Dl 1.3176 -0.6109
Dl 1.3176 -0.5926
Dl -1.3159 -0.5926
DP 0 0 0 0 4 0.381 24
Dl -1.9011 -0.6292
Dl -1.6816 -0.6292
Dl -1.6816 -0.6109
Dl -1.9011 -0.6109
DP 0 0 0 0 4 0.381 24
Dl -1.3159 -0.6292
Dl 1.3176 -0.6292
Dl 1.3176 -0.6109
Dl -1.3159 -0.6109
DP 0 0 0 0 4 0.381 24
Dl 1.7199 -0.6292
Dl 1.7565 -0.6292
Dl 1.7565 -0.6109
Dl 1.7199 -0.6109
DP 0 0 0 0 4 0.381 24
Dl 1.7748 -0.6292
Dl 1.7931 -0.6292
Dl 1.7931 -0.6109
Dl 1.7748 -0.6109
DP 0 0 0 0 4 0.381 24
Dl 1.8479 -0.6292
Dl 1.8662 -0.6292
Dl 1.8662 -0.6109
Dl 1.8479 -0.6109
DP 0 0 0 0 4 0.381 24
Dl -1.9377 -0.6475
Dl -1.6268 -0.6475
Dl -1.6268 -0.6292
Dl -1.9377 -0.6292
DP 0 0 0 0 4 0.381 24
Dl -1.3159 -0.6475
Dl 1.3176 -0.6475
Dl 1.3176 -0.6292
Dl -1.3159 -0.6292
DP 0 0 0 0 4 0.381 24
Dl 1.6468 -0.6475
Dl 1.9942 -0.6475
Dl 1.9942 -0.6292
Dl 1.6468 -0.6292
DP 0 0 0 0 4 0.381 24
Dl 2.0308 -0.6475
Dl 2.0491 -0.6475
Dl 2.0491 -0.6292
Dl 2.0308 -0.6292
DP 0 0 0 0 4 0.381 24
Dl -1.9925 -0.6658
Dl -1.6268 -0.6658
Dl -1.6268 -0.6475
Dl -1.9925 -0.6475
DP 0 0 0 0 4 0.381 24
Dl -1.3159 -0.6658
Dl 1.3176 -0.6658
Dl 1.3176 -0.6475
Dl -1.3159 -0.6475
DP 0 0 0 0 4 0.381 24
Dl 1.6285 -0.6658
Dl 2.0308 -0.6658
Dl 2.0308 -0.6475
Dl 1.6285 -0.6475
DP 0 0 0 0 4 0.381 24
Dl -1.9925 -0.6841
Dl -1.6085 -0.6841
Dl -1.6085 -0.6658
Dl -1.9925 -0.6658
DP 0 0 0 0 4 0.381 24
Dl -1.3159 -0.6841
Dl 1.3176 -0.6841
Dl 1.3176 -0.6658
Dl -1.3159 -0.6658
DP 0 0 0 0 4 0.381 24
Dl 1.6285 -0.6841
Dl 2.0308 -0.6841
Dl 2.0308 -0.6658
Dl 1.6285 -0.6658
DP 0 0 0 0 4 0.381 24
Dl -1.9925 -0.7024
Dl -1.6085 -0.7024
Dl -1.6085 -0.6841
Dl -1.9925 -0.6841
DP 0 0 0 0 4 0.381 24
Dl -1.3159 -0.7024
Dl 1.3359 -0.7024
Dl 1.3359 -0.6841
Dl -1.3159 -0.6841
DP 0 0 0 0 4 0.381 24
Dl 1.6285 -0.7024
Dl 2.0491 -0.7024
Dl 2.0491 -0.6841
Dl 1.6285 -0.6841
DP 0 0 0 0 4 0.381 24
Dl -1.9925 -0.7207
Dl -1.6085 -0.7207
Dl -1.6085 -0.7024
Dl -1.9925 -0.7024
DP 0 0 0 0 4 0.381 24
Dl -1.3159 -0.7207
Dl 1.3359 -0.7207
Dl 1.3359 -0.7024
Dl -1.3159 -0.7024
DP 0 0 0 0 4 0.381 24
Dl 1.6285 -0.7207
Dl 2.0491 -0.7207
Dl 2.0491 -0.7024
Dl 1.6285 -0.7024
DP 0 0 0 0 4 0.381 24
Dl -1.9925 -0.7389
Dl -1.6085 -0.7389
Dl -1.6085 -0.7207
Dl -1.9925 -0.7207
DP 0 0 0 0 4 0.381 24
Dl -1.3159 -0.7389
Dl 1.3176 -0.7389
Dl 1.3176 -0.7207
Dl -1.3159 -0.7207
DP 0 0 0 0 4 0.381 24
Dl 1.6285 -0.7389
Dl 2.0491 -0.7389
Dl 2.0491 -0.7207
Dl 1.6285 -0.7207
DP 0 0 0 0 4 0.381 24
Dl -1.9925 -0.7572
Dl -1.6085 -0.7572
Dl -1.6085 -0.7389
Dl -1.9925 -0.7389
DP 0 0 0 0 4 0.381 24
Dl -1.3159 -0.7572
Dl 1.3176 -0.7572
Dl 1.3176 -0.7389
Dl -1.3159 -0.7389
DP 0 0 0 0 4 0.381 24
Dl 1.6285 -0.7572
Dl 2.0491 -0.7572
Dl 2.0491 -0.7389
Dl 1.6285 -0.7389
DP 0 0 0 0 4 0.381 24
Dl -1.9925 -0.7755
Dl -1.6085 -0.7755
Dl -1.6085 -0.7572
Dl -1.9925 -0.7572
DP 0 0 0 0 4 0.381 24
Dl -1.3159 -0.7755
Dl 1.3176 -0.7755
Dl 1.3176 -0.7572
Dl -1.3159 -0.7572
DP 0 0 0 0 4 0.381 24
Dl 1.6285 -0.7755
Dl 2.0491 -0.7755
Dl 2.0491 -0.7572
Dl 1.6285 -0.7572
DP 0 0 0 0 4 0.381 24
Dl -1.9925 -0.7938
Dl -1.6085 -0.7938
Dl -1.6085 -0.7755
Dl -1.9925 -0.7755
DP 0 0 0 0 4 0.381 24
Dl -1.3159 -0.7938
Dl 1.3176 -0.7938
Dl 1.3176 -0.7755
Dl -1.3159 -0.7755
DP 0 0 0 0 4 0.381 24
Dl 1.6285 -0.7938
Dl 2.0491 -0.7938
Dl 2.0491 -0.7755
Dl 1.6285 -0.7755
DP 0 0 0 0 4 0.381 24
Dl -1.9925 -0.8121
Dl -1.6085 -0.8121
Dl -1.6085 -0.7938
Dl -1.9925 -0.7938
DP 0 0 0 0 4 0.381 24
Dl -1.2976 -0.8121
Dl 1.3176 -0.8121
Dl 1.3176 -0.7938
Dl -1.2976 -0.7938
DP 0 0 0 0 4 0.381 24
Dl 1.6285 -0.8121
Dl 2.0491 -0.8121
Dl 2.0491 -0.7938
Dl 1.6285 -0.7938
DP 0 0 0 0 4 0.381 24
Dl -1.9925 -0.8304
Dl -1.6085 -0.8304
Dl -1.6085 -0.8121
Dl -1.9925 -0.8121
DP 0 0 0 0 4 0.381 24
Dl -1.3159 -0.8304
Dl 1.3176 -0.8304
Dl 1.3176 -0.8121
Dl -1.3159 -0.8121
DP 0 0 0 0 4 0.381 24
Dl 1.6468 -0.8304
Dl 2.0491 -0.8304
Dl 2.0491 -0.8121
Dl 1.6468 -0.8121
DP 0 0 0 0 4 0.381 24
Dl -1.9925 -0.8487
Dl -1.6268 -0.8487
Dl -1.6268 -0.8304
Dl -1.9925 -0.8304
DP 0 0 0 0 4 0.381 24
Dl -1.3159 -0.8487
Dl 1.3359 -0.8487
Dl 1.3359 -0.8304
Dl -1.3159 -0.8304
DP 0 0 0 0 4 0.381 24
Dl 1.6651 -0.8487
Dl 2.0491 -0.8487
Dl 2.0491 -0.8304
Dl 1.6651 -0.8304
DP 0 0 0 0 4 0.381 24
Dl -1.9925 -0.867
Dl -1.956 -0.867
Dl -1.956 -0.8487
Dl -1.9925 -0.8487
DP 0 0 0 0 4 0.381 24
Dl -1.8462 -0.867
Dl -1.828 -0.867
Dl -1.828 -0.8487
Dl -1.8462 -0.8487
DP 0 0 0 0 4 0.381 24
Dl -1.2976 -0.867
Dl 1.3176 -0.867
Dl 1.3176 -0.8487
Dl -1.2976 -0.8487
DP 0 0 0 0 4 0.381 24
Dl 1.8114 -0.867
Dl 1.8296 -0.867
Dl 1.8296 -0.8487
Dl 1.8114 -0.8487
DP 0 0 0 0 4 0.381 24
Dl 2.0125 -0.867
Dl 2.0491 -0.867
Dl 2.0491 -0.8487
Dl 2.0125 -0.8487
DP 0 0 0 0 4 0.381 24
Dl -1.9925 -0.8852
Dl -1.9743 -0.8852
Dl -1.9743 -0.867
Dl -1.9925 -0.867
DP 0 0 0 0 4 0.381 24
Dl -1.2976 -0.8852
Dl 1.3176 -0.8852
Dl 1.3176 -0.867
Dl -1.2976 -0.867
DP 0 0 0 0 4 0.381 24
Dl 2.0308 -0.8852
Dl 2.0491 -0.8852
Dl 2.0491 -0.867
Dl 2.0308 -0.867
DP 0 0 0 0 4 0.381 24
Dl -1.2976 -0.9035
Dl 1.3176 -0.9035
Dl 1.3176 -0.8852
Dl -1.2976 -0.8852
DP 0 0 0 0 4 0.381 24
Dl -1.3159 -0.9218
Dl 1.3176 -0.9218
Dl 1.3176 -0.9035
Dl -1.3159 -0.9035
DP 0 0 0 0 4 0.381 24
Dl -1.3159 -0.9401
Dl 1.3176 -0.9401
Dl 1.3176 -0.9218
Dl -1.3159 -0.9218
DP 0 0 0 0 4 0.381 24
Dl -1.2976 -0.9584
Dl 1.3176 -0.9584
Dl 1.3176 -0.9401
Dl -1.2976 -0.9401
DP 0 0 0 0 4 0.381 24
Dl 2.0308 -0.9584
Dl 2.0491 -0.9584
Dl 2.0491 -0.9401
Dl 2.0308 -0.9401
DP 0 0 0 0 4 0.381 24
Dl -1.2976 -0.9767
Dl 1.3176 -0.9767
Dl 1.3176 -0.9584
Dl -1.2976 -0.9584
DP 0 0 0 0 4 0.381 24
Dl 2.0308 -0.9767
Dl 2.0491 -0.9767
Dl 2.0491 -0.9584
Dl 2.0308 -0.9584
DP 0 0 0 0 4 0.381 24
Dl -1.2976 -0.995
Dl 1.3359 -0.995
Dl 1.3359 -0.9767
Dl -1.2976 -0.9767
DP 0 0 0 0 4 0.381 24
Dl 2.0308 -0.995
Dl 2.0491 -0.995
Dl 2.0491 -0.9767
Dl 2.0308 -0.9767
DP 0 0 0 0 4 0.381 24
Dl -1.2976 -1.0133
Dl 1.3359 -1.0133
Dl 1.3359 -0.995
Dl -1.2976 -0.995
DP 0 0 0 0 4 0.381 24
Dl 2.0308 -1.0133
Dl 2.0491 -1.0133
Dl 2.0491 -0.995
Dl 2.0308 -0.995
DP 0 0 0 0 4 0.381 24
Dl -1.2976 -1.0316
Dl 1.3176 -1.0316
Dl 1.3176 -1.0133
Dl -1.2976 -1.0133
DP 0 0 0 0 4 0.381 24
Dl 2.0308 -1.0316
Dl 2.0491 -1.0316
Dl 2.0491 -1.0133
Dl 2.0308 -1.0133
DP 0 0 0 0 4 0.381 24
Dl -1.2793 -1.0498
Dl 1.3176 -1.0498
Dl 1.3176 -1.0316
Dl -1.2793 -1.0316
DP 0 0 0 0 4 0.381 24
Dl 2.0308 -1.0498
Dl 2.0491 -1.0498
Dl 2.0491 -1.0316
Dl 2.0308 -1.0316
DP 0 0 0 0 4 0.381 24
Dl -1.2793 -1.0681
Dl 1.3176 -1.0681
Dl 1.3176 -1.0498
Dl -1.2793 -1.0498
DP 0 0 0 0 4 0.381 24
Dl 2.0308 -1.0681
Dl 2.0491 -1.0681
Dl 2.0491 -1.0498
Dl 2.0308 -1.0498
DP 0 0 0 0 4 0.381 24
Dl -1.261 -1.0864
Dl 1.3176 -1.0864
Dl 1.3176 -1.0681
Dl -1.261 -1.0681
DP 0 0 0 0 4 0.381 24
Dl 2.0308 -1.0864
Dl 2.0491 -1.0864
Dl 2.0491 -1.0681
Dl 2.0308 -1.0681
DP 0 0 0 0 4 0.381 24
Dl -1.2427 -1.1047
Dl 1.3176 -1.1047
Dl 1.3176 -1.0864
Dl -1.2427 -1.0864
DP 0 0 0 0 4 0.381 24
Dl 2.0308 -1.1047
Dl 2.0491 -1.1047
Dl 2.0491 -1.0864
Dl 2.0308 -1.0864
DP 0 0 0 0 4 0.381 24
Dl -1.828 -1.123
Dl -1.6999 -1.123
Dl -1.6999 -1.1047
Dl -1.828 -1.1047
DP 0 0 0 0 4 0.381 24
Dl -1.2244 -1.123
Dl 1.3176 -1.123
Dl 1.3176 -1.1047
Dl -1.2244 -1.1047
DP 0 0 0 0 4 0.381 24
Dl 1.7748 -1.123
Dl 1.8845 -1.123
Dl 1.8845 -1.1047
Dl 1.7748 -1.1047
DP 0 0 0 0 4 0.381 24
Dl 2.0308 -1.123
Dl 2.0491 -1.123
Dl 2.0491 -1.1047
Dl 2.0308 -1.1047
DP 0 0 0 0 4 0.381 24
Dl -1.9743 -1.1413
Dl -1.6268 -1.1413
Dl -1.6268 -1.123
Dl -1.9743 -1.123
DP 0 0 0 0 4 0.381 24
Dl -1.2062 -1.1413
Dl 1.3176 -1.1413
Dl 1.3176 -1.123
Dl -1.2062 -1.123
DP 0 0 0 0 4 0.381 24
Dl 1.6468 -1.1413
Dl 1.9394 -1.1413
Dl 1.9394 -1.123
Dl 1.6468 -1.123
DP 0 0 0 0 4 0.381 24
Dl 2.0308 -1.1413
Dl 2.0491 -1.1413
Dl 2.0491 -1.123
Dl 2.0308 -1.123
DP 0 0 0 0 4 0.381 24
Dl -1.9925 -1.1596
Dl -1.6268 -1.1596
Dl -1.6268 -1.1413
Dl -1.9925 -1.1413
DP 0 0 0 0 4 0.381 24
Dl -1.1879 -1.1596
Dl 1.3176 -1.1596
Dl 1.3176 -1.1413
Dl -1.1879 -1.1413
DP 0 0 0 0 4 0.381 24
Dl 1.6468 -1.1596
Dl 1.9942 -1.1596
Dl 1.9942 -1.1413
Dl 1.6468 -1.1413
DP 0 0 0 0 4 0.381 24
Dl 2.0308 -1.1596
Dl 2.0491 -1.1596
Dl 2.0491 -1.1413
Dl 2.0308 -1.1413
DP 0 0 0 0 4 0.381 24
Dl -1.9925 -1.1779
Dl -1.6268 -1.1779
Dl -1.6268 -1.1596
Dl -1.9925 -1.1596
DP 0 0 0 0 4 0.381 24
Dl -1.1696 -1.1779
Dl 1.3176 -1.1779
Dl 1.3176 -1.1596
Dl -1.1696 -1.1596
DP 0 0 0 0 4 0.381 24
Dl 1.6285 -1.1779
Dl 2.0125 -1.1779
Dl 2.0125 -1.1596
Dl 1.6285 -1.1596
DP 0 0 0 0 4 0.381 24
Dl -1.9925 -1.1961
Dl -1.6085 -1.1961
Dl -1.6085 -1.1779
Dl -1.9925 -1.1779
DP 0 0 0 0 4 0.381 24
Dl -1.1513 -1.1961
Dl 1.3176 -1.1961
Dl 1.3176 -1.1779
Dl -1.1513 -1.1779
DP 0 0 0 0 4 0.381 24
Dl 1.6285 -1.1961
Dl 2.0491 -1.1961
Dl 2.0491 -1.1779
Dl 1.6285 -1.1779
DP 0 0 0 0 4 0.381 24
Dl -1.9925 -1.2144
Dl -1.6085 -1.2144
Dl -1.6085 -1.1961
Dl -1.9925 -1.1961
DP 0 0 0 0 4 0.381 24
Dl -1.133 -1.2144
Dl 1.3176 -1.2144
Dl 1.3176 -1.1961
Dl -1.133 -1.1961
DP 0 0 0 0 4 0.381 24
Dl 1.6285 -1.2144
Dl 2.0491 -1.2144
Dl 2.0491 -1.1961
Dl 1.6285 -1.1961
DP 0 0 0 0 4 0.381 24
Dl -1.9925 -1.2327
Dl -1.6268 -1.2327
Dl -1.6268 -1.2144
Dl -1.9925 -1.2144
DP 0 0 0 0 4 0.381 24
Dl -1.1147 -1.2327
Dl 1.3176 -1.2327
Dl 1.3176 -1.2144
Dl -1.1147 -1.2144
DP 0 0 0 0 4 0.381 24
Dl 1.6285 -1.2327
Dl 2.0491 -1.2327
Dl 2.0491 -1.2144
Dl 1.6285 -1.2144
DP 0 0 0 0 4 0.381 24
Dl -1.9925 -1.251
Dl -1.6268 -1.251
Dl -1.6268 -1.2327
Dl -1.9925 -1.2327
DP 0 0 0 0 4 0.381 24
Dl -1.0964 -1.251
Dl 1.3176 -1.251
Dl 1.3176 -1.2327
Dl -1.0964 -1.2327
DP 0 0 0 0 4 0.381 24
Dl 1.6468 -1.251
Dl 2.0491 -1.251
Dl 2.0491 -1.2327
Dl 1.6468 -1.2327
DP 0 0 0 0 4 0.381 24
Dl -1.9925 -1.2693
Dl -1.6268 -1.2693
Dl -1.6268 -1.251
Dl -1.9925 -1.251
DP 0 0 0 0 4 0.381 24
Dl -1.0599 -1.2693
Dl 1.3176 -1.2693
Dl 1.3176 -1.251
Dl -1.0599 -1.251
DP 0 0 0 0 4 0.381 24
Dl 1.6468 -1.2693
Dl 2.0491 -1.2693
Dl 2.0491 -1.251
Dl 1.6468 -1.251
DP 0 0 0 0 4 0.381 24
Dl -1.9925 -1.2876
Dl -1.6451 -1.2876
Dl -1.6451 -1.2693
Dl -1.9925 -1.2693
DP 0 0 0 0 4 0.381 24
Dl -1.0416 -1.2876
Dl 1.2993 -1.2876
Dl 1.2993 -1.2693
Dl -1.0416 -1.2693
DP 0 0 0 0 4 0.381 24
Dl 1.6651 -1.2876
Dl 2.0491 -1.2876
Dl 2.0491 -1.2693
Dl 1.6651 -1.2693
DP 0 0 0 0 4 0.381 24
Dl -1.9925 -1.3059
Dl -1.6634 -1.3059
Dl -1.6634 -1.2876
Dl -1.9925 -1.2876
DP 0 0 0 0 4 0.381 24
Dl -1.005 -1.3059
Dl 1.281 -1.3059
Dl 1.281 -1.2876
Dl -1.005 -1.2876
DP 0 0 0 0 4 0.381 24
Dl 1.6833 -1.3059
Dl 2.0491 -1.3059
Dl 2.0491 -1.2876
Dl 1.6833 -1.2876
DP 0 0 0 0 4 0.381 24
Dl -1.9925 -1.3242
Dl -1.6816 -1.3242
Dl -1.6816 -1.3059
Dl -1.9925 -1.3059
DP 0 0 0 0 4 0.381 24
Dl -0.9501 -1.3242
Dl 1.2079 -1.3242
Dl 1.2079 -1.3059
Dl -0.9501 -1.3059
DP 0 0 0 0 4 0.381 24
Dl 1.7016 -1.3242
Dl 2.0491 -1.3242
Dl 2.0491 -1.3059
Dl 1.7016 -1.3059
DP 0 0 0 0 4 0.381 24
Dl -1.9925 -1.3424
Dl -1.956 -1.3424
Dl -1.956 -1.3242
Dl -1.9925 -1.3242
DP 0 0 0 0 4 0.381 24
Dl -1.9194 -1.3424
Dl -1.7182 -1.3424
Dl -1.7182 -1.3242
Dl -1.9194 -1.3242
DP 0 0 0 0 4 0.381 24
Dl 1.7382 -1.3424
Dl 1.9394 -1.3424
Dl 1.9394 -1.3242
Dl 1.7382 -1.3242
DP 0 0 0 0 4 0.381 24
Dl 1.976 -1.3424
Dl 2.0491 -1.3424
Dl 2.0491 -1.3242
Dl 1.976 -1.3242
DP 0 0 0 0 4 0.381 24
Dl -1.9925 -1.3607
Dl -1.9743 -1.3607
Dl -1.9743 -1.3424
Dl -1.9925 -1.3424
DP 0 0 0 0 4 0.381 24
Dl 2.0125 -1.3607
Dl 2.0491 -1.3607
Dl 2.0491 -1.3424
Dl 2.0125 -1.3424
DP 0 0 0 0 4 0.381 24
Dl 2.0308 -1.379
Dl 2.0491 -1.379
Dl 2.0491 -1.3607
Dl 2.0308 -1.3607
DP 0 0 0 0 4 0.381 24
Dl 2.0308 -1.3973
Dl 2.0491 -1.3973
Dl 2.0491 -1.379
Dl 2.0308 -1.379
DP 0 0 0 0 4 0.381 24
Dl 2.0308 -1.4156
Dl 2.0491 -1.4156
Dl 2.0491 -1.3973
Dl 2.0308 -1.3973
DP 0 0 0 0 4 0.381 24
Dl 2.0308 -1.4339
Dl 2.0491 -1.4339
Dl 2.0491 -1.4156
Dl 2.0308 -1.4156
DP 0 0 0 0 4 0.381 24
Dl 2.0308 -1.4522
Dl 2.0491 -1.4522
Dl 2.0491 -1.4339
Dl 2.0308 -1.4339
DP 0 0 0 0 4 0.381 24
Dl 2.0125 -1.4705
Dl 2.0491 -1.4705
Dl 2.0491 -1.4522
Dl 2.0125 -1.4522
DP 0 0 0 0 4 0.381 24
Dl 1.9942 -1.4888
Dl 2.0491 -1.4888
Dl 2.0491 -1.4705
Dl 1.9942 -1.4705
DP 0 0 0 0 4 0.381 24
Dl 2.0125 -1.507
Dl 2.0491 -1.507
Dl 2.0491 -1.4888
Dl 2.0125 -1.4888
DP 0 0 0 0 4 0.381 24
Dl 2.0125 -1.5253
Dl 2.0491 -1.5253
Dl 2.0491 -1.507
Dl 2.0125 -1.507
DP 0 0 0 0 4 0.381 24
Dl 2.0125 -1.5436
Dl 2.0491 -1.5436
Dl 2.0491 -1.5253
Dl 2.0125 -1.5253
DP 0 0 0 0 4 0.381 24
Dl 2.0125 -1.5619
Dl 2.0491 -1.5619
Dl 2.0491 -1.5436
Dl 2.0125 -1.5436
DP 0 0 0 0 4 0.381 24
Dl 2.0308 -1.5802
Dl 2.0491 -1.5802
Dl 2.0491 -1.5619
Dl 2.0308 -1.5619
DP 0 0 0 0 4 0.381 24
Dl 2.0308 -1.5985
Dl 2.0491 -1.5985
Dl 2.0491 -1.5802
Dl 2.0308 -1.5802
DP 0 0 0 0 4 0.381 24
Dl 2.0308 -1.6168
Dl 2.0491 -1.6168
Dl 2.0491 -1.5985
Dl 2.0308 -1.5985
DP 0 0 0 0 4 0.381 24
Dl 2.0125 -1.6351
Dl 2.0491 -1.6351
Dl 2.0491 -1.6168
Dl 2.0125 -1.6168
DP 0 0 0 0 4 0.381 24
Dl -1.261 -1.6533
Dl -1.1513 -1.6533
Dl -1.1513 -1.6351
Dl -1.261 -1.6351
DP 0 0 0 0 4 0.381 24
Dl -0.8404 -1.6533
Dl -0.6392 -1.6533
Dl -0.6392 -1.6351
Dl -0.8404 -1.6351
DP 0 0 0 0 4 0.381 24
Dl -0.3466 -1.6533
Dl -0.1272 -1.6533
Dl -0.1272 -1.6351
Dl -0.3466 -1.6351
DP 0 0 0 0 4 0.381 24
Dl 0.1654 -1.6533
Dl 0.3666 -1.6533
Dl 0.3666 -1.6351
Dl 0.1654 -1.6351
DP 0 0 0 0 4 0.381 24
Dl 0.6592 -1.6533
Dl 0.8787 -1.6533
Dl 0.8787 -1.6351
Dl 0.6592 -1.6351
DP 0 0 0 0 4 0.381 24
Dl 1.1896 -1.6533
Dl 1.2079 -1.6533
Dl 1.2079 -1.6351
Dl 1.1896 -1.6351
DP 0 0 0 0 4 0.381 24
Dl 2.0125 -1.6533
Dl 2.0491 -1.6533
Dl 2.0491 -1.6351
Dl 2.0125 -1.6351
DP 0 0 0 0 4 0.381 24
Dl -1.2976 -1.6716
Dl -1.133 -1.6716
Dl -1.133 -1.6533
Dl -1.2976 -1.6533
DP 0 0 0 0 4 0.381 24
Dl -0.877 -1.6716
Dl -0.6209 -1.6716
Dl -0.6209 -1.6533
Dl -0.877 -1.6533
DP 0 0 0 0 4 0.381 24
Dl -0.3649 -1.6716
Dl -0.1272 -1.6716
Dl -0.1272 -1.6533
Dl -0.3649 -1.6533
DP 0 0 0 0 4 0.381 24
Dl 0.1472 -1.6716
Dl 0.3849 -1.6716
Dl 0.3849 -1.6533
Dl 0.1472 -1.6533
DP 0 0 0 0 4 0.381 24
Dl 0.6409 -1.6716
Dl 0.8787 -1.6716
Dl 0.8787 -1.6533
Dl 0.6409 -1.6533
DP 0 0 0 0 4 0.381 24
Dl 1.153 -1.6716
Dl 1.3176 -1.6716
Dl 1.3176 -1.6533
Dl 1.153 -1.6533
DP 0 0 0 0 4 0.381 24
Dl 2.0125 -1.6716
Dl 2.0491 -1.6716
Dl 2.0491 -1.6533
Dl 2.0125 -1.6533
DP 0 0 0 0 4 0.381 24
Dl -1.3342 -1.6899
Dl -1.1147 -1.6899
Dl -1.1147 -1.6716
Dl -1.3342 -1.6716
DP 0 0 0 0 4 0.381 24
Dl -0.877 -1.6899
Dl -0.6209 -1.6899
Dl -0.6209 -1.6716
Dl -0.877 -1.6716
DP 0 0 0 0 4 0.381 24
Dl -0.3649 -1.6899
Dl -0.1272 -1.6899
Dl -0.1272 -1.6716
Dl -0.3649 -1.6716
DP 0 0 0 0 4 0.381 24
Dl 0.1289 -1.6899
Dl 0.3849 -1.6899
Dl 0.3849 -1.6716
Dl 0.1289 -1.6716
DP 0 0 0 0 4 0.381 24
Dl 0.6409 -1.6899
Dl 0.8787 -1.6899
Dl 0.8787 -1.6716
Dl 0.6409 -1.6716
DP 0 0 0 0 4 0.381 24
Dl 1.1347 -1.6899
Dl 1.3359 -1.6899
Dl 1.3359 -1.6716
Dl 1.1347 -1.6716
DP 0 0 0 0 4 0.381 24
Dl 2.0125 -1.6899
Dl 2.0491 -1.6899
Dl 2.0491 -1.6716
Dl 2.0125 -1.6716
DP 0 0 0 0 4 0.381 24
Dl -1.3342 -1.7082
Dl -1.1147 -1.7082
Dl -1.1147 -1.6899
Dl -1.3342 -1.6899
DP 0 0 0 0 4 0.381 24
Dl -0.877 -1.7082
Dl -0.6209 -1.7082
Dl -0.6209 -1.6899
Dl -0.877 -1.6899
DP 0 0 0 0 4 0.381 24
Dl -0.3649 -1.7082
Dl -0.1089 -1.7082
Dl -0.1089 -1.6899
Dl -0.3649 -1.6899
DP 0 0 0 0 4 0.381 24
Dl 0.1289 -1.7082
Dl 0.3849 -1.7082
Dl 0.3849 -1.6899
Dl 0.1289 -1.6899
DP 0 0 0 0 4 0.381 24
Dl 0.6409 -1.7082
Dl 0.897 -1.7082
Dl 0.897 -1.6899
Dl 0.6409 -1.6899
DP 0 0 0 0 4 0.381 24
Dl 1.1347 -1.7082
Dl 1.3542 -1.7082
Dl 1.3542 -1.6899
Dl 1.1347 -1.6899
DP 0 0 0 0 4 0.381 24
Dl 1.9942 -1.7082
Dl 2.0491 -1.7082
Dl 2.0491 -1.6899
Dl 1.9942 -1.6899
DP 0 0 0 0 4 0.381 24
Dl -1.3525 -1.7265
Dl -1.1147 -1.7265
Dl -1.1147 -1.7082
Dl -1.3525 -1.7082
DP 0 0 0 0 4 0.381 24
Dl -0.877 -1.7265
Dl -0.6209 -1.7265
Dl -0.6209 -1.7082
Dl -0.877 -1.7082
DP 0 0 0 0 4 0.381 24
Dl -0.3649 -1.7265
Dl -0.1089 -1.7265
Dl -0.1089 -1.7082
Dl -0.3649 -1.7082
DP 0 0 0 0 4 0.381 24
Dl 0.1289 -1.7265
Dl 0.3849 -1.7265
Dl 0.3849 -1.7082
Dl 0.1289 -1.7082
DP 0 0 0 0 4 0.381 24
Dl 0.6409 -1.7265
Dl 0.897 -1.7265
Dl 0.897 -1.7082
Dl 0.6409 -1.7082
DP 0 0 0 0 4 0.381 24
Dl 1.1347 -1.7265
Dl 1.3724 -1.7265
Dl 1.3724 -1.7082
Dl 1.1347 -1.7082
DP 0 0 0 0 4 0.381 24
Dl 2.0125 -1.7265
Dl 2.0491 -1.7265
Dl 2.0491 -1.7082
Dl 2.0125 -1.7082
DP 0 0 0 0 4 0.381 24
Dl -1.3708 -1.7448
Dl -1.1147 -1.7448
Dl -1.1147 -1.7265
Dl -1.3708 -1.7265
DP 0 0 0 0 4 0.381 24
Dl -0.877 -1.7448
Dl -0.6209 -1.7448
Dl -0.6209 -1.7265
Dl -0.877 -1.7265
DP 0 0 0 0 4 0.381 24
Dl -0.3649 -1.7448
Dl -0.1089 -1.7448
Dl -0.1089 -1.7265
Dl -0.3649 -1.7265
DP 0 0 0 0 4 0.381 24
Dl 0.1289 -1.7448
Dl 0.3849 -1.7448
Dl 0.3849 -1.7265
Dl 0.1289 -1.7265
DP 0 0 0 0 4 0.381 24
Dl 0.6409 -1.7448
Dl 0.897 -1.7448
Dl 0.897 -1.7265
Dl 0.6409 -1.7265
DP 0 0 0 0 4 0.381 24
Dl 1.1347 -1.7448
Dl 1.3724 -1.7448
Dl 1.3724 -1.7265
Dl 1.1347 -1.7265
DP 0 0 0 0 4 0.381 24
Dl 2.0125 -1.7448
Dl 2.0491 -1.7448
Dl 2.0491 -1.7265
Dl 2.0125 -1.7265
DP 0 0 0 0 4 0.381 24
Dl -1.3708 -1.7631
Dl -1.133 -1.7631
Dl -1.133 -1.7448
Dl -1.3708 -1.7448
DP 0 0 0 0 4 0.381 24
Dl -0.877 -1.7631
Dl -0.6209 -1.7631
Dl -0.6209 -1.7448
Dl -0.877 -1.7448
DP 0 0 0 0 4 0.381 24
Dl -0.3649 -1.7631
Dl -0.1089 -1.7631
Dl -0.1089 -1.7448
Dl -0.3649 -1.7448
DP 0 0 0 0 4 0.381 24
Dl 0.1289 -1.7631
Dl 0.3849 -1.7631
Dl 0.3849 -1.7448
Dl 0.1289 -1.7448
DP 0 0 0 0 4 0.381 24
Dl 0.6409 -1.7631
Dl 0.897 -1.7631
Dl 0.897 -1.7448
Dl 0.6409 -1.7448
DP 0 0 0 0 4 0.381 24
Dl 1.1347 -1.7631
Dl 1.3907 -1.7631
Dl 1.3907 -1.7448
Dl 1.1347 -1.7448
DP 0 0 0 0 4 0.381 24
Dl 2.0125 -1.7631
Dl 2.0491 -1.7631
Dl 2.0491 -1.7448
Dl 2.0125 -1.7448
DP 0 0 0 0 4 0.381 24
Dl -1.3708 -1.7814
Dl -1.133 -1.7814
Dl -1.133 -1.7631
Dl -1.3708 -1.7631
DP 0 0 0 0 4 0.381 24
Dl -0.877 -1.7814
Dl -0.6209 -1.7814
Dl -0.6209 -1.7631
Dl -0.877 -1.7631
DP 0 0 0 0 4 0.381 24
Dl -0.3649 -1.7814
Dl -0.1089 -1.7814
Dl -0.1089 -1.7631
Dl -0.3649 -1.7631
DP 0 0 0 0 4 0.381 24
Dl 0.1289 -1.7814
Dl 0.3849 -1.7814
Dl 0.3849 -1.7631
Dl 0.1289 -1.7631
DP 0 0 0 0 4 0.381 24
Dl 0.6409 -1.7814
Dl 0.897 -1.7814
Dl 0.897 -1.7631
Dl 0.6409 -1.7631
DP 0 0 0 0 4 0.381 24
Dl 1.1347 -1.7814
Dl 1.3907 -1.7814
Dl 1.3907 -1.7631
Dl 1.1347 -1.7631
DP 0 0 0 0 4 0.381 24
Dl 2.0125 -1.7814
Dl 2.0491 -1.7814
Dl 2.0491 -1.7631
Dl 2.0125 -1.7631
DP 0 0 0 0 4 0.381 24
Dl -1.3708 -1.7996
Dl -1.1147 -1.7996
Dl -1.1147 -1.7814
Dl -1.3708 -1.7814
DP 0 0 0 0 4 0.381 24
Dl -0.877 -1.7996
Dl -0.6209 -1.7996
Dl -0.6209 -1.7814
Dl -0.877 -1.7814
DP 0 0 0 0 4 0.381 24
Dl -0.3649 -1.7996
Dl -0.1089 -1.7996
Dl -0.1089 -1.7814
Dl -0.3649 -1.7814
DP 0 0 0 0 4 0.381 24
Dl 0.1289 -1.7996
Dl 0.3849 -1.7996
Dl 0.3849 -1.7814
Dl 0.1289 -1.7814
DP 0 0 0 0 4 0.381 24
Dl 0.6409 -1.7996
Dl 0.897 -1.7996
Dl 0.897 -1.7814
Dl 0.6409 -1.7814
DP 0 0 0 0 4 0.381 24
Dl 1.1347 -1.7996
Dl 1.3907 -1.7996
Dl 1.3907 -1.7814
Dl 1.1347 -1.7814
DP 0 0 0 0 4 0.381 24
Dl 2.0125 -1.7996
Dl 2.0491 -1.7996
Dl 2.0491 -1.7814
Dl 2.0125 -1.7814
DP 0 0 0 0 4 0.381 24
Dl -1.3708 -1.8179
Dl -1.1147 -1.8179
Dl -1.1147 -1.7996
Dl -1.3708 -1.7996
DP 0 0 0 0 4 0.381 24
Dl -0.877 -1.8179
Dl -0.6209 -1.8179
Dl -0.6209 -1.7996
Dl -0.877 -1.7996
DP 0 0 0 0 4 0.381 24
Dl -0.3649 -1.8179
Dl -0.1089 -1.8179
Dl -0.1089 -1.7996
Dl -0.3649 -1.7996
DP 0 0 0 0 4 0.381 24
Dl 0.1289 -1.8179
Dl 0.3849 -1.8179
Dl 0.3849 -1.7996
Dl 0.1289 -1.7996
DP 0 0 0 0 4 0.381 24
Dl 0.6409 -1.8179
Dl 0.897 -1.8179
Dl 0.897 -1.7996
Dl 0.6409 -1.7996
DP 0 0 0 0 4 0.381 24
Dl 1.1347 -1.8179
Dl 1.3907 -1.8179
Dl 1.3907 -1.7996
Dl 1.1347 -1.7996
DP 0 0 0 0 4 0.381 24
Dl 2.0125 -1.8179
Dl 2.0491 -1.8179
Dl 2.0491 -1.7996
Dl 2.0125 -1.7996
DP 0 0 0 0 4 0.381 24
Dl -1.3708 -1.8362
Dl -1.133 -1.8362
Dl -1.133 -1.8179
Dl -1.3708 -1.8179
DP 0 0 0 0 4 0.381 24
Dl -0.877 -1.8362
Dl -0.6209 -1.8362
Dl -0.6209 -1.8179
Dl -0.877 -1.8179
DP 0 0 0 0 4 0.381 24
Dl -0.3649 -1.8362
Dl -0.1089 -1.8362
Dl -0.1089 -1.8179
Dl -0.3649 -1.8179
DP 0 0 0 0 4 0.381 24
Dl 0.1289 -1.8362
Dl 0.3849 -1.8362
Dl 0.3849 -1.8179
Dl 0.1289 -1.8179
DP 0 0 0 0 4 0.381 24
Dl 0.6409 -1.8362
Dl 0.897 -1.8362
Dl 0.897 -1.8179
Dl 0.6409 -1.8179
DP 0 0 0 0 4 0.381 24
Dl 1.1347 -1.8362
Dl 1.3907 -1.8362
Dl 1.3907 -1.8179
Dl 1.1347 -1.8179
DP 0 0 0 0 4 0.381 24
Dl 2.0125 -1.8362
Dl 2.0491 -1.8362
Dl 2.0491 -1.8179
Dl 2.0125 -1.8179
DP 0 0 0 0 4 0.381 24
Dl -1.3708 -1.8545
Dl -1.133 -1.8545
Dl -1.133 -1.8362
Dl -1.3708 -1.8362
DP 0 0 0 0 4 0.381 24
Dl -0.877 -1.8545
Dl -0.6209 -1.8545
Dl -0.6209 -1.8362
Dl -0.877 -1.8362
DP 0 0 0 0 4 0.381 24
Dl -0.3649 -1.8545
Dl -0.1089 -1.8545
Dl -0.1089 -1.8362
Dl -0.3649 -1.8362
DP 0 0 0 0 4 0.381 24
Dl 0.1289 -1.8545
Dl 0.3849 -1.8545
Dl 0.3849 -1.8362
Dl 0.1289 -1.8362
DP 0 0 0 0 4 0.381 24
Dl 0.6409 -1.8545
Dl 0.8787 -1.8545
Dl 0.8787 -1.8362
Dl 0.6409 -1.8362
DP 0 0 0 0 4 0.381 24
Dl 1.153 -1.8545
Dl 1.3907 -1.8545
Dl 1.3907 -1.8362
Dl 1.153 -1.8362
DP 0 0 0 0 4 0.381 24
Dl 1.9942 -1.8545
Dl 2.0491 -1.8545
Dl 2.0491 -1.8362
Dl 1.9942 -1.8362
DP 0 0 0 0 4 0.381 24
Dl -1.3708 -1.8728
Dl -1.133 -1.8728
Dl -1.133 -1.8545
Dl -1.3708 -1.8545
DP 0 0 0 0 4 0.381 24
Dl -0.877 -1.8728
Dl -0.6209 -1.8728
Dl -0.6209 -1.8545
Dl -0.877 -1.8545
DP 0 0 0 0 4 0.381 24
Dl -0.3649 -1.8728
Dl -0.1272 -1.8728
Dl -0.1272 -1.8545
Dl -0.3649 -1.8545
DP 0 0 0 0 4 0.381 24
Dl 0.1472 -1.8728
Dl 0.3849 -1.8728
Dl 0.3849 -1.8545
Dl 0.1472 -1.8545
DP 0 0 0 0 4 0.381 24
Dl 0.6409 -1.8728
Dl 0.8787 -1.8728
Dl 0.8787 -1.8545
Dl 0.6409 -1.8545
DP 0 0 0 0 4 0.381 24
Dl 1.153 -1.8728
Dl 1.3907 -1.8728
Dl 1.3907 -1.8545
Dl 1.153 -1.8545
DP 0 0 0 0 4 0.381 24
Dl 2.0125 -1.8728
Dl 2.0491 -1.8728
Dl 2.0491 -1.8545
Dl 2.0125 -1.8545
DP 0 0 0 0 4 0.381 24
Dl -1.3708 -1.8911
Dl -1.133 -1.8911
Dl -1.133 -1.8728
Dl -1.3708 -1.8728
DP 0 0 0 0 4 0.381 24
Dl -0.8587 -1.8911
Dl -0.6392 -1.8911
Dl -0.6392 -1.8728
Dl -0.8587 -1.8728
DP 0 0 0 0 4 0.381 24
Dl -0.3649 -1.8911
Dl -0.1272 -1.8911
Dl -0.1272 -1.8728
Dl -0.3649 -1.8728
DP 0 0 0 0 4 0.381 24
Dl 0.1472 -1.8911
Dl 0.3666 -1.8911
Dl 0.3666 -1.8728
Dl 0.1472 -1.8728
DP 0 0 0 0 4 0.381 24
Dl 0.6592 -1.8911
Dl 0.8787 -1.8911
Dl 0.8787 -1.8728
Dl 0.6592 -1.8728
DP 0 0 0 0 4 0.381 24
Dl 1.153 -1.8911
Dl 1.3907 -1.8911
Dl 1.3907 -1.8728
Dl 1.153 -1.8728
DP 0 0 0 0 4 0.381 24
Dl 2.0125 -1.8911
Dl 2.0491 -1.8911
Dl 2.0491 -1.8728
Dl 2.0125 -1.8728
DP 0 0 0 0 4 0.381 24
Dl -1.3708 -1.9094
Dl -1.133 -1.9094
Dl -1.133 -1.8911
Dl -1.3708 -1.8911
DP 0 0 0 0 4 0.381 24
Dl -0.8587 -1.9094
Dl -0.6392 -1.9094
Dl -0.6392 -1.8911
Dl -0.8587 -1.8911
DP 0 0 0 0 4 0.381 24
Dl -0.3466 -1.9094
Dl -0.1272 -1.9094
Dl -0.1272 -1.8911
Dl -0.3466 -1.8911
DP 0 0 0 0 4 0.381 24
Dl 0.1472 -1.9094
Dl 0.3666 -1.9094
Dl 0.3666 -1.8911
Dl 0.1472 -1.8911
DP 0 0 0 0 4 0.381 24
Dl 0.6592 -1.9094
Dl 0.8787 -1.9094
Dl 0.8787 -1.8911
Dl 0.6592 -1.8911
DP 0 0 0 0 4 0.381 24
Dl 1.153 -1.9094
Dl 1.3724 -1.9094
Dl 1.3724 -1.8911
Dl 1.153 -1.8911
DP 0 0 0 0 4 0.381 24
Dl 2.0125 -1.9094
Dl 2.0491 -1.9094
Dl 2.0491 -1.8911
Dl 2.0125 -1.8911
DP 0 0 0 0 4 0.381 24
Dl -1.3525 -1.9277
Dl -1.1513 -1.9277
Dl -1.1513 -1.9094
Dl -1.3525 -1.9094
DP 0 0 0 0 4 0.381 24
Dl -0.8587 -1.9277
Dl -0.6392 -1.9277
Dl -0.6392 -1.9094
Dl -0.8587 -1.9094
DP 0 0 0 0 4 0.381 24
Dl -0.3466 -1.9277
Dl -0.1455 -1.9277
Dl -0.1455 -1.9094
Dl -0.3466 -1.9094
DP 0 0 0 0 4 0.381 24
Dl 0.1472 -1.9277
Dl 0.3666 -1.9277
Dl 0.3666 -1.9094
Dl 0.1472 -1.9094
DP 0 0 0 0 4 0.381 24
Dl 0.6592 -1.9277
Dl 0.8787 -1.9277
Dl 0.8787 -1.9094
Dl 0.6592 -1.9094
DP 0 0 0 0 4 0.381 24
Dl 1.1713 -1.9277
Dl 1.3724 -1.9277
Dl 1.3724 -1.9094
Dl 1.1713 -1.9094
DP 0 0 0 0 4 0.381 24
Dl 2.0125 -1.9277
Dl 2.0491 -1.9277
Dl 2.0491 -1.9094
Dl 2.0125 -1.9094
DP 0 0 0 0 4 0.381 24
Dl -1.3525 -1.946
Dl -1.1513 -1.946
Dl -1.1513 -1.9277
Dl -1.3525 -1.9277
DP 0 0 0 0 4 0.381 24
Dl -0.8587 -1.946
Dl -0.6575 -1.946
Dl -0.6575 -1.9277
Dl -0.8587 -1.9277
DP 0 0 0 0 4 0.381 24
Dl -0.3466 -1.946
Dl -0.1455 -1.946
Dl -0.1455 -1.9277
Dl -0.3466 -1.9277
DP 0 0 0 0 4 0.381 24
Dl 0.1654 -1.946
Dl 0.3666 -1.946
Dl 0.3666 -1.9277
Dl 0.1654 -1.9277
DP 0 0 0 0 4 0.381 24
Dl 0.6592 -1.946
Dl 0.8604 -1.946
Dl 0.8604 -1.9277
Dl 0.6592 -1.9277
DP 0 0 0 0 4 0.381 24
Dl 1.153 -1.946
Dl 1.3724 -1.946
Dl 1.3724 -1.9277
Dl 1.153 -1.9277
DP 0 0 0 0 4 0.381 24
Dl 2.0125 -1.946
Dl 2.0491 -1.946
Dl 2.0491 -1.9277
Dl 2.0125 -1.9277
DP 0 0 0 0 4 0.381 24
Dl -1.9925 -1.9642
Dl -1.9743 -1.9642
Dl -1.9743 -1.946
Dl -1.9925 -1.946
DP 0 0 0 0 4 0.381 24
Dl -1.9377 -1.9642
Dl -1.8645 -1.9642
Dl -1.8645 -1.946
Dl -1.9377 -1.946
DP 0 0 0 0 4 0.381 24
Dl -1.3525 -1.9642
Dl -1.2427 -1.9642
Dl -1.2427 -1.946
Dl -1.3525 -1.946
DP 0 0 0 0 4 0.381 24
Dl -0.8404 -1.9642
Dl -0.6758 -1.9642
Dl -0.6758 -1.946
Dl -0.8404 -1.946
DP 0 0 0 0 4 0.381 24
Dl -0.3466 -1.9642
Dl -0.2918 -1.9642
Dl -0.2918 -1.946
Dl -0.3466 -1.946
DP 0 0 0 0 4 0.381 24
Dl 0.1654 -1.9642
Dl 0.2203 -1.9642
Dl 0.2203 -1.946
Dl 0.1654 -1.946
DP 0 0 0 0 4 0.381 24
Dl 0.6044 -1.9642
Dl 0.8238 -1.9642
Dl 0.8238 -1.946
Dl 0.6044 -1.946
DP 0 0 0 0 4 0.381 24
Dl 1.025 -1.9642
Dl 1.0616 -1.9642
Dl 1.0616 -1.946
Dl 1.025 -1.946
DP 0 0 0 0 4 0.381 24
Dl 1.1713 -1.9642
Dl 1.281 -1.9642
Dl 1.281 -1.946
Dl 1.1713 -1.946
DP 0 0 0 0 4 0.381 24
Dl 1.3176 -1.9642
Dl 1.3542 -1.9642
Dl 1.3542 -1.946
Dl 1.3176 -1.946
DP 0 0 0 0 4 0.381 24
Dl 1.7931 -1.9642
Dl 2.0491 -1.9642
Dl 2.0491 -1.946
Dl 1.7931 -1.946
DP 0 0 0 0 4 0.381 19
Dl -1.016 -1.016
Dl -0.254 -1.016
Dl -0.254 -0.254
Dl -1.016 -0.254
DP 0 0 0 0 4 0.381 19
Dl 0.254 -1.016
Dl 1.016 -1.016
Dl 1.016 -0.254
Dl 0.254 -0.254
DP 0 0 0 0 4 0.381 19
Dl -1.016 0.254
Dl -0.254 0.254
Dl -0.254 1.016
Dl -1.016 1.016
DP 0 0 0 0 4 0.381 19
Dl 0.254 0.254
Dl 1.016 0.254
Dl 1.016 1.016
Dl 0.254 1.016
DS -1.55 -2 -1.64954 -2 0.127 21
DS -1.64954 -2 -2 -1.64954 0.127 21
DS -2 -1.64954 -2 -1.55 0.127 21
DS -2 2 -2 1.55 0.127 21
DS -2 2 -1.55 2 0.127 21
DS 2 2 1.55 2 0.127 21
DS 2 2 2 1.55 0.127 21
DS 2 -2 2 -1.55 0.127 21
DS 2 -2 1.55 -2 0.127 21
DC -2.254 -2.254 -1.873 -2.254 0 21
$PAD
Sh "1" R 0.8 0.26 0 0 1800
At SMD N 00888000
.SolderMask 0.2
.SolderPaste 0
Ne 0 ""
Po -2 -1.25
$EndPAD
$PAD
Sh "2" R 0.8 0.26 0 0 1800
At SMD N 00888000
.SolderMask 0.2
.SolderPaste 0
Ne 0 ""
Po -2 -0.75
$EndPAD
$PAD
Sh "3" R 0.8 0.26 0 0 1800
At SMD N 00888000
.SolderMask 0.2
.SolderPaste 0
Ne 0 ""
Po -2 -0.25
$EndPAD
$PAD
Sh "4" R 0.8 0.26 0 0 1800
At SMD N 00888000
.SolderMask 0.2
.SolderPaste 0
Ne 0 ""
Po -2 0.25
$EndPAD
$PAD
Sh "5" R 0.8 0.26 0 0 1800
At SMD N 00888000
.SolderMask 0.2
.SolderPaste 0
Ne 0 ""
Po -2 0.75
$EndPAD
$PAD
Sh "6" R 0.8 0.26 0 0 1800
At SMD N 00888000
.SolderMask 0.2
.SolderPaste 0
Ne 0 ""
Po -2 1.25
$EndPAD
$PAD
Sh "7" R 0.8 0.26 0 0 900
At SMD N 00888000
.SolderMask 0.2
.SolderPaste 0
Ne 0 ""
Po -1.25 2
$EndPAD
$PAD
Sh "8" R 0.8 0.26 0 0 900
At SMD N 00888000
.SolderMask 0.2
.SolderPaste 0
Ne 0 ""
Po -0.75 2
$EndPAD
$PAD
Sh "9" R 0.8 0.26 0 0 900
At SMD N 00888000
.SolderMask 0.2
.SolderPaste 0
Ne 0 ""
Po -0.25 2
$EndPAD
$PAD
Sh "10" R 0.8 0.26 0 0 900
At SMD N 00888000
.SolderMask 0.2
.SolderPaste 0
Ne 0 ""
Po 0.25 2
$EndPAD
$PAD
Sh "11" R 0.8 0.26 0 0 900
At SMD N 00888000
.SolderMask 0.2
.SolderPaste 0
Ne 0 ""
Po 0.75 2
$EndPAD
$PAD
Sh "12" R 0.8 0.26 0 0 900
At SMD N 00888000
.SolderMask 0.2
.SolderPaste 0
Ne 0 ""
Po 1.25 2
$EndPAD
$PAD
Sh "13" R 0.8 0.26 0 0 1800
At SMD N 00888000
.SolderMask 0.2
.SolderPaste 0
Ne 0 ""
Po 2 1.25
$EndPAD
$PAD
Sh "14" R 0.8 0.26 0 0 1800
At SMD N 00888000
.SolderMask 0.2
.SolderPaste 0
Ne 0 ""
Po 2 0.75
$EndPAD
$PAD
Sh "15" R 0.8 0.26 0 0 1800
At SMD N 00888000
.SolderMask 0.2
.SolderPaste 0
Ne 0 ""
Po 2 0.25
$EndPAD
$PAD
Sh "16" R 0.8 0.26 0 0 1800
At SMD N 00888000
.SolderMask 0.2
.SolderPaste 0
Ne 0 ""
Po 2 -0.25
$EndPAD
$PAD
Sh "17" R 0.8 0.26 0 0 1800
At SMD N 00888000
.SolderMask 0.2
.SolderPaste 0
Ne 0 ""
Po 2 -0.75
$EndPAD
$PAD
Sh "18" R 0.8 0.26 0 0 1800
At SMD N 00888000
.SolderMask 0.2
.SolderPaste 0
Ne 0 ""
Po 2 -1.25
$EndPAD
$PAD
Sh "19" R 0.8 0.26 0 0 900
At SMD N 00888000
.SolderMask 0.2
.SolderPaste 0
Ne 0 ""
Po 1.25 -2
$EndPAD
$PAD
Sh "20" R 0.8 0.26 0 0 900
At SMD N 00888000
.SolderMask 0.2
.SolderPaste 0
Ne 0 ""
Po 0.75 -2
$EndPAD
$PAD
Sh "21" R 0.8 0.26 0 0 900
At SMD N 00888000
.SolderMask 0.2
.SolderPaste 0
Ne 0 ""
Po 0.25 -2
$EndPAD
$PAD
Sh "22" R 0.8 0.26 0 0 900
At SMD N 00888000
.SolderMask 0.2
.SolderPaste 0
Ne 0 ""
Po -0.25 -2
$EndPAD
$PAD
Sh "23" R 0.8 0.26 0 0 900
At SMD N 00888000
.SolderMask 0.2
.SolderPaste 0
Ne 0 ""
Po -0.75 -2
$EndPAD
$PAD
Sh "24" R 0.8 0.26 0 0 900
At SMD N 00888000
.SolderMask 0.2
.SolderPaste 0
Ne 0 ""
Po -1.25 -2
$EndPAD
$PAD
Sh "E" R 2.6 2.6 0 0 0
At SMD N 00888000
.SolderMask 0.2
.SolderPaste 0
Ne 0 ""
Po 0.02 0.01
$EndPAD
$EndMODULE QFN24G-0.5-4X4MM
