EESchema Schematic File Version 2
LIBS:power
LIBS:device
LIBS:transistors
LIBS:conn
LIBS:linear
LIBS:regul
LIBS:74xx
LIBS:cmos4000
LIBS:adc-dac
LIBS:memory
LIBS:xilinx
LIBS:special
LIBS:microcontrollers
LIBS:dsp
LIBS:microchip
LIBS:analog_switches
LIBS:motorola
LIBS:texas
LIBS:intel
LIBS:audio
LIBS:interface
LIBS:digital-audio
LIBS:philips
LIBS:display
LIBS:cypress
LIBS:siliconi
LIBS:opto
LIBS:atmel
LIBS:contrib
LIBS:valves
LIBS:crap
LIBS:multivl-cache
EELAYER 27 0
EELAYER END
$Descr A4 11693 8268
encoding utf-8
Sheet 1 1
Title ""
Date "6 dec 2014"
Rev ""
Comp ""
Comment1 ""
Comment2 ""
Comment3 ""
Comment4 ""
$EndDescr
$Comp
L TPS79328 U7
U 1 1 54492D9C
P 9750 1300
F 0 "U7" H 9750 1050 60  0000 C CNN
F 1 "TPS79328" H 9800 1550 60  0000 C CNN
F 2 "" H 9750 1300 60  0000 C CNN
F 3 "" H 9750 1300 60  0000 C CNN
	1    9750 1300
	1    0    0    -1  
$EndComp
$Comp
L TCA9406 U6
U 1 1 54492DAB
P 9600 2400
F 0 "U6" H 9550 2000 60  0000 C CNN
F 1 "TCA9406" H 9550 2600 60  0000 C CNN
F 2 "" H 9850 2400 60  0000 C CNN
F 3 "" H 9850 2400 60  0000 C CNN
	1    9600 2400
	1    0    0    -1  
$EndComp
$Comp
L +3.3V #PWR01
U 1 1 544A7C60
P 9350 1200
F 0 "#PWR01" H 9350 1160 30  0001 C CNN
F 1 "+3.3V" H 9350 1310 30  0000 C CNN
F 2 "" H 9350 1200 60  0000 C CNN
F 3 "" H 9350 1200 60  0000 C CNN
	1    9350 1200
	1    0    0    -1  
$EndComp
$Comp
L TCA955A U5
U 1 1 545A8D4C
P 4350 6350
F 0 "U5" H 4350 5750 60  0000 C CNN
F 1 "TCA955A" H 4350 6700 60  0000 C CNN
F 2 "" H 4350 6350 60  0000 C CNN
F 3 "" H 4350 6350 60  0000 C CNN
	1    4350 6350
	1    0    0    -1  
$EndComp
$Comp
L CONN_4 P3
U 1 1 545A8D75
P 10750 3900
F 0 "P3" V 10700 3900 50  0000 C CNN
F 1 "CONN_4" V 10800 3900 50  0000 C CNN
F 2 "" H 10750 3900 60  0000 C CNN
F 3 "" H 10750 3900 60  0000 C CNN
	1    10750 3900
	1    0    0    1   
$EndComp
Text Label 10400 3950 2    39   ~ 0
SCL33
Text Label 10400 3850 2    39   ~ 0
SDA33
$Comp
L +3.3V #PWR02
U 1 1 545A8E34
P 10400 3750
F 0 "#PWR02" H 10400 3710 30  0001 C CNN
F 1 "+3.3V" H 10400 3860 30  0000 C CNN
F 2 "" H 10400 3750 60  0000 C CNN
F 3 "" H 10400 3750 60  0000 C CNN
	1    10400 3750
	1    0    0    -1  
$EndComp
$Comp
L GND #PWR03
U 1 1 545A8E44
P 10400 4100
F 0 "#PWR03" H 10400 4100 30  0001 C CNN
F 1 "GND" H 10400 4030 30  0001 C CNN
F 2 "" H 10400 4100 60  0000 C CNN
F 3 "" H 10400 4100 60  0000 C CNN
	1    10400 4100
	1    0    0    -1  
$EndComp
$Comp
L C C9
U 1 1 545F6FB5
P 9050 1300
F 0 "C9" H 9050 1400 40  0000 L CNN
F 1 "0.1u" H 9056 1215 40  0000 L CNN
F 2 "~" H 9088 1150 30  0000 C CNN
F 3 "~" H 9050 1300 60  0000 C CNN
	1    9050 1300
	1    0    0    -1  
$EndComp
$Comp
L +3.3V #PWR04
U 1 1 545F6FD3
P 9050 1100
F 0 "#PWR04" H 9050 1060 30  0001 C CNN
F 1 "+3.3V" H 9050 1210 30  0000 C CNN
F 2 "" H 9050 1100 60  0000 C CNN
F 3 "" H 9050 1100 60  0000 C CNN
	1    9050 1100
	1    0    0    -1  
$EndComp
$Comp
L GND #PWR05
U 1 1 545F6FE2
P 9050 1500
F 0 "#PWR05" H 9050 1500 30  0001 C CNN
F 1 "GND" H 9050 1430 30  0001 C CNN
F 2 "" H 9050 1500 60  0000 C CNN
F 3 "" H 9050 1500 60  0000 C CNN
	1    9050 1500
	1    0    0    -1  
$EndComp
$Comp
L GND #PWR06
U 1 1 545F7001
P 9350 1450
F 0 "#PWR06" H 9350 1450 30  0001 C CNN
F 1 "GND" H 9350 1380 30  0001 C CNN
F 2 "" H 9350 1450 60  0000 C CNN
F 3 "" H 9350 1450 60  0000 C CNN
	1    9350 1450
	1    0    0    -1  
$EndComp
$Comp
L VCC #PWR07
U 1 1 545F701B
P 10400 1200
F 0 "#PWR07" H 10400 1300 30  0001 C CNN
F 1 "VCC" H 10400 1300 30  0000 C CNN
F 2 "" H 10400 1200 60  0000 C CNN
F 3 "" H 10400 1200 60  0000 C CNN
	1    10400 1200
	1    0    0    -1  
$EndComp
$Comp
L C C11
U 1 1 545F711E
P 10600 1300
F 0 "C11" H 10600 1400 40  0000 L CNN
F 1 "2.2u" H 10606 1215 40  0000 L CNN
F 2 "~" H 10638 1150 30  0000 C CNN
F 3 "~" H 10600 1300 60  0000 C CNN
	1    10600 1300
	1    0    0    -1  
$EndComp
$Comp
L VCC #PWR08
U 1 1 545F712D
P 10600 1100
F 0 "#PWR08" H 10600 1200 30  0001 C CNN
F 1 "VCC" H 10600 1200 30  0000 C CNN
F 2 "" H 10600 1100 60  0000 C CNN
F 3 "" H 10600 1100 60  0000 C CNN
	1    10600 1100
	1    0    0    -1  
$EndComp
$Comp
L GND #PWR09
U 1 1 545F713D
P 10600 1500
F 0 "#PWR09" H 10600 1500 30  0001 C CNN
F 1 "GND" H 10600 1430 30  0001 C CNN
F 2 "" H 10600 1500 60  0000 C CNN
F 3 "" H 10600 1500 60  0000 C CNN
	1    10600 1500
	1    0    0    -1  
$EndComp
$Comp
L C C10
U 1 1 545F7151
P 10400 1600
F 0 "C10" H 10400 1700 40  0000 L CNN
F 1 "0.01u" H 10406 1515 40  0000 L CNN
F 2 "~" H 10438 1450 30  0000 C CNN
F 3 "~" H 10400 1600 60  0000 C CNN
	1    10400 1600
	1    0    0    -1  
$EndComp
$Comp
L GND #PWR010
U 1 1 545F716A
P 10400 1800
F 0 "#PWR010" H 10400 1800 30  0001 C CNN
F 1 "GND" H 10400 1730 30  0001 C CNN
F 2 "" H 10400 1800 60  0000 C CNN
F 3 "" H 10400 1800 60  0000 C CNN
	1    10400 1800
	1    0    0    -1  
$EndComp
Text Label 9100 2350 2    39   ~ 0
SDA33
Text Label 10300 2350 0    39   ~ 0
SDA
Text Label 10300 2450 0    39   ~ 0
SCL
Text Label 9100 2450 2    39   ~ 0
SCL33
$Comp
L VCC #PWR011
U 1 1 545F7633
P 10500 2550
F 0 "#PWR011" H 10500 2650 30  0001 C CNN
F 1 "VCC" H 10500 2650 30  0000 C CNN
F 2 "" H 10500 2550 60  0000 C CNN
F 3 "" H 10500 2550 60  0000 C CNN
	1    10500 2550
	1    0    0    -1  
$EndComp
$Comp
L GND #PWR012
U 1 1 545F7642
P 9100 2700
F 0 "#PWR012" H 9100 2700 30  0001 C CNN
F 1 "GND" H 9100 2630 30  0001 C CNN
F 2 "" H 9100 2700 60  0000 C CNN
F 3 "" H 9100 2700 60  0000 C CNN
	1    9100 2700
	1    0    0    -1  
$EndComp
$Comp
L +3.3V #PWR013
U 1 1 545F765F
P 8800 2550
F 0 "#PWR013" H 8800 2510 30  0001 C CNN
F 1 "+3.3V" H 8800 2660 30  0000 C CNN
F 2 "" H 8800 2550 60  0000 C CNN
F 3 "" H 8800 2550 60  0000 C CNN
	1    8800 2550
	1    0    0    -1  
$EndComp
$Comp
L R R19
U 1 1 545F7689
P 10750 2550
F 0 "R19" V 10830 2550 40  0000 C CNN
F 1 "10k" V 10757 2551 40  0000 C CNN
F 2 "~" V 10680 2550 30  0000 C CNN
F 3 "~" H 10750 2550 30  0000 C CNN
	1    10750 2550
	1    0    0    -1  
$EndComp
$Comp
L R R20
U 1 1 545F7698
P 10900 2550
F 0 "R20" V 10980 2550 40  0000 C CNN
F 1 "10k" V 10907 2551 40  0000 C CNN
F 2 "~" V 10830 2550 30  0000 C CNN
F 3 "~" H 10900 2550 30  0000 C CNN
	1    10900 2550
	1    0    0    -1  
$EndComp
Text Label 10750 2800 2    39   ~ 0
SDA
Text Label 10900 2800 0    39   ~ 0
SCL
$Comp
L VCC #PWR016
U 1 1 545F76F4
P 5000 6100
F 0 "#PWR016" H 5000 6200 30  0001 C CNN
F 1 "VCC" H 5000 6200 30  0000 C CNN
F 2 "" H 5000 6100 60  0000 C CNN
F 3 "" H 5000 6100 60  0000 C CNN
	1    5000 6100
	1    0    0    -1  
$EndComp
Text Label 4850 6200 0    39   ~ 0
SDA
Text Label 4850 6300 0    39   ~ 0
SCL
$Comp
L GND #PWR017
U 1 1 545F770D
P 3850 6850
F 0 "#PWR017" H 3850 6850 30  0001 C CNN
F 1 "GND" H 3850 6780 30  0001 C CNN
F 2 "" H 3850 6850 60  0000 C CNN
F 3 "" H 3850 6850 60  0000 C CNN
	1    3850 6850
	1    0    0    -1  
$EndComp
Text Label 5100 4200 2    39   ~ 0
SCL
Text Label 5100 4300 2    39   ~ 0
SDA
$Comp
L VCC #PWR018
U 1 1 5463AC12
P 6550 3600
F 0 "#PWR018" H 6550 3700 30  0001 C CNN
F 1 "VCC" H 6550 3700 30  0000 C CNN
F 2 "" H 6550 3600 60  0000 C CNN
F 3 "" H 6550 3600 60  0000 C CNN
	1    6550 3600
	1    0    0    -1  
$EndComp
$Comp
L GND #PWR019
U 1 1 5463AC7F
P 6550 4350
F 0 "#PWR019" H 6550 4350 30  0001 C CNN
F 1 "GND" H 6550 4280 30  0001 C CNN
F 2 "" H 6550 4350 60  0000 C CNN
F 3 "" H 6550 4350 60  0000 C CNN
	1    6550 4350
	1    0    0    -1  
$EndComp
$Comp
L C C6
U 1 1 5463AEC1
P 6750 3600
F 0 "C6" H 6750 3700 20  0000 L CNN
F 1 "100n" H 6756 3515 40  0000 L CNN
F 2 "~" H 6788 3450 30  0000 C CNN
F 3 "~" H 6750 3600 60  0000 C CNN
	1    6750 3600
	0    1    1    0   
$EndComp
$Comp
L GND #PWR020
U 1 1 5463AF13
P 6950 3650
F 0 "#PWR020" H 6950 3650 30  0001 C CNN
F 1 "GND" H 6950 3580 30  0001 C CNN
F 2 "" H 6950 3650 60  0000 C CNN
F 3 "" H 6950 3650 60  0000 C CNN
	1    6950 3650
	1    0    0    -1  
$EndComp
$Comp
L GND #PWR021
U 1 1 5463AFB4
P 7050 4050
F 0 "#PWR021" H 7050 4050 30  0001 C CNN
F 1 "GND" H 7050 3980 30  0001 C CNN
F 2 "" H 7050 4050 60  0000 C CNN
F 3 "" H 7050 4050 60  0000 C CNN
	1    7050 4050
	1    0    0    -1  
$EndComp
$Comp
L VCC #PWR022
U 1 1 5463B03E
P 6650 4000
F 0 "#PWR022" H 6650 4100 30  0001 C CNN
F 1 "VCC" H 6650 4100 30  0000 C CNN
F 2 "" H 6650 4000 60  0000 C CNN
F 3 "" H 6650 4000 60  0000 C CNN
	1    6650 4000
	1    0    0    -1  
$EndComp
$Comp
L C C8
U 1 1 5463AF22
P 6850 4000
F 0 "C8" H 6850 4100 40  0000 L CNN
F 1 "4.7u" H 6856 3915 40  0000 L CNN
F 2 "~" H 6888 3850 30  0000 C CNN
F 3 "~" H 6850 4000 60  0000 C CNN
	1    6850 4000
	0    1    1    0   
$EndComp
$Comp
L VL6180X U4
U 1 1 544928D3
P 4000 4450
F 0 "U4" H 5600 4500 60  0000 C CNN
F 1 "VL6180X" H 5600 5250 60  0000 C CNN
F 2 "~" H 5250 5150 60  0000 C CNN
F 3 "~" H 5250 5150 60  0000 C CNN
	1    4000 4450
	1    0    0    -1  
$EndComp
Text Label 1550 4200 2    39   ~ 0
SCL
Text Label 1550 4300 2    39   ~ 0
SDA
$Comp
L VCC #PWR023
U 1 1 5463B07C
P 3000 3650
F 0 "#PWR023" H 3000 3750 30  0001 C CNN
F 1 "VCC" H 3000 3750 30  0000 C CNN
F 2 "" H 3000 3650 60  0000 C CNN
F 3 "" H 3000 3650 60  0000 C CNN
	1    3000 3650
	1    0    0    -1  
$EndComp
$Comp
L GND #PWR024
U 1 1 5463B082
P 3000 4350
F 0 "#PWR024" H 3000 4350 30  0001 C CNN
F 1 "GND" H 3000 4280 30  0001 C CNN
F 2 "" H 3000 4350 60  0000 C CNN
F 3 "" H 3000 4350 60  0000 C CNN
	1    3000 4350
	1    0    0    -1  
$EndComp
$Comp
L C C2
U 1 1 5463B088
P 3200 3650
F 0 "C2" H 3200 3750 20  0000 L CNN
F 1 "100n" H 3206 3565 40  0000 L CNN
F 2 "~" H 3238 3500 30  0000 C CNN
F 3 "~" H 3200 3650 60  0000 C CNN
	1    3200 3650
	0    1    1    0   
$EndComp
$Comp
L GND #PWR025
U 1 1 5463B08E
P 3400 3700
F 0 "#PWR025" H 3400 3700 30  0001 C CNN
F 1 "GND" H 3400 3630 30  0001 C CNN
F 2 "" H 3400 3700 60  0000 C CNN
F 3 "" H 3400 3700 60  0000 C CNN
	1    3400 3700
	1    0    0    -1  
$EndComp
$Comp
L GND #PWR026
U 1 1 5463B094
P 3500 4050
F 0 "#PWR026" H 3500 4050 30  0001 C CNN
F 1 "GND" H 3500 3980 30  0001 C CNN
F 2 "" H 3500 4050 60  0000 C CNN
F 3 "" H 3500 4050 60  0000 C CNN
	1    3500 4050
	1    0    0    -1  
$EndComp
$Comp
L VCC #PWR027
U 1 1 5463B09A
P 3100 4000
F 0 "#PWR027" H 3100 4100 30  0001 C CNN
F 1 "VCC" H 3100 4100 30  0000 C CNN
F 2 "" H 3100 4000 60  0000 C CNN
F 3 "" H 3100 4000 60  0000 C CNN
	1    3100 4000
	1    0    0    -1  
$EndComp
$Comp
L VL6180X U2
U 1 1 5463B0AC
P 450 4450
F 0 "U2" H 2050 4500 60  0000 C CNN
F 1 "VL6180X" H 2050 5250 60  0000 C CNN
F 2 "~" H 1700 5150 60  0000 C CNN
F 3 "~" H 1700 5150 60  0000 C CNN
	1    450  4450
	1    0    0    -1  
$EndComp
$Comp
L C C4
U 1 1 5463B0A0
P 3300 4000
F 0 "C4" H 3300 4100 40  0000 L CNN
F 1 "4.7u" H 3306 3915 40  0000 L CNN
F 2 "~" H 3338 3850 30  0000 C CNN
F 3 "~" H 3300 4000 60  0000 C CNN
	1    3300 4000
	0    1    1    0   
$EndComp
Text Label 1550 2200 2    39   ~ 0
SCL
Text Label 1550 2300 2    39   ~ 0
SDA
$Comp
L VCC #PWR028
U 1 1 5463B44B
P 3000 1650
F 0 "#PWR028" H 3000 1750 30  0001 C CNN
F 1 "VCC" H 3000 1750 30  0000 C CNN
F 2 "" H 3000 1650 60  0000 C CNN
F 3 "" H 3000 1650 60  0000 C CNN
	1    3000 1650
	1    0    0    -1  
$EndComp
$Comp
L GND #PWR029
U 1 1 5463B451
P 3000 2350
F 0 "#PWR029" H 3000 2350 30  0001 C CNN
F 1 "GND" H 3000 2280 30  0001 C CNN
F 2 "" H 3000 2350 60  0000 C CNN
F 3 "" H 3000 2350 60  0000 C CNN
	1    3000 2350
	1    0    0    -1  
$EndComp
$Comp
L C C1
U 1 1 5463B457
P 3200 1650
F 0 "C1" H 3200 1750 20  0000 L CNN
F 1 "100n" H 3206 1565 40  0000 L CNN
F 2 "~" H 3238 1500 30  0000 C CNN
F 3 "~" H 3200 1650 60  0000 C CNN
	1    3200 1650
	0    1    1    0   
$EndComp
$Comp
L GND #PWR030
U 1 1 5463B45D
P 3400 1700
F 0 "#PWR030" H 3400 1700 30  0001 C CNN
F 1 "GND" H 3400 1630 30  0001 C CNN
F 2 "" H 3400 1700 60  0000 C CNN
F 3 "" H 3400 1700 60  0000 C CNN
	1    3400 1700
	1    0    0    -1  
$EndComp
$Comp
L GND #PWR031
U 1 1 5463B463
P 3500 2050
F 0 "#PWR031" H 3500 2050 30  0001 C CNN
F 1 "GND" H 3500 1980 30  0001 C CNN
F 2 "" H 3500 2050 60  0000 C CNN
F 3 "" H 3500 2050 60  0000 C CNN
	1    3500 2050
	1    0    0    -1  
$EndComp
$Comp
L VCC #PWR032
U 1 1 5463B469
P 3100 2000
F 0 "#PWR032" H 3100 2100 30  0001 C CNN
F 1 "VCC" H 3100 2100 30  0000 C CNN
F 2 "" H 3100 2000 60  0000 C CNN
F 3 "" H 3100 2000 60  0000 C CNN
	1    3100 2000
	1    0    0    -1  
$EndComp
$Comp
L VL6180X U1
U 1 1 5463B470
P 450 2450
F 0 "U1" H 2050 2500 60  0000 C CNN
F 1 "VL6180X" H 2050 3250 60  0000 C CNN
F 2 "~" H 1700 3150 60  0000 C CNN
F 3 "~" H 1700 3150 60  0000 C CNN
	1    450  2450
	1    0    0    -1  
$EndComp
$Comp
L C C3
U 1 1 5463B478
P 3300 2000
F 0 "C3" H 3300 2100 40  0000 L CNN
F 1 "4.7u" H 3306 1915 40  0000 L CNN
F 2 "~" H 3338 1850 30  0000 C CNN
F 3 "~" H 3300 2000 60  0000 C CNN
	1    3300 2000
	0    1    1    0   
$EndComp
Text Label 5100 2200 2    39   ~ 0
SCL
Text Label 5100 2300 2    39   ~ 0
SDA
$Comp
L VCC #PWR033
U 1 1 5463B483
P 6550 1650
F 0 "#PWR033" H 6550 1750 30  0001 C CNN
F 1 "VCC" H 6550 1750 30  0000 C CNN
F 2 "" H 6550 1650 60  0000 C CNN
F 3 "" H 6550 1650 60  0000 C CNN
	1    6550 1650
	1    0    0    -1  
$EndComp
$Comp
L GND #PWR034
U 1 1 5463B489
P 6550 2350
F 0 "#PWR034" H 6550 2350 30  0001 C CNN
F 1 "GND" H 6550 2280 30  0001 C CNN
F 2 "" H 6550 2350 60  0000 C CNN
F 3 "" H 6550 2350 60  0000 C CNN
	1    6550 2350
	1    0    0    -1  
$EndComp
$Comp
L C C5
U 1 1 5463B48F
P 6750 1650
F 0 "C5" H 6750 1750 20  0000 L CNN
F 1 "100n" H 6756 1565 40  0000 L CNN
F 2 "~" H 6788 1500 30  0000 C CNN
F 3 "~" H 6750 1650 60  0000 C CNN
	1    6750 1650
	0    1    1    0   
$EndComp
$Comp
L GND #PWR035
U 1 1 5463B495
P 6950 1700
F 0 "#PWR035" H 6950 1700 30  0001 C CNN
F 1 "GND" H 6950 1630 30  0001 C CNN
F 2 "" H 6950 1700 60  0000 C CNN
F 3 "" H 6950 1700 60  0000 C CNN
	1    6950 1700
	1    0    0    -1  
$EndComp
$Comp
L GND #PWR036
U 1 1 5463B49B
P 7050 2050
F 0 "#PWR036" H 7050 2050 30  0001 C CNN
F 1 "GND" H 7050 1980 30  0001 C CNN
F 2 "" H 7050 2050 60  0000 C CNN
F 3 "" H 7050 2050 60  0000 C CNN
	1    7050 2050
	1    0    0    -1  
$EndComp
$Comp
L VCC #PWR037
U 1 1 5463B4A1
P 6650 2000
F 0 "#PWR037" H 6650 2100 30  0001 C CNN
F 1 "VCC" H 6650 2100 30  0000 C CNN
F 2 "" H 6650 2000 60  0000 C CNN
F 3 "" H 6650 2000 60  0000 C CNN
	1    6650 2000
	1    0    0    -1  
$EndComp
$Comp
L VL6180X U3
U 1 1 5463B4A8
P 4000 2450
F 0 "U3" H 5600 2500 60  0000 C CNN
F 1 "VL6180X" H 5600 3250 60  0000 C CNN
F 2 "~" H 5250 3150 60  0000 C CNN
F 3 "~" H 5250 3150 60  0000 C CNN
	1    4000 2450
	1    0    0    -1  
$EndComp
$Comp
L C C7
U 1 1 5463B4B0
P 6850 2000
F 0 "C7" H 6850 2100 40  0000 L CNN
F 1 "4.7u" H 6856 1915 40  0000 L CNN
F 2 "~" H 6888 1850 30  0000 C CNN
F 3 "~" H 6850 2000 60  0000 C CNN
	1    6850 2000
	0    1    1    0   
$EndComp
$Comp
L VCC #PWR038
U 1 1 546632D1
P 1750 5900
F 0 "#PWR038" H 1750 6000 30  0001 C CNN
F 1 "VCC" H 1750 6000 30  0000 C CNN
F 2 "" H 1750 5900 60  0000 C CNN
F 3 "" H 1750 5900 60  0000 C CNN
	1    1750 5900
	1    0    0    -1  
$EndComp
$Comp
L VCC #PWR039
U 1 1 546632E0
P 2200 5900
F 0 "#PWR039" H 2200 6000 30  0001 C CNN
F 1 "VCC" H 2200 6000 30  0000 C CNN
F 2 "" H 2200 5900 60  0000 C CNN
F 3 "" H 2200 5900 60  0000 C CNN
	1    2200 5900
	1    0    0    -1  
$EndComp
$Comp
L VCC #PWR040
U 1 1 546632EF
P 2650 5900
F 0 "#PWR040" H 2650 6000 30  0001 C CNN
F 1 "VCC" H 2650 6000 30  0000 C CNN
F 2 "" H 2650 5900 60  0000 C CNN
F 3 "" H 2650 5900 60  0000 C CNN
	1    2650 5900
	1    0    0    -1  
$EndComp
$Comp
L R R5
U 1 1 54663308
P 1750 6150
F 0 "R5" V 1830 6150 40  0000 C CNN
F 1 "R" V 1757 6151 40  0000 C CNN
F 2 "~" V 1680 6150 30  0000 C CNN
F 3 "~" H 1750 6150 30  0000 C CNN
	1    1750 6150
	1    0    0    -1  
$EndComp
$Comp
L R R9
U 1 1 54663317
P 2200 6150
F 0 "R9" V 2280 6150 40  0000 C CNN
F 1 "R" V 2207 6151 40  0000 C CNN
F 2 "~" V 2130 6150 30  0000 C CNN
F 3 "~" H 2200 6150 30  0000 C CNN
	1    2200 6150
	1    0    0    -1  
$EndComp
$Comp
L R R11
U 1 1 54663326
P 2650 6150
F 0 "R11" V 2730 6150 40  0000 C CNN
F 1 "R" V 2657 6151 40  0000 C CNN
F 2 "~" V 2580 6150 30  0000 C CNN
F 3 "~" H 2650 6150 30  0000 C CNN
	1    2650 6150
	1    0    0    -1  
$EndComp
Text Label 1650 6400 2    60   ~ 0
A0
Text Label 2100 6400 2    60   ~ 0
A1
Text Label 2550 6400 2    60   ~ 0
A2
$Comp
L R R6
U 1 1 546633AB
P 1750 6650
F 0 "R6" V 1830 6650 40  0000 C CNN
F 1 "R" V 1757 6651 40  0000 C CNN
F 2 "~" V 1680 6650 30  0000 C CNN
F 3 "~" H 1750 6650 30  0000 C CNN
	1    1750 6650
	1    0    0    -1  
$EndComp
$Comp
L R R10
U 1 1 546633BA
P 2200 6650
F 0 "R10" V 2280 6650 40  0000 C CNN
F 1 "R" V 2207 6651 40  0000 C CNN
F 2 "~" V 2130 6650 30  0000 C CNN
F 3 "~" H 2200 6650 30  0000 C CNN
	1    2200 6650
	1    0    0    -1  
$EndComp
$Comp
L R R12
U 1 1 546633C9
P 2650 6650
F 0 "R12" V 2730 6650 40  0000 C CNN
F 1 "R" V 2657 6651 40  0000 C CNN
F 2 "~" V 2580 6650 30  0000 C CNN
F 3 "~" H 2650 6650 30  0000 C CNN
	1    2650 6650
	1    0    0    -1  
$EndComp
$Comp
L GND #PWR041
U 1 1 546633D8
P 1750 6900
F 0 "#PWR041" H 1750 6900 30  0001 C CNN
F 1 "GND" H 1750 6830 30  0001 C CNN
F 2 "" H 1750 6900 60  0000 C CNN
F 3 "" H 1750 6900 60  0000 C CNN
	1    1750 6900
	1    0    0    -1  
$EndComp
$Comp
L GND #PWR042
U 1 1 546633E7
P 2200 6900
F 0 "#PWR042" H 2200 6900 30  0001 C CNN
F 1 "GND" H 2200 6830 30  0001 C CNN
F 2 "" H 2200 6900 60  0000 C CNN
F 3 "" H 2200 6900 60  0000 C CNN
	1    2200 6900
	1    0    0    -1  
$EndComp
$Comp
L GND #PWR043
U 1 1 546633F6
P 2650 6900
F 0 "#PWR043" H 2650 6900 30  0001 C CNN
F 1 "GND" H 2650 6830 30  0001 C CNN
F 2 "" H 2650 6900 60  0000 C CNN
F 3 "" H 2650 6900 60  0000 C CNN
	1    2650 6900
	1    0    0    -1  
$EndComp
Text Label 3850 6100 2    39   ~ 0
A0
Text Label 3850 6200 2    39   ~ 0
A1
Text Label 3850 6300 2    39   ~ 0
A2
Text Label 1550 1900 2    39   ~ 0
RESET0
Text Label 1550 3900 2    39   ~ 0
RESET1
Text Label 5100 3900 2    39   ~ 0
RESET3
Text Label 5100 1900 2    39   ~ 0
RESET2
Text Label 4850 6500 0    39   ~ 0
RESET0
Text Label 4850 6400 0    39   ~ 0
RESET1
Text Label 3850 6500 2    39   ~ 0
RESET2
Text Label 3850 6400 2    39   ~ 0
RESET3
$Comp
L R R1
U 1 1 5466360B
P 1050 4050
F 0 "R1" V 1130 4050 40  0000 C CNN
F 1 "47" V 1057 4051 40  0000 C CNN
F 2 "~" V 980 4050 30  0000 C CNN
F 3 "~" H 1050 4050 30  0000 C CNN
	1    1050 4050
	1    0    0    -1  
$EndComp
$Comp
L R R3
U 1 1 5466365C
P 1300 4150
F 0 "R3" V 1380 4150 40  0000 C CNN
F 1 "47" V 1307 4151 40  0000 C CNN
F 2 "~" V 1230 4150 30  0000 C CNN
F 3 "~" H 1300 4150 30  0000 C CNN
	1    1300 4150
	1    0    0    -1  
$EndComp
$Comp
L GND #PWR044
U 1 1 5466366B
P 1050 4300
F 0 "#PWR044" H 1050 4300 30  0001 C CNN
F 1 "GND" H 1050 4230 30  0001 C CNN
F 2 "" H 1050 4300 60  0000 C CNN
F 3 "" H 1050 4300 60  0000 C CNN
	1    1050 4300
	1    0    0    -1  
$EndComp
$Comp
L GND #PWR045
U 1 1 5466367A
P 1300 4400
F 0 "#PWR045" H 1300 4400 30  0001 C CNN
F 1 "GND" H 1300 4330 30  0001 C CNN
F 2 "" H 1300 4400 60  0000 C CNN
F 3 "" H 1300 4400 60  0000 C CNN
	1    1300 4400
	1    0    0    -1  
$EndComp
$Comp
L R R2
U 1 1 546636EA
P 1150 2050
F 0 "R2" V 1230 2050 40  0000 C CNN
F 1 "47" V 1157 2051 40  0000 C CNN
F 2 "~" V 1080 2050 30  0000 C CNN
F 3 "~" H 1150 2050 30  0000 C CNN
	1    1150 2050
	1    0    0    -1  
$EndComp
$Comp
L R R4
U 1 1 546636F9
P 1350 2150
F 0 "R4" V 1430 2150 40  0000 C CNN
F 1 "47" V 1357 2151 40  0000 C CNN
F 2 "~" V 1280 2150 30  0000 C CNN
F 3 "~" H 1350 2150 30  0000 C CNN
	1    1350 2150
	1    0    0    -1  
$EndComp
$Comp
L GND #PWR046
U 1 1 54663708
P 1150 2300
F 0 "#PWR046" H 1150 2300 30  0001 C CNN
F 1 "GND" H 1150 2230 30  0001 C CNN
F 2 "" H 1150 2300 60  0000 C CNN
F 3 "" H 1150 2300 60  0000 C CNN
	1    1150 2300
	1    0    0    -1  
$EndComp
$Comp
L GND #PWR047
U 1 1 54663717
P 1350 2400
F 0 "#PWR047" H 1350 2400 30  0001 C CNN
F 1 "GND" H 1350 2330 30  0001 C CNN
F 2 "" H 1350 2400 60  0000 C CNN
F 3 "" H 1350 2400 60  0000 C CNN
	1    1350 2400
	1    0    0    -1  
$EndComp
$Comp
L R R13
U 1 1 54663781
P 4700 2050
F 0 "R13" V 4780 2050 40  0000 C CNN
F 1 "47" V 4707 2051 40  0000 C CNN
F 2 "~" V 4630 2050 30  0000 C CNN
F 3 "~" H 4700 2050 30  0000 C CNN
	1    4700 2050
	1    0    0    -1  
$EndComp
$Comp
L R R15
U 1 1 54663790
P 4900 2150
F 0 "R15" V 4980 2150 40  0000 C CNN
F 1 "47" V 4907 2151 40  0000 C CNN
F 2 "~" V 4830 2150 30  0000 C CNN
F 3 "~" H 4900 2150 30  0000 C CNN
	1    4900 2150
	1    0    0    -1  
$EndComp
$Comp
L R R14
U 1 1 5466390B
P 4700 4050
F 0 "R14" V 4780 4050 40  0000 C CNN
F 1 "47" V 4707 4051 40  0000 C CNN
F 2 "~" V 4630 4050 30  0000 C CNN
F 3 "~" H 4700 4050 30  0000 C CNN
	1    4700 4050
	1    0    0    -1  
$EndComp
$Comp
L R R16
U 1 1 5466391A
P 4900 4150
F 0 "R16" V 4980 4150 40  0000 C CNN
F 1 "47" V 4907 4151 40  0000 C CNN
F 2 "~" V 4830 4150 30  0000 C CNN
F 3 "~" H 4900 4150 30  0000 C CNN
	1    4900 4150
	1    0    0    -1  
$EndComp
$Comp
L GND #PWR048
U 1 1 54663929
P 4700 4300
F 0 "#PWR048" H 4700 4300 30  0001 C CNN
F 1 "GND" H 4700 4230 30  0001 C CNN
F 2 "" H 4700 4300 60  0000 C CNN
F 3 "" H 4700 4300 60  0000 C CNN
	1    4700 4300
	1    0    0    -1  
$EndComp
$Comp
L GND #PWR049
U 1 1 54663938
P 4900 4400
F 0 "#PWR049" H 4900 4400 30  0001 C CNN
F 1 "GND" H 4900 4330 30  0001 C CNN
F 2 "" H 4900 4400 60  0000 C CNN
F 3 "" H 4900 4400 60  0000 C CNN
	1    4900 4400
	1    0    0    -1  
$EndComp
$Comp
L GND #PWR050
U 1 1 54663947
P 4700 2300
F 0 "#PWR050" H 4700 2300 30  0001 C CNN
F 1 "GND" H 4700 2230 30  0001 C CNN
F 2 "" H 4700 2300 60  0000 C CNN
F 3 "" H 4700 2300 60  0000 C CNN
	1    4700 2300
	1    0    0    -1  
$EndComp
$Comp
L GND #PWR051
U 1 1 54663956
P 4900 2400
F 0 "#PWR051" H 4900 2400 30  0001 C CNN
F 1 "GND" H 4900 2330 30  0001 C CNN
F 2 "" H 4900 2400 60  0000 C CNN
F 3 "" H 4900 2400 60  0000 C CNN
	1    4900 2400
	1    0    0    -1  
$EndComp
$Comp
L LED D1
U 1 1 54663997
P 2500 2750
F 0 "D1" H 2500 2850 50  0000 C CNN
F 1 "LED" H 2500 2650 50  0000 C CNN
F 2 "~" H 2500 2750 60  0000 C CNN
F 3 "~" H 2500 2750 60  0000 C CNN
	1    2500 2750
	1    0    0    -1  
$EndComp
$Comp
L R R7
U 1 1 546639BC
P 2050 2750
F 0 "R7" V 2130 2750 40  0000 C CNN
F 1 "R" V 2057 2751 40  0000 C CNN
F 2 "~" V 1980 2750 30  0000 C CNN
F 3 "~" H 2050 2750 30  0000 C CNN
	1    2050 2750
	0    -1   -1   0   
$EndComp
$Comp
L GND #PWR052
U 1 1 54663A1A
P 2700 2850
F 0 "#PWR052" H 2700 2850 30  0001 C CNN
F 1 "GND" H 2700 2780 30  0001 C CNN
F 2 "" H 2700 2850 60  0000 C CNN
F 3 "" H 2700 2850 60  0000 C CNN
	1    2700 2850
	1    0    0    -1  
$EndComp
Text Label 4850 6600 0    39   ~ 0
LED0
Text Label 4850 6700 0    39   ~ 0
LED1
Text Label 3850 6600 2    39   ~ 0
LED2
Text Label 3850 6700 2    39   ~ 0
LED3
Text Label 1800 2750 2    39   ~ 0
LED0
$Comp
L LED D4
U 1 1 54663A2B
P 6100 4800
F 0 "D4" H 6100 4900 50  0000 C CNN
F 1 "LED" H 6100 4700 50  0000 C CNN
F 2 "~" H 6100 4800 60  0000 C CNN
F 3 "~" H 6100 4800 60  0000 C CNN
	1    6100 4800
	1    0    0    -1  
$EndComp
$Comp
L R R18
U 1 1 54663A31
P 5650 4800
F 0 "R18" V 5730 4800 40  0000 C CNN
F 1 "R" V 5657 4801 40  0000 C CNN
F 2 "~" V 5580 4800 30  0000 C CNN
F 3 "~" H 5650 4800 30  0000 C CNN
	1    5650 4800
	0    -1   -1   0   
$EndComp
$Comp
L GND #PWR053
U 1 1 54663A38
P 6300 4900
F 0 "#PWR053" H 6300 4900 30  0001 C CNN
F 1 "GND" H 6300 4830 30  0001 C CNN
F 2 "" H 6300 4900 60  0000 C CNN
F 3 "" H 6300 4900 60  0000 C CNN
	1    6300 4900
	1    0    0    -1  
$EndComp
Text Label 5400 4800 2    39   ~ 0
LED2
$Comp
L LED D3
U 1 1 54663A48
P 6050 2700
F 0 "D3" H 6050 2800 50  0000 C CNN
F 1 "LED" H 6050 2600 50  0000 C CNN
F 2 "~" H 6050 2700 60  0000 C CNN
F 3 "~" H 6050 2700 60  0000 C CNN
	1    6050 2700
	1    0    0    -1  
$EndComp
$Comp
L R R17
U 1 1 54663A4E
P 5600 2700
F 0 "R17" V 5680 2700 40  0000 C CNN
F 1 "R" V 5607 2701 40  0000 C CNN
F 2 "~" V 5530 2700 30  0000 C CNN
F 3 "~" H 5600 2700 30  0000 C CNN
	1    5600 2700
	0    -1   -1   0   
$EndComp
$Comp
L GND #PWR054
U 1 1 54663A55
P 6250 2800
F 0 "#PWR054" H 6250 2800 30  0001 C CNN
F 1 "GND" H 6250 2730 30  0001 C CNN
F 2 "" H 6250 2800 60  0000 C CNN
F 3 "" H 6250 2800 60  0000 C CNN
	1    6250 2800
	1    0    0    -1  
$EndComp
Text Label 5350 2700 2    39   ~ 0
LED3
$Comp
L LED D2
U 1 1 54663A5D
P 2600 4800
F 0 "D2" H 2600 4900 50  0000 C CNN
F 1 "LED" H 2600 4700 50  0000 C CNN
F 2 "~" H 2600 4800 60  0000 C CNN
F 3 "~" H 2600 4800 60  0000 C CNN
	1    2600 4800
	1    0    0    -1  
$EndComp
$Comp
L R R8
U 1 1 54663A63
P 2150 4800
F 0 "R8" V 2230 4800 40  0000 C CNN
F 1 "R" V 2157 4801 40  0000 C CNN
F 2 "~" V 2080 4800 30  0000 C CNN
F 3 "~" H 2150 4800 30  0000 C CNN
	1    2150 4800
	0    -1   -1   0   
$EndComp
$Comp
L GND #PWR055
U 1 1 54663A6A
P 2800 4900
F 0 "#PWR055" H 2800 4900 30  0001 C CNN
F 1 "GND" H 2800 4830 30  0001 C CNN
F 2 "" H 2800 4900 60  0000 C CNN
F 3 "" H 2800 4900 60  0000 C CNN
	1    2800 4900
	1    0    0    -1  
$EndComp
Text Label 1900 4800 2    39   ~ 0
LED1
$Comp
L CONN_4 P1
U 1 1 546CDBBD
P 7450 6300
F 0 "P1" V 7400 6300 50  0000 C CNN
F 1 "CONN_4" V 7500 6300 50  0000 C CNN
F 2 "" H 7450 6300 60  0000 C CNN
F 3 "" H 7450 6300 60  0000 C CNN
	1    7450 6300
	1    0    0    1   
$EndComp
$Comp
L VCC #PWR056
U 1 1 546CDBDB
P 7100 6150
F 0 "#PWR056" H 7100 6250 30  0001 C CNN
F 1 "VCC" H 7100 6250 30  0000 C CNN
F 2 "" H 7100 6150 60  0000 C CNN
F 3 "" H 7100 6150 60  0000 C CNN
	1    7100 6150
	1    0    0    -1  
$EndComp
$Comp
L GND #PWR057
U 1 1 546CDBEA
P 7100 6550
F 0 "#PWR057" H 7100 6550 30  0001 C CNN
F 1 "GND" H 7100 6480 30  0001 C CNN
F 2 "" H 7100 6550 60  0000 C CNN
F 3 "" H 7100 6550 60  0000 C CNN
	1    7100 6550
	1    0    0    -1  
$EndComp
Wire Wire Line
	10400 4050 10400 4100
Wire Wire Line
	9350 1200 9350 1300
Wire Wire Line
	9350 1400 9350 1450
Wire Wire Line
	10300 2550 10300 2650
Wire Wire Line
	10300 2550 10500 2550
Wire Wire Line
	9100 2650 9100 2700
Wire Wire Line
	9100 2550 8800 2550
Wire Wire Line
	4850 6100 5000 6100
Wire Wire Line
	3850 6800 3850 6850
Wire Wire Line
	6550 4200 6550 4350
Connection ~ 6550 4300
Connection ~ 6550 3800
Wire Wire Line
	6550 3800 6550 3600
Wire Wire Line
	6950 3600 6950 3650
Wire Wire Line
	6550 4000 6650 4000
Wire Wire Line
	3400 3650 3400 3700
Wire Wire Line
	3000 4200 3000 4350
Connection ~ 3000 4300
Wire Wire Line
	3100 4000 3000 4000
Wire Wire Line
	3500 4000 3500 4050
Wire Wire Line
	3000 3650 3000 3800
Wire Wire Line
	3000 2200 3000 2350
Connection ~ 3000 2300
Wire Wire Line
	3100 2000 3000 2000
Wire Wire Line
	3000 1650 3000 1800
Wire Wire Line
	6950 1650 6950 1700
Wire Wire Line
	6550 2200 6550 2350
Connection ~ 6550 2300
Wire Wire Line
	6650 2000 6550 2000
Wire Wire Line
	7050 2000 7050 2050
Wire Wire Line
	6550 1650 6550 1800
Wire Wire Line
	3400 1650 3400 1700
Wire Wire Line
	3500 2000 3500 2050
Connection ~ 1750 6400
Connection ~ 2200 6400
Connection ~ 2650 6400
Wire Wire Line
	1750 6400 1650 6400
Wire Wire Line
	2200 6400 2100 6400
Wire Wire Line
	2650 6400 2550 6400
Wire Wire Line
	1550 3900 1300 3900
Wire Wire Line
	1550 3800 1050 3800
Wire Wire Line
	1550 1900 1350 1900
Wire Wire Line
	1550 1800 1150 1800
Wire Wire Line
	5100 1800 4700 1800
Wire Wire Line
	5100 1900 4900 1900
Wire Wire Line
	5100 3800 4700 3800
Wire Wire Line
	5100 3900 4900 3900
Wire Wire Line
	2700 2750 2700 2850
Wire Wire Line
	6300 4800 6300 4900
Wire Wire Line
	6250 2700 6250 2800
Wire Wire Line
	2800 4800 2800 4900
Wire Wire Line
	7100 6450 7100 6550
Text Label 7100 6250 2    39   ~ 0
SDA
Text Label 7100 6350 2    39   ~ 0
SCL
$Comp
L CONN_4 P2
U 1 1 546CDC62
P 8750 6300
F 0 "P2" V 8700 6300 50  0000 C CNN
F 1 "CONN_4" V 8800 6300 50  0000 C CNN
F 2 "" H 8750 6300 60  0000 C CNN
F 3 "" H 8750 6300 60  0000 C CNN
	1    8750 6300
	1    0    0    1   
$EndComp
$Comp
L VCC #PWR058
U 1 1 546CDC68
P 8400 6150
F 0 "#PWR058" H 8400 6250 30  0001 C CNN
F 1 "VCC" H 8400 6250 30  0000 C CNN
F 2 "" H 8400 6150 60  0000 C CNN
F 3 "" H 8400 6150 60  0000 C CNN
	1    8400 6150
	1    0    0    -1  
$EndComp
$Comp
L GND #PWR059
U 1 1 546CDC6E
P 8400 6550
F 0 "#PWR059" H 8400 6550 30  0001 C CNN
F 1 "GND" H 8400 6480 30  0001 C CNN
F 2 "" H 8400 6550 60  0000 C CNN
F 3 "" H 8400 6550 60  0000 C CNN
	1    8400 6550
	1    0    0    -1  
$EndComp
Wire Wire Line
	8400 6450 8400 6550
Text Label 8400 6250 2    39   ~ 0
SDA
Text Label 8400 6350 2    39   ~ 0
SCL
Text Notes 10950 4350 2    79   ~ 0
Master connector
Text Notes 8350 5950 2    79   ~ 0
Slave connectors
Wire Wire Line
	7050 4000 7050 4050
NoConn ~ 4850 6800
$Comp
L VCC #PWR?
U 1 1 54834D18
P 10750 2300
F 0 "#PWR?" H 10750 2400 30  0001 C CNN
F 1 "VCC" H 10750 2400 30  0000 C CNN
F 2 "" H 10750 2300 60  0000 C CNN
F 3 "" H 10750 2300 60  0000 C CNN
	1    10750 2300
	1    0    0    -1  
$EndComp
$Comp
L VCC #PWR?
U 1 1 54834D27
P 10900 2300
F 0 "#PWR?" H 10900 2400 30  0001 C CNN
F 1 "VCC" H 10900 2400 30  0000 C CNN
F 2 "" H 10900 2300 60  0000 C CNN
F 3 "" H 10900 2300 60  0000 C CNN
	1    10900 2300
	1    0    0    -1  
$EndComp
$EndSCHEMATC
