G04 #@! TF.GenerationSoftware,KiCad,Pcbnew,5.0.2+dfsg1-1*
G04 #@! TF.CreationDate,2019-06-08T22:09:42+02:00*
G04 #@! TF.ProjectId,littlerob2,6c697474-6c65-4726-9f62-322e6b696361,rev?*
G04 #@! TF.SameCoordinates,PX2dc6c00PY2faf080*
G04 #@! TF.FileFunction,Legend,Bot*
G04 #@! TF.FilePolarity,Positive*
%FSLAX46Y46*%
G04 Gerber Fmt 4.6, Leading zero omitted, Abs format (unit mm)*
G04 Created by KiCad (PCBNEW 5.0.2+dfsg1-1) date sam. 08 juin 2019 22:09:42 CEST*
%MOMM*%
%LPD*%
G01*
G04 APERTURE LIST*
%ADD10O,1.940000X3.740000*%
%ADD11C,0.100000*%
%ADD12C,1.940000*%
%ADD13R,1.640000X2.640000*%
%ADD14O,1.640000X2.640000*%
%ADD15C,0.770000*%
%ADD16C,3.340000*%
%ADD17R,1.940000X1.940000*%
G04 APERTURE END LIST*
%LPC*%
D10*
G04 #@! TO.C,J101*
X59500000Y-45000000D03*
D11*
G36*
X56726966Y-43131297D02*
X56753122Y-43135177D01*
X56778771Y-43141602D01*
X56803668Y-43150510D01*
X56827571Y-43161816D01*
X56850251Y-43175410D01*
X56871489Y-43191161D01*
X56891082Y-43208918D01*
X56908839Y-43228511D01*
X56924590Y-43249749D01*
X56938184Y-43272429D01*
X56949490Y-43296332D01*
X56958398Y-43321229D01*
X56964823Y-43346878D01*
X56968703Y-43373034D01*
X56970000Y-43399444D01*
X56970000Y-46600556D01*
X56968703Y-46626966D01*
X56964823Y-46653122D01*
X56958398Y-46678771D01*
X56949490Y-46703668D01*
X56938184Y-46727571D01*
X56924590Y-46750251D01*
X56908839Y-46771489D01*
X56891082Y-46791082D01*
X56871489Y-46808839D01*
X56850251Y-46824590D01*
X56827571Y-46838184D01*
X56803668Y-46849490D01*
X56778771Y-46858398D01*
X56753122Y-46864823D01*
X56726966Y-46868703D01*
X56700556Y-46870000D01*
X55299444Y-46870000D01*
X55273034Y-46868703D01*
X55246878Y-46864823D01*
X55221229Y-46858398D01*
X55196332Y-46849490D01*
X55172429Y-46838184D01*
X55149749Y-46824590D01*
X55128511Y-46808839D01*
X55108918Y-46791082D01*
X55091161Y-46771489D01*
X55075410Y-46750251D01*
X55061816Y-46727571D01*
X55050510Y-46703668D01*
X55041602Y-46678771D01*
X55035177Y-46653122D01*
X55031297Y-46626966D01*
X55030000Y-46600556D01*
X55030000Y-43399444D01*
X55031297Y-43373034D01*
X55035177Y-43346878D01*
X55041602Y-43321229D01*
X55050510Y-43296332D01*
X55061816Y-43272429D01*
X55075410Y-43249749D01*
X55091161Y-43228511D01*
X55108918Y-43208918D01*
X55128511Y-43191161D01*
X55149749Y-43175410D01*
X55172429Y-43161816D01*
X55196332Y-43150510D01*
X55221229Y-43141602D01*
X55246878Y-43135177D01*
X55273034Y-43131297D01*
X55299444Y-43130000D01*
X56700556Y-43130000D01*
X56726966Y-43131297D01*
X56726966Y-43131297D01*
G37*
D12*
X56000000Y-45000000D03*
G04 #@! TD*
D11*
G04 #@! TO.C,J102*
G36*
X31976966Y-43381297D02*
X32003122Y-43385177D01*
X32028771Y-43391602D01*
X32053668Y-43400510D01*
X32077571Y-43411816D01*
X32100251Y-43425410D01*
X32121489Y-43441161D01*
X32141082Y-43458918D01*
X32158839Y-43478511D01*
X32174590Y-43499749D01*
X32188184Y-43522429D01*
X32199490Y-43546332D01*
X32208398Y-43571229D01*
X32214823Y-43596878D01*
X32218703Y-43623034D01*
X32220000Y-43649444D01*
X32220000Y-46850556D01*
X32218703Y-46876966D01*
X32214823Y-46903122D01*
X32208398Y-46928771D01*
X32199490Y-46953668D01*
X32188184Y-46977571D01*
X32174590Y-47000251D01*
X32158839Y-47021489D01*
X32141082Y-47041082D01*
X32121489Y-47058839D01*
X32100251Y-47074590D01*
X32077571Y-47088184D01*
X32053668Y-47099490D01*
X32028771Y-47108398D01*
X32003122Y-47114823D01*
X31976966Y-47118703D01*
X31950556Y-47120000D01*
X30549444Y-47120000D01*
X30523034Y-47118703D01*
X30496878Y-47114823D01*
X30471229Y-47108398D01*
X30446332Y-47099490D01*
X30422429Y-47088184D01*
X30399749Y-47074590D01*
X30378511Y-47058839D01*
X30358918Y-47041082D01*
X30341161Y-47021489D01*
X30325410Y-47000251D01*
X30311816Y-46977571D01*
X30300510Y-46953668D01*
X30291602Y-46928771D01*
X30285177Y-46903122D01*
X30281297Y-46876966D01*
X30280000Y-46850556D01*
X30280000Y-43649444D01*
X30281297Y-43623034D01*
X30285177Y-43596878D01*
X30291602Y-43571229D01*
X30300510Y-43546332D01*
X30311816Y-43522429D01*
X30325410Y-43499749D01*
X30341161Y-43478511D01*
X30358918Y-43458918D01*
X30378511Y-43441161D01*
X30399749Y-43425410D01*
X30422429Y-43411816D01*
X30446332Y-43400510D01*
X30471229Y-43391602D01*
X30496878Y-43385177D01*
X30523034Y-43381297D01*
X30549444Y-43380000D01*
X31950556Y-43380000D01*
X31976966Y-43381297D01*
X31976966Y-43381297D01*
G37*
D12*
X31250000Y-45250000D03*
D10*
X34750000Y-45250000D03*
G04 #@! TD*
D11*
G04 #@! TO.C,J103*
G36*
X42226966Y-43381297D02*
X42253122Y-43385177D01*
X42278771Y-43391602D01*
X42303668Y-43400510D01*
X42327571Y-43411816D01*
X42350251Y-43425410D01*
X42371489Y-43441161D01*
X42391082Y-43458918D01*
X42408839Y-43478511D01*
X42424590Y-43499749D01*
X42438184Y-43522429D01*
X42449490Y-43546332D01*
X42458398Y-43571229D01*
X42464823Y-43596878D01*
X42468703Y-43623034D01*
X42470000Y-43649444D01*
X42470000Y-46850556D01*
X42468703Y-46876966D01*
X42464823Y-46903122D01*
X42458398Y-46928771D01*
X42449490Y-46953668D01*
X42438184Y-46977571D01*
X42424590Y-47000251D01*
X42408839Y-47021489D01*
X42391082Y-47041082D01*
X42371489Y-47058839D01*
X42350251Y-47074590D01*
X42327571Y-47088184D01*
X42303668Y-47099490D01*
X42278771Y-47108398D01*
X42253122Y-47114823D01*
X42226966Y-47118703D01*
X42200556Y-47120000D01*
X40799444Y-47120000D01*
X40773034Y-47118703D01*
X40746878Y-47114823D01*
X40721229Y-47108398D01*
X40696332Y-47099490D01*
X40672429Y-47088184D01*
X40649749Y-47074590D01*
X40628511Y-47058839D01*
X40608918Y-47041082D01*
X40591161Y-47021489D01*
X40575410Y-47000251D01*
X40561816Y-46977571D01*
X40550510Y-46953668D01*
X40541602Y-46928771D01*
X40535177Y-46903122D01*
X40531297Y-46876966D01*
X40530000Y-46850556D01*
X40530000Y-43649444D01*
X40531297Y-43623034D01*
X40535177Y-43596878D01*
X40541602Y-43571229D01*
X40550510Y-43546332D01*
X40561816Y-43522429D01*
X40575410Y-43499749D01*
X40591161Y-43478511D01*
X40608918Y-43458918D01*
X40628511Y-43441161D01*
X40649749Y-43425410D01*
X40672429Y-43411816D01*
X40696332Y-43400510D01*
X40721229Y-43391602D01*
X40746878Y-43385177D01*
X40773034Y-43381297D01*
X40799444Y-43380000D01*
X42200556Y-43380000D01*
X42226966Y-43381297D01*
X42226966Y-43381297D01*
G37*
D12*
X41500000Y-45250000D03*
D10*
X45000000Y-45250000D03*
G04 #@! TD*
D13*
G04 #@! TO.C,U202*
X71750000Y-43500000D03*
D14*
X69210000Y-43500000D03*
X66670000Y-43500000D03*
G04 #@! TD*
D15*
G04 #@! TO.C,U301*
X33550000Y-35100000D03*
X32250000Y-35100000D03*
X32250000Y-36400000D03*
X33550000Y-36400000D03*
X30950000Y-35100000D03*
X30950000Y-36400000D03*
G04 #@! TD*
G04 #@! TO.C,U302*
X41315000Y-36525000D03*
X41315000Y-35225000D03*
X43915000Y-36525000D03*
X42615000Y-36525000D03*
X42615000Y-35225000D03*
X43915000Y-35225000D03*
G04 #@! TD*
D16*
G04 #@! TO.C,REF\002A\002A*
X83000000Y-13000000D03*
G04 #@! TD*
G04 #@! TO.C,REF\002A\002A*
X4000000Y-13000000D03*
G04 #@! TD*
G04 #@! TO.C,REF\002A\002A*
X4000000Y-47000000D03*
G04 #@! TD*
G04 #@! TO.C,REF\002A\002A*
X83000000Y-47000000D03*
G04 #@! TD*
D12*
G04 #@! TO.C,D101*
X4000000Y-17960000D03*
D17*
X4000000Y-20500000D03*
G04 #@! TD*
G04 #@! TO.C,D102*
X23000000Y-3500000D03*
D12*
X25540000Y-3500000D03*
G04 #@! TD*
G04 #@! TO.C,D103*
X70290000Y-3000000D03*
D17*
X67750000Y-3000000D03*
G04 #@! TD*
G04 #@! TO.C,D104*
X83000000Y-20500000D03*
D12*
X83000000Y-17960000D03*
G04 #@! TD*
M02*
