EESchema Schematic File Version 2
LIBS:crap
LIBS:power
LIBS:device
LIBS:transistors
LIBS:conn
LIBS:linear
LIBS:regul
LIBS:74xx
LIBS:cmos4000
LIBS:adc-dac
LIBS:memory
LIBS:xilinx
LIBS:special
LIBS:microcontrollers
LIBS:dsp
LIBS:microchip
LIBS:analog_switches
LIBS:motorola
LIBS:texas
LIBS:intel
LIBS:audio
LIBS:interface
LIBS:digital-audio
LIBS:philips
LIBS:display
LIBS:cypress
LIBS:siliconi
LIBS:opto
LIBS:atmel
LIBS:contrib
LIBS:valves
LIBS:wsens-cache
EELAYER 27 0
EELAYER END
$Descr A4 11693 8268
encoding utf-8
Sheet 3 6
Title ""
Date "14 oct 2014"
Rev ""
Comp ""
Comment1 ""
Comment2 ""
Comment3 ""
Comment4 ""
$EndDescr
$Comp
L MCP6404 U301
U 1 1 542C5BB2
P 6950 3500
F 0 "U301" H 7450 1600 60  0000 C CNN
F 1 "MCP6404" H 7350 4650 60  0000 C CNN
F 2 "tssop-14" H 6950 1650 60  0000 C CNN
F 3 "~" H 6950 3500 60  0000 C CNN
	1    6950 3500
	1    0    0    -1  
$EndComp
Text HLabel 8500 3550 2    60   Output ~ 0
OUT_0
Text HLabel 8500 2950 2    60   Output ~ 0
OUT_1
Text HLabel 8500 4150 2    60   Output ~ 0
OUT_2
Text HLabel 8500 4750 2    60   Output ~ 0
OUT_3
$Comp
L GND #PWR023
U 1 1 542C5D9C
P 6000 5400
F 0 "#PWR023" H 6000 5400 30  0001 C CNN
F 1 "GND" H 6000 5330 30  0001 C CNN
F 2 "" H 6000 5400 60  0000 C CNN
F 3 "" H 6000 5400 60  0000 C CNN
	1    6000 5400
	1    0    0    -1  
$EndComp
Wire Wire Line
	6000 5400 6000 5200
Wire Wire Line
	6000 5200 6150 5200
$Comp
L VDD #PWR024
U 1 1 542C5DAC
P 5900 2300
F 0 "#PWR024" H 5900 2400 30  0001 C CNN
F 1 "VDD" H 5900 2410 30  0000 C CNN
F 2 "" H 5900 2300 60  0000 C CNN
F 3 "" H 5900 2300 60  0000 C CNN
	1    5900 2300
	1    0    0    -1  
$EndComp
Wire Wire Line
	5900 2300 5900 2500
Wire Wire Line
	5900 2500 6150 2500
Text Label 7900 2950 0    60   ~ 0
Vout_A
Text Label 7900 3550 0    60   ~ 0
Vout_B
Text Label 7900 4150 0    60   ~ 0
Vout_C
Text Label 7900 4750 0    60   ~ 0
Vout_D
Wire Wire Line
	7900 4750 8500 4750
Wire Wire Line
	7900 4150 8500 4150
Wire Wire Line
	7900 3550 8500 3550
Wire Wire Line
	7900 2950 8500 2950
Text Label 6150 2850 2    60   ~ 0
Vout_A
Text Label 6150 3450 2    60   ~ 0
Vout_B
Text Label 6150 4050 2    60   ~ 0
Vout_C
Text Label 6150 4650 2    60   ~ 0
Vout_D
$Comp
L R R302
U 1 1 542D3CE4
P 5300 3150
F 0 "R302" V 5380 3150 40  0000 C CNN
F 1 "3.3k" V 5307 3151 40  0000 C CNN
F 2 "SM0402" V 5230 3150 30  0000 C CNN
F 3 "~" H 5300 3150 30  0000 C CNN
	1    5300 3150
	0    -1   -1   0   
$EndComp
$Comp
L R R301
U 1 1 542D3CD5
P 5300 2950
F 0 "R301" V 5380 2950 40  0000 C CNN
F 1 "8.5k" V 5307 2951 40  0000 C CNN
F 2 "SM0402" V 5230 2950 30  0000 C CNN
F 3 "~" H 5300 2950 30  0000 C CNN
	1    5300 2950
	0    -1   -1   0   
$EndComp
Wire Wire Line
	5550 2950 5550 3150
$Comp
L GND #PWR025
U 1 1 542DAC38
P 4900 3150
F 0 "#PWR025" H 4900 3150 30  0001 C CNN
F 1 "GND" H 4900 3080 30  0001 C CNN
F 2 "" H 4900 3150 60  0000 C CNN
F 3 "" H 4900 3150 60  0000 C CNN
	1    4900 3150
	0    1    1    0   
$EndComp
Wire Wire Line
	4900 3150 5050 3150
Text HLabel 4950 3550 0    60   Input ~ 0
IN_0
Wire Wire Line
	4950 2950 5050 2950
$Comp
L R R304
U 1 1 542DAC70
P 5300 3750
F 0 "R304" V 5380 3750 40  0000 C CNN
F 1 "3.3k" V 5307 3751 40  0000 C CNN
F 2 "SM0402" V 5230 3750 30  0000 C CNN
F 3 "~" H 5300 3750 30  0000 C CNN
	1    5300 3750
	0    -1   -1   0   
$EndComp
$Comp
L R R303
U 1 1 542DAC76
P 5300 3550
F 0 "R303" V 5380 3550 40  0000 C CNN
F 1 "8.5k" V 5307 3551 40  0000 C CNN
F 2 "SM0402" V 5230 3550 30  0000 C CNN
F 3 "~" H 5300 3550 30  0000 C CNN
	1    5300 3550
	0    -1   -1   0   
$EndComp
Wire Wire Line
	5550 3550 5550 3750
$Comp
L GND #PWR026
U 1 1 542DAC7D
P 4900 3750
F 0 "#PWR026" H 4900 3750 30  0001 C CNN
F 1 "GND" H 4900 3680 30  0001 C CNN
F 2 "" H 4900 3750 60  0000 C CNN
F 3 "" H 4900 3750 60  0000 C CNN
	1    4900 3750
	0    1    1    0   
$EndComp
Wire Wire Line
	4900 3750 5050 3750
Text HLabel 4950 2950 0    60   Input ~ 0
IN_1
Wire Wire Line
	4950 3550 5050 3550
$Comp
L R R306
U 1 1 542DAC86
P 5300 4350
F 0 "R306" V 5380 4350 40  0000 C CNN
F 1 "3.3k" V 5307 4351 40  0000 C CNN
F 2 "SM0402" V 5230 4350 30  0000 C CNN
F 3 "~" H 5300 4350 30  0000 C CNN
	1    5300 4350
	0    -1   -1   0   
$EndComp
$Comp
L R R305
U 1 1 542DAC8C
P 5300 4150
F 0 "R305" V 5380 4150 40  0000 C CNN
F 1 "8.5k" V 5307 4151 40  0000 C CNN
F 2 "SM0402" V 5230 4150 30  0000 C CNN
F 3 "~" H 5300 4150 30  0000 C CNN
	1    5300 4150
	0    -1   -1   0   
$EndComp
Wire Wire Line
	5550 4150 5550 4350
$Comp
L GND #PWR027
U 1 1 542DAC93
P 4900 4350
F 0 "#PWR027" H 4900 4350 30  0001 C CNN
F 1 "GND" H 4900 4280 30  0001 C CNN
F 2 "" H 4900 4350 60  0000 C CNN
F 3 "" H 4900 4350 60  0000 C CNN
	1    4900 4350
	0    1    1    0   
$EndComp
Wire Wire Line
	4900 4350 5050 4350
Text HLabel 4950 4150 0    60   Input ~ 0
IN_2
Wire Wire Line
	4950 4150 5050 4150
$Comp
L R R308
U 1 1 542DAC9C
P 5300 4950
F 0 "R308" V 5380 4950 40  0000 C CNN
F 1 "3.3k" V 5307 4951 40  0000 C CNN
F 2 "SM0402" V 5230 4950 30  0000 C CNN
F 3 "~" H 5300 4950 30  0000 C CNN
	1    5300 4950
	0    -1   -1   0   
$EndComp
$Comp
L R R307
U 1 1 542DACA2
P 5300 4750
F 0 "R307" V 5380 4750 40  0000 C CNN
F 1 "8.5k" V 5307 4751 40  0000 C CNN
F 2 "SM0402" V 5230 4750 30  0000 C CNN
F 3 "~" H 5300 4750 30  0000 C CNN
	1    5300 4750
	0    -1   -1   0   
$EndComp
Wire Wire Line
	5550 4750 5550 4950
$Comp
L GND #PWR028
U 1 1 542DACA9
P 4900 4950
F 0 "#PWR028" H 4900 4950 30  0001 C CNN
F 1 "GND" H 4900 4880 30  0001 C CNN
F 2 "" H 4900 4950 60  0000 C CNN
F 3 "" H 4900 4950 60  0000 C CNN
	1    4900 4950
	0    1    1    0   
$EndComp
Wire Wire Line
	4900 4950 5050 4950
Text HLabel 4950 4750 0    60   Input ~ 0
IN_3
Wire Wire Line
	4950 4750 5050 4750
Wire Wire Line
	6150 4850 5550 4850
Connection ~ 5550 4850
Wire Wire Line
	6150 4250 5550 4250
Connection ~ 5550 4250
Wire Wire Line
	6150 3650 5550 3650
Connection ~ 5550 3650
Wire Wire Line
	6150 3050 5550 3050
Connection ~ 5550 3050
$Comp
L C C301
U 1 1 542DAE2B
P 3600 2100
F 0 "C301" H 3600 2200 40  0000 L CNN
F 1 "100n" H 3606 2015 40  0000 L CNN
F 2 "SM0402" H 3638 1950 30  0000 C CNN
F 3 "~" H 3600 2100 60  0000 C CNN
F 4 "16V" H 3600 2100 60  0001 C CNN "Voltage"
	1    3600 2100
	1    0    0    -1  
$EndComp
$Comp
L C C302
U 1 1 542DAE3A
P 3900 2100
F 0 "C302" H 3900 2200 40  0000 L CNN
F 1 "1u" H 3906 2015 40  0000 L CNN
F 2 "SM0603" H 3938 1950 30  0000 C CNN
F 3 "~" H 3900 2100 60  0000 C CNN
F 4 "16V" H 3900 2100 60  0001 C CNN "Voltage"
	1    3900 2100
	1    0    0    -1  
$EndComp
$Comp
L GND #PWR029
U 1 1 542DAE49
P 3750 2400
F 0 "#PWR029" H 3750 2400 30  0001 C CNN
F 1 "GND" H 3750 2330 30  0001 C CNN
F 2 "" H 3750 2400 60  0000 C CNN
F 3 "" H 3750 2400 60  0000 C CNN
	1    3750 2400
	1    0    0    -1  
$EndComp
$Comp
L VDD #PWR030
U 1 1 542DAE58
P 3750 1800
F 0 "#PWR030" H 3750 1900 30  0001 C CNN
F 1 "VDD" H 3750 1910 30  0000 C CNN
F 2 "" H 3750 1800 60  0000 C CNN
F 3 "" H 3750 1800 60  0000 C CNN
	1    3750 1800
	1    0    0    -1  
$EndComp
Wire Wire Line
	3600 1900 3600 1800
Wire Wire Line
	3600 1800 3900 1800
Wire Wire Line
	3900 1800 3900 1900
Connection ~ 3750 1800
Wire Wire Line
	3600 2300 3600 2350
Wire Wire Line
	3600 2350 3900 2350
Wire Wire Line
	3750 2350 3750 2400
Wire Wire Line
	3900 2350 3900 2300
Connection ~ 3750 2350
$Comp
L CONN_1 P301
U 1 1 543A8024
P 10050 2950
F 0 "P301" H 10130 2950 40  0000 L CNN
F 1 "CONN_1" H 10050 3005 30  0001 C CNN
F 2 "TP" H 10350 2950 60  0000 C CNN
F 3 "" H 10050 2950 60  0000 C CNN
	1    10050 2950
	1    0    0    -1  
$EndComp
$Comp
L CONN_1 P302
U 1 1 543A8033
P 10050 3050
F 0 "P302" H 10130 3050 40  0000 L CNN
F 1 "CONN_1" H 10050 3105 30  0001 C CNN
F 2 "TP" H 10350 3050 60  0000 C CNN
F 3 "" H 10050 3050 60  0000 C CNN
	1    10050 3050
	1    0    0    -1  
$EndComp
$Comp
L CONN_1 P303
U 1 1 543A8042
P 10050 3150
F 0 "P303" H 10130 3150 40  0000 L CNN
F 1 "CONN_1" H 10050 3205 30  0001 C CNN
F 2 "TP" H 10350 3150 60  0000 C CNN
F 3 "" H 10050 3150 60  0000 C CNN
	1    10050 3150
	1    0    0    -1  
$EndComp
$Comp
L CONN_1 P304
U 1 1 543A8051
P 10050 3250
F 0 "P304" H 10130 3250 40  0000 L CNN
F 1 "CONN_1" H 10050 3305 30  0001 C CNN
F 2 "TP" H 10350 3250 60  0000 C CNN
F 3 "" H 10050 3250 60  0000 C CNN
	1    10050 3250
	1    0    0    -1  
$EndComp
Text Label 9900 2950 2    60   ~ 0
Vout_A
Text Label 9900 3050 2    60   ~ 0
Vout_B
Text Label 9900 3150 2    60   ~ 0
Vout_C
Text Label 9900 3250 2    60   ~ 0
Vout_D
$EndSCHEMATC
