EESchema Schematic File Version 2
LIBS:crap
LIBS:power
LIBS:device
LIBS:transistors
LIBS:conn
LIBS:linear
LIBS:regul
LIBS:74xx
LIBS:cmos4000
LIBS:adc-dac
LIBS:memory
LIBS:xilinx
LIBS:special
LIBS:microcontrollers
LIBS:dsp
LIBS:microchip
LIBS:analog_switches
LIBS:motorola
LIBS:texas
LIBS:intel
LIBS:audio
LIBS:interface
LIBS:digital-audio
LIBS:philips
LIBS:display
LIBS:cypress
LIBS:siliconi
LIBS:opto
LIBS:atmel
LIBS:contrib
LIBS:valves
LIBS:wsens-cache
EELAYER 27 0
EELAYER END
$Descr A4 11693 8268
encoding utf-8
Sheet 5 6
Title ""
Date "14 oct 2014"
Rev ""
Comp ""
Comment1 ""
Comment2 ""
Comment3 ""
Comment4 ""
$EndDescr
$Comp
L SAMR21E U601
U 1 1 542D7545
P 6300 3250
F 0 "U601" H 6900 1350 60  0000 C CNN
F 1 "SAMR21E" H 6250 4000 60  0000 C CNN
F 2 "QFN32-5x5" H 6450 1350 60  0000 C CNN
F 3 "~" H 6300 3250 60  0000 C CNN
	1    6300 3250
	1    0    0    -1  
$EndComp
$Comp
L GND #PWR047
U 1 1 542D754B
P 5100 5200
F 0 "#PWR047" H 5100 5200 30  0001 C CNN
F 1 "GND" H 5100 5130 30  0001 C CNN
F 2 "" H 5100 5200 60  0000 C CNN
F 3 "" H 5100 5200 60  0000 C CNN
	1    5100 5200
	1    0    0    -1  
$EndComp
$Comp
L VDD #PWR048
U 1 1 542D7551
P 5100 3350
F 0 "#PWR048" H 5100 3450 30  0001 C CNN
F 1 "VDD" H 5100 3460 30  0000 C CNN
F 2 "" H 5100 3350 60  0000 C CNN
F 3 "" H 5100 3350 60  0000 C CNN
	1    5100 3350
	1    0    0    -1  
$EndComp
$Comp
L C C607
U 1 1 542D7557
P 4250 4400
F 0 "C607" H 4250 4500 40  0000 L CNN
F 1 "100n" H 4256 4315 40  0000 L CNN
F 2 "SM0402" H 4288 4250 30  0000 C CNN
F 3 "~" H 4250 4400 60  0000 C CNN
F 4 "16V" H 4250 4400 60  0001 C CNN "Voltage"
	1    4250 4400
	1    0    0    -1  
$EndComp
$Comp
L C C608
U 1 1 542D755D
P 4450 4400
F 0 "C608" H 4450 4500 40  0000 L CNN
F 1 "100n" H 4456 4315 40  0000 L CNN
F 2 "SM0402" H 4488 4250 30  0000 C CNN
F 3 "~" H 4450 4400 60  0000 C CNN
F 4 "16V" H 4450 4400 60  0001 C CNN "Voltage"
	1    4450 4400
	1    0    0    -1  
$EndComp
$Comp
L C C609
U 1 1 542D7563
P 4650 4400
F 0 "C609" H 4650 4500 40  0000 L CNN
F 1 "100n" H 4656 4315 40  0000 L CNN
F 2 "SM0402" H 4688 4250 30  0000 C CNN
F 3 "~" H 4650 4400 60  0000 C CNN
F 4 "16V" H 4650 4400 60  0001 C CNN "Voltage"
	1    4650 4400
	1    0    0    -1  
$EndComp
$Comp
L GND #PWR049
U 1 1 542D7569
P 4250 4700
F 0 "#PWR049" H 4250 4700 30  0001 C CNN
F 1 "GND" H 4250 4630 30  0001 C CNN
F 2 "" H 4250 4700 60  0000 C CNN
F 3 "" H 4250 4700 60  0000 C CNN
	1    4250 4700
	1    0    0    -1  
$EndComp
$Comp
L GND #PWR050
U 1 1 542D756F
P 4450 4700
F 0 "#PWR050" H 4450 4700 30  0001 C CNN
F 1 "GND" H 4450 4630 30  0001 C CNN
F 2 "" H 4450 4700 60  0000 C CNN
F 3 "" H 4450 4700 60  0000 C CNN
	1    4450 4700
	1    0    0    -1  
$EndComp
$Comp
L GND #PWR051
U 1 1 542D7575
P 4650 4700
F 0 "#PWR051" H 4650 4700 30  0001 C CNN
F 1 "GND" H 4650 4630 30  0001 C CNN
F 2 "" H 4650 4700 60  0000 C CNN
F 3 "" H 4650 4700 60  0000 C CNN
	1    4650 4700
	1    0    0    -1  
$EndComp
$Comp
L C C603
U 1 1 542D757B
P 2950 3400
F 0 "C603" H 2950 3500 40  0000 L CNN
F 1 "100n" H 2956 3315 40  0000 L CNN
F 2 "SM0402" H 2988 3250 30  0000 C CNN
F 3 "~" H 2950 3400 60  0000 C CNN
F 4 "16V" H 2950 3400 60  0001 C CNN "Voltage"
	1    2950 3400
	1    0    0    -1  
$EndComp
$Comp
L GND #PWR052
U 1 1 542D7581
P 2950 3700
F 0 "#PWR052" H 2950 3700 30  0001 C CNN
F 1 "GND" H 2950 3630 30  0001 C CNN
F 2 "" H 2950 3700 60  0000 C CNN
F 3 "" H 2950 3700 60  0000 C CNN
	1    2950 3700
	1    0    0    -1  
$EndComp
$Comp
L VDD #PWR053
U 1 1 542D7587
P 2950 3100
F 0 "#PWR053" H 2950 3200 30  0001 C CNN
F 1 "VDD" H 2950 3210 30  0000 C CNN
F 2 "" H 2950 3100 60  0000 C CNN
F 3 "" H 2950 3100 60  0000 C CNN
	1    2950 3100
	1    0    0    -1  
$EndComp
$Comp
L C C604
U 1 1 542D758D
P 3200 3400
F 0 "C604" H 3200 3500 40  0000 L CNN
F 1 "100n" H 3206 3315 40  0000 L CNN
F 2 "SM0402" H 3238 3250 30  0000 C CNN
F 3 "~" H 3200 3400 60  0000 C CNN
F 4 "16V" H 3200 3400 60  0001 C CNN "Voltage"
	1    3200 3400
	1    0    0    -1  
$EndComp
$Comp
L C C605
U 1 1 542D7593
P 3450 3400
F 0 "C605" H 3450 3500 40  0000 L CNN
F 1 "100n" H 3456 3315 40  0000 L CNN
F 2 "SM0402" H 3488 3250 30  0000 C CNN
F 3 "~" H 3450 3400 60  0000 C CNN
F 4 "16V" H 3450 3400 60  0001 C CNN "Voltage"
	1    3450 3400
	1    0    0    -1  
$EndComp
$Comp
L C C606
U 1 1 542D7599
P 3700 3400
F 0 "C606" H 3700 3500 40  0000 L CNN
F 1 "10u" H 3706 3315 40  0000 L CNN
F 2 "SM0805" H 3738 3250 30  0000 C CNN
F 3 "~" H 3700 3400 60  0000 C CNN
F 4 "16V" H 3700 3400 60  0001 C CNN "Voltage"
	1    3700 3400
	1    0    0    -1  
$EndComp
Text Notes 1900 2500 0    60   ~ 0
Vdd should be 2.8V for functionning\nwith ST laser distance sensor
Text HLabel 7550 4400 2    60   Input ~ 0
SWCLK
Text HLabel 7550 4500 2    60   Input ~ 0
SWDIO
Text HLabel 5350 3100 0    60   Input ~ 0
RFP
Text HLabel 5350 3200 0    60   Input ~ 0
RFN
Text HLabel 7550 3300 2    60   Input ~ 0
AN_0
Text HLabel 7550 3200 2    60   Input ~ 0
AN_1
Text HLabel 7550 3000 2    60   Input ~ 0
AN_2
Text HLabel 7550 3100 2    60   Input ~ 0
AN_3
Text HLabel 7550 4200 2    60   Input ~ 0
SCL
Text HLabel 7550 4300 2    60   Input ~ 0
SDA
Text HLabel 7550 3700 2    60   Input ~ 0
DIG_0
Text HLabel 7550 3600 2    60   Input ~ 0
DIG_1
Text HLabel 7550 3800 2    60   Input ~ 0
DIG_2
Text HLabel 7550 3900 2    60   Input ~ 0
DIG_3
$Comp
L C C601
U 1 1 542E0187
P 4000 3350
F 0 "C601" H 4000 3450 40  0000 L CNN
F 1 "8p" H 4006 3265 40  0000 L CNN
F 2 "SM0402" H 4038 3200 30  0000 C CNN
F 3 "~" H 4000 3350 60  0000 C CNN
F 4 "50V" H 4000 3350 60  0001 C CNN "Voltage"
	1    4000 3350
	1    0    0    -1  
$EndComp
$Comp
L C C602
U 1 1 542E0196
P 4800 3350
F 0 "C602" H 4800 3450 40  0000 L CNN
F 1 "8p" H 4806 3265 40  0000 L CNN
F 2 "SM0402" H 4838 3200 30  0000 C CNN
F 3 "~" H 4800 3350 60  0000 C CNN
F 4 "50V" H 4800 3350 60  0001 C CNN "Voltage"
	1    4800 3350
	1    0    0    -1  
$EndComp
$Comp
L GND #PWR054
U 1 1 542E01D2
P 4800 3650
F 0 "#PWR054" H 4800 3650 30  0001 C CNN
F 1 "GND" H 4800 3580 30  0001 C CNN
F 2 "" H 4800 3650 60  0000 C CNN
F 3 "" H 4800 3650 60  0000 C CNN
	1    4800 3650
	1    0    0    -1  
$EndComp
Text HLabel 7550 4100 2    60   Output ~ 0
DBG_TX
Text HLabel 7550 4000 2    60   Input ~ 0
DBG_RX
$Comp
L LED D601
U 1 1 542EB07C
P 9400 3650
F 0 "D601" H 9400 3750 50  0000 C CNN
F 1 "LED" H 9400 3550 50  0000 C CNN
F 2 "SM0805" H 9400 3850 60  0000 C CNN
F 3 "~" H 9400 3650 60  0000 C CNN
	1    9400 3650
	0    1    1    0   
$EndComp
$Comp
L LED D602
U 1 1 542EB08B
P 9800 3650
F 0 "D602" H 9800 3750 50  0000 C CNN
F 1 "LED" H 9800 3550 50  0000 C CNN
F 2 "SM0805" H 9800 3850 60  0000 C CNN
F 3 "~" H 9800 3650 60  0000 C CNN
	1    9800 3650
	0    1    1    0   
$EndComp
$Comp
L R R601
U 1 1 542EB09A
P 9400 4200
F 0 "R601" V 9480 4200 40  0000 C CNN
F 1 "R" V 9407 4201 40  0000 C CNN
F 2 "SM0402" V 9330 4200 30  0000 C CNN
F 3 "~" H 9400 4200 30  0000 C CNN
	1    9400 4200
	1    0    0    -1  
$EndComp
$Comp
L R R602
U 1 1 542EB0A9
P 9800 4200
F 0 "R602" V 9880 4200 40  0000 C CNN
F 1 "R" V 9807 4201 40  0000 C CNN
F 2 "SM0402" V 9730 4200 30  0000 C CNN
F 3 "~" H 9800 4200 30  0000 C CNN
	1    9800 4200
	1    0    0    -1  
$EndComp
Text Label 9400 4550 3    60   ~ 0
LED_0
Text Label 9800 4550 3    60   ~ 0
LED_1
Text Label 7550 3400 0    60   ~ 0
LED_0
Text Label 7550 3500 0    60   ~ 0
LED_1
$Comp
L CRYSTAL_4 X601
U 1 1 542ECBC7
P 4400 2950
F 0 "X601" H 4400 3100 60  0000 C CNN
F 1 "CRYSTAL_4" H 4400 2550 60  0000 C CNN
F 2 "CX2520SB" H 4400 2800 60  0000 C CNN
F 3 "~" H 4400 2950 60  0000 C CNN
	1    4400 2950
	-1   0    0    -1  
$EndComp
Wire Wire Line
	5100 4450 5100 5200
Wire Wire Line
	5100 4950 5500 4950
Wire Wire Line
	5100 4850 5500 4850
Connection ~ 5100 4950
Wire Wire Line
	5100 4750 5500 4750
Connection ~ 5100 4850
Wire Wire Line
	5100 4650 5500 4650
Connection ~ 5100 4750
Wire Wire Line
	5100 4550 5500 4550
Connection ~ 5100 4650
Wire Wire Line
	5100 4450 5500 4450
Connection ~ 5100 4550
Wire Wire Line
	5100 3350 5100 3650
Wire Wire Line
	5100 3450 5500 3450
Wire Wire Line
	5100 3550 5500 3550
Connection ~ 5100 3450
Wire Wire Line
	5100 3650 5500 3650
Connection ~ 5100 3550
Wire Wire Line
	4650 4200 5500 4200
Wire Wire Line
	5500 4050 4450 4050
Wire Wire Line
	4450 4050 4450 4200
Wire Wire Line
	5500 3900 4250 3900
Wire Wire Line
	4250 3900 4250 4200
Wire Wire Line
	4650 4700 4650 4600
Wire Wire Line
	4450 4700 4450 4600
Wire Wire Line
	4250 4700 4250 4600
Wire Wire Line
	2950 3200 2950 3100
Wire Wire Line
	2950 3700 2950 3600
Wire Wire Line
	3200 3600 3200 3650
Wire Wire Line
	2950 3650 3700 3650
Connection ~ 2950 3650
Wire Wire Line
	3450 3650 3450 3600
Connection ~ 3200 3650
Wire Wire Line
	3700 3650 3700 3600
Connection ~ 3450 3650
Wire Wire Line
	3200 3200 3200 3150
Wire Wire Line
	2950 3150 3700 3150
Connection ~ 2950 3150
Wire Wire Line
	3450 3150 3450 3200
Connection ~ 3200 3150
Wire Wire Line
	3700 3150 3700 3200
Connection ~ 3450 3150
Wire Wire Line
	7100 4400 7550 4400
Wire Wire Line
	7100 4500 7550 4500
Wire Wire Line
	5350 3100 5500 3100
Wire Wire Line
	5500 3200 5350 3200
Wire Wire Line
	4800 2900 5500 2900
Wire Wire Line
	5500 2800 4800 2800
Wire Wire Line
	4800 2800 4800 2700
Wire Wire Line
	4800 2700 4000 2700
Wire Wire Line
	4000 2950 4100 2950
Connection ~ 4000 2950
Wire Wire Line
	4800 2900 4800 3150
Connection ~ 4800 2950
Wire Wire Line
	4800 2950 4700 2950
Wire Wire Line
	7550 4200 7100 4200
Wire Wire Line
	7550 4300 7100 4300
Wire Wire Line
	7100 3000 7550 3000
Wire Wire Line
	7550 3100 7100 3100
Wire Wire Line
	7100 3200 7550 3200
Wire Wire Line
	7550 3300 7100 3300
Wire Wire Line
	7100 4000 7550 4000
Wire Wire Line
	7100 4100 7550 4100
Wire Wire Line
	7100 3600 7550 3600
Wire Wire Line
	7100 3700 7550 3700
Wire Wire Line
	7100 3800 7550 3800
Wire Wire Line
	7100 3900 7550 3900
Wire Wire Line
	9400 3950 9400 3850
Wire Wire Line
	9800 3950 9800 3850
Wire Wire Line
	9800 3350 9800 3450
Wire Wire Line
	9400 3350 9400 3450
Wire Wire Line
	7100 3500 7550 3500
Wire Wire Line
	7100 3400 7550 3400
Wire Wire Line
	4000 2700 4000 3150
$Comp
L GND #PWR055
U 1 1 542ECC4B
P 4000 3650
F 0 "#PWR055" H 4000 3650 30  0001 C CNN
F 1 "GND" H 4000 3580 30  0001 C CNN
F 2 "" H 4000 3650 60  0000 C CNN
F 3 "" H 4000 3650 60  0000 C CNN
	1    4000 3650
	1    0    0    -1  
$EndComp
Wire Wire Line
	4800 3550 4800 3650
Wire Wire Line
	4000 3550 4000 3650
Wire Wire Line
	4100 3200 4100 3550
Wire Wire Line
	4100 3550 4000 3550
Wire Wire Line
	4700 3200 4700 3550
Wire Wire Line
	4700 3550 4800 3550
$Comp
L VDD #PWR056
U 1 1 542EE665
P 9400 3350
F 0 "#PWR056" H 9400 3450 30  0001 C CNN
F 1 "VDD" H 9400 3460 30  0000 C CNN
F 2 "" H 9400 3350 60  0000 C CNN
F 3 "" H 9400 3350 60  0000 C CNN
	1    9400 3350
	1    0    0    -1  
$EndComp
$Comp
L VDD #PWR057
U 1 1 542EE674
P 9800 3350
F 0 "#PWR057" H 9800 3450 30  0001 C CNN
F 1 "VDD" H 9800 3460 30  0000 C CNN
F 2 "" H 9800 3350 60  0000 C CNN
F 3 "" H 9800 3350 60  0000 C CNN
	1    9800 3350
	1    0    0    -1  
$EndComp
Wire Wire Line
	9400 4550 9400 4450
Wire Wire Line
	9800 4550 9800 4450
$Comp
L CONN_1 P501
U 1 1 543A8BE5
P 5150 2650
F 0 "P501" H 5230 2650 40  0000 L CNN
F 1 "CONN_1" H 5150 2705 30  0001 C CNN
F 2 "TP" H 5150 2650 60  0000 C CNN
F 3 "" H 5150 2650 60  0000 C CNN
	1    5150 2650
	-1   0    0    1   
$EndComp
Wire Wire Line
	5500 2650 5300 2650
$EndSCHEMATC
