EESchema Schematic File Version 2
LIBS:crap
LIBS:power
LIBS:device
LIBS:transistors
LIBS:conn
LIBS:linear
LIBS:regul
LIBS:74xx
LIBS:cmos4000
LIBS:adc-dac
LIBS:memory
LIBS:xilinx
LIBS:special
LIBS:microcontrollers
LIBS:dsp
LIBS:microchip
LIBS:analog_switches
LIBS:motorola
LIBS:texas
LIBS:intel
LIBS:audio
LIBS:interface
LIBS:digital-audio
LIBS:philips
LIBS:display
LIBS:cypress
LIBS:siliconi
LIBS:opto
LIBS:atmel
LIBS:contrib
LIBS:valves
LIBS:wsens-cache
EELAYER 27 0
EELAYER END
$Descr A4 11693 8268
encoding utf-8
Sheet 6 6
Title ""
Date "14 oct 2014"
Rev ""
Comp ""
Comment1 ""
Comment2 ""
Comment3 ""
Comment4 ""
$EndDescr
$Comp
L GND #PWR058
U 1 1 542D4DC4
P 4500 3450
F 0 "#PWR058" H 4500 3450 30  0001 C CNN
F 1 "GND" H 4500 3380 30  0001 C CNN
F 2 "" H 4500 3450 60  0000 C CNN
F 3 "" H 4500 3450 60  0000 C CNN
	1    4500 3450
	1    0    0    -1  
$EndComp
Wire Wire Line
	4500 3300 4500 3450
$Comp
L R R501
U 1 1 542D4DD7
P 4500 2400
F 0 "R501" V 4580 2400 40  0000 C CNN
F 1 "10k" V 4507 2401 40  0000 C CNN
F 2 "SM0402" V 4430 2400 30  0000 C CNN
F 3 "~" H 4500 2400 30  0000 C CNN
	1    4500 2400
	-1   0    0    1   
$EndComp
$Comp
L VDD #PWR059
U 1 1 542D4DDF
P 4500 2050
F 0 "#PWR059" H 4500 2150 30  0001 C CNN
F 1 "VDD" H 4500 2160 30  0000 C CNN
F 2 "" H 4500 2050 60  0000 C CNN
F 3 "" H 4500 2050 60  0000 C CNN
	1    4500 2050
	1    0    0    -1  
$EndComp
Wire Wire Line
	4500 2050 4500 2150
Text HLabel 8400 2700 2    60   Output ~ 0
OUT_0
Wire Notes Line
	2850 1750 5500 1750
Wire Notes Line
	5500 1750 5500 3750
Wire Notes Line
	5500 3750 2850 3750
Wire Notes Line
	2850 3750 2850 1750
Text Notes 3050 1950 0    60   ~ 0
Input PNP
$Comp
L GND #PWR060
U 1 1 542D4F41
P 7850 3500
F 0 "#PWR060" H 7850 3500 30  0001 C CNN
F 1 "GND" H 7850 3430 30  0001 C CNN
F 2 "" H 7850 3500 60  0000 C CNN
F 3 "" H 7850 3500 60  0000 C CNN
	1    7850 3500
	1    0    0    -1  
$EndComp
Wire Wire Line
	7850 3350 7850 3500
$Comp
L R R502
U 1 1 542D4F49
P 7850 2400
F 0 "R502" V 7930 2400 40  0000 C CNN
F 1 "10k" V 7857 2401 40  0000 C CNN
F 2 "SM0402" V 7780 2400 30  0000 C CNN
F 3 "~" H 7850 2400 30  0000 C CNN
	1    7850 2400
	-1   0    0    1   
$EndComp
$Comp
L VDD #PWR061
U 1 1 542D4F4F
P 7850 2050
F 0 "#PWR061" H 7850 2150 30  0001 C CNN
F 1 "VDD" H 7850 2160 30  0000 C CNN
F 2 "" H 7850 2050 60  0000 C CNN
F 3 "" H 7850 2050 60  0000 C CNN
	1    7850 2050
	1    0    0    -1  
$EndComp
Wire Wire Line
	7850 2050 7850 2150
Text HLabel 5050 2700 2    60   Output ~ 0
OUT_1
Wire Notes Line
	6200 1750 8850 1750
Wire Notes Line
	8850 1750 8850 3750
Wire Notes Line
	8850 3750 6200 3750
Wire Notes Line
	6200 3750 6200 1750
Text Notes 6400 1950 0    60   ~ 0
Input PNP
Text HLabel 5000 5350 2    60   Output ~ 0
OUT_2
Text HLabel 8350 5350 2    60   Output ~ 0
OUT_3
Text HLabel 6750 3400 0    60   Input ~ 0
IN_0
Text HLabel 3400 3350 0    60   Input ~ 0
IN_1
Text HLabel 6700 6050 0    60   Input ~ 0
IN_2
Text HLabel 3350 6000 0    60   Input ~ 0
IN_3
$Comp
L MUN5211DW1T1G U501
U 1 1 542E958A
P 3950 3050
F 0 "U501" H 4140 2680 60  0000 C CNN
F 1 "MUN5211DW1T1G" H 4030 3570 60  0000 C CNN
F 2 "SOT363" H 4350 2950 60  0000 C CNN
F 3 "" H 3950 3050 60  0000 C CNN
	1    3950 3050
	1    0    0    -1  
$EndComp
$Comp
L MUN5211DW1T1G U501
U 2 1 542E95B7
P 7300 3100
F 0 "U501" H 7490 2730 60  0000 C CNN
F 1 "MUN5211DW1T1G" H 7380 3620 60  0000 C CNN
F 2 "SOT363" H 7650 3000 60  0000 C CNN
F 3 "" H 7300 3100 60  0000 C CNN
	2    7300 3100
	1    0    0    -1  
$EndComp
Wire Wire Line
	5050 2700 4500 2700
Wire Wire Line
	4500 2700 4500 2650
Wire Wire Line
	4500 2650 4400 2650
Wire Wire Line
	4400 3300 4500 3300
Wire Wire Line
	7850 2650 7850 2700
Wire Wire Line
	7750 2700 8400 2700
Connection ~ 7850 2700
Wire Wire Line
	7850 3350 7750 3350
Wire Wire Line
	6750 3400 6850 3400
$Comp
L GND #PWR062
U 1 1 542E755E
P 4450 6100
F 0 "#PWR062" H 4450 6100 30  0001 C CNN
F 1 "GND" H 4450 6030 30  0001 C CNN
F 2 "" H 4450 6100 60  0000 C CNN
F 3 "" H 4450 6100 60  0000 C CNN
	1    4450 6100
	1    0    0    -1  
$EndComp
Wire Wire Line
	4450 5950 4450 6100
$Comp
L R R503
U 1 1 542E7565
P 4450 5050
F 0 "R503" V 4530 5050 40  0000 C CNN
F 1 "10k" V 4457 5051 40  0000 C CNN
F 2 "SM0402" V 4380 5050 30  0000 C CNN
F 3 "~" H 4450 5050 30  0000 C CNN
	1    4450 5050
	-1   0    0    1   
$EndComp
$Comp
L VDD #PWR063
U 1 1 542E756B
P 4450 4700
F 0 "#PWR063" H 4450 4800 30  0001 C CNN
F 1 "VDD" H 4450 4810 30  0000 C CNN
F 2 "" H 4450 4700 60  0000 C CNN
F 3 "" H 4450 4700 60  0000 C CNN
	1    4450 4700
	1    0    0    -1  
$EndComp
Wire Wire Line
	4450 4700 4450 4800
Wire Notes Line
	2800 4400 5450 4400
Wire Notes Line
	5450 4400 5450 6400
Wire Notes Line
	5450 6400 2800 6400
Wire Notes Line
	2800 6400 2800 4400
Text Notes 3000 4600 0    60   ~ 0
Input PNP
$Comp
L GND #PWR064
U 1 1 542E7578
P 7800 6150
F 0 "#PWR064" H 7800 6150 30  0001 C CNN
F 1 "GND" H 7800 6080 30  0001 C CNN
F 2 "" H 7800 6150 60  0000 C CNN
F 3 "" H 7800 6150 60  0000 C CNN
	1    7800 6150
	1    0    0    -1  
$EndComp
Wire Wire Line
	7800 6000 7800 6150
$Comp
L R R504
U 1 1 542E757F
P 7800 5050
F 0 "R504" V 7880 5050 40  0000 C CNN
F 1 "10k" V 7807 5051 40  0000 C CNN
F 2 "SM0402" V 7730 5050 30  0000 C CNN
F 3 "~" H 7800 5050 30  0000 C CNN
	1    7800 5050
	-1   0    0    1   
$EndComp
$Comp
L VDD #PWR065
U 1 1 542E7585
P 7800 4700
F 0 "#PWR065" H 7800 4800 30  0001 C CNN
F 1 "VDD" H 7800 4810 30  0000 C CNN
F 2 "" H 7800 4700 60  0000 C CNN
F 3 "" H 7800 4700 60  0000 C CNN
	1    7800 4700
	1    0    0    -1  
$EndComp
Wire Wire Line
	7800 4700 7800 4800
Wire Notes Line
	6150 4400 8800 4400
Wire Notes Line
	8800 4400 8800 6400
Wire Notes Line
	8800 6400 6150 6400
Wire Notes Line
	6150 6400 6150 4400
Text Notes 6350 4600 0    60   ~ 0
Input PNP
$Comp
L MUN5211DW1T1G U502
U 1 1 542E7594
P 3900 5700
F 0 "U502" H 4090 5330 60  0000 C CNN
F 1 "MUN5211DW1T1G" H 3980 6220 60  0000 C CNN
F 2 "SOT363" H 4250 5550 60  0000 C CNN
F 3 "" H 3900 5700 60  0000 C CNN
	1    3900 5700
	1    0    0    -1  
$EndComp
$Comp
L MUN5211DW1T1G U502
U 2 1 542E759A
P 7250 5750
F 0 "U502" H 7440 5380 60  0000 C CNN
F 1 "MUN5211DW1T1G" H 7330 6270 60  0000 C CNN
F 2 "SOT363" H 7600 5600 60  0000 C CNN
F 3 "" H 7250 5750 60  0000 C CNN
	2    7250 5750
	1    0    0    -1  
$EndComp
Wire Wire Line
	5000 5350 4450 5350
Wire Wire Line
	4450 5350 4450 5300
Wire Wire Line
	4450 5300 4350 5300
Wire Wire Line
	4350 5950 4450 5950
Wire Wire Line
	7800 5300 7800 5350
Wire Wire Line
	7700 5350 8350 5350
Connection ~ 7800 5350
Wire Wire Line
	7800 6000 7700 6000
Wire Wire Line
	6700 6050 6800 6050
Wire Wire Line
	3400 3350 3500 3350
Wire Wire Line
	3350 6000 3450 6000
$Comp
L CONN_1 P601
U 1 1 543A87A6
P 10150 4050
F 0 "P601" H 10230 4050 40  0000 L CNN
F 1 "CONN_1" H 10150 4105 30  0001 C CNN
F 2 "TP" H 10500 4050 60  0000 C CNN
F 3 "" H 10150 4050 60  0000 C CNN
	1    10150 4050
	1    0    0    -1  
$EndComp
$Comp
L CONN_1 P602
U 1 1 543A87AC
P 10150 4150
F 0 "P602" H 10230 4150 40  0000 L CNN
F 1 "CONN_1" H 10150 4205 30  0001 C CNN
F 2 "TP" H 10500 4150 60  0000 C CNN
F 3 "" H 10150 4150 60  0000 C CNN
	1    10150 4150
	1    0    0    -1  
$EndComp
$Comp
L CONN_1 P603
U 1 1 543A87B2
P 10150 4250
F 0 "P603" H 10230 4250 40  0000 L CNN
F 1 "CONN_1" H 10150 4305 30  0001 C CNN
F 2 "TP" H 10500 4250 60  0000 C CNN
F 3 "" H 10150 4250 60  0000 C CNN
	1    10150 4250
	1    0    0    -1  
$EndComp
$Comp
L CONN_1 P604
U 1 1 543A87B8
P 10150 4350
F 0 "P604" H 10230 4350 40  0000 L CNN
F 1 "CONN_1" H 10150 4405 30  0001 C CNN
F 2 "TP" H 10500 4350 60  0000 C CNN
F 3 "" H 10150 4350 60  0000 C CNN
	1    10150 4350
	1    0    0    -1  
$EndComp
Text Label 10000 4050 2    60   ~ 0
Vout_A
Text Label 10000 4150 2    60   ~ 0
Vout_B
Text Label 10000 4250 2    60   ~ 0
Vout_C
Text Label 10000 4350 2    60   ~ 0
Vout_D
Text Label 8000 2700 0    60   ~ 0
Vout_A
Text Label 8000 5350 0    60   ~ 0
Vout_D
Text Label 4650 2700 0    60   ~ 0
Vout_B
Text Label 4600 5350 0    60   ~ 0
Vout_C
$Comp
L R R605
U 1 1 543A9329
P 3700 6300
F 0 "R605" V 3780 6300 40  0000 C CNN
F 1 "R" V 3707 6301 40  0000 C CNN
F 2 "SM0402" V 3630 6300 30  0000 C CNN
F 3 "~" H 3700 6300 30  0000 C CNN
	1    3700 6300
	0    -1   -1   0   
$EndComp
$Comp
L LED D605
U 1 1 543A9338
P 4200 6300
F 0 "D605" H 4200 6400 50  0000 C CNN
F 1 "LED" H 4200 6200 50  0000 C CNN
F 2 "SM0805" H 4200 6100 60  0000 C CNN
F 3 "~" H 4200 6300 60  0000 C CNN
	1    4200 6300
	1    0    0    -1  
$EndComp
$Comp
L GND #PWR066
U 1 1 543A9347
P 4550 6300
F 0 "#PWR066" H 4550 6300 30  0001 C CNN
F 1 "GND" H 4550 6230 30  0001 C CNN
F 2 "" H 4550 6300 60  0000 C CNN
F 3 "" H 4550 6300 60  0000 C CNN
	1    4550 6300
	0    -1   -1   0   
$EndComp
Wire Wire Line
	4550 6300 4400 6300
Wire Wire Line
	4000 6300 3950 6300
$Comp
L R R603
U 1 1 543A9516
P 3700 3650
F 0 "R603" V 3780 3650 40  0000 C CNN
F 1 "R" V 3707 3651 40  0000 C CNN
F 2 "SM0402" V 3630 3650 30  0000 C CNN
F 3 "~" H 3700 3650 30  0000 C CNN
	1    3700 3650
	0    -1   -1   0   
$EndComp
$Comp
L LED D603
U 1 1 543A951C
P 4200 3650
F 0 "D603" H 4200 3750 50  0000 C CNN
F 1 "LED" H 4200 3550 50  0000 C CNN
F 2 "SM0805" H 4200 3450 60  0000 C CNN
F 3 "~" H 4200 3650 60  0000 C CNN
	1    4200 3650
	1    0    0    -1  
$EndComp
$Comp
L GND #PWR067
U 1 1 543A9522
P 4550 3650
F 0 "#PWR067" H 4550 3650 30  0001 C CNN
F 1 "GND" H 4550 3580 30  0001 C CNN
F 2 "" H 4550 3650 60  0000 C CNN
F 3 "" H 4550 3650 60  0000 C CNN
	1    4550 3650
	0    -1   -1   0   
$EndComp
Wire Wire Line
	4550 3650 4400 3650
Wire Wire Line
	4000 3650 3950 3650
$Comp
L R R604
U 1 1 543A952A
P 7050 3650
F 0 "R604" V 7130 3650 40  0000 C CNN
F 1 "R" V 7057 3651 40  0000 C CNN
F 2 "SM0402" V 6980 3650 30  0000 C CNN
F 3 "~" H 7050 3650 30  0000 C CNN
	1    7050 3650
	0    -1   -1   0   
$EndComp
$Comp
L LED D604
U 1 1 543A9530
P 7550 3650
F 0 "D604" H 7550 3750 50  0000 C CNN
F 1 "LED" H 7550 3550 50  0000 C CNN
F 2 "SM0805" H 7550 3450 60  0000 C CNN
F 3 "~" H 7550 3650 60  0000 C CNN
	1    7550 3650
	1    0    0    -1  
$EndComp
$Comp
L GND #PWR068
U 1 1 543A9536
P 7900 3650
F 0 "#PWR068" H 7900 3650 30  0001 C CNN
F 1 "GND" H 7900 3580 30  0001 C CNN
F 2 "" H 7900 3650 60  0000 C CNN
F 3 "" H 7900 3650 60  0000 C CNN
	1    7900 3650
	0    -1   -1   0   
$EndComp
Wire Wire Line
	7900 3650 7750 3650
Wire Wire Line
	7350 3650 7300 3650
$Comp
L R R606
U 1 1 543A953E
P 7000 6300
F 0 "R606" V 7080 6300 40  0000 C CNN
F 1 "R" V 7007 6301 40  0000 C CNN
F 2 "SM0402" V 6930 6300 30  0000 C CNN
F 3 "~" H 7000 6300 30  0000 C CNN
	1    7000 6300
	0    -1   -1   0   
$EndComp
$Comp
L LED D606
U 1 1 543A9544
P 7500 6300
F 0 "D606" H 7500 6400 50  0000 C CNN
F 1 "LED" H 7500 6200 50  0000 C CNN
F 2 "SM0805" H 7500 6100 60  0000 C CNN
F 3 "~" H 7500 6300 60  0000 C CNN
	1    7500 6300
	1    0    0    -1  
$EndComp
$Comp
L GND #PWR069
U 1 1 543A954A
P 7850 6300
F 0 "#PWR069" H 7850 6300 30  0001 C CNN
F 1 "GND" H 7850 6230 30  0001 C CNN
F 2 "" H 7850 6300 60  0000 C CNN
F 3 "" H 7850 6300 60  0000 C CNN
	1    7850 6300
	0    -1   -1   0   
$EndComp
Wire Wire Line
	7850 6300 7700 6300
Wire Wire Line
	7300 6300 7250 6300
Wire Wire Line
	6750 6300 6750 6050
Connection ~ 6750 6050
Wire Wire Line
	3450 6300 3400 6300
Wire Wire Line
	3400 6300 3400 6000
Connection ~ 3400 6000
Wire Wire Line
	3450 3650 3450 3350
Connection ~ 3450 3350
Wire Wire Line
	6800 3650 6800 3400
Connection ~ 6800 3400
$EndSCHEMATC
