EESchema Schematic File Version 2
LIBS:crap
LIBS:power
LIBS:device
LIBS:transistors
LIBS:conn
LIBS:linear
LIBS:regul
LIBS:74xx
LIBS:cmos4000
LIBS:adc-dac
LIBS:memory
LIBS:xilinx
LIBS:special
LIBS:microcontrollers
LIBS:dsp
LIBS:microchip
LIBS:analog_switches
LIBS:motorola
LIBS:texas
LIBS:intel
LIBS:audio
LIBS:interface
LIBS:digital-audio
LIBS:philips
LIBS:display
LIBS:cypress
LIBS:siliconi
LIBS:opto
LIBS:atmel
LIBS:contrib
LIBS:valves
LIBS:wsens-cache
EELAYER 27 0
EELAYER END
$Descr A4 11693 8268
encoding utf-8
Sheet 4 6
Title ""
Date "14 oct 2014"
Rev ""
Comp ""
Comment1 ""
Comment2 ""
Comment3 ""
Comment4 ""
$EndDescr
$Comp
L MCP1702 U401
U 1 1 542C75F1
P 3350 2850
F 0 "U401" H 3450 2350 60  0000 C CNN
F 1 "MCP1702T-2802E/CB" H 3200 2800 60  0000 C CNN
F 2 "SOT23" H 3050 2300 60  0000 C CNN
F 3 "http://fr.farnell.com/microchip/mcp1702t-3002e-cb/regulateur-ldo-250ma-cms/dp/1331489RL" H 3350 2850 60  0001 C CNN
	1    3350 2850
	1    0    0    -1  
$EndComp
$Comp
L GND #PWR031
U 1 1 542C760A
P 2650 3300
F 0 "#PWR031" H 2650 3300 30  0001 C CNN
F 1 "GND" H 2650 3230 30  0001 C CNN
F 2 "" H 2650 3300 60  0000 C CNN
F 3 "" H 2650 3300 60  0000 C CNN
	1    2650 3300
	1    0    0    -1  
$EndComp
Wire Wire Line
	2650 3300 2650 3200
Wire Wire Line
	2650 3200 2750 3200
$Comp
L VDD #PWR032
U 1 1 542C761D
P 3950 2900
F 0 "#PWR032" H 3950 3000 30  0001 C CNN
F 1 "VDD" H 3950 3010 30  0000 C CNN
F 2 "" H 3950 2900 60  0000 C CNN
F 3 "" H 3950 2900 60  0000 C CNN
	1    3950 2900
	1    0    0    -1  
$EndComp
Wire Wire Line
	3950 2900 3950 3050
Wire Wire Line
	3950 3050 3800 3050
$Comp
L C C401
U 1 1 542C7761
P 2100 3100
F 0 "C401" H 2100 3200 40  0000 L CNN
F 1 "1u" H 2106 3015 40  0000 L CNN
F 2 "SM0603" H 2000 3000 30  0000 C CNN
F 3 "~" H 2100 3100 60  0000 C CNN
F 4 "16V" H 2100 3100 60  0001 C CNN "Voltage"
	1    2100 3100
	1    0    0    -1  
$EndComp
$Comp
L C C402
U 1 1 542C7770
P 4500 3150
F 0 "C402" H 4500 3250 40  0000 L CNN
F 1 "1u" H 4506 3065 40  0000 L CNN
F 2 "SM0603" H 4700 3050 30  0000 C CNN
F 3 "~" H 4500 3150 60  0000 C CNN
F 4 "16V" H 4500 3150 60  0001 C CNN "Voltage"
	1    4500 3150
	1    0    0    -1  
$EndComp
$Comp
L VDD #PWR033
U 1 1 542C777D
P 4500 2850
F 0 "#PWR033" H 4500 2950 30  0001 C CNN
F 1 "VDD" H 4500 2960 30  0000 C CNN
F 2 "" H 4500 2850 60  0000 C CNN
F 3 "" H 4500 2850 60  0000 C CNN
	1    4500 2850
	1    0    0    -1  
$EndComp
$Comp
L GND #PWR034
U 1 1 542C7785
P 4500 3450
F 0 "#PWR034" H 4500 3450 30  0001 C CNN
F 1 "GND" H 4500 3380 30  0001 C CNN
F 2 "" H 4500 3450 60  0000 C CNN
F 3 "" H 4500 3450 60  0000 C CNN
	1    4500 3450
	1    0    0    -1  
$EndComp
Wire Wire Line
	4500 3450 4500 3350
Wire Wire Line
	4500 2950 4500 2850
$Comp
L GND #PWR035
U 1 1 542C77B7
P 2100 3400
F 0 "#PWR035" H 2100 3400 30  0001 C CNN
F 1 "GND" H 2100 3330 30  0001 C CNN
F 2 "" H 2100 3400 60  0000 C CNN
F 3 "" H 2100 3400 60  0000 C CNN
	1    2100 3400
	1    0    0    -1  
$EndComp
Wire Wire Line
	2100 3400 2100 3300
$Comp
L +BATT #PWR036
U 1 1 542C7866
P 2100 2800
F 0 "#PWR036" H 2100 2750 20  0001 C CNN
F 1 "+BATT" H 2100 2900 30  0000 C CNN
F 2 "" H 2100 2800 60  0000 C CNN
F 3 "" H 2100 2800 60  0000 C CNN
	1    2100 2800
	1    0    0    -1  
$EndComp
Wire Wire Line
	2100 2800 2100 2900
$Comp
L +BATT #PWR037
U 1 1 542C7920
P 2650 2950
F 0 "#PWR037" H 2650 2900 20  0001 C CNN
F 1 "+BATT" H 2650 3050 30  0000 C CNN
F 2 "" H 2650 2950 60  0000 C CNN
F 3 "" H 2650 2950 60  0000 C CNN
	1    2650 2950
	1    0    0    -1  
$EndComp
Wire Wire Line
	2650 2950 2650 3050
Wire Wire Line
	2650 3050 2750 3050
$Comp
L LM27313 U402
U 1 1 542C7B37
P 3300 5500
F 0 "U402" H 3750 5200 60  0000 C CNN
F 1 "LM27313" H 3050 5800 60  0000 C CNN
F 2 "CRAP-SOT23-5" H 3150 5200 60  0000 C CNN
F 3 "" H 3300 5500 60  0000 C CNN
	1    3300 5500
	1    0    0    -1  
$EndComp
$Comp
L GND #PWR038
U 1 1 542C7B46
P 4000 5750
F 0 "#PWR038" H 4000 5750 30  0001 C CNN
F 1 "GND" H 4000 5680 30  0001 C CNN
F 2 "" H 4000 5750 60  0000 C CNN
F 3 "" H 4000 5750 60  0000 C CNN
	1    4000 5750
	1    0    0    -1  
$EndComp
Wire Wire Line
	4000 5750 4000 5650
Wire Wire Line
	4000 5650 3900 5650
$Comp
L +BATT #PWR039
U 1 1 542C7B60
P 2350 5300
F 0 "#PWR039" H 2350 5250 20  0001 C CNN
F 1 "+BATT" H 2350 5400 30  0000 C CNN
F 2 "" H 2350 5300 60  0000 C CNN
F 3 "" H 2350 5300 60  0000 C CNN
	1    2350 5300
	1    0    0    -1  
$EndComp
Wire Wire Line
	2550 5000 2550 5550
Wire Wire Line
	2350 5400 2650 5400
Wire Wire Line
	2550 5550 2650 5550
Connection ~ 2550 5400
$Comp
L C C404
U 1 1 542C7C58
P 1800 5550
F 0 "C404" H 1800 5650 40  0000 L CNN
F 1 "2.2u" H 1806 5465 40  0000 L CNN
F 2 "SM0603" H 1650 5450 30  0000 C CNN
F 3 "~" H 1800 5550 60  0000 C CNN
F 4 "25V" H 1800 5550 60  0001 C CNN "Voltage"
	1    1800 5550
	1    0    0    -1  
$EndComp
$Comp
L GND #PWR040
U 1 1 542C7C5E
P 1800 5850
F 0 "#PWR040" H 1800 5850 30  0001 C CNN
F 1 "GND" H 1800 5780 30  0001 C CNN
F 2 "" H 1800 5850 60  0000 C CNN
F 3 "" H 1800 5850 60  0000 C CNN
	1    1800 5850
	1    0    0    -1  
$EndComp
Wire Wire Line
	1800 5850 1800 5750
$Comp
L +BATT #PWR041
U 1 1 542C7C65
P 1800 5250
F 0 "#PWR041" H 1800 5200 20  0001 C CNN
F 1 "+BATT" H 1800 5350 30  0000 C CNN
F 2 "" H 1800 5250 60  0000 C CNN
F 3 "" H 1800 5250 60  0000 C CNN
	1    1800 5250
	1    0    0    -1  
$EndComp
Wire Wire Line
	1800 5250 1800 5350
$Comp
L INDUCTOR L401
U 1 1 542C7C73
P 3300 5000
F 0 "L401" V 3250 5000 40  0000 C CNN
F 1 "10u" V 3400 5000 40  0000 C CNN
F 2 "SM1210L" V 3200 4700 60  0000 C CNN
F 3 "~" H 3300 5000 60  0000 C CNN
	1    3300 5000
	0    -1   -1   0   
$EndComp
$Comp
L DIODESCH D401
U 1 1 542C7C82
P 4250 5350
F 0 "D401" H 4250 5450 40  0000 C CNN
F 1 "DIODESCH" H 4250 5250 40  0000 C CNN
F 2 "SOD-123" H 4300 5550 60  0000 C CNN
F 3 "~" H 4250 5350 60  0000 C CNN
	1    4250 5350
	1    0    0    -1  
$EndComp
Wire Wire Line
	3900 5350 4050 5350
Wire Wire Line
	4000 5350 4000 5000
Wire Wire Line
	4000 5000 3600 5000
Connection ~ 4000 5350
Wire Wire Line
	2550 5000 3000 5000
Wire Wire Line
	2350 5300 2350 5400
$Comp
L +24V #PWR042
U 1 1 542C7DC1
P 4550 5250
F 0 "#PWR042" H 4550 5200 20  0001 C CNN
F 1 "+24V" H 4550 5350 30  0000 C CNN
F 2 "" H 4550 5250 60  0000 C CNN
F 3 "" H 4550 5250 60  0000 C CNN
	1    4550 5250
	1    0    0    -1  
$EndComp
$Comp
L C C403
U 1 1 542C7EC5
P 5400 5300
F 0 "C403" H 5400 5400 40  0000 L CNN
F 1 "4.7u" H 5406 5215 40  0000 L CNN
F 2 "SM1206" H 5550 5150 30  0000 C CNN
F 3 "~" H 5400 5300 60  0000 C CNN
F 4 "50V" H 5400 5300 60  0001 C CNN "Voltage"
	1    5400 5300
	1    0    0    -1  
$EndComp
$Comp
L +24V #PWR043
U 1 1 542C7ED2
P 5400 5000
F 0 "#PWR043" H 5400 4950 20  0001 C CNN
F 1 "+24V" H 5400 5100 30  0000 C CNN
F 2 "" H 5400 5000 60  0000 C CNN
F 3 "" H 5400 5000 60  0000 C CNN
	1    5400 5000
	1    0    0    -1  
$EndComp
$Comp
L GND #PWR044
U 1 1 542C7ED8
P 5400 5650
F 0 "#PWR044" H 5400 5650 30  0001 C CNN
F 1 "GND" H 5400 5580 30  0001 C CNN
F 2 "" H 5400 5650 60  0000 C CNN
F 3 "" H 5400 5650 60  0000 C CNN
	1    5400 5650
	1    0    0    -1  
$EndComp
Wire Wire Line
	5400 5650 5400 5500
Wire Wire Line
	5400 5100 5400 5000
$Comp
L R R402
U 1 1 542C7FFF
P 4200 6100
F 0 "R402" V 4280 6100 40  0000 C CNN
F 1 "13.3k" V 4207 6101 40  0000 C CNN
F 2 "SM0402" V 4130 6100 30  0000 C CNN
F 3 "~" H 4200 6100 30  0000 C CNN
	1    4200 6100
	1    0    0    -1  
$EndComp
$Comp
L R R401
U 1 1 542C800E
P 4500 5550
F 0 "R401" V 4580 5550 40  0000 C CNN
F 1 "246k" V 4507 5551 40  0000 C CNN
F 2 "SM0402" V 4600 5400 30  0000 C CNN
F 3 "~" H 4500 5550 30  0000 C CNN
	1    4500 5550
	0    -1   -1   0   
$EndComp
Wire Wire Line
	4200 5500 4200 5850
Wire Wire Line
	4200 5550 4250 5550
Wire Wire Line
	4200 5500 3900 5500
Connection ~ 4200 5550
$Comp
L +24V #PWR045
U 1 1 542C8061
P 4850 5450
F 0 "#PWR045" H 4850 5400 20  0001 C CNN
F 1 "+24V" H 4850 5550 30  0000 C CNN
F 2 "" H 4850 5450 60  0000 C CNN
F 3 "" H 4850 5450 60  0000 C CNN
	1    4850 5450
	1    0    0    -1  
$EndComp
$Comp
L GND #PWR046
U 1 1 542C8067
P 4200 6500
F 0 "#PWR046" H 4200 6500 30  0001 C CNN
F 1 "GND" H 4200 6430 30  0001 C CNN
F 2 "" H 4200 6500 60  0000 C CNN
F 3 "" H 4200 6500 60  0000 C CNN
	1    4200 6500
	1    0    0    -1  
$EndComp
Wire Wire Line
	4200 6500 4200 6350
Wire Wire Line
	4750 5550 4850 5550
Wire Wire Line
	4850 5450 4850 5750
Wire Wire Line
	4450 5350 4550 5350
Wire Wire Line
	4550 5350 4550 5250
$Comp
L C C405
U 1 1 542C81BC
P 4550 5750
F 0 "C405" H 4550 5850 40  0000 L CNN
F 1 "120p" H 4556 5665 40  0000 L CNN
F 2 "SM0402" V 4400 5750 30  0000 C CNN
F 3 "~" H 4550 5750 60  0000 C CNN
F 4 "50V" H 4550 5750 60  0001 C CNN "Voltage"
	1    4550 5750
	0    -1   -1   0   
$EndComp
Wire Wire Line
	4850 5750 4750 5750
Connection ~ 4850 5550
Wire Wire Line
	4200 5750 4350 5750
Connection ~ 4200 5750
$EndSCHEMATC
