EESchema Schematic File Version 2
LIBS:crap
LIBS:power
LIBS:device
LIBS:transistors
LIBS:conn
LIBS:linear
LIBS:regul
LIBS:74xx
LIBS:cmos4000
LIBS:adc-dac
LIBS:memory
LIBS:xilinx
LIBS:special
LIBS:microcontrollers
LIBS:dsp
LIBS:microchip
LIBS:analog_switches
LIBS:motorola
LIBS:texas
LIBS:intel
LIBS:audio
LIBS:interface
LIBS:digital-audio
LIBS:philips
LIBS:display
LIBS:cypress
LIBS:siliconi
LIBS:opto
LIBS:atmel
LIBS:contrib
LIBS:valves
LIBS:wsens-cache
EELAYER 27 0
EELAYER END
$Descr A4 11693 8268
encoding utf-8
Sheet 1 6
Title ""
Date "14 oct 2014"
Rev ""
Comp ""
Comment1 ""
Comment2 ""
Comment3 ""
Comment4 ""
$EndDescr
Text Label 7550 1400 0    60   ~ 0
AN_0
Text Label 7550 1500 0    60   ~ 0
AN_1
Text Label 7550 1600 0    60   ~ 0
AN_2
Text Label 7550 1700 0    60   ~ 0
AN_3
$Sheet
S 4500 5600 550  500 
U 542C62A4
F0 "RF" 50
F1 "rf.sch" 50
F2 "RF_P" I L 4500 5800 60 
F3 "RF_N" I L 4500 5950 60 
$EndSheet
Text Label 4500 5800 2    60   ~ 0
RF_P
Text Label 4500 5950 2    60   ~ 0
RF_N
$Sheet
S 6600 1150 850  800 
U 542C5BA0
F0 "Analog" 50
F1 "analog.sch" 50
F2 "OUT_0" O R 7450 1400 60 
F3 "OUT_1" O R 7450 1500 60 
F4 "OUT_2" O R 7450 1600 60 
F5 "OUT_3" O R 7450 1700 60 
F6 "IN_0" I L 6600 1400 60 
F7 "IN_1" I L 6600 1500 60 
F8 "IN_2" I L 6600 1600 60 
F9 "IN_3" I L 6600 1700 60 
$EndSheet
$Sheet
S 3900 1100 650  300 
U 542C7503
F0 "Power" 50
F1 "power.sch" 50
$EndSheet
$Comp
L CONN_4 P102
U 1 1 542D603D
P 8900 4950
F 0 "P102" V 8850 4950 50  0000 C CNN
F 1 "CONN_4" V 8950 4950 50  0000 C CNN
F 2 "PIN_ARRAY_4x1" H 8850 5200 60  0000 C CNN
F 3 "" H 8900 4950 60  0000 C CNN
	1    8900 4950
	-1   0    0    1   
$EndComp
$Comp
L GND #PWR01
U 1 1 542D60EC
P 9350 5200
F 0 "#PWR01" H 9350 5200 30  0001 C CNN
F 1 "GND" H 9350 5130 30  0001 C CNN
F 2 "" H 9350 5200 60  0000 C CNN
F 3 "" H 9350 5200 60  0000 C CNN
	1    9350 5200
	1    0    0    -1  
$EndComp
$Comp
L VDD #PWR02
U 1 1 542D60FB
P 9350 4700
F 0 "#PWR02" H 9350 4800 30  0001 C CNN
F 1 "VDD" H 9350 4810 30  0000 C CNN
F 2 "" H 9350 4700 60  0000 C CNN
F 3 "" H 9350 4700 60  0000 C CNN
	1    9350 4700
	1    0    0    -1  
$EndComp
Text Label 9450 4900 0    60   ~ 0
SDA
Text Label 9450 5000 0    60   ~ 0
SCL
$Comp
L +BATT #PWR03
U 1 1 542D73FD
P 2100 1350
F 0 "#PWR03" H 2100 1300 20  0001 C CNN
F 1 "+BATT" H 2100 1450 30  0000 C CNN
F 2 "" H 2100 1350 60  0000 C CNN
F 3 "" H 2100 1350 60  0000 C CNN
	1    2100 1350
	1    0    0    -1  
$EndComp
$Comp
L GND #PWR04
U 1 1 542D7405
P 2100 1750
F 0 "#PWR04" H 2100 1750 30  0001 C CNN
F 1 "GND" H 2100 1680 30  0001 C CNN
F 2 "" H 2100 1750 60  0000 C CNN
F 3 "" H 2100 1750 60  0000 C CNN
	1    2100 1750
	1    0    0    -1  
$EndComp
$Comp
L CONN_2 P101
U 1 1 542D740B
P 1650 1550
F 0 "P101" V 1600 1550 40  0000 C CNN
F 1 "CONN_2" V 1700 1550 40  0000 C CNN
F 2 "PIN_ARRAY_2X1" H 1600 1800 60  0000 C CNN
F 3 "" H 1650 1550 60  0000 C CNN
	1    1650 1550
	-1   0    0    1   
$EndComp
$Sheet
S 3950 3550 1300 1650
U 542D74A3
F0 "MCU" 50
F1 "mcu.sch" 50
F2 "SWCLK" I R 5250 4600 60 
F3 "SWDIO" I R 5250 4700 60 
F4 "RFP" I L 3950 4550 60 
F5 "RFN" I L 3950 4650 60 
F6 "AN_0" I L 3950 3700 60 
F7 "AN_1" I L 3950 3800 60 
F8 "AN_2" I L 3950 3900 60 
F9 "AN_3" I L 3950 4000 60 
F10 "SCL" I R 5250 4300 60 
F11 "SDA" I R 5250 4400 60 
F12 "DIG_0" I R 5250 3700 60 
F13 "DIG_1" I R 5250 3800 60 
F14 "DIG_2" I R 5250 3900 60 
F15 "DIG_3" I R 5250 4000 60 
F16 "DBG_TX" O R 5250 4850 60 
F17 "DBG_RX" I R 5250 4950 60 
$EndSheet
Text Label 3850 4550 2    60   ~ 0
RF_P
Text Label 3850 4650 2    60   ~ 0
RF_N
Text Label 5350 4400 0    60   ~ 0
SDA
Text Label 5350 4300 0    60   ~ 0
SCL
Text Label 3850 3700 2    60   ~ 0
AN_0
Text Label 3850 3800 2    60   ~ 0
AN_1
Text Label 3850 3900 2    60   ~ 0
AN_2
Text Label 3850 4000 2    60   ~ 0
AN_3
Wire Wire Line
	9450 5000 9250 5000
Wire Wire Line
	9250 4900 9450 4900
Wire Wire Line
	9250 4800 9350 4800
Wire Wire Line
	9350 4800 9350 4700
Wire Wire Line
	9250 5100 9350 5100
Wire Wire Line
	9350 5100 9350 5200
Wire Wire Line
	2100 1450 2000 1450
Wire Wire Line
	2100 1350 2100 1450
Wire Wire Line
	2100 1650 2000 1650
Wire Wire Line
	2100 1750 2100 1650
Wire Wire Line
	5350 4300 5250 4300
Wire Wire Line
	5250 4400 5350 4400
Wire Wire Line
	3950 4650 3850 4650
Wire Wire Line
	3850 4550 3950 4550
Wire Wire Line
	3950 4000 3850 4000
Wire Wire Line
	3850 3900 3950 3900
Wire Wire Line
	3950 3800 3850 3800
Wire Wire Line
	3850 3700 3950 3700
Wire Wire Line
	7450 1400 7550 1400
Wire Wire Line
	7550 1500 7450 1500
Wire Wire Line
	7450 1600 7550 1600
Wire Wire Line
	7550 1700 7450 1700
$Comp
L CONN_3 K102
U 1 1 542DDDFA
P 9650 1250
F 0 "K102" V 9600 1250 50  0000 C CNN
F 1 "CONN_3" V 9700 1250 40  0000 C CNN
F 2 "PIN_ARRAY_3X1" H 9550 1450 60  0000 C CNN
F 3 "" H 9650 1250 60  0000 C CNN
	1    9650 1250
	-1   0    0    1   
$EndComp
$Comp
L GND #PWR05
U 1 1 542DDF5F
P 10100 1350
F 0 "#PWR05" H 10100 1350 30  0001 C CNN
F 1 "GND" H 10100 1280 30  0001 C CNN
F 2 "" H 10100 1350 60  0000 C CNN
F 3 "" H 10100 1350 60  0000 C CNN
	1    10100 1350
	0    -1   -1   0   
$EndComp
$Comp
L +24V #PWR06
U 1 1 542DDF6E
P 10100 1250
F 0 "#PWR06" H 10100 1200 20  0001 C CNN
F 1 "+24V" H 10100 1350 30  0000 C CNN
F 2 "" H 10100 1250 60  0000 C CNN
F 3 "" H 10100 1250 60  0000 C CNN
	1    10100 1250
	0    1    1    0   
$EndComp
Wire Wire Line
	10100 1150 10000 1150
Wire Wire Line
	10100 1350 10000 1350
Text Label 8950 1600 0    60   ~ 0
AN_IN_1
Wire Wire Line
	10100 1250 10000 1250
$Comp
L CONN_3 K104
U 1 1 542DE171
P 9650 1700
F 0 "K104" V 9600 1700 50  0000 C CNN
F 1 "CONN_3" V 9700 1700 40  0000 C CNN
F 2 "PIN_ARRAY_3X1" H 9550 1900 60  0000 C CNN
F 3 "" H 9650 1700 60  0000 C CNN
	1    9650 1700
	-1   0    0    1   
$EndComp
$Comp
L GND #PWR07
U 1 1 542DE177
P 10100 1800
F 0 "#PWR07" H 10100 1800 30  0001 C CNN
F 1 "GND" H 10100 1730 30  0001 C CNN
F 2 "" H 10100 1800 60  0000 C CNN
F 3 "" H 10100 1800 60  0000 C CNN
	1    10100 1800
	0    -1   -1   0   
$EndComp
$Comp
L +24V #PWR08
U 1 1 542DE17D
P 10100 1700
F 0 "#PWR08" H 10100 1650 20  0001 C CNN
F 1 "+24V" H 10100 1800 30  0000 C CNN
F 2 "" H 10100 1700 60  0000 C CNN
F 3 "" H 10100 1700 60  0000 C CNN
	1    10100 1700
	0    1    1    0   
$EndComp
Wire Wire Line
	10100 1600 10000 1600
Wire Wire Line
	10100 1800 10000 1800
Text Label 8950 1150 0    60   ~ 0
AN_IN_3
Wire Wire Line
	10100 1700 10000 1700
$Comp
L CONN_3 K101
U 1 1 542DE1DB
P 8500 1250
F 0 "K101" V 8450 1250 50  0000 C CNN
F 1 "CONN_3" V 8550 1250 40  0000 C CNN
F 2 "PIN_ARRAY_3X1" H 8450 1450 60  0000 C CNN
F 3 "" H 8500 1250 60  0000 C CNN
	1    8500 1250
	-1   0    0    1   
$EndComp
$Comp
L GND #PWR09
U 1 1 542DE1E1
P 8950 1350
F 0 "#PWR09" H 8950 1350 30  0001 C CNN
F 1 "GND" H 8950 1280 30  0001 C CNN
F 2 "" H 8950 1350 60  0000 C CNN
F 3 "" H 8950 1350 60  0000 C CNN
	1    8950 1350
	0    -1   -1   0   
$EndComp
$Comp
L +24V #PWR010
U 1 1 542DE1E7
P 8950 1250
F 0 "#PWR010" H 8950 1200 20  0001 C CNN
F 1 "+24V" H 8950 1350 30  0000 C CNN
F 2 "" H 8950 1250 60  0000 C CNN
F 3 "" H 8950 1250 60  0000 C CNN
	1    8950 1250
	0    1    1    0   
$EndComp
Wire Wire Line
	8950 1150 8850 1150
Wire Wire Line
	8950 1350 8850 1350
Text Label 10100 1600 0    60   ~ 0
AN_IN_0
Wire Wire Line
	8950 1250 8850 1250
$Comp
L CONN_3 K103
U 1 1 542DE1F1
P 8500 1700
F 0 "K103" V 8450 1700 50  0000 C CNN
F 1 "CONN_3" V 8550 1700 40  0000 C CNN
F 2 "PIN_ARRAY_3X1" H 8450 1900 60  0000 C CNN
F 3 "" H 8500 1700 60  0000 C CNN
	1    8500 1700
	-1   0    0    1   
$EndComp
$Comp
L GND #PWR011
U 1 1 542DE1F7
P 8950 1800
F 0 "#PWR011" H 8950 1800 30  0001 C CNN
F 1 "GND" H 8950 1730 30  0001 C CNN
F 2 "" H 8950 1800 60  0000 C CNN
F 3 "" H 8950 1800 60  0000 C CNN
	1    8950 1800
	0    -1   -1   0   
$EndComp
$Comp
L +24V #PWR012
U 1 1 542DE1FD
P 8950 1700
F 0 "#PWR012" H 8950 1650 20  0001 C CNN
F 1 "+24V" H 8950 1800 30  0000 C CNN
F 2 "" H 8950 1700 60  0000 C CNN
F 3 "" H 8950 1700 60  0000 C CNN
	1    8950 1700
	0    1    1    0   
$EndComp
Wire Wire Line
	8950 1600 8850 1600
Wire Wire Line
	8950 1800 8850 1800
Text Label 10100 1150 0    60   ~ 0
AN_IN_2
Wire Wire Line
	8950 1700 8850 1700
$Comp
L CONN_3 K106
U 1 1 542DE7F2
P 9950 3200
F 0 "K106" V 9900 3200 50  0000 C CNN
F 1 "CONN_3" V 10000 3200 40  0000 C CNN
F 2 "PIN_ARRAY_3X1" H 9900 3400 60  0000 C CNN
F 3 "" H 9950 3200 60  0000 C CNN
	1    9950 3200
	-1   0    0    1   
$EndComp
$Comp
L GND #PWR013
U 1 1 542DE7F8
P 10400 3300
F 0 "#PWR013" H 10400 3300 30  0001 C CNN
F 1 "GND" H 10400 3230 30  0001 C CNN
F 2 "" H 10400 3300 60  0000 C CNN
F 3 "" H 10400 3300 60  0000 C CNN
	1    10400 3300
	0    -1   -1   0   
$EndComp
$Comp
L +24V #PWR014
U 1 1 542DE7FE
P 10400 3200
F 0 "#PWR014" H 10400 3150 20  0001 C CNN
F 1 "+24V" H 10400 3300 30  0000 C CNN
F 2 "" H 10400 3200 60  0000 C CNN
F 3 "" H 10400 3200 60  0000 C CNN
	1    10400 3200
	0    1    1    0   
$EndComp
Wire Wire Line
	10400 3100 10300 3100
Wire Wire Line
	10400 3300 10300 3300
Text Label 10400 3550 0    60   ~ 0
DIG_IN_1
Wire Wire Line
	10400 3200 10300 3200
$Comp
L CONN_3 K108
U 1 1 542DE808
P 9950 3650
F 0 "K108" V 9900 3650 50  0000 C CNN
F 1 "CONN_3" V 10000 3650 40  0000 C CNN
F 2 "PIN_ARRAY_3X1" H 9900 3850 60  0000 C CNN
F 3 "" H 9950 3650 60  0000 C CNN
	1    9950 3650
	-1   0    0    1   
$EndComp
$Comp
L GND #PWR015
U 1 1 542DE80E
P 10400 3750
F 0 "#PWR015" H 10400 3750 30  0001 C CNN
F 1 "GND" H 10400 3680 30  0001 C CNN
F 2 "" H 10400 3750 60  0000 C CNN
F 3 "" H 10400 3750 60  0000 C CNN
	1    10400 3750
	0    -1   -1   0   
$EndComp
$Comp
L +24V #PWR016
U 1 1 542DE814
P 10400 3650
F 0 "#PWR016" H 10400 3600 20  0001 C CNN
F 1 "+24V" H 10400 3750 30  0000 C CNN
F 2 "" H 10400 3650 60  0000 C CNN
F 3 "" H 10400 3650 60  0000 C CNN
	1    10400 3650
	0    1    1    0   
$EndComp
Wire Wire Line
	10400 3550 10300 3550
Wire Wire Line
	10400 3750 10300 3750
Text Label 10400 3100 0    60   ~ 0
DIG_IN_3
Wire Wire Line
	10400 3650 10300 3650
$Comp
L CONN_3 K105
U 1 1 542DE81E
P 8800 3200
F 0 "K105" V 8750 3200 50  0000 C CNN
F 1 "CONN_3" V 8850 3200 40  0000 C CNN
F 2 "PIN_ARRAY_3X1" H 8750 3400 60  0000 C CNN
F 3 "" H 8800 3200 60  0000 C CNN
	1    8800 3200
	-1   0    0    1   
$EndComp
$Comp
L GND #PWR017
U 1 1 542DE824
P 9250 3300
F 0 "#PWR017" H 9250 3300 30  0001 C CNN
F 1 "GND" H 9250 3230 30  0001 C CNN
F 2 "" H 9250 3300 60  0000 C CNN
F 3 "" H 9250 3300 60  0000 C CNN
	1    9250 3300
	0    -1   -1   0   
$EndComp
$Comp
L +24V #PWR018
U 1 1 542DE82A
P 9250 3200
F 0 "#PWR018" H 9250 3150 20  0001 C CNN
F 1 "+24V" H 9250 3300 30  0000 C CNN
F 2 "" H 9250 3200 60  0000 C CNN
F 3 "" H 9250 3200 60  0000 C CNN
	1    9250 3200
	0    1    1    0   
$EndComp
Wire Wire Line
	9250 3100 9150 3100
Wire Wire Line
	9250 3300 9150 3300
Text Label 9250 3550 0    60   ~ 0
DIG_IN_0
Wire Wire Line
	9250 3200 9150 3200
$Comp
L CONN_3 K107
U 1 1 542DE834
P 8800 3650
F 0 "K107" V 8750 3650 50  0000 C CNN
F 1 "CONN_3" V 8850 3650 40  0000 C CNN
F 2 "PIN_ARRAY_3X1" H 8700 3850 60  0000 C CNN
F 3 "" H 8800 3650 60  0000 C CNN
	1    8800 3650
	-1   0    0    1   
$EndComp
$Comp
L GND #PWR019
U 1 1 542DE83A
P 9250 3750
F 0 "#PWR019" H 9250 3750 30  0001 C CNN
F 1 "GND" H 9250 3680 30  0001 C CNN
F 2 "" H 9250 3750 60  0000 C CNN
F 3 "" H 9250 3750 60  0000 C CNN
	1    9250 3750
	0    -1   -1   0   
$EndComp
$Comp
L +24V #PWR020
U 1 1 542DE840
P 9250 3650
F 0 "#PWR020" H 9250 3600 20  0001 C CNN
F 1 "+24V" H 9250 3750 30  0000 C CNN
F 2 "" H 9250 3650 60  0000 C CNN
F 3 "" H 9250 3650 60  0000 C CNN
	1    9250 3650
	0    1    1    0   
$EndComp
Wire Wire Line
	9250 3550 9150 3550
Wire Wire Line
	9250 3750 9150 3750
Text Label 9250 3100 0    60   ~ 0
DIG_IN_2
Wire Wire Line
	9250 3650 9150 3650
Text Label 6500 1400 2    60   ~ 0
AN_IN_0
Text Label 6500 1500 2    60   ~ 0
AN_IN_1
Text Label 6500 1600 2    60   ~ 0
AN_IN_2
Text Label 6500 1700 2    60   ~ 0
AN_IN_3
Wire Wire Line
	6500 1700 6600 1700
Wire Wire Line
	6500 1600 6600 1600
Wire Wire Line
	6500 1500 6600 1500
Wire Wire Line
	6500 1400 6600 1400
Text Label 6450 3250 2    60   ~ 0
DIG_IN_0
Text Label 6450 3350 2    60   ~ 0
DIG_IN_1
Text Label 6450 3450 2    60   ~ 0
DIG_IN_2
Text Label 6450 3550 2    60   ~ 0
DIG_IN_3
Wire Wire Line
	6450 3550 6550 3550
Wire Wire Line
	6450 3450 6550 3450
Wire Wire Line
	6450 3350 6550 3350
Wire Wire Line
	6450 3250 6550 3250
Text Label 7650 3250 0    60   ~ 0
DIG_0
Text Label 7650 3350 0    60   ~ 0
DIG_1
Text Label 7650 3450 0    60   ~ 0
DIG_2
Text Label 7650 3550 0    60   ~ 0
DIG_3
Wire Wire Line
	7550 3250 7650 3250
Wire Wire Line
	7650 3350 7550 3350
Wire Wire Line
	7550 3450 7650 3450
Wire Wire Line
	7650 3550 7550 3550
Text Label 5350 3700 0    60   ~ 0
DIG_0
Text Label 5350 3800 0    60   ~ 0
DIG_1
Text Label 5350 3900 0    60   ~ 0
DIG_2
Text Label 5350 4000 0    60   ~ 0
DIG_3
Wire Wire Line
	5250 3700 5350 3700
Wire Wire Line
	5350 3800 5250 3800
Wire Wire Line
	5250 3900 5350 3900
Wire Wire Line
	5350 4000 5250 4000
$Comp
L GND #PWR021
U 1 1 542D605F
P 7850 5300
F 0 "#PWR021" H 7850 5300 30  0001 C CNN
F 1 "GND" H 7850 5230 30  0001 C CNN
F 2 "" H 7850 5300 60  0000 C CNN
F 3 "" H 7850 5300 60  0000 C CNN
	1    7850 5300
	1    0    0    -1  
$EndComp
Wire Wire Line
	7750 5200 7850 5200
Wire Wire Line
	7850 5200 7850 5300
Text Label 5350 4600 0    60   ~ 0
SWCLK
Text Label 5350 4700 0    60   ~ 0
SWDIO
Text Label 5350 4850 0    60   ~ 0
DBG_TX
Text Label 7850 4900 0    60   ~ 0
SWCLK
Text Label 7850 4800 0    60   ~ 0
SWDIO
Text Label 7850 5000 0    60   ~ 0
DBG_TX
Wire Wire Line
	7750 5100 7850 5100
Wire Wire Line
	7850 5000 7750 5000
Wire Wire Line
	7750 4900 7850 4900
Wire Wire Line
	5250 4600 5350 4600
Wire Wire Line
	5350 4700 5250 4700
Wire Wire Line
	5250 4850 5350 4850
Text Label 5350 4950 0    60   ~ 0
DBG_RX
Wire Wire Line
	5250 4950 5350 4950
$Comp
L CONN_5 P103
U 1 1 542E6741
P 7350 5000
F 0 "P103" V 7300 5000 50  0000 C CNN
F 1 "CONN_5" V 7400 5000 50  0000 C CNN
F 2 "PIN_ARRAY_5x1" H 7350 5300 60  0000 C CNN
F 3 "" H 7350 5000 60  0000 C CNN
	1    7350 5000
	-1   0    0    1   
$EndComp
Text Label 7850 5100 0    60   ~ 0
DBG_RX
Wire Wire Line
	7750 4800 7850 4800
$Sheet
S 6550 3050 1000 800 
U 542D4C09
F0 "PNP Input" 50
F1 "PNP_input.sch" 50
F2 "OUT_0" O R 7550 3250 60 
F3 "OUT_1" O R 7550 3350 60 
F4 "OUT_2" O R 7550 3450 60 
F5 "OUT_3" O R 7550 3550 60 
F6 "IN_0" I L 6550 3250 60 
F7 "IN_1" I L 6550 3350 60 
F8 "IN_2" I L 6550 3450 60 
F9 "IN_3" I L 6550 3550 60 
$EndSheet
$EndSCHEMATC
