
G21
G90
G94
F1000.00
G00 Z1.0000
M03 S10000
G04 P1
G00 X10.0480Y11.5000
G01 Z-1.6500
G01 Z1.0000
G00 X10.0480Y8.9600
G01 Z-1.6500
G01 Z1.0000
G00 X10.0480Y6.4200
G01 Z-1.6500
G01 Z1.0000
G00 X20.0480Y8.9600
G01 Z-1.6500
G01 Z1.0000
G00 X20.0480Y6.4200
G01 Z-1.6500
G01 Z1.0000
G00 X4.7140Y10.4840
G01 Z-1.6500
G01 Z1.0000
G00 X4.7140Y7.9440
G01 Z-1.6500
G01 Z1.0000
G00 X39.5120Y10.4840
G01 Z-1.6500
G01 Z1.0000
G00 X39.5120Y7.9440
G01 Z-1.6500
G01 Z1.0000
G00 X0.0000Y0.0000
M05

