(module CRAP-QFN32 (layer F.Cu) (tedit 5573131A)
  (descr "Support CMS Plcc 32 pins")
  (tags "CMS Plcc")
  (clearance 0.2)
  (attr smd)
  (fp_text reference REF (at 0 -1.016) (layer F.SilkS)
    (effects (font (size 0.762 0.762) (thickness 0.1524)))
  )
  (fp_text value VAL (at 0 0.762) (layer F.SilkS) hide
    (effects (font (size 0.762 0.762) (thickness 0.1524)))
  )
  (fp_line (start 3.25 -3.25) (end -2.2 -3.25) (layer F.SilkS) (width 0.15))
  (fp_line (start -2.2 -3.25) (end -3.25 -2.2) (layer F.SilkS) (width 0.15))
  (fp_line (start -3.25 -2.2) (end -3.25 3.25) (layer F.SilkS) (width 0.15))
  (fp_line (start 3.25 -3.25) (end 3.25 3.25) (layer F.SilkS) (width 0.15))
  (fp_line (start 3.25 3.25) (end -3.25 3.25) (layer F.SilkS) (width 0.15))
  (pad 31 smd rect (at -1.24968 -2.49936) (size 0.254 0.762) (layers F.Cu F.Paste F.Mask))
  (pad 30 smd rect (at -0.7493 -2.49936) (size 0.254 0.762) (layers F.Cu F.Paste F.Mask))
  (pad 29 smd rect (at -0.24892 -2.49936) (size 0.254 0.762) (layers F.Cu F.Paste F.Mask))
  (pad 32 smd rect (at -1.75006 -2.49936) (size 0.254 0.762) (layers F.Cu F.Paste F.Mask))
  (pad 1 smd rect (at -2.49936 -1.75006 90) (size 0.254 0.762) (layers F.Cu F.Paste F.Mask))
  (pad 2 smd rect (at -2.49936 -1.24968 90) (size 0.254 0.762) (layers F.Cu F.Paste F.Mask))
  (pad 3 smd rect (at -2.49936 -0.7493 90) (size 0.254 0.762) (layers F.Cu F.Paste F.Mask))
  (pad 4 smd rect (at -2.49936 -0.24892 90) (size 0.254 0.762) (layers F.Cu F.Paste F.Mask))
  (pad 5 smd rect (at -2.49936 0.24892 90) (size 0.254 0.762) (layers F.Cu F.Paste F.Mask))
  (pad 6 smd rect (at -2.49936 0.7493 90) (size 0.254 0.762) (layers F.Cu F.Paste F.Mask))
  (pad 7 smd rect (at -2.49936 1.24968 90) (size 0.254 0.762) (layers F.Cu F.Paste F.Mask))
  (pad 8 smd rect (at -2.49936 1.75006 90) (size 0.254 0.762) (layers F.Cu F.Paste F.Mask))
  (pad 16 smd rect (at 1.75006 2.49936) (size 0.254 0.762) (layers F.Cu F.Paste F.Mask))
  (pad 9 smd rect (at -1.75006 2.49936) (size 0.254 0.762) (layers F.Cu F.Paste F.Mask))
  (pad 10 smd rect (at -1.24968 2.49936) (size 0.254 0.762) (layers F.Cu F.Paste F.Mask))
  (pad 11 smd rect (at -0.7493 2.49936) (size 0.254 0.762) (layers F.Cu F.Paste F.Mask))
  (pad 12 smd rect (at -0.24892 2.49936) (size 0.254 0.762) (layers F.Cu F.Paste F.Mask))
  (pad 13 smd rect (at 0.24892 2.49936) (size 0.254 0.762) (layers F.Cu F.Paste F.Mask))
  (pad 14 smd rect (at 0.7493 2.49936) (size 0.254 0.762) (layers F.Cu F.Paste F.Mask))
  (pad 15 smd rect (at 1.24968 2.49936) (size 0.254 0.762) (layers F.Cu F.Paste F.Mask))
  (pad 17 smd rect (at 2.49936 1.75006 90) (size 0.254 0.762) (layers F.Cu F.Paste F.Mask))
  (pad 18 smd rect (at 2.49936 1.24968 90) (size 0.254 0.762) (layers F.Cu F.Paste F.Mask))
  (pad 19 smd rect (at 2.49936 0.7493 90) (size 0.254 0.762) (layers F.Cu F.Paste F.Mask))
  (pad 20 smd rect (at 2.49936 0.24892 90) (size 0.254 0.762) (layers F.Cu F.Paste F.Mask))
  (pad 21 smd rect (at 2.49936 -0.24892 90) (size 0.254 0.762) (layers F.Cu F.Paste F.Mask))
  (pad 22 smd rect (at 2.49936 -0.7493 90) (size 0.254 0.762) (layers F.Cu F.Paste F.Mask))
  (pad 23 smd rect (at 2.49936 -1.24968 90) (size 0.254 0.762) (layers F.Cu F.Paste F.Mask))
  (pad 24 smd rect (at 2.49936 -1.75006 90) (size 0.254 0.762) (layers F.Cu F.Paste F.Mask))
  (pad 25 smd rect (at 1.75006 -2.49936) (size 0.254 0.762) (layers F.Cu F.Paste F.Mask))
  (pad 26 smd rect (at 1.24968 -2.49936) (size 0.254 0.762) (layers F.Cu F.Paste F.Mask))
  (pad 27 smd rect (at 0.7493 -2.49936) (size 0.254 0.762) (layers F.Cu F.Paste F.Mask))
  (pad 28 smd rect (at 0.24892 -2.49936) (size 0.254 0.762) (layers F.Cu F.Paste F.Mask))
  (pad 33 smd rect (at 0 0) (size 3.3 3.3) (layers F.Cu F.Paste F.Mask))
)
