(module CRAP-SM0603 (layer F.Cu) (tedit 55731606)
  (attr smd)
  (fp_text reference REF (at 0 0) (layer F.SilkS)
    (effects (font (size 0.508 0.4572) (thickness 0.1143)))
  )
  (fp_text value VAL (at 0 0.45) (layer F.SilkS) hide
    (effects (font (size 0.508 0.4572) (thickness 0.1143)))
  )
  (fp_line (start -0.5 0.825) (end -1.325 0.825) (layer F.SilkS) (width 0.15))
  (fp_line (start -1.325 0.825) (end -1.325 -0.825) (layer F.SilkS) (width 0.15))
  (fp_line (start -1.325 -0.825) (end -0.5 -0.825) (layer F.SilkS) (width 0.15))
  (fp_line (start 0.5 -0.825) (end 1.325 -0.825) (layer F.SilkS) (width 0.15))
  (fp_line (start 1.325 -0.825) (end 1.325 0.825) (layer F.SilkS) (width 0.15))
  (fp_line (start 1.325 0.825) (end 0.5 0.825) (layer F.SilkS) (width 0.15))
  (pad 1 smd rect (at -0.75 0) (size 0.65 1.15) (layers F.Cu F.Paste F.Mask))
  (pad 2 smd rect (at 0.75 0) (size 0.65 1.15) (layers F.Cu F.Paste F.Mask))
  (model smd\resistors\R0603.wrl
    (at (xyz 0 0 0.001))
    (scale (xyz 0.5 0.5 0.5))
    (rotate (xyz 0 0 0))
  )
)
