(module DIODE_SMC_B520C (layer F.Cu) (tedit 556383A5)
  (fp_text reference DIODE_SMC_B520C (at 0 -4) (layer F.SilkS)
    (effects (font (size 1 1) (thickness 0.15)))
  )
  (fp_text value VAL** (at 0.5 4) (layer F.SilkS)
    (effects (font (size 1 1) (thickness 0.15)))
  )
  (fp_line (start -2 -3) (end -2 3) (layer F.SilkS) (width 0.15))
  (fp_line (start -3.5 -3) (end 3.5 -3) (layer F.SilkS) (width 0.15))
  (fp_line (start 3.5 -3) (end 3.5 3) (layer F.SilkS) (width 0.15))
  (fp_line (start 3.5 3) (end -3.5 3) (layer F.SilkS) (width 0.15))
  (fp_line (start -3.5 3) (end -3.5 -3) (layer F.SilkS) (width 0.15))
  (pad 1 smd rect (at -3.4 0) (size 2.5 3.3) (layers F.Cu F.Paste F.Mask))
  (pad 2 smd rect (at 3.4 0) (size 2.5 3.3) (layers F.Cu F.Paste F.Mask))
)
