(module FOXTEST (layer F.Cu) (tedit 573B96BF)
  (fp_text reference FOXTEST (at -7.62 0 90) (layer F.SilkS)
    (effects (font (size 1 1) (thickness 0.15)))
  )
  (fp_text value VAL** (at -7.62 0 90) (layer F.SilkS)
    (effects (font (size 1 1) (thickness 0.15)))
  )
  (fp_line (start 6.35 -6.35) (end -6.35 -6.35) (layer F.SilkS) (width 0.15))
  (fp_line (start -6.35 -6.35) (end -6.35 6.35) (layer F.SilkS) (width 0.15))
  (fp_line (start -6.35 6.35) (end 6.35 6.35) (layer F.SilkS) (width 0.15))
  (fp_line (start 6.35 6.35) (end 6.35 -6.35) (layer F.SilkS) (width 0.15))
  (fp_line (start 8.89 -10.16) (end 8.89 10.16) (layer F.SilkS) (width 0.15))
  (fp_line (start 8.89 10.16) (end -13.97 10.16) (layer F.SilkS) (width 0.15))
  (fp_line (start -13.97 10.16) (end -13.97 -10.16) (layer F.SilkS) (width 0.15))
  (fp_line (start -13.97 -10.16) (end 8.89 -10.16) (layer F.SilkS) (width 0.15))
  (pad 1 thru_hole circle (at -5.08 -5.08) (size 1.5 1.5) (drill 1) (layers *.Cu *.Mask F.SilkS))
  (pad 2 thru_hole circle (at -5.08 -2.54) (size 1.5 1.5) (drill 1) (layers *.Cu *.Mask F.SilkS))
  (pad 3 thru_hole circle (at -5.08 0) (size 1.5 1.5) (drill 1) (layers *.Cu *.Mask F.SilkS))
  (pad 4 thru_hole circle (at -5.08 2.54) (size 1.5 1.5) (drill 1) (layers *.Cu *.Mask F.SilkS))
  (pad 5 thru_hole circle (at -5.08 5.08) (size 1.5 1.5) (drill 1) (layers *.Cu *.Mask F.SilkS))
  (pad 6 thru_hole circle (at -2.54 -5.08) (size 1.5 1.5) (drill 1) (layers *.Cu *.Mask F.SilkS))
  (pad 7 thru_hole circle (at -2.54 -2.54) (size 1.5 1.5) (drill 1) (layers *.Cu *.Mask F.SilkS))
  (pad 8 thru_hole circle (at -2.54 0) (size 1.5 1.5) (drill 1) (layers *.Cu *.Mask F.SilkS))
  (pad 9 thru_hole circle (at -2.54 2.54) (size 1.5 1.5) (drill 1) (layers *.Cu *.Mask F.SilkS))
  (pad 10 thru_hole circle (at -2.54 5.08) (size 1.5 1.5) (drill 1) (layers *.Cu *.Mask F.SilkS))
  (pad 11 thru_hole circle (at 0 -5.08) (size 1.5 1.5) (drill 1) (layers *.Cu *.Mask F.SilkS))
  (pad 12 thru_hole circle (at 0 -2.54) (size 1.5 1.5) (drill 1) (layers *.Cu *.Mask F.SilkS))
  (pad 13 thru_hole circle (at 0 0) (size 1.5 1.5) (drill 1) (layers *.Cu *.Mask F.SilkS))
  (pad 14 thru_hole circle (at 0 2.54) (size 1.5 1.5) (drill 1) (layers *.Cu *.Mask F.SilkS))
  (pad 15 thru_hole circle (at 0 5.08) (size 1.5 1.5) (drill 1) (layers *.Cu *.Mask F.SilkS))
  (pad 16 thru_hole circle (at 2.54 -5.08) (size 1.5 1.5) (drill 1) (layers *.Cu *.Mask F.SilkS))
  (pad 17 thru_hole circle (at 2.54 -2.54) (size 1.5 1.5) (drill 1) (layers *.Cu *.Mask F.SilkS))
  (pad 18 thru_hole circle (at 2.54 0) (size 1.5 1.5) (drill 1) (layers *.Cu *.Mask F.SilkS))
  (pad 19 thru_hole circle (at 2.54 2.54) (size 1.5 1.5) (drill 1) (layers *.Cu *.Mask F.SilkS))
  (pad 20 thru_hole circle (at 2.54 5.08) (size 1.5 1.5) (drill 1) (layers *.Cu *.Mask F.SilkS))
  (pad 21 thru_hole circle (at 5.08 -5.08) (size 1.5 1.5) (drill 1) (layers *.Cu *.Mask F.SilkS))
  (pad 21 thru_hole circle (at 5.08 -2.54) (size 1.5 1.5) (drill 1) (layers *.Cu *.Mask F.SilkS))
  (pad 21 thru_hole circle (at 5.08 0) (size 1.5 1.5) (drill 1) (layers *.Cu *.Mask F.SilkS))
  (pad 21 thru_hole circle (at 5.08 2.54) (size 1.5 1.5) (drill 1) (layers *.Cu *.Mask F.SilkS))
  (pad 21 thru_hole circle (at 5.08 5.08) (size 1.5 1.5) (drill 1) (layers *.Cu *.Mask F.SilkS))
)
