(module VFQFPN36 (layer F.Cu) (tedit 55637E4A)
  (descr "Support CMS Plcc 32 pins")
  (tags "CMS Plcc")
  (attr smd)
  (fp_text reference VFQFPN36 (at 0.2 -4) (layer F.SilkS)
    (effects (font (size 0.762 0.762) (thickness 0.1524)))
  )
  (fp_text value Val** (at 2 4.2) (layer F.SilkS)
    (effects (font (size 0.762 0.762) (thickness 0.1524)))
  )
  (fp_line (start -2.4 3.4) (end 3.4 3.4) (layer F.SilkS) (width 0.15))
  (fp_line (start 3.4 3.4) (end 3.4 -3.4) (layer F.SilkS) (width 0.15))
  (fp_line (start 3.4 -3.4) (end -3.4 -3.4) (layer F.SilkS) (width 0.15))
  (fp_line (start -3.4 -3.4) (end -3.4 2.4) (layer F.SilkS) (width 0.15))
  (fp_line (start -3.4 2.4) (end -2.4 3.4) (layer F.SilkS) (width 0.15))
  (pad 36 smd rect (at -2.775 2 90) (size 0.3 0.75) (layers F.Cu F.Paste F.Mask))
  (pad 35 smd rect (at -2.775 1.5 90) (size 0.3 0.75) (layers F.Cu F.Paste F.Mask))
  (pad 34 smd rect (at -2.775 1 90) (size 0.3 0.75) (layers F.Cu F.Paste F.Mask))
  (pad 33 smd rect (at -2.775 0.5 90) (size 0.3 0.75) (layers F.Cu F.Paste F.Mask))
  (pad 32 smd rect (at -2.775 0 90) (size 0.3 0.75) (layers F.Cu F.Paste F.Mask))
  (pad 31 smd rect (at -2.775 -0.5 90) (size 0.3 0.75) (layers F.Cu F.Paste F.Mask))
  (pad 30 smd rect (at -2.775 -1 90) (size 0.3 0.75) (layers F.Cu F.Paste F.Mask))
  (pad 29 smd rect (at -2.775 -1.5 90) (size 0.3 0.75) (layers F.Cu F.Paste F.Mask))
  (pad 28 smd rect (at -2.775 -2 90) (size 0.3 0.75) (layers F.Cu F.Paste F.Mask))
  (pad 18 smd rect (at 2.775 -2 90) (size 0.3 0.75) (layers F.Cu F.Paste F.Mask))
  (pad 17 smd rect (at 2.775 -1.5 90) (size 0.3 0.75) (layers F.Cu F.Paste F.Mask))
  (pad 16 smd rect (at 2.775 -1 90) (size 0.3 0.75) (layers F.Cu F.Paste F.Mask))
  (pad 15 smd rect (at 2.775 -0.5 90) (size 0.3 0.75) (layers F.Cu F.Paste F.Mask))
  (pad 14 smd rect (at 2.775 0 90) (size 0.3 0.75) (layers F.Cu F.Paste F.Mask))
  (pad 13 smd rect (at 2.775 0.5 90) (size 0.3 0.75) (layers F.Cu F.Paste F.Mask))
  (pad 12 smd rect (at 2.775 1 90) (size 0.3 0.75) (layers F.Cu F.Paste F.Mask))
  (pad 11 smd rect (at 2.775 1.5 90) (size 0.3 0.75) (layers F.Cu F.Paste F.Mask))
  (pad 10 smd rect (at 2.775 2 90) (size 0.3 0.75) (layers F.Cu F.Paste F.Mask))
  (pad 19 smd rect (at 2 -2.775) (size 0.3 0.75) (layers F.Cu F.Paste F.Mask))
  (pad 20 smd rect (at 1.5 -2.775) (size 0.3 0.75) (layers F.Cu F.Paste F.Mask))
  (pad 21 smd rect (at 1 -2.775) (size 0.3 0.75) (layers F.Cu F.Paste F.Mask))
  (pad 22 smd rect (at 0.5 -2.775) (size 0.3 0.75) (layers F.Cu F.Paste F.Mask))
  (pad 23 smd rect (at 0 -2.775) (size 0.3 0.75) (layers F.Cu F.Paste F.Mask))
  (pad 24 smd rect (at -0.5 -2.775) (size 0.3 0.75) (layers F.Cu F.Paste F.Mask))
  (pad 25 smd rect (at -1 -2.775) (size 0.3 0.75) (layers F.Cu F.Paste F.Mask))
  (pad 26 smd rect (at -1.5 -2.775) (size 0.3 0.75) (layers F.Cu F.Paste F.Mask))
  (pad 27 smd rect (at -2 -2.775) (size 0.3 0.75) (layers F.Cu F.Paste F.Mask))
  (pad 1 smd rect (at -2 2.775) (size 0.3 0.75) (layers F.Cu F.Paste F.Mask))
  (pad 2 smd rect (at -1.5 2.775) (size 0.3 0.75) (layers F.Cu F.Paste F.Mask))
  (pad 3 smd rect (at -1 2.775) (size 0.3 0.75) (layers F.Cu F.Paste F.Mask))
  (pad 4 smd rect (at -0.5 2.775) (size 0.3 0.75) (layers F.Cu F.Paste F.Mask))
  (pad 5 smd rect (at 0 2.775) (size 0.3 0.75) (layers F.Cu F.Paste F.Mask))
  (pad 6 smd rect (at 0.5 2.775) (size 0.3 0.75) (layers F.Cu F.Paste F.Mask))
  (pad 7 smd rect (at 1 2.775) (size 0.3 0.75) (layers F.Cu F.Paste F.Mask))
  (pad 8 smd rect (at 1.5 2.775) (size 0.3 0.75) (layers F.Cu F.Paste F.Mask))
  (pad 9 smd rect (at 2 2.775) (size 0.3 0.75) (layers F.Cu F.Paste F.Mask))
  (pad 37 smd rect (at 0 0) (size 4.1 4.1) (layers F.Cu F.Paste F.Mask))
)
