EESchema Schematic File Version 4
LIBS:littleexp-cache
EELAYER 29 0
EELAYER END
$Descr A4 11693 8268
encoding utf-8
Sheet 1 1
Title ""
Date ""
Rev ""
Comp ""
Comment1 ""
Comment2 ""
Comment3 ""
Comment4 ""
$EndDescr
$Comp
L Interface_UART:MAX485E U101
U 1 1 5D2F4147
P 1850 5050
F 0 "U101" H 1650 5500 50  0000 C CNN
F 1 "MAX485E" H 2050 5500 50  0000 C CNN
F 2 "Package_SO:SOIC-8_3.9x4.9mm_P1.27mm" H 1850 4350 50  0001 C CNN
F 3 "https://datasheets.maximintegrated.com/en/ds/MAX1487E-MAX491E.pdf" H 1850 5100 50  0001 C CNN
	1    1850 5050
	1    0    0    -1  
$EndComp
Text Label 1400 7150 2    60   ~ 0
RS485_DATA
Text Label 1400 7250 2    60   ~ 0
I2CEXT_SDA
Text Label 1900 7250 0    60   ~ 0
I2CEXT_SCL
Text Label 1900 7350 0    60   ~ 0
EXT_INT2
Text Label 1900 7150 0    60   ~ 0
RS485_TX_EN
$Comp
L Connector_Generic:Conn_02x06_Odd_Even J101
U 1 1 5CF85BA9
P 1700 7050
F 0 "J101" H 1750 7467 50  0000 C CNN
F 1 "Conn_02x06_Odd_Even" H 1750 7376 50  0000 C CNN
F 2 "lib:TE_MICROMATCH_SMD_FEM_12PIN" H 1700 7050 50  0001 C CNN
F 3 "~" H 1700 7050 50  0001 C CNN
	1    1700 7050
	-1   0    0    -1  
$EndComp
$Comp
L power:+12V #PWR0101
U 1 1 5CF85C32
P 1200 6850
F 0 "#PWR0101" H 1200 6700 50  0001 C CNN
F 1 "+12V" V 1215 6978 50  0000 L CNN
F 2 "" H 1200 6850 50  0001 C CNN
F 3 "" H 1200 6850 50  0001 C CNN
	1    1200 6850
	0    -1   -1   0   
$EndComp
$Comp
L power:GND #PWR0106
U 1 1 5CF85DA0
P 2150 6850
F 0 "#PWR0106" H 2150 6600 50  0001 C CNN
F 1 "GND" V 2155 6722 50  0000 R CNN
F 2 "" H 2150 6850 50  0001 C CNN
F 3 "" H 2150 6850 50  0001 C CNN
	1    2150 6850
	0    -1   -1   0   
$EndComp
Wire Wire Line
	2150 6850 2050 6850
Wire Wire Line
	1900 6950 2050 6950
Wire Wire Line
	2050 6950 2050 6850
Connection ~ 2050 6850
Wire Wire Line
	2050 6850 1900 6850
Wire Wire Line
	1900 7050 2050 7050
Wire Wire Line
	2050 7050 2050 6950
Connection ~ 2050 6950
Wire Wire Line
	1200 6850 1300 6850
Wire Wire Line
	1300 6850 1300 6950
Wire Wire Line
	1300 6950 1400 6950
Connection ~ 1300 6850
Wire Wire Line
	1300 6850 1400 6850
Wire Wire Line
	1200 7050 1400 7050
Text Label 1400 7350 2    60   ~ 0
EXT_INT
$Comp
L power:+3V3 #PWR0102
U 1 1 5CFFCBDD
P 1200 7050
F 0 "#PWR0102" H 1200 6900 50  0001 C CNN
F 1 "+3V3" V 1215 7178 50  0000 L CNN
F 2 "" H 1200 7050 50  0001 C CNN
F 3 "" H 1200 7050 50  0001 C CNN
	1    1200 7050
	0    -1   -1   0   
$EndComp
Wire Wire Line
	1250 4950 1300 4950
Wire Wire Line
	1300 4950 1300 5250
Wire Wire Line
	1300 5250 1450 5250
Connection ~ 1300 4950
Wire Wire Line
	1300 4950 1450 4950
Wire Wire Line
	1150 5150 1200 5150
Wire Wire Line
	1200 5150 1200 5050
Wire Wire Line
	1200 5050 1450 5050
Connection ~ 1200 5150
Wire Wire Line
	1200 5150 1450 5150
$Comp
L power:GND #PWR0105
U 1 1 5D30E8AF
P 1850 5750
F 0 "#PWR0105" H 1850 5500 50  0001 C CNN
F 1 "GND" V 1855 5622 50  0000 R CNN
F 2 "" H 1850 5750 50  0001 C CNN
F 3 "" H 1850 5750 50  0001 C CNN
	1    1850 5750
	1    0    0    -1  
$EndComp
Wire Wire Line
	1850 5750 1850 5650
$Comp
L power:+3V3 #PWR0104
U 1 1 5D30F992
P 1850 4450
F 0 "#PWR0104" H 1850 4300 50  0001 C CNN
F 1 "+3V3" H 1865 4578 50  0000 L CNN
F 2 "" H 1850 4450 50  0001 C CNN
F 3 "" H 1850 4450 50  0001 C CNN
	1    1850 4450
	1    0    0    -1  
$EndComp
Wire Wire Line
	1850 4450 1850 4550
$Comp
L Device:R R102
U 1 1 5D3149F0
P 2700 5100
F 0 "R102" H 2770 5146 50  0000 L CNN
F 1 "120" H 2770 5055 50  0000 L CNN
F 2 "Resistor_SMD:R_0603_1608Metric" V 2630 5100 50  0001 C CNN
F 3 "~" H 2700 5100 50  0001 C CNN
	1    2700 5100
	1    0    0    -1  
$EndComp
Wire Wire Line
	2250 4950 2700 4950
Wire Wire Line
	2250 5250 2700 5250
$Comp
L power:+12V #PWR0107
U 1 1 5D3176B2
P 2100 1700
F 0 "#PWR0107" H 2100 1550 50  0001 C CNN
F 1 "+12V" V 2115 1828 50  0000 L CNN
F 2 "" H 2100 1700 50  0001 C CNN
F 3 "" H 2100 1700 50  0001 C CNN
	1    2100 1700
	1    0    0    -1  
$EndComp
Wire Wire Line
	2100 1800 2200 1800
$Comp
L power:GND #PWR0108
U 1 1 5D3186D6
P 2100 2450
F 0 "#PWR0108" H 2100 2200 50  0001 C CNN
F 1 "GND" V 2105 2322 50  0000 R CNN
F 2 "" H 2100 2450 50  0001 C CNN
F 3 "" H 2100 2450 50  0001 C CNN
	1    2100 2450
	1    0    0    -1  
$EndComp
$Comp
L Device:C C105
U 1 1 5D319347
P 3750 1800
F 0 "C105" V 3498 1800 50  0000 C CNN
F 1 "100n" V 3589 1800 50  0000 C CNN
F 2 "Capacitor_SMD:C_0603_1608Metric" H 3788 1650 50  0001 C CNN
F 3 "~" H 3750 1800 50  0001 C CNN
	1    3750 1800
	0    1    1    0   
$EndComp
Wire Wire Line
	3450 1800 3600 1800
Wire Wire Line
	4000 2000 4000 1800
Wire Wire Line
	4000 1800 3900 1800
$Comp
L Device:L L101
U 1 1 5D31A216
P 4300 1800
F 0 "L101" V 4490 1800 50  0000 C CNN
F 1 "4.7u" V 4399 1800 50  0000 C CNN
F 2 "Inductor_SMD:L_Wuerth_HCI-7040" H 4300 1800 50  0001 C CNN
F 3 "~" H 4300 1800 50  0001 C CNN
	1    4300 1800
	0    -1   -1   0   
$EndComp
Wire Wire Line
	4000 1800 4100 1800
Connection ~ 4000 1800
$Comp
L Device:D_Schottky D101
U 1 1 5D31AEA8
P 4100 2050
F 0 "D101" V 4054 2129 50  0000 L CNN
F 1 "D_Schottky" V 4145 2129 50  0000 L CNN
F 2 "Diode_SMD:D_SMC" H 4100 2050 50  0001 C CNN
F 3 "~" H 4100 2050 50  0001 C CNN
	1    4100 2050
	0    1    1    0   
$EndComp
Wire Wire Line
	4100 1800 4100 1900
Connection ~ 4100 1800
Wire Wire Line
	4100 1800 4150 1800
$Comp
L power:GND #PWR0114
U 1 1 5D31C5D7
P 4100 2300
F 0 "#PWR0114" H 4100 2050 50  0001 C CNN
F 1 "GND" V 4105 2172 50  0000 R CNN
F 2 "" H 4100 2300 50  0001 C CNN
F 3 "" H 4100 2300 50  0001 C CNN
	1    4100 2300
	1    0    0    -1  
$EndComp
Wire Wire Line
	4100 2300 4100 2200
$Comp
L power:+6V #PWR0115
U 1 1 5D31CF4B
P 4750 1650
F 0 "#PWR0115" H 4750 1500 50  0001 C CNN
F 1 "+6V" H 4765 1823 50  0000 C CNN
F 2 "" H 4750 1650 50  0001 C CNN
F 3 "" H 4750 1650 50  0001 C CNN
	1    4750 1650
	1    0    0    -1  
$EndComp
Wire Wire Line
	4750 1650 4750 1800
Wire Wire Line
	4750 1800 4450 1800
$Comp
L Device:R R103
U 1 1 5D31DA80
P 4750 1950
F 0 "R103" H 4820 1996 50  0000 L CNN
F 1 "R" H 4820 1905 50  0000 L CNN
F 2 "Resistor_SMD:R_0603_1608Metric" V 4680 1950 50  0001 C CNN
F 3 "~" H 4750 1950 50  0001 C CNN
	1    4750 1950
	1    0    0    -1  
$EndComp
Connection ~ 4750 1800
$Comp
L Device:R R104
U 1 1 5D31E861
P 4750 2350
F 0 "R104" H 4820 2396 50  0000 L CNN
F 1 "R" H 4820 2305 50  0000 L CNN
F 2 "Resistor_SMD:R_0603_1608Metric" V 4680 2350 50  0001 C CNN
F 3 "~" H 4750 2350 50  0001 C CNN
	1    4750 2350
	1    0    0    -1  
$EndComp
Wire Wire Line
	4750 2100 4750 2200
$Comp
L power:GND #PWR0116
U 1 1 5D31F19C
P 4750 2600
F 0 "#PWR0116" H 4750 2350 50  0001 C CNN
F 1 "GND" V 4755 2472 50  0000 R CNN
F 2 "" H 4750 2600 50  0001 C CNN
F 3 "" H 4750 2600 50  0001 C CNN
	1    4750 2600
	1    0    0    -1  
$EndComp
Wire Wire Line
	4750 2600 4750 2500
Text Label 4750 2150 0    50   ~ 0
FB
Text Label 3450 2200 0    50   ~ 0
FB
Wire Wire Line
	2200 1900 2100 1900
Wire Wire Line
	2100 1900 2100 1800
$Comp
L Device:C C103
U 1 1 5D3211DA
P 1800 2100
F 0 "C103" H 1915 2146 50  0000 L CNN
F 1 "10n" H 1915 2055 50  0000 L CNN
F 2 "Capacitor_SMD:C_0603_1608Metric" H 1838 1950 50  0001 C CNN
F 3 "~" H 1800 2100 50  0001 C CNN
	1    1800 2100
	1    0    0    -1  
$EndComp
$Comp
L Device:C C102
U 1 1 5D321BFB
P 1400 2150
F 0 "C102" H 1515 2196 50  0000 L CNN
F 1 "22p" H 1515 2105 50  0000 L CNN
F 2 "Capacitor_SMD:C_0603_1608Metric" H 1438 2000 50  0001 C CNN
F 3 "~" H 1400 2150 50  0001 C CNN
	1    1400 2150
	1    0    0    -1  
$EndComp
$Comp
L Device:C C101
U 1 1 5D321E2E
P 1100 1800
F 0 "C101" V 848 1800 50  0000 C CNN
F 1 "2.2n" V 939 1800 50  0000 C CNN
F 2 "Capacitor_SMD:C_0603_1608Metric" H 1138 1650 50  0001 C CNN
F 3 "~" H 1100 1800 50  0001 C CNN
	1    1100 1800
	0    1    1    0   
$EndComp
$Comp
L Device:R R101
U 1 1 5D322E45
P 800 2150
F 0 "R101" H 870 2196 50  0000 L CNN
F 1 "37.4k" H 870 2105 50  0000 L CNN
F 2 "Resistor_SMD:R_0603_1608Metric" V 730 2150 50  0001 C CNN
F 3 "~" H 800 2150 50  0001 C CNN
	1    800  2150
	1    0    0    -1  
$EndComp
$Comp
L power:GND #PWR0103
U 1 1 5D322FE8
P 1100 2450
F 0 "#PWR0103" H 1100 2200 50  0001 C CNN
F 1 "GND" V 1105 2322 50  0000 R CNN
F 2 "" H 1100 2450 50  0001 C CNN
F 3 "" H 1100 2450 50  0001 C CNN
	1    1100 2450
	1    0    0    -1  
$EndComp
Wire Wire Line
	1250 1800 1400 1800
Wire Wire Line
	1400 2000 1400 1800
Wire Wire Line
	1400 2300 1400 2400
Wire Wire Line
	1400 2400 1100 2400
Wire Wire Line
	1100 2400 1100 2450
Wire Wire Line
	1100 2400 800  2400
Wire Wire Line
	800  2400 800  2300
Connection ~ 1100 2400
Wire Wire Line
	800  2000 800  1800
Wire Wire Line
	800  1800 950  1800
$Comp
L Device:C C106
U 1 1 5D3284DC
P 5250 2100
F 0 "C106" H 5365 2146 50  0000 L CNN
F 1 "47u" H 5365 2055 50  0000 L CNN
F 2 "Capacitor_THT:C_Radial_D6.3mm_H11.0mm_P2.50mm" H 5288 1950 50  0001 C CNN
F 3 "~" H 5250 2100 50  0001 C CNN
	1    5250 2100
	1    0    0    -1  
$EndComp
$Comp
L power:GND #PWR0119
U 1 1 5D328928
P 5250 2350
F 0 "#PWR0119" H 5250 2100 50  0001 C CNN
F 1 "GND" V 5255 2222 50  0000 R CNN
F 2 "" H 5250 2350 50  0001 C CNN
F 3 "" H 5250 2350 50  0001 C CNN
	1    5250 2350
	1    0    0    -1  
$EndComp
Wire Wire Line
	5250 2350 5250 2250
Wire Wire Line
	5250 1950 5250 1800
Wire Wire Line
	5250 1800 4750 1800
$Comp
L Connector_Generic:Conn_01x06 J102
U 1 1 5D32BCCA
P 3350 7050
F 0 "J102" H 3268 7467 50  0000 C CNN
F 1 "Conn_01x06" H 3268 7376 50  0000 C CNN
F 2 "Connector_PinHeader_2.54mm:PinHeader_1x06_P2.54mm_Vertical" H 3350 7050 50  0001 C CNN
F 3 "~" H 3350 7050 50  0001 C CNN
	1    3350 7050
	-1   0    0    -1  
$EndComp
$Comp
L power:GND #PWR0111
U 1 1 5D32D2DA
P 3650 6850
F 0 "#PWR0111" H 3650 6600 50  0001 C CNN
F 1 "GND" V 3655 6722 50  0000 R CNN
F 2 "" H 3650 6850 50  0001 C CNN
F 3 "" H 3650 6850 50  0001 C CNN
	1    3650 6850
	0    -1   -1   0   
$EndComp
Wire Wire Line
	3650 6850 3550 6850
Text Label 3550 6950 0    50   ~ 0
OE
Text Label 3550 7050 0    60   ~ 0
I2CEXT_SCL
Text Label 3550 7150 0    60   ~ 0
I2CEXT_SDA
$Comp
L power:+3V3 #PWR0112
U 1 1 5D32FC1E
P 3650 7250
F 0 "#PWR0112" H 3650 7100 50  0001 C CNN
F 1 "+3V3" V 3665 7378 50  0000 L CNN
F 2 "" H 3650 7250 50  0001 C CNN
F 3 "" H 3650 7250 50  0001 C CNN
	1    3650 7250
	0    1    1    0   
$EndComp
Wire Wire Line
	3650 7250 3550 7250
$Comp
L power:+6V #PWR0113
U 1 1 5D331D67
P 3650 7350
F 0 "#PWR0113" H 3650 7200 50  0001 C CNN
F 1 "+6V" V 3665 7478 50  0000 L CNN
F 2 "" H 3650 7350 50  0001 C CNN
F 3 "" H 3650 7350 50  0001 C CNN
	1    3650 7350
	0    1    1    0   
$EndComp
Wire Wire Line
	3650 7350 3550 7350
Text Label 1250 4950 2    60   ~ 0
RS485_DATA
Text Label 1150 5150 2    60   ~ 0
RS485_TX_EN
$Comp
L Device:C C104
U 1 1 5D3382C6
P 3350 5050
F 0 "C104" H 3465 5096 50  0000 L CNN
F 1 "100n" H 3465 5005 50  0000 L CNN
F 2 "Capacitor_SMD:C_0603_1608Metric" H 3388 4900 50  0001 C CNN
F 3 "~" H 3350 5050 50  0001 C CNN
	1    3350 5050
	1    0    0    -1  
$EndComp
$Comp
L power:+3V3 #PWR0109
U 1 1 5D33889F
P 3350 4900
F 0 "#PWR0109" H 3350 4750 50  0001 C CNN
F 1 "+3V3" H 3365 5028 50  0000 L CNN
F 2 "" H 3350 4900 50  0001 C CNN
F 3 "" H 3350 4900 50  0001 C CNN
	1    3350 4900
	1    0    0    -1  
$EndComp
$Comp
L power:GND #PWR0110
U 1 1 5D338CCE
P 3350 5200
F 0 "#PWR0110" H 3350 4950 50  0001 C CNN
F 1 "GND" V 3355 5072 50  0000 R CNN
F 2 "" H 3350 5200 50  0001 C CNN
F 3 "" H 3350 5200 50  0001 C CNN
	1    3350 5200
	1    0    0    -1  
$EndComp
Text Label 2450 5250 0    50   ~ 0
A
Text Label 2450 4950 0    50   ~ 0
B
$Comp
L Connector_Generic:Conn_02x02_Odd_Even J103
U 1 1 5D33FF4D
P 5400 5450
F 0 "J103" H 5450 5667 50  0000 C CNN
F 1 "Conn_02x02_Odd_Even" H 5450 5576 50  0000 C CNN
F 2 "lib:PIN_ARRAY_2X2_FUTABA" H 5400 5450 50  0001 C CNN
F 3 "~" H 5400 5450 50  0001 C CNN
	1    5400 5450
	1    0    0    -1  
$EndComp
Text Label 5200 5450 2    50   ~ 0
A
Text Label 5700 5450 0    50   ~ 0
B
$Comp
L power:GND #PWR0117
U 1 1 5D340D9E
P 5200 5550
F 0 "#PWR0117" H 5200 5300 50  0001 C CNN
F 1 "GND" V 5205 5422 50  0000 R CNN
F 2 "" H 5200 5550 50  0001 C CNN
F 3 "" H 5200 5550 50  0001 C CNN
	1    5200 5550
	0    1    1    0   
$EndComp
$Comp
L power:+6V #PWR0120
U 1 1 5D342C08
P 5700 5550
F 0 "#PWR0120" H 5700 5400 50  0001 C CNN
F 1 "+6V" V 5715 5678 50  0000 L CNN
F 2 "" H 5700 5550 50  0001 C CNN
F 3 "" H 5700 5550 50  0001 C CNN
	1    5700 5550
	0    1    1    0   
$EndComp
$Comp
L Connector_Generic:Conn_02x02_Odd_Even J104
U 1 1 5D345A8D
P 5400 5850
F 0 "J104" H 5450 6067 50  0000 C CNN
F 1 "Conn_02x02_Odd_Even" H 5450 5976 50  0000 C CNN
F 2 "lib:PIN_ARRAY_2X2_FUTABA" H 5400 5850 50  0001 C CNN
F 3 "~" H 5400 5850 50  0001 C CNN
	1    5400 5850
	1    0    0    -1  
$EndComp
Text Label 5200 5850 2    50   ~ 0
A
Text Label 5700 5850 0    50   ~ 0
B
$Comp
L power:GND #PWR0118
U 1 1 5D345A99
P 5200 5950
F 0 "#PWR0118" H 5200 5700 50  0001 C CNN
F 1 "GND" V 5205 5822 50  0000 R CNN
F 2 "" H 5200 5950 50  0001 C CNN
F 3 "" H 5200 5950 50  0001 C CNN
	1    5200 5950
	0    1    1    0   
$EndComp
$Comp
L power:+6V #PWR0121
U 1 1 5D345AA3
P 5700 5950
F 0 "#PWR0121" H 5700 5800 50  0001 C CNN
F 1 "+6V" V 5715 6078 50  0000 L CNN
F 2 "" H 5700 5950 50  0001 C CNN
F 3 "" H 5700 5950 50  0001 C CNN
	1    5700 5950
	0    1    1    0   
$EndComp
$Comp
L Connector_Generic:Conn_02x02_Odd_Even J105
U 1 1 5D34B939
P 6500 5450
F 0 "J105" H 6550 5667 50  0000 C CNN
F 1 "Conn_02x02_Odd_Even" H 6550 5576 50  0000 C CNN
F 2 "lib:PIN_ARRAY_2X2_FUTABA" H 6500 5450 50  0001 C CNN
F 3 "~" H 6500 5450 50  0001 C CNN
	1    6500 5450
	1    0    0    -1  
$EndComp
Text Label 6300 5450 2    50   ~ 0
A
Text Label 6800 5450 0    50   ~ 0
B
$Comp
L power:GND #PWR0122
U 1 1 5D34B945
P 6300 5550
F 0 "#PWR0122" H 6300 5300 50  0001 C CNN
F 1 "GND" V 6305 5422 50  0000 R CNN
F 2 "" H 6300 5550 50  0001 C CNN
F 3 "" H 6300 5550 50  0001 C CNN
	1    6300 5550
	0    1    1    0   
$EndComp
$Comp
L power:+6V #PWR0124
U 1 1 5D34B94F
P 6800 5550
F 0 "#PWR0124" H 6800 5400 50  0001 C CNN
F 1 "+6V" V 6815 5678 50  0000 L CNN
F 2 "" H 6800 5550 50  0001 C CNN
F 3 "" H 6800 5550 50  0001 C CNN
	1    6800 5550
	0    1    1    0   
$EndComp
$Comp
L Connector_Generic:Conn_02x02_Odd_Even J106
U 1 1 5D34B959
P 6500 5850
F 0 "J106" H 6550 6067 50  0000 C CNN
F 1 "Conn_02x02_Odd_Even" H 6550 5976 50  0000 C CNN
F 2 "lib:PIN_ARRAY_2X2_FUTABA" H 6500 5850 50  0001 C CNN
F 3 "~" H 6500 5850 50  0001 C CNN
	1    6500 5850
	1    0    0    -1  
$EndComp
Text Label 6300 5850 2    50   ~ 0
A
Text Label 6800 5850 0    50   ~ 0
B
$Comp
L power:GND #PWR0123
U 1 1 5D34B965
P 6300 5950
F 0 "#PWR0123" H 6300 5700 50  0001 C CNN
F 1 "GND" V 6305 5822 50  0000 R CNN
F 2 "" H 6300 5950 50  0001 C CNN
F 3 "" H 6300 5950 50  0001 C CNN
	1    6300 5950
	0    1    1    0   
$EndComp
$Comp
L power:+6V #PWR0125
U 1 1 5D34B96F
P 6800 5950
F 0 "#PWR0125" H 6800 5800 50  0001 C CNN
F 1 "+6V" V 6815 6078 50  0000 L CNN
F 2 "" H 6800 5950 50  0001 C CNN
F 3 "" H 6800 5950 50  0001 C CNN
	1    6800 5950
	0    1    1    0   
$EndComp
$Comp
L Connector_Generic:Conn_02x02_Odd_Even J107
U 1 1 5D356A8A
P 7650 5450
F 0 "J107" H 7700 5667 50  0000 C CNN
F 1 "Conn_02x02_Odd_Even" H 7700 5576 50  0000 C CNN
F 2 "lib:PIN_ARRAY_2X2_FUTABA" H 7650 5450 50  0001 C CNN
F 3 "~" H 7650 5450 50  0001 C CNN
	1    7650 5450
	1    0    0    -1  
$EndComp
Text Label 7450 5450 2    50   ~ 0
A
Text Label 7950 5450 0    50   ~ 0
B
$Comp
L power:GND #PWR0126
U 1 1 5D356A96
P 7450 5550
F 0 "#PWR0126" H 7450 5300 50  0001 C CNN
F 1 "GND" V 7455 5422 50  0000 R CNN
F 2 "" H 7450 5550 50  0001 C CNN
F 3 "" H 7450 5550 50  0001 C CNN
	1    7450 5550
	0    1    1    0   
$EndComp
$Comp
L power:+6V #PWR0127
U 1 1 5D356AA0
P 7950 5550
F 0 "#PWR0127" H 7950 5400 50  0001 C CNN
F 1 "+6V" V 7965 5678 50  0000 L CNN
F 2 "" H 7950 5550 50  0001 C CNN
F 3 "" H 7950 5550 50  0001 C CNN
	1    7950 5550
	0    1    1    0   
$EndComp
$Comp
L crap:MCP23018 U103
U 1 1 5D2F404F
P 8900 1800
F 0 "U103" H 8600 2350 50  0000 C CNN
F 1 "MCP23018" H 9150 2350 50  0000 C CNN
F 2 "Package_DFN_QFN:VQFN-24-1EP_4x4mm_P0.5mm_EP2.45x2.45mm" H 8900 900 50  0001 L CNN
F 3 "" H 9150 2400 50  0001 C CNN
	1    8900 1800
	1    0    0    -1  
$EndComp
Text Label 8400 2400 2    60   ~ 0
I2CEXT_SCL
Text Label 8400 2500 2    60   ~ 0
I2CEXT_SDA
$Comp
L power:GND #PWR0129
U 1 1 5D2FCEE3
P 8250 2950
F 0 "#PWR0129" H 8250 2700 50  0001 C CNN
F 1 "GND" H 8255 2777 50  0000 C CNN
F 2 "" H 8250 2950 50  0001 C CNN
F 3 "" H 8250 2950 50  0001 C CNN
	1    8250 2950
	1    0    0    -1  
$EndComp
Wire Wire Line
	8250 2950 8250 2850
Wire Wire Line
	8250 2600 8400 2600
Wire Wire Line
	8250 2850 8850 2850
Wire Wire Line
	8850 2850 8850 2750
Connection ~ 8250 2850
Wire Wire Line
	8250 2850 8250 2600
Wire Wire Line
	8850 2850 8950 2850
Wire Wire Line
	8950 2850 8950 2750
Connection ~ 8850 2850
$Comp
L power:+3.3V #PWR0130
U 1 1 5D300DE4
P 8900 1200
F 0 "#PWR0130" H 8900 1050 50  0001 C CNN
F 1 "+3.3V" H 8915 1373 50  0000 C CNN
F 2 "" H 8900 1200 50  0001 C CNN
F 3 "" H 8900 1200 50  0001 C CNN
	1    8900 1200
	1    0    0    -1  
$EndComp
$Comp
L Connector_Generic:Conn_02x10_Odd_Even J109
U 1 1 5D304A15
P 9750 1800
F 0 "J109" H 9800 2417 50  0000 C CNN
F 1 "Conn_02x10_Odd_Even" H 9800 2326 50  0000 C CNN
F 2 "Connector_PinHeader_2.54mm:PinHeader_2x10_P2.54mm_Vertical" H 9750 1800 50  0001 C CNN
F 3 "~" H 9750 1800 50  0001 C CNN
	1    9750 1800
	1    0    0    -1  
$EndComp
$Comp
L Device:R R115
U 1 1 5D305F19
P 10200 1400
F 0 "R115" V 9993 1400 50  0000 C CNN
F 1 "R" V 10084 1400 50  0000 C CNN
F 2 "Resistor_SMD:R_0603_1608Metric" V 10130 1400 50  0001 C CNN
F 3 "~" H 10200 1400 50  0001 C CNN
	1    10200 1400
	0    1    1    0   
$EndComp
$Comp
L Device:R R116
U 1 1 5D30653A
P 10200 1500
F 0 "R116" V 9993 1500 50  0000 C CNN
F 1 "R" V 10084 1500 50  0000 C CNN
F 2 "Resistor_SMD:R_0603_1608Metric" V 10130 1500 50  0001 C CNN
F 3 "~" H 10200 1500 50  0001 C CNN
	1    10200 1500
	0    1    1    0   
$EndComp
$Comp
L Device:R R117
U 1 1 5D3066EE
P 10200 1600
F 0 "R117" V 9993 1600 50  0000 C CNN
F 1 "R" V 10084 1600 50  0000 C CNN
F 2 "Resistor_SMD:R_0603_1608Metric" V 10130 1600 50  0001 C CNN
F 3 "~" H 10200 1600 50  0001 C CNN
	1    10200 1600
	0    1    1    0   
$EndComp
$Comp
L Device:R R118
U 1 1 5D3068C3
P 10200 1700
F 0 "R118" V 9993 1700 50  0000 C CNN
F 1 "R" V 10084 1700 50  0000 C CNN
F 2 "Resistor_SMD:R_0603_1608Metric" V 10130 1700 50  0001 C CNN
F 3 "~" H 10200 1700 50  0001 C CNN
	1    10200 1700
	0    1    1    0   
$EndComp
$Comp
L Device:R R119
U 1 1 5D306A99
P 10200 1800
F 0 "R119" V 9993 1800 50  0000 C CNN
F 1 "R" V 10084 1800 50  0000 C CNN
F 2 "Resistor_SMD:R_0603_1608Metric" V 10130 1800 50  0001 C CNN
F 3 "~" H 10200 1800 50  0001 C CNN
	1    10200 1800
	0    1    1    0   
$EndComp
$Comp
L Device:R R120
U 1 1 5D306C7B
P 10200 1900
F 0 "R120" V 9993 1900 50  0000 C CNN
F 1 "R" V 10084 1900 50  0000 C CNN
F 2 "Resistor_SMD:R_0603_1608Metric" V 10130 1900 50  0001 C CNN
F 3 "~" H 10200 1900 50  0001 C CNN
	1    10200 1900
	0    1    1    0   
$EndComp
$Comp
L Device:R R121
U 1 1 5D306E98
P 10200 2000
F 0 "R121" V 9993 2000 50  0000 C CNN
F 1 "R" V 10084 2000 50  0000 C CNN
F 2 "Resistor_SMD:R_0603_1608Metric" V 10130 2000 50  0001 C CNN
F 3 "~" H 10200 2000 50  0001 C CNN
	1    10200 2000
	0    1    1    0   
$EndComp
$Comp
L Device:R R122
U 1 1 5D3070B7
P 10200 2100
F 0 "R122" V 9993 2100 50  0000 C CNN
F 1 "R" V 10084 2100 50  0000 C CNN
F 2 "Resistor_SMD:R_0603_1608Metric" V 10130 2100 50  0001 C CNN
F 3 "~" H 10200 2100 50  0001 C CNN
	1    10200 2100
	0    1    1    0   
$EndComp
$Comp
L Device:R R123
U 1 1 5D3072FB
P 10200 2200
F 0 "R123" V 9993 2200 50  0000 C CNN
F 1 "R" V 10084 2200 50  0000 C CNN
F 2 "Resistor_SMD:R_0603_1608Metric" V 10130 2200 50  0001 C CNN
F 3 "~" H 10200 2200 50  0001 C CNN
	1    10200 2200
	0    1    1    0   
$EndComp
$Comp
L Device:R R124
U 1 1 5D3074FE
P 10200 2300
F 0 "R124" V 9993 2300 50  0000 C CNN
F 1 "R" V 10084 2300 50  0000 C CNN
F 2 "Resistor_SMD:R_0603_1608Metric" V 10130 2300 50  0001 C CNN
F 3 "~" H 10200 2300 50  0001 C CNN
	1    10200 2300
	0    1    1    0   
$EndComp
Wire Wire Line
	10350 2300 10350 2200
Connection ~ 10350 1400
Wire Wire Line
	10350 1400 10350 1250
Connection ~ 10350 1500
Wire Wire Line
	10350 1500 10350 1400
Connection ~ 10350 1600
Wire Wire Line
	10350 1600 10350 1500
Connection ~ 10350 1700
Wire Wire Line
	10350 1700 10350 1600
Connection ~ 10350 1800
Wire Wire Line
	10350 1800 10350 1700
Connection ~ 10350 1900
Wire Wire Line
	10350 1900 10350 1800
Connection ~ 10350 2000
Wire Wire Line
	10350 2000 10350 1900
Connection ~ 10350 2100
Wire Wire Line
	10350 2100 10350 2000
Connection ~ 10350 2200
Wire Wire Line
	10350 2200 10350 2100
$Comp
L power:+3.3V #PWR0131
U 1 1 5D30A0D6
P 10350 1250
F 0 "#PWR0131" H 10350 1100 50  0001 C CNN
F 1 "+3.3V" H 10365 1423 50  0000 C CNN
F 2 "" H 10350 1250 50  0001 C CNN
F 3 "" H 10350 1250 50  0001 C CNN
	1    10350 1250
	1    0    0    -1  
$EndComp
Wire Wire Line
	9400 1400 9550 1400
Wire Wire Line
	9550 1500 9400 1500
Wire Wire Line
	9400 1600 9550 1600
Wire Wire Line
	9550 1700 9400 1700
Wire Wire Line
	9400 1800 9550 1800
Wire Wire Line
	9550 1900 9400 1900
Wire Wire Line
	9400 2000 9550 2000
Wire Wire Line
	9550 2100 9450 2100
Wire Wire Line
	9450 2100 9450 2200
Wire Wire Line
	9450 2200 9550 2200
Connection ~ 9450 2100
Wire Wire Line
	9450 2100 9400 2100
Wire Wire Line
	9450 2200 9450 2300
Wire Wire Line
	9450 2300 9550 2300
Connection ~ 9450 2200
$Comp
L Connector_Generic:Conn_02x10_Odd_Even J108
U 1 1 5D327C72
P 8050 1700
F 0 "J108" H 8100 2317 50  0000 C CNN
F 1 "Conn_02x10_Odd_Even" H 8100 2226 50  0000 C CNN
F 2 "Connector_PinHeader_2.54mm:PinHeader_2x10_P2.54mm_Vertical" H 8050 1700 50  0001 C CNN
F 3 "~" H 8050 1700 50  0001 C CNN
	1    8050 1700
	-1   0    0    1   
$EndComp
$Comp
L Device:R R105
U 1 1 5D327C7C
P 7600 2100
F 0 "R105" V 7393 2100 50  0000 C CNN
F 1 "R" V 7484 2100 50  0000 C CNN
F 2 "Resistor_SMD:R_0603_1608Metric" V 7530 2100 50  0001 C CNN
F 3 "~" H 7600 2100 50  0001 C CNN
	1    7600 2100
	0    -1   -1   0   
$EndComp
$Comp
L Device:R R106
U 1 1 5D327C86
P 7600 2000
F 0 "R106" V 7393 2000 50  0000 C CNN
F 1 "R" V 7484 2000 50  0000 C CNN
F 2 "Resistor_SMD:R_0603_1608Metric" V 7530 2000 50  0001 C CNN
F 3 "~" H 7600 2000 50  0001 C CNN
	1    7600 2000
	0    -1   -1   0   
$EndComp
$Comp
L Device:R R107
U 1 1 5D327C90
P 7600 1900
F 0 "R107" V 7393 1900 50  0000 C CNN
F 1 "R" V 7484 1900 50  0000 C CNN
F 2 "Resistor_SMD:R_0603_1608Metric" V 7530 1900 50  0001 C CNN
F 3 "~" H 7600 1900 50  0001 C CNN
	1    7600 1900
	0    -1   -1   0   
$EndComp
$Comp
L Device:R R108
U 1 1 5D327C9A
P 7600 1800
F 0 "R108" V 7393 1800 50  0000 C CNN
F 1 "R" V 7484 1800 50  0000 C CNN
F 2 "Resistor_SMD:R_0603_1608Metric" V 7530 1800 50  0001 C CNN
F 3 "~" H 7600 1800 50  0001 C CNN
	1    7600 1800
	0    -1   -1   0   
$EndComp
$Comp
L Device:R R109
U 1 1 5D327CA4
P 7600 1700
F 0 "R109" V 7393 1700 50  0000 C CNN
F 1 "R" V 7484 1700 50  0000 C CNN
F 2 "Resistor_SMD:R_0603_1608Metric" V 7530 1700 50  0001 C CNN
F 3 "~" H 7600 1700 50  0001 C CNN
	1    7600 1700
	0    -1   -1   0   
$EndComp
$Comp
L Device:R R110
U 1 1 5D327CAE
P 7600 1600
F 0 "R110" V 7393 1600 50  0000 C CNN
F 1 "R" V 7484 1600 50  0000 C CNN
F 2 "Resistor_SMD:R_0603_1608Metric" V 7530 1600 50  0001 C CNN
F 3 "~" H 7600 1600 50  0001 C CNN
	1    7600 1600
	0    -1   -1   0   
$EndComp
$Comp
L Device:R R111
U 1 1 5D327CB8
P 7600 1500
F 0 "R111" V 7393 1500 50  0000 C CNN
F 1 "R" V 7484 1500 50  0000 C CNN
F 2 "Resistor_SMD:R_0603_1608Metric" V 7530 1500 50  0001 C CNN
F 3 "~" H 7600 1500 50  0001 C CNN
	1    7600 1500
	0    -1   -1   0   
$EndComp
$Comp
L Device:R R112
U 1 1 5D327CC2
P 7600 1400
F 0 "R112" V 7393 1400 50  0000 C CNN
F 1 "R" V 7484 1400 50  0000 C CNN
F 2 "Resistor_SMD:R_0603_1608Metric" V 7530 1400 50  0001 C CNN
F 3 "~" H 7600 1400 50  0001 C CNN
	1    7600 1400
	0    -1   -1   0   
$EndComp
$Comp
L Device:R R113
U 1 1 5D327CCC
P 7600 1300
F 0 "R113" V 7393 1300 50  0000 C CNN
F 1 "R" V 7484 1300 50  0000 C CNN
F 2 "Resistor_SMD:R_0603_1608Metric" V 7530 1300 50  0001 C CNN
F 3 "~" H 7600 1300 50  0001 C CNN
	1    7600 1300
	0    -1   -1   0   
$EndComp
$Comp
L Device:R R114
U 1 1 5D327CD6
P 7600 1200
F 0 "R114" V 7393 1200 50  0000 C CNN
F 1 "R" V 7484 1200 50  0000 C CNN
F 2 "Resistor_SMD:R_0603_1608Metric" V 7530 1200 50  0001 C CNN
F 3 "~" H 7600 1200 50  0001 C CNN
	1    7600 1200
	0    -1   -1   0   
$EndComp
Wire Wire Line
	7450 1200 7450 1300
Connection ~ 7450 2000
Wire Wire Line
	7450 2000 7450 2100
Connection ~ 7450 1900
Wire Wire Line
	7450 1900 7450 2000
Connection ~ 7450 1800
Wire Wire Line
	7450 1800 7450 1900
Connection ~ 7450 1700
Wire Wire Line
	7450 1700 7450 1800
Connection ~ 7450 1600
Wire Wire Line
	7450 1600 7450 1700
Connection ~ 7450 1500
Wire Wire Line
	7450 1500 7450 1600
Connection ~ 7450 1400
Wire Wire Line
	7450 1400 7450 1500
Connection ~ 7450 1300
Wire Wire Line
	7450 1300 7450 1400
$Comp
L power:+3.3V #PWR0128
U 1 1 5D327CF3
P 7450 1000
F 0 "#PWR0128" H 7450 850 50  0001 C CNN
F 1 "+3.3V" H 7465 1173 50  0000 C CNN
F 2 "" H 7450 1000 50  0001 C CNN
F 3 "" H 7450 1000 50  0001 C CNN
	1    7450 1000
	1    0    0    -1  
$EndComp
Wire Wire Line
	8250 2100 8400 2100
Wire Wire Line
	8400 2000 8250 2000
Wire Wire Line
	8250 1900 8400 1900
Wire Wire Line
	8400 1800 8250 1800
Wire Wire Line
	8250 1700 8400 1700
Wire Wire Line
	8400 1600 8250 1600
Wire Wire Line
	8250 1500 8400 1500
Wire Wire Line
	8400 1400 8350 1400
Wire Wire Line
	8350 1300 8250 1300
Wire Wire Line
	8350 1400 8250 1400
Wire Wire Line
	8350 1200 8250 1200
$Comp
L crap:TPS54531 U102
U 1 1 5D324D6C
P 2850 2300
F 0 "U102" H 2825 3087 60  0000 C CNN
F 1 "TPS54531" H 2825 2981 60  0000 C CNN
F 2 "Package_SO:SOIC-8-1EP_3.9x4.9mm_P1.27mm_EP2.41x3.3mm_ThermalVias" H 2850 2300 60  0001 C CNN
F 3 "" H 2850 2300 60  0000 C CNN
	1    2850 2300
	1    0    0    -1  
$EndComp
Wire Wire Line
	2100 1700 2100 1800
Connection ~ 2100 1800
Wire Wire Line
	3450 1900 3650 1900
Wire Wire Line
	3650 1900 3650 2000
Wire Wire Line
	3650 2000 4000 2000
Wire Wire Line
	2200 2150 2100 2150
Wire Wire Line
	2100 2150 2100 2250
Wire Wire Line
	2200 2250 2100 2250
Connection ~ 2100 2250
Wire Wire Line
	2100 2250 2100 2450
Wire Wire Line
	2100 2250 1800 2250
Wire Wire Line
	1800 1950 2050 1950
Wire Wire Line
	2050 1950 2050 2000
Wire Wire Line
	2050 2000 2200 2000
Text Label 1400 1800 0    50   ~ 0
COMP
Text Label 3450 2100 0    50   ~ 0
COMP
Text Label 10050 2300 0    50   ~ 0
bleu2
Text Label 7750 1200 2    50   ~ 0
bleu1
Wire Wire Line
	8350 1400 8350 1300
Connection ~ 8350 1300
Wire Wire Line
	8350 1300 8350 1200
Connection ~ 8350 1400
Wire Wire Line
	7450 1000 7450 1200
Connection ~ 7450 1200
$Comp
L Device:LED D102
U 1 1 5D37023F
P 6100 1950
F 0 "D102" V 6139 1833 50  0000 R CNN
F 1 "LED" V 6048 1833 50  0000 R CNN
F 2 "LED_SMD:LED_0603_1608Metric" H 6100 1950 50  0001 C CNN
F 3 "~" H 6100 1950 50  0001 C CNN
	1    6100 1950
	0    -1   -1   0   
$EndComp
Wire Wire Line
	6100 1800 5250 1800
Connection ~ 5250 1800
$Comp
L Device:R R125
U 1 1 5D374554
P 6100 2350
F 0 "R125" H 6170 2396 50  0000 L CNN
F 1 "R" H 6170 2305 50  0000 L CNN
F 2 "Resistor_SMD:R_0603_1608Metric" V 6030 2350 50  0001 C CNN
F 3 "~" H 6100 2350 50  0001 C CNN
	1    6100 2350
	1    0    0    -1  
$EndComp
Wire Wire Line
	6100 2200 6100 2100
$Comp
L power:GND #PWR0132
U 1 1 5D37873A
P 6100 2600
F 0 "#PWR0132" H 6100 2350 50  0001 C CNN
F 1 "GND" H 6105 2427 50  0000 C CNN
F 2 "" H 6100 2600 50  0001 C CNN
F 3 "" H 6100 2600 50  0001 C CNN
	1    6100 2600
	1    0    0    -1  
$EndComp
Wire Wire Line
	6100 2600 6100 2500
$EndSCHEMATC
