G04 #@! TF.GenerationSoftware,KiCad,Pcbnew,5.1.2-f72e74a~84~ubuntu18.04.1*
G04 #@! TF.CreationDate,2019-07-19T09:23:20+02:00*
G04 #@! TF.ProjectId,littlehum,6c697474-6c65-4687-956d-2e6b69636164,rev?*
G04 #@! TF.SameCoordinates,Original*
G04 #@! TF.FileFunction,Legend,Bot*
G04 #@! TF.FilePolarity,Positive*
%FSLAX46Y46*%
G04 Gerber Fmt 4.6, Leading zero omitted, Abs format (unit mm)*
G04 Created by KiCad (PCBNEW 5.1.2-f72e74a~84~ubuntu18.04.1) date 2019-07-19 09:23:20*
%MOMM*%
%LPD*%
G04 APERTURE LIST*
%ADD10C,0.200000*%
%ADD11C,0.120000*%
%ADD12C,0.150000*%
G04 APERTURE END LIST*
D10*
X185628571Y-58252380D02*
X186200000Y-58252380D01*
X185914285Y-58252380D02*
X185914285Y-57252380D01*
X186009523Y-57395238D01*
X186104761Y-57490476D01*
X186200000Y-57538095D01*
X185200000Y-58157142D02*
X185152380Y-58204761D01*
X185200000Y-58252380D01*
X185247619Y-58204761D01*
X185200000Y-58157142D01*
X185200000Y-58252380D01*
X184200000Y-58252380D02*
X184771428Y-58252380D01*
X184485714Y-58252380D02*
X184485714Y-57252380D01*
X184580952Y-57395238D01*
X184676190Y-57490476D01*
X184771428Y-57538095D01*
X159828571Y-57152380D02*
X160400000Y-57152380D01*
X160114285Y-57152380D02*
X160114285Y-56152380D01*
X160209523Y-56295238D01*
X160304761Y-56390476D01*
X160400000Y-56438095D01*
X159400000Y-57057142D02*
X159352380Y-57104761D01*
X159400000Y-57152380D01*
X159447619Y-57104761D01*
X159400000Y-57057142D01*
X159400000Y-57152380D01*
X158400000Y-57152380D02*
X158971428Y-57152380D01*
X158685714Y-57152380D02*
X158685714Y-56152380D01*
X158780952Y-56295238D01*
X158876190Y-56390476D01*
X158971428Y-56438095D01*
X150719047Y-55271428D02*
X151480952Y-55271428D01*
X151100000Y-55652380D02*
X151100000Y-54890476D01*
X163966666Y-55128571D02*
X163823809Y-55176190D01*
X163776190Y-55223809D01*
X163728571Y-55319047D01*
X163728571Y-55461904D01*
X163776190Y-55557142D01*
X163823809Y-55604761D01*
X163919047Y-55652380D01*
X164300000Y-55652380D01*
X164300000Y-54652380D01*
X163966666Y-54652380D01*
X163871428Y-54700000D01*
X163823809Y-54747619D01*
X163776190Y-54842857D01*
X163776190Y-54938095D01*
X163823809Y-55033333D01*
X163871428Y-55080952D01*
X163966666Y-55128571D01*
X164300000Y-55128571D01*
X162776190Y-54700000D02*
X162871428Y-54652380D01*
X163014285Y-54652380D01*
X163157142Y-54700000D01*
X163252380Y-54795238D01*
X163300000Y-54890476D01*
X163347619Y-55080952D01*
X163347619Y-55223809D01*
X163300000Y-55414285D01*
X163252380Y-55509523D01*
X163157142Y-55604761D01*
X163014285Y-55652380D01*
X162919047Y-55652380D01*
X162776190Y-55604761D01*
X162728571Y-55557142D01*
X162728571Y-55223809D01*
X162919047Y-55223809D01*
X162300000Y-55652380D02*
X162300000Y-54652380D01*
X161966666Y-55366666D01*
X161633333Y-54652380D01*
X161633333Y-55652380D01*
X160633333Y-55652380D02*
X161204761Y-55652380D01*
X160919047Y-55652380D02*
X160919047Y-54652380D01*
X161014285Y-54795238D01*
X161109523Y-54890476D01*
X161204761Y-54938095D01*
X160300000Y-54652380D02*
X159680952Y-54652380D01*
X160014285Y-55033333D01*
X159871428Y-55033333D01*
X159776190Y-55080952D01*
X159728571Y-55128571D01*
X159680952Y-55223809D01*
X159680952Y-55461904D01*
X159728571Y-55557142D01*
X159776190Y-55604761D01*
X159871428Y-55652380D01*
X160157142Y-55652380D01*
X160252380Y-55604761D01*
X160300000Y-55557142D01*
X159252380Y-55652380D02*
X159252380Y-54652380D01*
X158871428Y-54652380D01*
X158776190Y-54700000D01*
X158728571Y-54747619D01*
X158680952Y-54842857D01*
X158680952Y-54985714D01*
X158728571Y-55080952D01*
X158776190Y-55128571D01*
X158871428Y-55176190D01*
X159252380Y-55176190D01*
X158109523Y-55652380D02*
X158204761Y-55604761D01*
X158252380Y-55557142D01*
X158300000Y-55461904D01*
X158300000Y-55176190D01*
X158252380Y-55080952D01*
X158204761Y-55033333D01*
X158109523Y-54985714D01*
X157966666Y-54985714D01*
X157871428Y-55033333D01*
X157823809Y-55080952D01*
X157776190Y-55176190D01*
X157776190Y-55461904D01*
X157823809Y-55557142D01*
X157871428Y-55604761D01*
X157966666Y-55652380D01*
X158109523Y-55652380D01*
X157442857Y-54985714D02*
X157252380Y-55652380D01*
X157061904Y-55176190D01*
X156871428Y-55652380D01*
X156680952Y-54985714D01*
X155919047Y-55604761D02*
X156014285Y-55652380D01*
X156204761Y-55652380D01*
X156300000Y-55604761D01*
X156347619Y-55509523D01*
X156347619Y-55128571D01*
X156300000Y-55033333D01*
X156204761Y-54985714D01*
X156014285Y-54985714D01*
X155919047Y-55033333D01*
X155871428Y-55128571D01*
X155871428Y-55223809D01*
X156347619Y-55319047D01*
X155442857Y-55652380D02*
X155442857Y-54985714D01*
X155442857Y-55176190D02*
X155395238Y-55080952D01*
X155347619Y-55033333D01*
X155252380Y-54985714D01*
X155157142Y-54985714D01*
X189833333Y-56952380D02*
X189833333Y-55952380D01*
X189833333Y-56333333D02*
X189738095Y-56285714D01*
X189547619Y-56285714D01*
X189452380Y-56333333D01*
X189404761Y-56380952D01*
X189357142Y-56476190D01*
X189357142Y-56761904D01*
X189404761Y-56857142D01*
X189452380Y-56904761D01*
X189547619Y-56952380D01*
X189738095Y-56952380D01*
X189833333Y-56904761D01*
X188500000Y-56285714D02*
X188500000Y-57095238D01*
X188547619Y-57190476D01*
X188595238Y-57238095D01*
X188690476Y-57285714D01*
X188833333Y-57285714D01*
X188928571Y-57238095D01*
X188500000Y-56904761D02*
X188595238Y-56952380D01*
X188785714Y-56952380D01*
X188880952Y-56904761D01*
X188928571Y-56857142D01*
X188976190Y-56761904D01*
X188976190Y-56476190D01*
X188928571Y-56380952D01*
X188880952Y-56333333D01*
X188785714Y-56285714D01*
X188595238Y-56285714D01*
X188500000Y-56333333D01*
X188023809Y-56952380D02*
X188023809Y-56285714D01*
X188023809Y-56380952D02*
X187976190Y-56333333D01*
X187880952Y-56285714D01*
X187738095Y-56285714D01*
X187642857Y-56333333D01*
X187595238Y-56428571D01*
X187595238Y-56952380D01*
X187595238Y-56428571D02*
X187547619Y-56333333D01*
X187452380Y-56285714D01*
X187309523Y-56285714D01*
X187214285Y-56333333D01*
X187166666Y-56428571D01*
X187166666Y-56952380D01*
X186166666Y-56952380D02*
X186738095Y-56952380D01*
X186452380Y-56952380D02*
X186452380Y-55952380D01*
X186547619Y-56095238D01*
X186642857Y-56190476D01*
X186738095Y-56238095D01*
X185833333Y-55952380D02*
X185214285Y-55952380D01*
X185547619Y-56333333D01*
X185404761Y-56333333D01*
X185309523Y-56380952D01*
X185261904Y-56428571D01*
X185214285Y-56523809D01*
X185214285Y-56761904D01*
X185261904Y-56857142D01*
X185309523Y-56904761D01*
X185404761Y-56952380D01*
X185690476Y-56952380D01*
X185785714Y-56904761D01*
X185833333Y-56857142D01*
X184833333Y-56904761D02*
X184738095Y-56952380D01*
X184547619Y-56952380D01*
X184452380Y-56904761D01*
X184404761Y-56809523D01*
X184404761Y-56761904D01*
X184452380Y-56666666D01*
X184547619Y-56619047D01*
X184690476Y-56619047D01*
X184785714Y-56571428D01*
X184833333Y-56476190D01*
X184833333Y-56428571D01*
X184785714Y-56333333D01*
X184690476Y-56285714D01*
X184547619Y-56285714D01*
X184452380Y-56333333D01*
X183976190Y-56952380D02*
X183976190Y-56285714D01*
X183976190Y-56380952D02*
X183928571Y-56333333D01*
X183833333Y-56285714D01*
X183690476Y-56285714D01*
X183595238Y-56333333D01*
X183547619Y-56428571D01*
X183547619Y-56952380D01*
X183547619Y-56428571D02*
X183500000Y-56333333D01*
X183404761Y-56285714D01*
X183261904Y-56285714D01*
X183166666Y-56333333D01*
X183119047Y-56428571D01*
X183119047Y-56952380D01*
X182214285Y-56952380D02*
X182214285Y-56428571D01*
X182261904Y-56333333D01*
X182357142Y-56285714D01*
X182547619Y-56285714D01*
X182642857Y-56333333D01*
X182214285Y-56904761D02*
X182309523Y-56952380D01*
X182547619Y-56952380D01*
X182642857Y-56904761D01*
X182690476Y-56809523D01*
X182690476Y-56714285D01*
X182642857Y-56619047D01*
X182547619Y-56571428D01*
X182309523Y-56571428D01*
X182214285Y-56523809D01*
X181595238Y-56952380D02*
X181690476Y-56904761D01*
X181738095Y-56809523D01*
X181738095Y-55952380D01*
X181071428Y-56952380D02*
X181166666Y-56904761D01*
X181214285Y-56809523D01*
X181214285Y-55952380D01*
X190180952Y-63071428D02*
X189419047Y-63071428D01*
X189800000Y-63452380D02*
X189800000Y-62690476D01*
D11*
X187760000Y-62420000D02*
X186300000Y-62420000D01*
X187760000Y-65580000D02*
X185600000Y-65580000D01*
X187760000Y-65580000D02*
X187760000Y-64650000D01*
X187760000Y-62420000D02*
X187760000Y-63350000D01*
X179275000Y-60875000D02*
X177925000Y-60875000D01*
X179275000Y-59125000D02*
X177925000Y-59125000D01*
X154200000Y-56100000D02*
G75*
G03X154200000Y-56100000I-700000J0D01*
G01*
X155500000Y-57300000D02*
G75*
G03X155500000Y-57300000I-700000J0D01*
G01*
X154200000Y-58600000D02*
G75*
G03X154200000Y-58600000I-700000J0D01*
G01*
X155400000Y-63400000D02*
G75*
G03X155400000Y-63400000I-700000J0D01*
G01*
X154300000Y-64600000D02*
G75*
G03X154300000Y-64600000I-700000J0D01*
G01*
X155400000Y-65700000D02*
G75*
G03X155400000Y-65700000I-700000J0D01*
G01*
X154200000Y-66900000D02*
G75*
G03X154200000Y-66900000I-700000J0D01*
G01*
X157100000Y-67900000D02*
G75*
G03X157100000Y-67900000I-700000J0D01*
G01*
X158300000Y-69000000D02*
G75*
G03X158300000Y-69000000I-700000J0D01*
G01*
X159500000Y-67800000D02*
G75*
G03X159500000Y-67800000I-700000J0D01*
G01*
X160700000Y-69000000D02*
G75*
G03X160700000Y-69000000I-700000J0D01*
G01*
X161900000Y-67900000D02*
G75*
G03X161900000Y-67900000I-700000J0D01*
G01*
X163075001Y-69100000D02*
G75*
G03X163075001Y-69100000I-700000J0D01*
G01*
X164300000Y-68000000D02*
G75*
G03X164300000Y-68000000I-700000J0D01*
G01*
X166500000Y-56200000D02*
G75*
G03X166500000Y-56200000I-700000J0D01*
G01*
X166000000Y-60900000D02*
G75*
G03X166000000Y-60900000I-700000J0D01*
G01*
X167100000Y-62100000D02*
G75*
G03X167100000Y-62100000I-700000J0D01*
G01*
X147840000Y-56860000D02*
X147840000Y-54740000D01*
X149900000Y-56860000D02*
X147840000Y-56860000D01*
X149900000Y-54740000D02*
X147840000Y-54740000D01*
X149900000Y-56860000D02*
X149900000Y-54740000D01*
X150900000Y-56860000D02*
X151960000Y-56860000D01*
X151960000Y-56860000D02*
X151960000Y-55800000D01*
D10*
X184819047Y-61552380D02*
X185152380Y-61076190D01*
X185390476Y-61552380D02*
X185390476Y-60552380D01*
X185009523Y-60552380D01*
X184914285Y-60600000D01*
X184866666Y-60647619D01*
X184819047Y-60742857D01*
X184819047Y-60885714D01*
X184866666Y-60980952D01*
X184914285Y-61028571D01*
X185009523Y-61076190D01*
X185390476Y-61076190D01*
X183866666Y-61552380D02*
X184438095Y-61552380D01*
X184152380Y-61552380D02*
X184152380Y-60552380D01*
X184247619Y-60695238D01*
X184342857Y-60790476D01*
X184438095Y-60838095D01*
X183247619Y-60552380D02*
X183152380Y-60552380D01*
X183057142Y-60600000D01*
X183009523Y-60647619D01*
X182961904Y-60742857D01*
X182914285Y-60933333D01*
X182914285Y-61171428D01*
X182961904Y-61361904D01*
X183009523Y-61457142D01*
X183057142Y-61504761D01*
X183152380Y-61552380D01*
X183247619Y-61552380D01*
X183342857Y-61504761D01*
X183390476Y-61457142D01*
X183438095Y-61361904D01*
X183485714Y-61171428D01*
X183485714Y-60933333D01*
X183438095Y-60742857D01*
X183390476Y-60647619D01*
X183342857Y-60600000D01*
X183247619Y-60552380D01*
X182057142Y-60552380D02*
X182247619Y-60552380D01*
X182342857Y-60600000D01*
X182390476Y-60647619D01*
X182485714Y-60790476D01*
X182533333Y-60980952D01*
X182533333Y-61361904D01*
X182485714Y-61457142D01*
X182438095Y-61504761D01*
X182342857Y-61552380D01*
X182152380Y-61552380D01*
X182057142Y-61504761D01*
X182009523Y-61457142D01*
X181961904Y-61361904D01*
X181961904Y-61123809D01*
X182009523Y-61028571D01*
X182057142Y-60980952D01*
X182152380Y-60933333D01*
X182342857Y-60933333D01*
X182438095Y-60980952D01*
X182485714Y-61028571D01*
X182533333Y-61123809D01*
X185552380Y-62680952D02*
X185076190Y-62347619D01*
X185552380Y-62109523D02*
X184552380Y-62109523D01*
X184552380Y-62490476D01*
X184600000Y-62585714D01*
X184647619Y-62633333D01*
X184742857Y-62680952D01*
X184885714Y-62680952D01*
X184980952Y-62633333D01*
X185028571Y-62585714D01*
X185076190Y-62490476D01*
X185076190Y-62109523D01*
X185552380Y-63633333D02*
X185552380Y-63061904D01*
X185552380Y-63347619D02*
X184552380Y-63347619D01*
X184695238Y-63252380D01*
X184790476Y-63157142D01*
X184838095Y-63061904D01*
X184552380Y-64252380D02*
X184552380Y-64347619D01*
X184600000Y-64442857D01*
X184647619Y-64490476D01*
X184742857Y-64538095D01*
X184933333Y-64585714D01*
X185171428Y-64585714D01*
X185361904Y-64538095D01*
X185457142Y-64490476D01*
X185504761Y-64442857D01*
X185552380Y-64347619D01*
X185552380Y-64252380D01*
X185504761Y-64157142D01*
X185457142Y-64109523D01*
X185361904Y-64061904D01*
X185171428Y-64014285D01*
X184933333Y-64014285D01*
X184742857Y-64061904D01*
X184647619Y-64109523D01*
X184600000Y-64157142D01*
X184552380Y-64252380D01*
X184552380Y-64919047D02*
X184552380Y-65585714D01*
X185552380Y-65157142D01*
X185219047Y-66452380D02*
X185552380Y-65976190D01*
X185790476Y-66452380D02*
X185790476Y-65452380D01*
X185409523Y-65452380D01*
X185314285Y-65500000D01*
X185266666Y-65547619D01*
X185219047Y-65642857D01*
X185219047Y-65785714D01*
X185266666Y-65880952D01*
X185314285Y-65928571D01*
X185409523Y-65976190D01*
X185790476Y-65976190D01*
X184266666Y-66452380D02*
X184838095Y-66452380D01*
X184552380Y-66452380D02*
X184552380Y-65452380D01*
X184647619Y-65595238D01*
X184742857Y-65690476D01*
X184838095Y-65738095D01*
X183647619Y-65452380D02*
X183552380Y-65452380D01*
X183457142Y-65500000D01*
X183409523Y-65547619D01*
X183361904Y-65642857D01*
X183314285Y-65833333D01*
X183314285Y-66071428D01*
X183361904Y-66261904D01*
X183409523Y-66357142D01*
X183457142Y-66404761D01*
X183552380Y-66452380D01*
X183647619Y-66452380D01*
X183742857Y-66404761D01*
X183790476Y-66357142D01*
X183838095Y-66261904D01*
X183885714Y-66071428D01*
X183885714Y-65833333D01*
X183838095Y-65642857D01*
X183790476Y-65547619D01*
X183742857Y-65500000D01*
X183647619Y-65452380D01*
X182742857Y-65880952D02*
X182838095Y-65833333D01*
X182885714Y-65785714D01*
X182933333Y-65690476D01*
X182933333Y-65642857D01*
X182885714Y-65547619D01*
X182838095Y-65500000D01*
X182742857Y-65452380D01*
X182552380Y-65452380D01*
X182457142Y-65500000D01*
X182409523Y-65547619D01*
X182361904Y-65642857D01*
X182361904Y-65690476D01*
X182409523Y-65785714D01*
X182457142Y-65833333D01*
X182552380Y-65880952D01*
X182742857Y-65880952D01*
X182838095Y-65928571D01*
X182885714Y-65976190D01*
X182933333Y-66071428D01*
X182933333Y-66261904D01*
X182885714Y-66357142D01*
X182838095Y-66404761D01*
X182742857Y-66452380D01*
X182552380Y-66452380D01*
X182457142Y-66404761D01*
X182409523Y-66357142D01*
X182361904Y-66261904D01*
X182361904Y-66071428D01*
X182409523Y-65976190D01*
X182457142Y-65928571D01*
X182552380Y-65880952D01*
X179952380Y-62180952D02*
X179476190Y-61847619D01*
X179952380Y-61609523D02*
X178952380Y-61609523D01*
X178952380Y-61990476D01*
X179000000Y-62085714D01*
X179047619Y-62133333D01*
X179142857Y-62180952D01*
X179285714Y-62180952D01*
X179380952Y-62133333D01*
X179428571Y-62085714D01*
X179476190Y-61990476D01*
X179476190Y-61609523D01*
X179952380Y-63133333D02*
X179952380Y-62561904D01*
X179952380Y-62847619D02*
X178952380Y-62847619D01*
X179095238Y-62752380D01*
X179190476Y-62657142D01*
X179238095Y-62561904D01*
X178952380Y-63752380D02*
X178952380Y-63847619D01*
X179000000Y-63942857D01*
X179047619Y-63990476D01*
X179142857Y-64038095D01*
X179333333Y-64085714D01*
X179571428Y-64085714D01*
X179761904Y-64038095D01*
X179857142Y-63990476D01*
X179904761Y-63942857D01*
X179952380Y-63847619D01*
X179952380Y-63752380D01*
X179904761Y-63657142D01*
X179857142Y-63609523D01*
X179761904Y-63561904D01*
X179571428Y-63514285D01*
X179333333Y-63514285D01*
X179142857Y-63561904D01*
X179047619Y-63609523D01*
X179000000Y-63657142D01*
X178952380Y-63752380D01*
X179952380Y-64561904D02*
X179952380Y-64752380D01*
X179904761Y-64847619D01*
X179857142Y-64895238D01*
X179714285Y-64990476D01*
X179523809Y-65038095D01*
X179142857Y-65038095D01*
X179047619Y-64990476D01*
X179000000Y-64942857D01*
X178952380Y-64847619D01*
X178952380Y-64657142D01*
X179000000Y-64561904D01*
X179047619Y-64514285D01*
X179142857Y-64466666D01*
X179380952Y-64466666D01*
X179476190Y-64514285D01*
X179523809Y-64561904D01*
X179571428Y-64657142D01*
X179571428Y-64847619D01*
X179523809Y-64942857D01*
X179476190Y-64990476D01*
X179380952Y-65038095D01*
X177352380Y-62180952D02*
X176876190Y-61847619D01*
X177352380Y-61609523D02*
X176352380Y-61609523D01*
X176352380Y-61990476D01*
X176400000Y-62085714D01*
X176447619Y-62133333D01*
X176542857Y-62180952D01*
X176685714Y-62180952D01*
X176780952Y-62133333D01*
X176828571Y-62085714D01*
X176876190Y-61990476D01*
X176876190Y-61609523D01*
X177352380Y-63133333D02*
X177352380Y-62561904D01*
X177352380Y-62847619D02*
X176352380Y-62847619D01*
X176495238Y-62752380D01*
X176590476Y-62657142D01*
X176638095Y-62561904D01*
X177352380Y-64085714D02*
X177352380Y-63514285D01*
X177352380Y-63800000D02*
X176352380Y-63800000D01*
X176495238Y-63704761D01*
X176590476Y-63609523D01*
X176638095Y-63514285D01*
X176352380Y-64704761D02*
X176352380Y-64800000D01*
X176400000Y-64895238D01*
X176447619Y-64942857D01*
X176542857Y-64990476D01*
X176733333Y-65038095D01*
X176971428Y-65038095D01*
X177161904Y-64990476D01*
X177257142Y-64942857D01*
X177304761Y-64895238D01*
X177352380Y-64800000D01*
X177352380Y-64704761D01*
X177304761Y-64609523D01*
X177257142Y-64561904D01*
X177161904Y-64514285D01*
X176971428Y-64466666D01*
X176733333Y-64466666D01*
X176542857Y-64514285D01*
X176447619Y-64561904D01*
X176400000Y-64609523D01*
X176352380Y-64704761D01*
D12*
X180028571Y-57976190D02*
X180028571Y-58452380D01*
X180361904Y-57452380D02*
X180028571Y-57976190D01*
X179695238Y-57452380D01*
X178838095Y-58452380D02*
X179409523Y-58452380D01*
X179123809Y-58452380D02*
X179123809Y-57452380D01*
X179219047Y-57595238D01*
X179314285Y-57690476D01*
X179409523Y-57738095D01*
X178219047Y-57452380D02*
X178123809Y-57452380D01*
X178028571Y-57500000D01*
X177980952Y-57547619D01*
X177933333Y-57642857D01*
X177885714Y-57833333D01*
X177885714Y-58071428D01*
X177933333Y-58261904D01*
X177980952Y-58357142D01*
X178028571Y-58404761D01*
X178123809Y-58452380D01*
X178219047Y-58452380D01*
X178314285Y-58404761D01*
X178361904Y-58357142D01*
X178409523Y-58261904D01*
X178457142Y-58071428D01*
X178457142Y-57833333D01*
X178409523Y-57642857D01*
X178361904Y-57547619D01*
X178314285Y-57500000D01*
X178219047Y-57452380D01*
X176933333Y-58452380D02*
X177504761Y-58452380D01*
X177219047Y-58452380D02*
X177219047Y-57452380D01*
X177314285Y-57595238D01*
X177409523Y-57690476D01*
X177504761Y-57738095D01*
M02*
