(export (version D)
  (design
    (source /home/burindes/crap/elec/cancancan/cancancan.sch)
    (date "mer. 10 juin 2015 13:09:39 CEST")
    (tool "eeschema (25-Oct-2014 BZR 4029)-stable"))
  (components
    (comp (ref P103)
      (value CONN_6)
      (libsource (lib conn) (part CONN_6))
      (sheetpath (names /) (tstamps /))
      (tstamp 55781A9A))
    (comp (ref P104)
      (value CONN_6)
      (libsource (lib conn) (part CONN_6))
      (sheetpath (names /) (tstamps /))
      (tstamp 55781B06))
    (comp (ref P105)
      (value CONN_6)
      (libsource (lib conn) (part CONN_6))
      (sheetpath (names /) (tstamps /))
      (tstamp 55781B24))
    (comp (ref P106)
      (value CONN_6)
      (libsource (lib conn) (part CONN_6))
      (sheetpath (names /) (tstamps /))
      (tstamp 55781B42))
    (comp (ref P101)
      (value CONN_6)
      (libsource (lib conn) (part CONN_6))
      (sheetpath (names /) (tstamps /))
      (tstamp 55781B60))
    (comp (ref P102)
      (value CONN_6)
      (libsource (lib conn) (part CONN_6))
      (sheetpath (names /) (tstamps /))
      (tstamp 55781B7E)))
  (libparts
    (libpart (lib conn) (part CONN_6)
      (description "ymbole general de connecteur")
      (fields
        (field (name Reference) P)
        (field (name Value) CONN_6))
      (pins
        (pin (num 1) (name 1) (type passive))
        (pin (num 2) (name 2) (type passive))
        (pin (num 3) (name 3) (type passive))
        (pin (num 4) (name 4) (type passive))
        (pin (num 5) (name 5) (type passive))
        (pin (num 6) (name 6) (type passive)))))
  (libraries
    (library (logical conn)
      (uri /usr/share/kicad/library/conn.lib)))
  (nets
    (net (code 1) (name +5V)
      (node (ref P102) (pin 5))
      (node (ref P105) (pin 5))
      (node (ref P102) (pin 6))
      (node (ref P104) (pin 5))
      (node (ref P104) (pin 6))
      (node (ref P105) (pin 6))
      (node (ref P103) (pin 6))
      (node (ref P103) (pin 5))
      (node (ref P106) (pin 6))
      (node (ref P106) (pin 5))
      (node (ref P101) (pin 6))
      (node (ref P101) (pin 5)))
    (net (code 2) (name GND)
      (node (ref P104) (pin 1))
      (node (ref P101) (pin 1))
      (node (ref P101) (pin 2))
      (node (ref P104) (pin 2))
      (node (ref P103) (pin 2))
      (node (ref P105) (pin 1))
      (node (ref P105) (pin 2))
      (node (ref P106) (pin 2))
      (node (ref P106) (pin 1))
      (node (ref P102) (pin 1))
      (node (ref P102) (pin 2))
      (node (ref P103) (pin 1)))
    (net (code 3) (name /CANH)
      (node (ref P105) (pin 4))
      (node (ref P104) (pin 4))
      (node (ref P103) (pin 4))
      (node (ref P101) (pin 4))
      (node (ref P102) (pin 4))
      (node (ref P106) (pin 4)))
    (net (code 4) (name /CANL)
      (node (ref P106) (pin 3))
      (node (ref P101) (pin 3))
      (node (ref P105) (pin 3))
      (node (ref P102) (pin 3))
      (node (ref P104) (pin 3))
      (node (ref P103) (pin 3)))))