EESchema Schematic File Version 2
LIBS:power
LIBS:device
LIBS:transistors
LIBS:conn
LIBS:linear
LIBS:regul
LIBS:74xx
LIBS:cmos4000
LIBS:adc-dac
LIBS:memory
LIBS:xilinx
LIBS:special
LIBS:microcontrollers
LIBS:dsp
LIBS:microchip
LIBS:analog_switches
LIBS:motorola
LIBS:texas
LIBS:intel
LIBS:audio
LIBS:interface
LIBS:digital-audio
LIBS:philips
LIBS:display
LIBS:cypress
LIBS:siliconi
LIBS:opto
LIBS:atmel
LIBS:contrib
LIBS:valves
LIBS:crap
EELAYER 27 0
EELAYER END
$Descr A4 11693 8268
encoding utf-8
Sheet 1 1
Title ""
Date "10 jun 2015"
Rev ""
Comp ""
Comment1 ""
Comment2 ""
Comment3 ""
Comment4 ""
$EndDescr
$Comp
L CONN_6 P103
U 1 1 55781A9A
P 2200 3050
F 0 "P103" V 2150 3050 60  0000 C CNN
F 1 "CONN_6" V 2250 3050 60  0000 C CNN
F 2 "" H 2200 3050 60  0000 C CNN
F 3 "" H 2200 3050 60  0000 C CNN
	1    2200 3050
	-1   0    0    1   
$EndComp
$Comp
L GND #PWR01
U 1 1 55781AC9
P 2650 3400
F 0 "#PWR01" H 2650 3400 30  0001 C CNN
F 1 "GND" H 2650 3330 30  0001 C CNN
F 2 "" H 2650 3400 60  0000 C CNN
F 3 "" H 2650 3400 60  0000 C CNN
	1    2650 3400
	1    0    0    -1  
$EndComp
Wire Wire Line
	2650 3200 2650 3400
Wire Wire Line
	2650 3300 2550 3300
Wire Wire Line
	2650 3200 2550 3200
Connection ~ 2650 3300
Text Label 2650 3100 0    60   ~ 0
CANL
Text Label 2650 3000 0    60   ~ 0
CANH
Wire Wire Line
	2650 3100 2550 3100
Wire Wire Line
	2550 3000 2650 3000
Wire Wire Line
	2650 2900 2550 2900
Wire Wire Line
	2650 2700 2650 2900
Wire Wire Line
	2650 2800 2550 2800
$Comp
L +5V #PWR02
U 1 1 55781AEF
P 2650 2700
F 0 "#PWR02" H 2650 2790 20  0001 C CNN
F 1 "+5V" H 2650 2790 30  0000 C CNN
F 2 "" H 2650 2700 60  0000 C CNN
F 3 "" H 2650 2700 60  0000 C CNN
	1    2650 2700
	1    0    0    -1  
$EndComp
Connection ~ 2650 2800
$Comp
L CONN_6 P104
U 1 1 55781B06
P 3100 3050
F 0 "P104" V 3050 3050 60  0000 C CNN
F 1 "CONN_6" V 3150 3050 60  0000 C CNN
F 2 "" H 3100 3050 60  0000 C CNN
F 3 "" H 3100 3050 60  0000 C CNN
	1    3100 3050
	-1   0    0    1   
$EndComp
$Comp
L GND #PWR03
U 1 1 55781B0C
P 3550 3400
F 0 "#PWR03" H 3550 3400 30  0001 C CNN
F 1 "GND" H 3550 3330 30  0001 C CNN
F 2 "" H 3550 3400 60  0000 C CNN
F 3 "" H 3550 3400 60  0000 C CNN
	1    3550 3400
	1    0    0    -1  
$EndComp
Wire Wire Line
	3550 3200 3550 3400
Wire Wire Line
	3550 3300 3450 3300
Wire Wire Line
	3550 3200 3450 3200
Connection ~ 3550 3300
Text Label 3550 3100 0    60   ~ 0
CANL
Text Label 3550 3000 0    60   ~ 0
CANH
Wire Wire Line
	3550 3100 3450 3100
Wire Wire Line
	3450 3000 3550 3000
Wire Wire Line
	3550 2900 3450 2900
Wire Wire Line
	3550 2700 3550 2900
Wire Wire Line
	3550 2800 3450 2800
$Comp
L +5V #PWR04
U 1 1 55781B1D
P 3550 2700
F 0 "#PWR04" H 3550 2790 20  0001 C CNN
F 1 "+5V" H 3550 2790 30  0000 C CNN
F 2 "" H 3550 2700 60  0000 C CNN
F 3 "" H 3550 2700 60  0000 C CNN
	1    3550 2700
	1    0    0    -1  
$EndComp
Connection ~ 3550 2800
$Comp
L CONN_6 P105
U 1 1 55781B24
P 2200 4000
F 0 "P105" V 2150 4000 60  0000 C CNN
F 1 "CONN_6" V 2250 4000 60  0000 C CNN
F 2 "" H 2200 4000 60  0000 C CNN
F 3 "" H 2200 4000 60  0000 C CNN
	1    2200 4000
	-1   0    0    1   
$EndComp
$Comp
L GND #PWR05
U 1 1 55781B2A
P 2650 4350
F 0 "#PWR05" H 2650 4350 30  0001 C CNN
F 1 "GND" H 2650 4280 30  0001 C CNN
F 2 "" H 2650 4350 60  0000 C CNN
F 3 "" H 2650 4350 60  0000 C CNN
	1    2650 4350
	1    0    0    -1  
$EndComp
Wire Wire Line
	2650 4150 2650 4350
Wire Wire Line
	2650 4250 2550 4250
Wire Wire Line
	2650 4150 2550 4150
Connection ~ 2650 4250
Text Label 2650 4050 0    60   ~ 0
CANL
Text Label 2650 3950 0    60   ~ 0
CANH
Wire Wire Line
	2650 4050 2550 4050
Wire Wire Line
	2550 3950 2650 3950
Wire Wire Line
	2650 3850 2550 3850
Wire Wire Line
	2650 3650 2650 3850
Wire Wire Line
	2650 3750 2550 3750
$Comp
L +5V #PWR06
U 1 1 55781B3B
P 2650 3650
F 0 "#PWR06" H 2650 3740 20  0001 C CNN
F 1 "+5V" H 2650 3740 30  0000 C CNN
F 2 "" H 2650 3650 60  0000 C CNN
F 3 "" H 2650 3650 60  0000 C CNN
	1    2650 3650
	1    0    0    -1  
$EndComp
Connection ~ 2650 3750
$Comp
L CONN_6 P106
U 1 1 55781B42
P 3100 4000
F 0 "P106" V 3050 4000 60  0000 C CNN
F 1 "CONN_6" V 3150 4000 60  0000 C CNN
F 2 "" H 3100 4000 60  0000 C CNN
F 3 "" H 3100 4000 60  0000 C CNN
	1    3100 4000
	-1   0    0    1   
$EndComp
$Comp
L GND #PWR07
U 1 1 55781B48
P 3550 4350
F 0 "#PWR07" H 3550 4350 30  0001 C CNN
F 1 "GND" H 3550 4280 30  0001 C CNN
F 2 "" H 3550 4350 60  0000 C CNN
F 3 "" H 3550 4350 60  0000 C CNN
	1    3550 4350
	1    0    0    -1  
$EndComp
Wire Wire Line
	3550 4150 3550 4350
Wire Wire Line
	3550 4250 3450 4250
Wire Wire Line
	3550 4150 3450 4150
Connection ~ 3550 4250
Text Label 3550 4050 0    60   ~ 0
CANL
Text Label 3550 3950 0    60   ~ 0
CANH
Wire Wire Line
	3550 4050 3450 4050
Wire Wire Line
	3450 3950 3550 3950
Wire Wire Line
	3550 3850 3450 3850
Wire Wire Line
	3550 3650 3550 3850
Wire Wire Line
	3550 3750 3450 3750
$Comp
L +5V #PWR08
U 1 1 55781B59
P 3550 3650
F 0 "#PWR08" H 3550 3740 20  0001 C CNN
F 1 "+5V" H 3550 3740 30  0000 C CNN
F 2 "" H 3550 3650 60  0000 C CNN
F 3 "" H 3550 3650 60  0000 C CNN
	1    3550 3650
	1    0    0    -1  
$EndComp
Connection ~ 3550 3750
$Comp
L CONN_6 P101
U 1 1 55781B60
P 2200 2100
F 0 "P101" V 2150 2100 60  0000 C CNN
F 1 "CONN_6" V 2250 2100 60  0000 C CNN
F 2 "" H 2200 2100 60  0000 C CNN
F 3 "" H 2200 2100 60  0000 C CNN
	1    2200 2100
	-1   0    0    1   
$EndComp
$Comp
L GND #PWR09
U 1 1 55781B66
P 2650 2450
F 0 "#PWR09" H 2650 2450 30  0001 C CNN
F 1 "GND" H 2650 2380 30  0001 C CNN
F 2 "" H 2650 2450 60  0000 C CNN
F 3 "" H 2650 2450 60  0000 C CNN
	1    2650 2450
	1    0    0    -1  
$EndComp
Wire Wire Line
	2650 2250 2650 2450
Wire Wire Line
	2650 2350 2550 2350
Wire Wire Line
	2650 2250 2550 2250
Connection ~ 2650 2350
Text Label 2650 2150 0    60   ~ 0
CANL
Text Label 2650 2050 0    60   ~ 0
CANH
Wire Wire Line
	2650 2150 2550 2150
Wire Wire Line
	2550 2050 2650 2050
Wire Wire Line
	2650 1950 2550 1950
Wire Wire Line
	2650 1750 2650 1950
Wire Wire Line
	2650 1850 2550 1850
$Comp
L +5V #PWR010
U 1 1 55781B77
P 2650 1750
F 0 "#PWR010" H 2650 1840 20  0001 C CNN
F 1 "+5V" H 2650 1840 30  0000 C CNN
F 2 "" H 2650 1750 60  0000 C CNN
F 3 "" H 2650 1750 60  0000 C CNN
	1    2650 1750
	1    0    0    -1  
$EndComp
Connection ~ 2650 1850
$Comp
L CONN_6 P102
U 1 1 55781B7E
P 3100 2100
F 0 "P102" V 3050 2100 60  0000 C CNN
F 1 "CONN_6" V 3150 2100 60  0000 C CNN
F 2 "" H 3100 2100 60  0000 C CNN
F 3 "" H 3100 2100 60  0000 C CNN
	1    3100 2100
	-1   0    0    1   
$EndComp
$Comp
L GND #PWR011
U 1 1 55781B84
P 3550 2450
F 0 "#PWR011" H 3550 2450 30  0001 C CNN
F 1 "GND" H 3550 2380 30  0001 C CNN
F 2 "" H 3550 2450 60  0000 C CNN
F 3 "" H 3550 2450 60  0000 C CNN
	1    3550 2450
	1    0    0    -1  
$EndComp
Wire Wire Line
	3550 2250 3550 2450
Wire Wire Line
	3550 2350 3450 2350
Wire Wire Line
	3550 2250 3450 2250
Connection ~ 3550 2350
Text Label 3550 2150 0    60   ~ 0
CANL
Text Label 3550 2050 0    60   ~ 0
CANH
Wire Wire Line
	3550 2150 3450 2150
Wire Wire Line
	3450 2050 3550 2050
Wire Wire Line
	3550 1950 3450 1950
Wire Wire Line
	3550 1750 3550 1950
Wire Wire Line
	3550 1850 3450 1850
$Comp
L +5V #PWR012
U 1 1 55781B95
P 3550 1750
F 0 "#PWR012" H 3550 1840 20  0001 C CNN
F 1 "+5V" H 3550 1840 30  0000 C CNN
F 2 "" H 3550 1750 60  0000 C CNN
F 3 "" H 3550 1750 60  0000 C CNN
	1    3550 1750
	1    0    0    -1  
$EndComp
Connection ~ 3550 1850
$EndSCHEMATC
