EESchema Schematic File Version 2
LIBS:power
LIBS:device
LIBS:transistors
LIBS:conn
LIBS:linear
LIBS:regul
LIBS:74xx
LIBS:cmos4000
LIBS:adc-dac
LIBS:memory
LIBS:xilinx
LIBS:special
LIBS:microcontrollers
LIBS:dsp
LIBS:microchip
LIBS:analog_switches
LIBS:motorola
LIBS:texas
LIBS:intel
LIBS:audio
LIBS:interface
LIBS:digital-audio
LIBS:philips
LIBS:display
LIBS:cypress
LIBS:siliconi
LIBS:opto
LIBS:atmel
LIBS:contrib
LIBS:valves
LIBS:crap
LIBS:wservo-cache
EELAYER 27 0
EELAYER END
$Descr A4 11693 8268
encoding utf-8
Sheet 4 5
Title ""
Date "12 nov 2014"
Rev ""
Comp ""
Comment1 ""
Comment2 ""
Comment3 ""
Comment4 ""
$EndDescr
Text HLabel 3450 6000 0    60   Input ~ 0
SENSE_A
Text HLabel 3450 5900 0    60   Input ~ 0
SENSE_B
Text HLabel 6850 3400 2    60   Output ~ 0
CURRENT
Text HLabel 3600 4850 0    60   Input ~ 0
SENSE_POT
Text HLabel 4650 4750 2    60   Output ~ 0
POSITION
$Comp
L GND #PWR408
U 1 1 5434F6BC
P 5500 6600
F 0 "#PWR408" H 5500 6600 30  0001 C CNN
F 1 "GND" H 5500 6530 30  0001 C CNN
F 2 "" H 5500 6600 60  0000 C CNN
F 3 "" H 5500 6600 60  0000 C CNN
	1    5500 6600
	1    0    0    -1  
$EndComp
$Comp
L VDD #PWR407
U 1 1 5434F6CB
P 3850 6500
F 0 "#PWR407" H 3850 6600 30  0001 C CNN
F 1 "VDD" H 3850 6610 30  0000 C CNN
F 2 "" H 3850 6500 60  0000 C CNN
F 3 "" H 3850 6500 60  0000 C CNN
	1    3850 6500
	0    -1   -1   0   
$EndComp
$Comp
L R R401
U 1 1 5434FF29
P 8600 2400
F 0 "R401" V 8680 2400 40  0000 C CNN
F 1 "10k" V 8607 2401 40  0000 C CNN
F 2 "SM0402" V 8530 2400 30  0000 C CNN
F 3 "~" H 8600 2400 30  0000 C CNN
	1    8600 2400
	1    0    0    -1  
$EndComp
$Comp
L R R402
U 1 1 5434FF38
P 8600 3100
F 0 "R402" V 8680 3100 40  0000 C CNN
F 1 "10k" V 8607 3101 40  0000 C CNN
F 2 "SM0402" V 8530 3100 30  0000 C CNN
F 3 "~" H 8600 3100 30  0000 C CNN
	1    8600 3100
	1    0    0    -1  
$EndComp
$Comp
L GND #PWR404
U 1 1 54350049
P 8600 3450
F 0 "#PWR404" H 8600 3450 30  0001 C CNN
F 1 "GND" H 8600 3380 30  0001 C CNN
F 2 "" H 8600 3450 60  0000 C CNN
F 3 "" H 8600 3450 60  0000 C CNN
	1    8600 3450
	1    0    0    -1  
$EndComp
Text HLabel 10000 3050 2    60   Output ~ 0
CURRENT_REF
Text Label 7000 4750 0    60   ~ 0
REF_OUT
Text Label 3550 6250 2    60   ~ 0
REF_OUT
$Comp
L AD8418 U402
U 1 1 5435370B
P 4700 6200
F 0 "U402" H 5250 5750 60  0000 C CNN
F 1 "AD8418" H 4400 6650 60  0000 C CNN
F 2 "MSOP_8" H 4600 5750 60  0000 C CNN
F 3 "~" H 4700 6850 60  0000 C CNN
	1    4700 6200
	1    0    0    -1  
$EndComp
$Comp
L AD8604 U401
U 1 1 5436B894
P 4950 3750
F 0 "U401" H 5750 3150 60  0000 C CNN
F 1 "AD8604" H 4200 4400 60  0000 C CNN
F 2 "TSSOP14" H 6400 2450 60  0000 C CNN
F 3 "~" H 4400 4650 60  0000 C CNN
	1    4950 3750
	1    0    0    -1  
$EndComp
Text Label 8750 2750 0    60   ~ 0
REF_IN
Text Label 5800 4850 2    60   ~ 0
REF_IN
$Comp
L VDD #PWR405
U 1 1 5436C02F
P 4800 5350
F 0 "#PWR405" H 4800 5450 30  0001 C CNN
F 1 "VDD" H 4800 5460 30  0000 C CNN
F 2 "" H 4800 5350 60  0000 C CNN
F 3 "" H 4800 5350 60  0000 C CNN
	1    4800 5350
	1    0    0    -1  
$EndComp
$Comp
L GND #PWR406
U 1 1 5436C05D
P 4800 5650
F 0 "#PWR406" H 4800 5650 30  0001 C CNN
F 1 "GND" H 4800 5580 30  0001 C CNN
F 2 "" H 4800 5650 60  0000 C CNN
F 3 "" H 4800 5650 60  0000 C CNN
	1    4800 5650
	1    0    0    -1  
$EndComp
Text Label 5750 5950 0    60   ~ 0
CUR_RAW
Text Label 1450 2550 2    60   ~ 0
CUR_RAW
$Comp
L R R405
U 1 1 5436D752
P 1850 2550
F 0 "R405" V 1930 2550 40  0000 C CNN
F 1 "169k" V 1857 2551 40  0000 C CNN
F 2 "SM0402" V 1780 2550 30  0000 C CNN
F 3 "~" H 1850 2550 30  0000 C CNN
	1    1850 2550
	0    -1   -1   0   
$EndComp
$Comp
L R R406
U 1 1 5436D761
P 2500 2550
F 0 "R406" V 2580 2550 40  0000 C CNN
F 1 "604k" V 2507 2551 40  0000 C CNN
F 2 "SM0402" V 2430 2550 30  0000 C CNN
F 3 "~" H 2500 2550 30  0000 C CNN
	1    2500 2550
	0    -1   -1   0   
$EndComp
$Comp
L C C403
U 1 1 5436D77F
P 2500 2300
F 0 "C403" H 2500 2400 40  0000 L CNN
F 1 "15n" H 2506 2215 40  0000 L CNN
F 2 "SM0603" H 2538 2150 30  0000 C CNN
F 3 "~" H 2500 2300 60  0000 C CNN
	1    2500 2300
	0    -1   -1   0   
$EndComp
$Comp
L GND #PWR403
U 1 1 5436D8BA
P 2950 2850
F 0 "#PWR403" H 2950 2850 30  0001 C CNN
F 1 "GND" H 2950 2780 30  0001 C CNN
F 2 "" H 2950 2850 60  0000 C CNN
F 3 "" H 2950 2850 60  0000 C CNN
	1    2950 2850
	1    0    0    -1  
$EndComp
Text Label 4650 3400 0    60   ~ 0
CUR_FILT_1
Text Label 4900 2400 2    60   ~ 0
CUR_FILT_1
$Comp
L R R403
U 1 1 5436DB65
P 5300 2400
F 0 "R403" V 5380 2400 40  0000 C CNN
F 1 "56.2k" V 5307 2401 40  0000 C CNN
F 2 "SM0402" V 5230 2400 30  0000 C CNN
F 3 "~" H 5300 2400 30  0000 C CNN
	1    5300 2400
	0    -1   -1   0   
$EndComp
$Comp
L R R404
U 1 1 5436DB6B
P 5950 2400
F 0 "R404" V 6030 2400 40  0000 C CNN
F 1 "1.78M" V 5957 2401 40  0000 C CNN
F 2 "SM0402" V 5880 2400 30  0000 C CNN
F 3 "~" H 5950 2400 30  0000 C CNN
	1    5950 2400
	0    -1   -1   0   
$EndComp
$Comp
L C C401
U 1 1 5436DB77
P 5950 2200
F 0 "C401" H 5950 2300 40  0000 L CNN
F 1 "15n" H 5956 2115 40  0000 L CNN
F 2 "SM0603" H 5988 2050 30  0000 C CNN
F 3 "~" H 5950 2200 60  0000 C CNN
	1    5950 2200
	0    -1   -1   0   
$EndComp
$Comp
L CSMALL C402
U 1 1 5436DB8F
P 6400 2550
F 0 "C402" H 6425 2600 30  0000 L CNN
F 1 "1.5n" H 6425 2500 30  0000 L CNN
F 2 "SM0603" H 6650 2450 60  0000 C CNN
F 3 "~" H 6400 2550 60  0000 C CNN
	1    6400 2550
	1    0    0    -1  
$EndComp
$Comp
L GND #PWR402
U 1 1 5436DC68
P 6400 2700
F 0 "#PWR402" H 6400 2700 30  0001 C CNN
F 1 "GND" H 6400 2630 30  0001 C CNN
F 2 "" H 6400 2700 60  0000 C CNN
F 3 "" H 6400 2700 60  0000 C CNN
	1    6400 2700
	1    0    0    -1  
$EndComp
$Comp
L VDD #PWR401
U 1 1 5436E6A8
P 8600 2050
F 0 "#PWR401" H 8600 2150 30  0001 C CNN
F 1 "VDD" H 8600 2160 30  0000 C CNN
F 2 "" H 8600 2050 60  0000 C CNN
F 3 "" H 8600 2050 60  0000 C CNN
	1    8600 2050
	1    0    0    -1  
$EndComp
$Comp
L CSMALL C404
U 1 1 5437AD87
P 2950 2700
F 0 "C404" H 2975 2750 30  0000 L CNN
F 1 "1.5n" H 2975 2650 30  0000 L CNN
F 2 "SM0603" H 3250 2650 60  0000 C CNN
F 3 "~" H 2950 2700 60  0000 C CNN
	1    2950 2700
	1    0    0    -1  
$EndComp
Text Label 3150 2300 0    60   ~ 0
CUR_RAW_IN_-
Text Label 3250 2550 0    60   ~ 0
CUR_RAW_IN_+
Text Label 3550 3300 2    60   ~ 0
CUR_RAW_IN_-
Text Label 3550 3500 2    60   ~ 0
CUR_RAW_IN_+
Text Label 6700 2200 0    60   ~ 0
CUR_FILT_IN_-
Text Label 6700 2400 0    60   ~ 0
CUR_FILT_IN_+
Text Label 5900 3300 2    60   ~ 0
CUR_FILT_IN_-
Text Label 5900 3500 2    60   ~ 0
CUR_FILT_IN_+
Wire Wire Line
	3450 5900 4100 5900
Wire Wire Line
	4100 6000 3450 6000
Wire Wire Line
	5750 5950 5400 5950
Wire Wire Line
	3850 6500 4100 6500
Wire Wire Line
	3900 6200 3900 6300
Wire Wire Line
	3900 6200 4100 6200
Wire Wire Line
	3900 6300 4100 6300
Connection ~ 3900 6250
Wire Wire Line
	8600 2850 8600 2650
Connection ~ 8600 2750
Wire Wire Line
	8600 3450 8600 3350
Wire Wire Line
	3550 6250 3900 6250
Wire Wire Line
	5400 6500 5500 6500
Wire Wire Line
	5500 6500 5500 6600
Wire Wire Line
	4650 3400 4450 3400
Wire Wire Line
	4550 3000 4550 3400
Wire Wire Line
	4550 3000 3650 3000
Wire Wire Line
	3650 3000 3650 3300
Wire Wire Line
	3550 3300 3750 3300
Connection ~ 4550 3400
Wire Wire Line
	8750 2750 8600 2750
Wire Wire Line
	6150 2200 6700 2200
Wire Wire Line
	1450 2550 1600 2550
Wire Wire Line
	2100 2550 2250 2550
Wire Wire Line
	2750 2550 3250 2550
Connection ~ 2950 2550
Connection ~ 2200 2550
Wire Wire Line
	4900 2400 5050 2400
Wire Wire Line
	5550 2400 5700 2400
Wire Wire Line
	6200 2400 6700 2400
Connection ~ 6400 2400
Connection ~ 5650 2400
Wire Wire Line
	2700 2300 3150 2300
Wire Wire Line
	2300 2300 2200 2300
Wire Wire Line
	2200 2300 2200 2550
Wire Wire Line
	6400 2400 6400 2450
Wire Wire Line
	6400 2700 6400 2650
Wire Wire Line
	8600 2150 8600 2050
Wire Wire Line
	5650 2400 5650 2200
Wire Wire Line
	5650 2200 5750 2200
Wire Wire Line
	2950 2850 2950 2800
Wire Wire Line
	2950 2600 2950 2550
Wire Wire Line
	3550 3500 3750 3500
Connection ~ 3650 3300
Wire Wire Line
	4800 5350 4800 5450
Wire Wire Line
	4800 5450 4900 5450
Wire Wire Line
	4900 5550 4800 5550
Wire Wire Line
	4800 5550 4800 5650
Wire Wire Line
	5800 4650 6000 4650
Wire Wire Line
	5800 4850 6000 4850
Wire Wire Line
	5900 4650 5900 4400
Wire Wire Line
	5900 4400 6800 4400
Wire Wire Line
	6800 4400 6800 4750
Wire Wire Line
	6700 4750 7000 4750
Connection ~ 5900 4650
Connection ~ 6800 4750
Wire Wire Line
	9700 3050 10000 3050
Text Label 9700 3050 2    60   ~ 0
REF_OUT
Wire Wire Line
	5900 3300 6000 3300
Wire Wire Line
	6000 3500 5900 3500
Wire Wire Line
	6700 3400 6850 3400
Wire Wire Line
	6750 3400 6750 3000
Wire Wire Line
	6750 3000 5950 3000
Wire Wire Line
	5950 3000 5950 3300
Connection ~ 5950 3300
Connection ~ 6750 3400
Wire Wire Line
	3600 4850 3750 4850
Wire Wire Line
	4450 4750 4650 4750
Wire Wire Line
	4550 4750 4550 4400
Wire Wire Line
	4550 4400 3650 4400
Wire Wire Line
	3650 4400 3650 4650
Wire Wire Line
	3650 4650 3750 4650
Connection ~ 4550 4750
$EndSCHEMATC
