EESchema Schematic File Version 2
LIBS:power
LIBS:device
LIBS:transistors
LIBS:conn
LIBS:linear
LIBS:regul
LIBS:74xx
LIBS:cmos4000
LIBS:adc-dac
LIBS:memory
LIBS:xilinx
LIBS:special
LIBS:microcontrollers
LIBS:dsp
LIBS:microchip
LIBS:analog_switches
LIBS:motorola
LIBS:texas
LIBS:intel
LIBS:audio
LIBS:interface
LIBS:digital-audio
LIBS:philips
LIBS:display
LIBS:cypress
LIBS:siliconi
LIBS:opto
LIBS:atmel
LIBS:contrib
LIBS:valves
LIBS:crap
LIBS:wservo-cache
EELAYER 27 0
EELAYER END
$Descr A4 11693 8268
encoding utf-8
Sheet 5 5
Title ""
Date "12 nov 2014"
Rev ""
Comp ""
Comment1 ""
Comment2 ""
Comment3 ""
Comment4 ""
$EndDescr
$Comp
L SAMR21E U501
U 1 1 5433DD4B
P 5650 3550
F 0 "U501" H 6250 1650 60  0000 C CNN
F 1 "SAMR21E" H 5600 4300 60  0000 C CNN
F 2 "QFN32-5x5" H 5750 1700 60  0000 C CNN
F 3 "~" H 5650 3550 60  0000 C CNN
	1    5650 3550
	1    0    0    -1  
$EndComp
Text HLabel 6600 3700 2    60   Output ~ 0
MOT_EN
Text HLabel 6600 3500 2    60   Output ~ 0
MOT_PH
Text HLabel 6600 3400 2    60   Input ~ 0
MOT_CURRENT
Text HLabel 6600 3300 2    60   Input ~ 0
MOT_POSITION
Text HLabel 6600 4700 2    60   Input ~ 0
SWCLK
Text HLabel 6600 4800 2    60   BiDi ~ 0
SWDIO
Text HLabel 6600 4000 2    60   Output ~ 0
DBG_TX
Text HLabel 6600 3900 2    60   Input ~ 0
DBG_RX
Text HLabel 6600 3800 2    60   Output ~ 0
MOT_nSLEEP
$Comp
L VDD #PWR505
U 1 1 54340A78
P 4750 3650
F 0 "#PWR505" H 4750 3750 30  0001 C CNN
F 1 "VDD" H 4750 3760 30  0000 C CNN
F 2 "" H 4750 3650 60  0000 C CNN
F 3 "" H 4750 3650 60  0000 C CNN
	1    4750 3650
	1    0    0    -1  
$EndComp
$Comp
L GND #PWR511
U 1 1 54340B5F
P 4750 5350
F 0 "#PWR511" H 4750 5350 30  0001 C CNN
F 1 "GND" H 4750 5280 30  0001 C CNN
F 2 "" H 4750 5350 60  0000 C CNN
F 3 "" H 4750 5350 60  0000 C CNN
	1    4750 5350
	1    0    0    -1  
$EndComp
$Comp
L C C501
U 1 1 54340C90
P 4300 4700
F 0 "C501" H 4300 4800 40  0000 L CNN
F 1 "100n" H 4306 4615 40  0000 L CNN
F 2 "SM0402" H 4338 4550 30  0000 C CNN
F 3 "~" H 4300 4700 60  0000 C CNN
F 4 "6V" H 4300 4700 60  0001 C CNN "Voltage"
	1    4300 4700
	1    0    0    -1  
$EndComp
$Comp
L GND #PWR510
U 1 1 54340C9F
P 4300 5000
F 0 "#PWR510" H 4300 5000 30  0001 C CNN
F 1 "GND" H 4300 4930 30  0001 C CNN
F 2 "" H 4300 5000 60  0000 C CNN
F 3 "" H 4300 5000 60  0000 C CNN
	1    4300 5000
	1    0    0    -1  
$EndComp
$Comp
L CRYSTAL_4 X501
U 1 1 54350B2F
P 3150 3200
F 0 "X501" H 3150 3350 60  0000 C CNN
F 1 "CRYSTAL_4" H 3300 2800 60  0000 C CNN
F 2 "CX2520SB" H 3150 3050 60  0000 C CNN
F 3 "~" H 3150 3200 60  0000 C CNN
	1    3150 3200
	1    0    0    -1  
$EndComp
$Comp
L 2450BM15A0015 U502
U 1 1 54350B3E
P 7900 1950
F 0 "U502" H 8650 1450 60  0000 C CNN
F 1 "2450BM15A0015" H 7800 2300 60  0000 C CNN
F 2 "2450BM15A0015" H 7900 1500 60  0000 C CNN
F 3 "~" H 7900 1750 60  0000 C CNN
	1    7900 1950
	1    0    0    -1  
$EndComp
$Comp
L ANT_3216 A501
U 1 1 54350B4D
P 9500 1950
F 0 "A501" H 9600 1800 60  0000 C CNN
F 1 "ANT_3216" H 9550 2300 60  0000 C CNN
F 2 "ANT_3216" H 9500 1950 60  0000 C CNN
F 3 "~" H 9500 1950 60  0000 C CNN
	1    9500 1950
	1    0    0    -1  
$EndComp
$Comp
L GND #PWR501
U 1 1 54350B5C
P 9050 2350
F 0 "#PWR501" H 9050 2350 30  0001 C CNN
F 1 "GND" H 9050 2280 30  0001 C CNN
F 2 "" H 9050 2350 60  0000 C CNN
F 3 "" H 9050 2350 60  0000 C CNN
	1    9050 2350
	1    0    0    -1  
$EndComp
Text Label 7050 2050 2    60   ~ 0
RF_P
Text Label 7050 1950 2    60   ~ 0
RF_N
Text Label 4450 3400 2    60   ~ 0
RF_P
Text Label 4450 3500 2    60   ~ 0
RF_N
$Comp
L GND #PWR503
U 1 1 54350ED4
P 2700 3550
F 0 "#PWR503" H 2700 3550 30  0001 C CNN
F 1 "GND" H 2700 3480 30  0001 C CNN
F 2 "" H 2700 3550 60  0000 C CNN
F 3 "" H 2700 3550 60  0000 C CNN
	1    2700 3550
	1    0    0    -1  
$EndComp
$Comp
L GND #PWR504
U 1 1 54350EE1
P 3650 3550
F 0 "#PWR504" H 3650 3550 30  0001 C CNN
F 1 "GND" H 3650 3480 30  0001 C CNN
F 2 "" H 3650 3550 60  0000 C CNN
F 3 "" H 3650 3550 60  0000 C CNN
	1    3650 3550
	1    0    0    -1  
$EndComp
$Comp
L CSMALL C502
U 1 1 54351053
P 2700 3300
F 0 "C502" H 2725 3350 30  0000 L CNN
F 1 "8p" H 2725 3250 30  0000 L CNN
F 2 "SM0402" H 2500 3250 60  0000 C CNN
F 3 "~" H 2700 3300 60  0000 C CNN
	1    2700 3300
	1    0    0    -1  
$EndComp
$Comp
L CSMALL C503
U 1 1 54351062
P 3650 3300
F 0 "C503" H 3675 3350 30  0000 L CNN
F 1 "8p" H 3675 3250 30  0000 L CNN
F 2 "SM0402" H 3850 3200 60  0000 C CNN
F 3 "~" H 3650 3300 60  0000 C CNN
	1    3650 3300
	1    0    0    -1  
$EndComp
Text HLabel 6600 3600 2    60   Input ~ 0
MOT_CURRENT_REF
NoConn ~ 4850 2950
NoConn ~ 6450 4100
NoConn ~ 6450 4200
$Comp
L C C504
U 1 1 5436C79D
P 1350 4650
F 0 "C504" H 1350 4750 40  0000 L CNN
F 1 "100n" H 1356 4565 40  0000 L CNN
F 2 "SM0402" H 1388 4500 30  0000 C CNN
F 3 "~" H 1350 4650 60  0000 C CNN
F 4 "6V" H 1350 4650 60  0001 C CNN "Voltage"
	1    1350 4650
	1    0    0    -1  
$EndComp
$Comp
L C C505
U 1 1 5436C7AC
P 1650 4650
F 0 "C505" H 1650 4750 40  0000 L CNN
F 1 "100n" H 1656 4565 40  0000 L CNN
F 2 "SM0402" H 1688 4500 30  0000 C CNN
F 3 "~" H 1650 4650 60  0000 C CNN
F 4 "6V" H 1650 4650 60  0001 C CNN "Voltage"
	1    1650 4650
	1    0    0    -1  
$EndComp
$Comp
L C C506
U 1 1 5436C7BB
P 1950 4650
F 0 "C506" H 1950 4750 40  0000 L CNN
F 1 "100n" H 1956 4565 40  0000 L CNN
F 2 "SM0402" H 1988 4500 30  0000 C CNN
F 3 "~" H 1950 4650 60  0000 C CNN
F 4 "6V" H 1950 4650 60  0001 C CNN "Voltage"
	1    1950 4650
	1    0    0    -1  
$EndComp
$Comp
L C C507
U 1 1 5436C7CA
P 2250 4650
F 0 "C507" H 2250 4750 40  0000 L CNN
F 1 "10u" H 2256 4565 40  0000 L CNN
F 2 "SM0805" H 2288 4500 30  0000 C CNN
F 3 "~" H 2250 4650 60  0000 C CNN
F 4 "6V" H 2250 4650 60  0001 C CNN "Voltage"
	1    2250 4650
	1    0    0    -1  
$EndComp
$Comp
L GND #PWR507
U 1 1 5436C7D9
P 1800 5000
F 0 "#PWR507" H 1800 5000 30  0001 C CNN
F 1 "GND" H 1800 4930 30  0001 C CNN
F 2 "" H 1800 5000 60  0000 C CNN
F 3 "" H 1800 5000 60  0000 C CNN
	1    1800 5000
	1    0    0    -1  
$EndComp
$Comp
L VDD #PWR506
U 1 1 5436C7E8
P 1800 4300
F 0 "#PWR506" H 1800 4400 30  0001 C CNN
F 1 "VDD" H 1800 4410 30  0000 C CNN
F 2 "" H 1800 4300 60  0000 C CNN
F 3 "" H 1800 4300 60  0000 C CNN
	1    1800 4300
	1    0    0    -1  
$EndComp
$Comp
L C C509
U 1 1 5436CCAD
P 4000 4700
F 0 "C509" H 4000 4800 40  0000 L CNN
F 1 "100n" H 4006 4615 40  0000 L CNN
F 2 "SM0402" H 4038 4550 30  0000 C CNN
F 3 "~" H 4000 4700 60  0000 C CNN
F 4 "6V" H 4000 4700 60  0001 C CNN "Voltage"
	1    4000 4700
	1    0    0    -1  
$EndComp
$Comp
L C C508
U 1 1 5436CCBD
P 3700 4700
F 0 "C508" H 3700 4800 40  0000 L CNN
F 1 "100n" H 3706 4615 40  0000 L CNN
F 2 "SM0402" H 3738 4550 30  0000 C CNN
F 3 "~" H 3700 4700 60  0000 C CNN
F 4 "6V" H 3700 4700 60  0001 C CNN "Voltage"
	1    3700 4700
	1    0    0    -1  
$EndComp
$Comp
L GND #PWR509
U 1 1 5436CCC3
P 4000 5000
F 0 "#PWR509" H 4000 5000 30  0001 C CNN
F 1 "GND" H 4000 4930 30  0001 C CNN
F 2 "" H 4000 5000 60  0000 C CNN
F 3 "" H 4000 5000 60  0000 C CNN
	1    4000 5000
	1    0    0    -1  
$EndComp
$Comp
L GND #PWR508
U 1 1 5436CCC9
P 3700 5000
F 0 "#PWR508" H 3700 5000 30  0001 C CNN
F 1 "GND" H 3700 4930 30  0001 C CNN
F 2 "" H 3700 5000 60  0000 C CNN
F 3 "" H 3700 5000 60  0000 C CNN
	1    3700 5000
	1    0    0    -1  
$EndComp
Wire Wire Line
	4750 3750 4850 3750
Wire Wire Line
	4750 3850 4850 3850
Connection ~ 4750 3750
Wire Wire Line
	4750 3950 4850 3950
Connection ~ 4750 3850
Wire Wire Line
	3700 4200 4850 4200
Wire Wire Line
	4750 4750 4750 5350
Wire Wire Line
	4750 5250 4850 5250
Wire Wire Line
	4850 5150 4750 5150
Connection ~ 4750 5250
Wire Wire Line
	4850 5050 4750 5050
Connection ~ 4750 5150
Wire Wire Line
	4850 4950 4750 4950
Connection ~ 4750 5050
Wire Wire Line
	4850 4850 4750 4850
Connection ~ 4750 4950
Wire Wire Line
	4850 4750 4750 4750
Connection ~ 4750 4850
Wire Wire Line
	4300 5000 4300 4900
Wire Wire Line
	4300 4500 4850 4500
Wire Wire Line
	9050 2050 9050 2350
Wire Wire Line
	9050 2250 8900 2250
Wire Wire Line
	8900 2150 9050 2150
Connection ~ 9050 2250
Wire Wire Line
	8900 2050 9050 2050
Connection ~ 9050 2150
Wire Wire Line
	8900 1800 9150 1800
Wire Wire Line
	7050 2050 7300 2050
Wire Wire Line
	7050 1950 7300 1950
Wire Wire Line
	4450 3400 4850 3400
Wire Wire Line
	4850 3500 4450 3500
Wire Wire Line
	3450 3200 4850 3200
Wire Wire Line
	4850 3100 3500 3100
Wire Wire Line
	3500 3100 3500 2900
Wire Wire Line
	3500 2900 2700 2900
Wire Wire Line
	2700 2900 2700 3200
Wire Wire Line
	2700 3200 2850 3200
Wire Wire Line
	2700 3400 2700 3550
Wire Wire Line
	2700 3450 2850 3450
Wire Wire Line
	3450 3450 3650 3450
Wire Wire Line
	3650 3400 3650 3550
Connection ~ 3650 3450
Connection ~ 2700 3450
Wire Wire Line
	6450 4700 6600 4700
Wire Wire Line
	6450 4800 6600 4800
Wire Wire Line
	6600 3300 6450 3300
Wire Wire Line
	6450 3400 6600 3400
Wire Wire Line
	6600 3500 6450 3500
Wire Wire Line
	6650 4500 6450 4500
Wire Wire Line
	1350 4450 1350 4350
Wire Wire Line
	1350 4350 2250 4350
Wire Wire Line
	1800 4350 1800 4300
Wire Wire Line
	2250 4350 2250 4450
Connection ~ 1800 4350
Wire Wire Line
	1950 4450 1950 4350
Connection ~ 1950 4350
Wire Wire Line
	1650 4450 1650 4350
Connection ~ 1650 4350
Wire Wire Line
	1350 4850 1350 4950
Wire Wire Line
	1350 4950 2250 4950
Wire Wire Line
	1800 4950 1800 5000
Wire Wire Line
	2250 4950 2250 4850
Connection ~ 1800 4950
Wire Wire Line
	1950 4850 1950 4950
Connection ~ 1950 4950
Wire Wire Line
	1650 4850 1650 4950
Connection ~ 1650 4950
Wire Wire Line
	4750 3950 4750 3650
Wire Wire Line
	3700 4900 3700 5000
Wire Wire Line
	4000 4900 4000 5000
Wire Wire Line
	4000 4350 4000 4500
Wire Wire Line
	3700 4200 3700 4500
Wire Wire Line
	4850 4350 4000 4350
Connection ~ 3650 3200
Connection ~ 2700 3200
Wire Wire Line
	6600 3600 6450 3600
Wire Wire Line
	6600 3700 6450 3700
Wire Wire Line
	6450 3800 6600 3800
Wire Wire Line
	6600 3900 6450 3900
Wire Wire Line
	6450 4000 6600 4000
$Comp
L LED D501
U 1 1 54394AD1
P 10000 4300
F 0 "D501" H 10000 4400 50  0000 C CNN
F 1 "LED" H 10000 4200 50  0000 C CNN
F 2 "LED-0805" H 9950 4500 60  0000 C CNN
F 3 "~" H 10000 4300 60  0000 C CNN
	1    10000 4300
	0    1    1    0   
$EndComp
$Comp
L R R501
U 1 1 54394AE0
P 10000 3750
F 0 "R501" V 10080 3750 40  0000 C CNN
F 1 "R" V 10007 3751 40  0000 C CNN
F 2 "SM0402" V 9930 3750 30  0000 C CNN
F 3 "~" H 10000 3750 30  0000 C CNN
	1    10000 3750
	1    0    0    -1  
$EndComp
$Comp
L VDD #PWR502
U 1 1 54394AEF
P 10000 3400
F 0 "#PWR502" H 10000 3500 30  0001 C CNN
F 1 "VDD" H 10000 3510 30  0000 C CNN
F 2 "" H 10000 3400 60  0000 C CNN
F 3 "" H 10000 3400 60  0000 C CNN
	1    10000 3400
	1    0    0    -1  
$EndComp
Wire Wire Line
	10000 3400 10000 3500
Wire Wire Line
	10000 4000 10000 4100
Text Label 10100 4600 0    60   ~ 0
LED_0
Wire Wire Line
	10100 4600 10000 4600
Wire Wire Line
	10000 4600 10000 4500
Text Label 6650 4500 0    60   ~ 0
LED_0
NoConn ~ 6450 4300
NoConn ~ 6450 4400
NoConn ~ 6450 4600
$Comp
L CONN_1 TP501
U 1 1 544602CE
P 8100 3250
F 0 "TP501" H 8180 3250 40  0000 L CNN
F 1 "CONN_1" H 8100 3305 30  0001 C CNN
F 2 "" H 8100 3250 60  0000 C CNN
F 3 "" H 8100 3250 60  0000 C CNN
	1    8100 3250
	1    0    0    -1  
$EndComp
$Comp
L CONN_1 TP502
U 1 1 544602DD
P 8100 3350
F 0 "TP502" H 8180 3350 40  0000 L CNN
F 1 "CONN_1" H 8100 3405 30  0001 C CNN
F 2 "" H 8100 3350 60  0000 C CNN
F 3 "" H 8100 3350 60  0000 C CNN
	1    8100 3350
	1    0    0    -1  
$EndComp
$Comp
L CONN_1 TP503
U 1 1 544602EA
P 8100 3450
F 0 "TP503" H 8180 3450 40  0000 L CNN
F 1 "CONN_1" H 8100 3505 30  0001 C CNN
F 2 "" H 8100 3450 60  0000 C CNN
F 3 "" H 8100 3450 60  0000 C CNN
	1    8100 3450
	1    0    0    -1  
$EndComp
$Comp
L CONN_1 TP504
U 1 1 544602F0
P 8100 3550
F 0 "TP504" H 8180 3550 40  0000 L CNN
F 1 "CONN_1" H 8100 3605 30  0001 C CNN
F 2 "" H 8100 3550 60  0000 C CNN
F 3 "" H 8100 3550 60  0000 C CNN
	1    8100 3550
	1    0    0    -1  
$EndComp
$Comp
L CONN_1 TP505
U 1 1 544602F6
P 8100 3650
F 0 "TP505" H 8180 3650 40  0000 L CNN
F 1 "CONN_1" H 8100 3705 30  0001 C CNN
F 2 "" H 8100 3650 60  0000 C CNN
F 3 "" H 8100 3650 60  0000 C CNN
	1    8100 3650
	1    0    0    -1  
$EndComp
$Comp
L CONN_1 TP506
U 1 1 544602FC
P 8100 3750
F 0 "TP506" H 8180 3750 40  0000 L CNN
F 1 "CONN_1" H 8100 3805 30  0001 C CNN
F 2 "" H 8100 3750 60  0000 C CNN
F 3 "" H 8100 3750 60  0000 C CNN
	1    8100 3750
	1    0    0    -1  
$EndComp
Wire Wire Line
	7950 3250 6550 3250
Wire Wire Line
	6550 3250 6550 3300
Connection ~ 6550 3300
Wire Wire Line
	7950 3350 6550 3350
Wire Wire Line
	6550 3350 6550 3400
Connection ~ 6550 3400
Wire Wire Line
	7950 3450 6550 3450
Wire Wire Line
	6550 3450 6550 3500
Connection ~ 6550 3500
Wire Wire Line
	7950 3550 6550 3550
Wire Wire Line
	6550 3550 6550 3600
Connection ~ 6550 3600
Wire Wire Line
	7950 3650 6550 3650
Wire Wire Line
	6550 3650 6550 3700
Connection ~ 6550 3700
Wire Wire Line
	7950 3750 6550 3750
Wire Wire Line
	6550 3750 6550 3800
Connection ~ 6550 3800
$EndSCHEMATC
