EESchema Schematic File Version 2
LIBS:power
LIBS:device
LIBS:transistors
LIBS:conn
LIBS:linear
LIBS:regul
LIBS:74xx
LIBS:cmos4000
LIBS:adc-dac
LIBS:memory
LIBS:xilinx
LIBS:special
LIBS:microcontrollers
LIBS:dsp
LIBS:microchip
LIBS:analog_switches
LIBS:motorola
LIBS:texas
LIBS:intel
LIBS:audio
LIBS:interface
LIBS:digital-audio
LIBS:philips
LIBS:display
LIBS:cypress
LIBS:siliconi
LIBS:opto
LIBS:atmel
LIBS:contrib
LIBS:valves
LIBS:crap
LIBS:wservo-cache
EELAYER 27 0
EELAYER END
$Descr A4 11693 8268
encoding utf-8
Sheet 3 5
Title ""
Date "12 nov 2014"
Rev ""
Comp ""
Comment1 ""
Comment2 ""
Comment3 ""
Comment4 ""
$EndDescr
Text HLabel 6350 3550 2    60   Output ~ 0
Mot_A
Text HLabel 6350 3300 2    60   Output ~ 0
Mot_B
Text HLabel 4250 3450 0    60   Input ~ 0
PH
Text HLabel 4250 3350 0    60   Input ~ 0
EN
$Comp
L DRV8838 U301
U 1 1 5433F28E
P 5400 3600
F 0 "U301" H 5900 3200 60  0000 C CNN
F 1 "DRV8838" H 5050 4000 60  0000 C CNN
F 2 "S-PWSON-N8" H 5300 3200 60  0000 C CNN
F 3 "" H 5400 4500 60  0000 C CNN
	1    5400 3600
	1    0    0    -1  
$EndComp
$Comp
L GND #PWR305
U 1 1 5433F29D
P 6150 3950
F 0 "#PWR305" H 6150 3950 30  0001 C CNN
F 1 "GND" H 6150 3880 30  0001 C CNN
F 2 "" H 6150 3950 60  0000 C CNN
F 3 "" H 6150 3950 60  0000 C CNN
	1    6150 3950
	1    0    0    -1  
$EndComp
Wire Wire Line
	6150 3750 6150 3950
Wire Wire Line
	6150 3850 6050 3850
Wire Wire Line
	6150 3750 6050 3750
Connection ~ 6150 3850
Wire Wire Line
	6350 3300 6250 3300
Wire Wire Line
	6250 3300 6250 3400
Wire Wire Line
	6250 3400 6050 3400
Wire Wire Line
	6050 3500 6250 3500
Wire Wire Line
	6250 3500 6250 3550
Wire Wire Line
	6250 3550 6350 3550
Wire Wire Line
	4250 3350 4750 3350
Wire Wire Line
	4750 3450 4250 3450
$Comp
L VDD #PWR304
U 1 1 5433F341
P 3900 3850
F 0 "#PWR304" H 3900 3950 30  0001 C CNN
F 1 "VDD" H 3900 3960 30  0000 C CNN
F 2 "" H 3900 3850 60  0000 C CNN
F 3 "" H 3900 3850 60  0000 C CNN
	1    3900 3850
	0    -1   -1   0   
$EndComp
Wire Wire Line
	3900 3850 4750 3850
$Comp
L +BATT #PWR303
U 1 1 5433F42B
P 4550 3750
F 0 "#PWR303" H 4550 3700 20  0001 C CNN
F 1 "+BATT" H 4550 3850 30  0000 C CNN
F 2 "" H 4550 3750 60  0000 C CNN
F 3 "" H 4550 3750 60  0000 C CNN
	1    4550 3750
	0    -1   -1   0   
$EndComp
Wire Wire Line
	4550 3750 4750 3750
$Comp
L C C301
U 1 1 5433F4D0
P 2350 3700
F 0 "C301" H 2350 3800 40  0000 L CNN
F 1 "100n" H 2356 3615 40  0000 L CNN
F 2 "SM0603" H 2388 3550 30  0000 C CNN
F 3 "~" H 2350 3700 60  0000 C CNN
F 4 "16V" H 2350 3700 60  0001 C CNN "Voltage"
	1    2350 3700
	1    0    0    -1  
$EndComp
$Comp
L C C302
U 1 1 5433F4DF
P 2600 3700
F 0 "C302" H 2600 3800 40  0000 L CNN
F 1 "100n" H 2606 3615 40  0000 L CNN
F 2 "SM0603" H 2638 3550 30  0000 C CNN
F 3 "~" H 2600 3700 60  0000 C CNN
F 4 "16V" H 2600 3700 60  0001 C CNN "Voltage"
	1    2600 3700
	1    0    0    -1  
$EndComp
$Comp
L GND #PWR306
U 1 1 5433F4EE
P 2350 4050
F 0 "#PWR306" H 2350 4050 30  0001 C CNN
F 1 "GND" H 2350 3980 30  0001 C CNN
F 2 "" H 2350 4050 60  0000 C CNN
F 3 "" H 2350 4050 60  0000 C CNN
	1    2350 4050
	1    0    0    -1  
$EndComp
$Comp
L GND #PWR307
U 1 1 5433F4FD
P 2600 4050
F 0 "#PWR307" H 2600 4050 30  0001 C CNN
F 1 "GND" H 2600 3980 30  0001 C CNN
F 2 "" H 2600 4050 60  0000 C CNN
F 3 "" H 2600 4050 60  0000 C CNN
	1    2600 4050
	1    0    0    -1  
$EndComp
Wire Wire Line
	2600 4050 2600 3900
Wire Wire Line
	2350 4050 2350 3900
$Comp
L +BATT #PWR301
U 1 1 5433F531
P 2350 3400
F 0 "#PWR301" H 2350 3350 20  0001 C CNN
F 1 "+BATT" H 2350 3500 30  0000 C CNN
F 2 "" H 2350 3400 60  0000 C CNN
F 3 "" H 2350 3400 60  0000 C CNN
	1    2350 3400
	1    0    0    -1  
$EndComp
Wire Wire Line
	2350 3400 2350 3500
$Comp
L VDD #PWR302
U 1 1 5433F54C
P 2600 3400
F 0 "#PWR302" H 2600 3500 30  0001 C CNN
F 1 "VDD" H 2600 3510 30  0000 C CNN
F 2 "" H 2600 3400 60  0000 C CNN
F 3 "" H 2600 3400 60  0000 C CNN
	1    2600 3400
	1    0    0    -1  
$EndComp
Wire Wire Line
	2600 3400 2600 3500
Text HLabel 4250 3550 0    60   Input ~ 0
nSLEEP
Wire Wire Line
	4250 3550 4750 3550
$EndSCHEMATC
