EESchema Schematic File Version 2
LIBS:power
LIBS:device
LIBS:transistors
LIBS:conn
LIBS:linear
LIBS:regul
LIBS:74xx
LIBS:cmos4000
LIBS:adc-dac
LIBS:memory
LIBS:xilinx
LIBS:special
LIBS:microcontrollers
LIBS:dsp
LIBS:microchip
LIBS:analog_switches
LIBS:motorola
LIBS:texas
LIBS:intel
LIBS:audio
LIBS:interface
LIBS:digital-audio
LIBS:philips
LIBS:display
LIBS:cypress
LIBS:siliconi
LIBS:opto
LIBS:atmel
LIBS:contrib
LIBS:valves
LIBS:crap
LIBS:wservo-cache
EELAYER 27 0
EELAYER END
$Descr A4 11693 8268
encoding utf-8
Sheet 1 5
Title ""
Date "12 nov 2014"
Rev ""
Comp ""
Comment1 ""
Comment2 ""
Comment3 ""
Comment4 ""
$EndDescr
$Sheet
S 4600 1350 1400 900 
U 5433DD13
F0 "Power" 50
F1 "power.sch" 50
$EndSheet
$Sheet
S 4600 4550 1300 800 
U 5433DD2E
F0 "Motor" 50
F1 "motor.sch" 50
F2 "Mot_A" O R 5900 4850 60 
F3 "Mot_B" O R 5900 5000 60 
F4 "PH" I L 4600 4850 60 
F5 "EN" I L 4600 5000 60 
F6 "nSLEEP" I L 4600 5150 60 
$EndSheet
$Comp
L CONN_2 P101
U 1 1 5433F172
P 1850 2050
F 0 "P101" V 1800 2050 40  0000 C CNN
F 1 "CONN_2" V 1900 2050 40  0000 C CNN
F 2 "CRAP_2SMD" H 1850 2250 60  0000 C CNN
F 3 "" H 1850 2050 60  0000 C CNN
	1    1850 2050
	-1   0    0    1   
$EndComp
$Comp
L GND #PWR102
U 1 1 5433F199
P 2300 2250
F 0 "#PWR102" H 2300 2250 30  0001 C CNN
F 1 "GND" H 2300 2180 30  0001 C CNN
F 2 "" H 2300 2250 60  0000 C CNN
F 3 "" H 2300 2250 60  0000 C CNN
	1    2300 2250
	1    0    0    -1  
$EndComp
Wire Wire Line
	2300 2250 2300 2150
Wire Wire Line
	2300 2150 2200 2150
$Comp
L +BATT #PWR101
U 1 1 5433F1B5
P 2300 1850
F 0 "#PWR101" H 2300 1800 20  0001 C CNN
F 1 "+BATT" H 2300 1950 30  0000 C CNN
F 2 "" H 2300 1850 60  0000 C CNN
F 3 "" H 2300 1850 60  0000 C CNN
	1    2300 1850
	1    0    0    -1  
$EndComp
Wire Wire Line
	2300 1850 2300 1950
Wire Wire Line
	2300 1950 2200 1950
$Comp
L R R101
U 1 1 5433F76B
P 7100 4900
AR Path="/5433F76B" Ref="R101"  Part="1" 
AR Path="/5433DD1C/5433F76B" Ref="R101"  Part="1" 
F 0 "R101" V 7180 4900 40  0000 C CNN
F 1 "45m" V 7107 4901 40  0000 C CNN
F 2 "SM0603" V 7030 4900 30  0000 C CNN
F 3 "~" H 7100 4900 30  0000 C CNN
	1    7100 4900
	-1   0    0    1   
$EndComp
Wire Wire Line
	6900 4650 7350 4650
Wire Wire Line
	7350 4650 7350 4800
Wire Wire Line
	7350 4800 7550 4800
Wire Wire Line
	7550 4950 7350 4950
Wire Wire Line
	7350 4950 7350 5150
Wire Wire Line
	7350 5150 6900 5150
Wire Wire Line
	5900 4850 6900 4850
Wire Wire Line
	6900 4850 6900 4650
Connection ~ 7100 4650
Wire Wire Line
	6900 5150 6900 5000
Connection ~ 7100 5150
Wire Wire Line
	4200 4850 4600 4850
Wire Wire Line
	4200 5000 4600 5000
Wire Wire Line
	8850 4950 9000 4950
Wire Wire Line
	9000 4950 9000 5650
Wire Wire Line
	9000 5650 2700 5650
Wire Wire Line
	2700 5650 2700 5000
$Comp
L CONN_3 K101
U 1 1 543417C4
P 6950 3700
F 0 "K101" V 6900 3700 50  0000 C CNN
F 1 "CONN_3" V 7000 3700 40  0000 C CNN
F 2 "CRAP_3SMD" V 7100 3700 60  0000 C CNN
F 3 "" H 6950 3700 60  0000 C CNN
	1    6950 3700
	0    -1   -1   0   
$EndComp
$Comp
L GND #PWR103
U 1 1 5434181F
P 6850 4200
F 0 "#PWR103" H 6850 4200 30  0001 C CNN
F 1 "GND" H 6850 4130 30  0001 C CNN
F 2 "" H 6850 4200 60  0000 C CNN
F 3 "" H 6850 4200 60  0000 C CNN
	1    6850 4200
	1    0    0    -1  
$EndComp
$Comp
L VDD #PWR104
U 1 1 5434186C
P 7050 4200
F 0 "#PWR104" H 7050 4300 30  0001 C CNN
F 1 "VDD" H 7050 4310 30  0000 C CNN
F 2 "" H 7050 4200 60  0000 C CNN
F 3 "" H 7050 4200 60  0000 C CNN
	1    7050 4200
	-1   0    0    1   
$EndComp
$Sheet
S 7550 4150 1300 950 
U 5433ED40
F0 "Analog" 50
F1 "Analog.sch" 50
F2 "SENSE_A" I L 7550 4800 60 
F3 "SENSE_B" I L 7550 4950 60 
F4 "CURRENT" O R 8850 4950 60 
F5 "SENSE_POT" I L 7550 4450 60 
F6 "POSITION" O R 8850 4800 60 
F7 "CURRENT_REF" O R 8850 4650 60 
$EndSheet
Wire Wire Line
	6850 4200 6850 4050
Wire Wire Line
	7050 4200 7050 4050
Wire Wire Line
	6950 4050 6950 4450
Wire Wire Line
	6950 4450 7550 4450
Wire Wire Line
	8850 4800 9150 4800
Wire Wire Line
	9150 4800 9150 5800
Wire Wire Line
	9150 5800 2550 5800
Wire Wire Line
	2550 5800 2550 4850
$Sheet
S 2950 3450 1250 1900
U 5433DD1C
F0 "MCU" 50
F1 "MCU.sch" 50
F2 "MOT_EN" O R 4200 5000 60 
F3 "MOT_PH" O R 4200 4850 60 
F4 "MOT_CURRENT" I L 2950 5000 60 
F5 "MOT_POSITION" I L 2950 4850 60 
F6 "SWCLK" I R 4200 3800 60 
F7 "SWDIO" B R 4200 3700 60 
F8 "DBG_TX" O R 4200 3900 60 
F9 "DBG_RX" I R 4200 4000 60 
F10 "MOT_nSLEEP" O R 4200 5150 60 
F11 "MOT_CURRENT_REF" I L 2950 4700 60 
$EndSheet
$Comp
L CONN_4 P102
U 1 1 54345847
P 4650 3850
F 0 "P102" V 4600 3850 50  0000 C CNN
F 1 "CONN_4" V 4700 3850 50  0000 C CNN
F 2 "CRAP_4SMD" V 4800 3850 60  0000 C CNN
F 3 "" H 4650 3850 60  0000 C CNN
	1    4650 3850
	1    0    0    -1  
$EndComp
Wire Wire Line
	4300 3700 4200 3700
Wire Wire Line
	4200 3800 4300 3800
Wire Wire Line
	4300 3900 4200 3900
Wire Wire Line
	4200 4000 4300 4000
Wire Wire Line
	2700 5000 2950 5000
Wire Wire Line
	2550 4850 2950 4850
Wire Wire Line
	4200 5150 4600 5150
Wire Wire Line
	5900 5000 6350 5000
Wire Wire Line
	6350 5000 6350 5050
Wire Wire Line
	6550 5050 6550 5000
Wire Wire Line
	6550 5000 6900 5000
Wire Wire Line
	2950 4700 2400 4700
Wire Wire Line
	2400 4700 2400 5950
Wire Wire Line
	2400 5950 9300 5950
Wire Wire Line
	9300 5950 9300 4650
Wire Wire Line
	9300 4650 8850 4650
$Comp
L CONN_1 P104
U 1 1 5437D86F
P 6550 5200
F 0 "P104" H 6630 5200 40  0000 L CNN
F 1 "CONN_1" H 6550 5255 30  0001 C CNN
F 2 "1pin" H 6550 5300 60  0000 C CNN
F 3 "" H 6550 5200 60  0000 C CNN
	1    6550 5200
	0    1    1    0   
$EndComp
$Comp
L CONN_1 P103
U 1 1 5437D8BB
P 6350 5200
F 0 "P103" H 6430 5200 40  0000 L CNN
F 1 "CONN_1" H 6350 5255 30  0001 C CNN
F 2 "1pin" H 6350 5250 60  0000 C CNN
F 3 "" H 6350 5200 60  0000 C CNN
	1    6350 5200
	0    1    1    0   
$EndComp
$EndSCHEMATC
