EESchema Schematic File Version 2
LIBS:canmove-rescue
LIBS:power
LIBS:device
LIBS:transistors
LIBS:conn
LIBS:linear
LIBS:regul
LIBS:74xx
LIBS:cmos4000
LIBS:adc-dac
LIBS:memory
LIBS:xilinx
LIBS:microcontrollers
LIBS:dsp
LIBS:microchip
LIBS:analog_switches
LIBS:motorola
LIBS:texas
LIBS:intel
LIBS:audio
LIBS:interface
LIBS:digital-audio
LIBS:philips
LIBS:display
LIBS:cypress
LIBS:siliconi
LIBS:opto
LIBS:atmel
LIBS:contrib
LIBS:valves
LIBS:crap
LIBS:canmove-cache
EELAYER 25 0
EELAYER END
$Descr A4 11693 8268
encoding utf-8
Sheet 5 7
Title ""
Date "2 oct 2015"
Rev ""
Comp ""
Comment1 ""
Comment2 ""
Comment3 ""
Comment4 ""
$EndDescr
Text HLabel 5050 2350 2    60   BiDi ~ 0
CANL
Text HLabel 5050 2450 2    60   BiDi ~ 0
CANH
Wire Wire Line
	5050 2450 4900 2450
Wire Wire Line
	4900 2350 5050 2350
$Comp
L SN65HVD234-RESCUE-canmove U601
U 1 1 560BD858
P 4200 2450
F 0 "U601" H 4750 2050 60  0000 C CNN
F 1 "SN65HVD234" H 4050 2800 60  0000 C CNN
F 2 "SOIC-8_N" H 4150 2050 60  0000 C CNN
F 3 "~" H 4150 2050 60  0000 C CNN
	1    4200 2450
	1    0    0    -1  
$EndComp
$Comp
L GND-RESCUE-canmove #PWR0106
U 1 1 560BD85E
P 5050 2750
F 0 "#PWR0106" H 5050 2750 30  0001 C CNN
F 1 "GND" H 5050 2680 30  0001 C CNN
F 2 "" H 5050 2750 60  0000 C CNN
F 3 "" H 5050 2750 60  0000 C CNN
	1    5050 2750
	1    0    0    -1  
$EndComp
$Comp
L GND-RESCUE-canmove #PWR0107
U 1 1 560BD864
P 3500 2850
F 0 "#PWR0107" H 3500 2850 30  0001 C CNN
F 1 "GND" H 3500 2780 30  0001 C CNN
F 2 "" H 3500 2850 60  0000 C CNN
F 3 "" H 3500 2850 60  0000 C CNN
	1    3500 2850
	1    0    0    -1  
$EndComp
Wire Wire Line
	3500 2850 3500 2750
Wire Wire Line
	3500 2750 3650 2750
Wire Wire Line
	5050 2750 5050 2600
Wire Wire Line
	5050 2600 4900 2600
Wire Wire Line
	3500 2100 3500 2250
Wire Wire Line
	3500 2250 3650 2250
Text HLabel 3350 2400 0    60   Input ~ 0
TX
Text HLabel 3350 2500 0    60   Output ~ 0
RX
Wire Wire Line
	3350 2500 3650 2500
Wire Wire Line
	3350 2400 3650 2400
Wire Wire Line
	3450 2650 3650 2650
$Comp
L C-RESCUE-canmove C601
U 1 1 560BD876
P 2350 2600
F 0 "C601" H 2350 2700 40  0000 L CNN
F 1 "0.1u" H 2356 2515 40  0000 L CNN
F 2 "SM0402" H 2388 2450 30  0000 C CNN
F 3 "~" H 2350 2600 60  0000 C CNN
	1    2350 2600
	1    0    0    -1  
$EndComp
$Comp
L GND-RESCUE-canmove #PWR0108
U 1 1 560BD87C
P 2350 2900
F 0 "#PWR0108" H 2350 2900 30  0001 C CNN
F 1 "GND" H 2350 2830 30  0001 C CNN
F 2 "" H 2350 2900 60  0000 C CNN
F 3 "" H 2350 2900 60  0000 C CNN
	1    2350 2900
	1    0    0    -1  
$EndComp
Wire Wire Line
	2350 2300 2350 2400
Wire Wire Line
	2350 2800 2350 2900
$Comp
L R-RESCUE-canmove R601
U 1 1 560BD884
P 3200 2650
F 0 "R601" V 3280 2650 40  0000 C CNN
F 1 "R" V 3207 2651 40  0000 C CNN
F 2 "SM0402" V 3130 2650 30  0000 C CNN
F 3 "~" H 3200 2650 30  0000 C CNN
	1    3200 2650
	0    -1   -1   0   
$EndComp
Wire Wire Line
	2800 2650 2950 2650
$Comp
L VDD #PWR0109
U 1 1 560BD88B
P 3500 2100
F 0 "#PWR0109" H 3500 2200 30  0001 C CNN
F 1 "VDD" H 3500 2210 30  0000 C CNN
F 2 "" H 3500 2100 60  0000 C CNN
F 3 "" H 3500 2100 60  0000 C CNN
	1    3500 2100
	1    0    0    -1  
$EndComp
$Comp
L VDD #PWR0110
U 1 1 560BD891
P 2350 2300
F 0 "#PWR0110" H 2350 2400 30  0001 C CNN
F 1 "VDD" H 2350 2410 30  0000 C CNN
F 2 "" H 2350 2300 60  0000 C CNN
F 3 "" H 2350 2300 60  0000 C CNN
	1    2350 2300
	1    0    0    -1  
$EndComp
$Comp
L VDD #PWR0111
U 1 1 560BD897
P 2800 2650
F 0 "#PWR0111" H 2800 2750 30  0001 C CNN
F 1 "VDD" H 2800 2760 30  0000 C CNN
F 2 "" H 2800 2650 60  0000 C CNN
F 3 "" H 2800 2650 60  0000 C CNN
	1    2800 2650
	0    -1   -1   0   
$EndComp
$EndSCHEMATC
