(export (version D)
  (design
    (source /home/burindes/crap/elec/canmove/canmove.sch)
    (date "ven. 02 oct. 2015 14:15:32 CEST")
    (tool "eeschema (25-Oct-2014 BZR 4029)-stable"))
  (components
    (comp (ref P102)
      (value CONN_2)
      (footprint WE_CONN_3.81_vertical_2way)
      (libsource (lib conn) (part CONN_2))
      (sheetpath (names /) (tstamps /))
      (tstamp 560AB49F))
    (comp (ref P103)
      (value CONN_2)
      (footprint WE_CONN_3.81_vertical_2way)
      (libsource (lib conn) (part CONN_2))
      (sheetpath (names /) (tstamps /))
      (tstamp 560AB4AE))
    (comp (ref P104)
      (value CONN_2)
      (footprint WE_CONN_3.81_vertical_2way)
      (libsource (lib conn) (part CONN_2))
      (sheetpath (names /) (tstamps /))
      (tstamp 560AB4BD))
    (comp (ref P105)
      (value CONN_3X2)
      (footprint he10-6d)
      (libsource (lib conn) (part CONN_3X2))
      (sheetpath (names /) (tstamps /))
      (tstamp 560AB503))
    (comp (ref P106)
      (value CONN_3X2)
      (footprint he10-6d)
      (libsource (lib conn) (part CONN_3X2))
      (sheetpath (names /) (tstamps /))
      (tstamp 560AB512))
    (comp (ref P107)
      (value CONN_3X2)
      (footprint he10-6d)
      (libsource (lib conn) (part CONN_3X2))
      (sheetpath (names /) (tstamps /))
      (tstamp 560AB521))
    (comp (ref P108)
      (value CONN_2)
      (footprint WE_CONN_3.81_vertical_2way)
      (libsource (lib conn) (part CONN_2))
      (sheetpath (names /) (tstamps /))
      (tstamp 560AB5A1))
    (comp (ref P110)
      (value CONN_4)
      (footprint PIN_ARRAY_4x1)
      (libsource (lib conn) (part CONN_4))
      (sheetpath (names /) (tstamps /))
      (tstamp 560BB486))
    (comp (ref P101)
      (value CONN_6)
      (footprint TE_MICROMATCH_SMD_FEM_6PIN)
      (libsource (lib conn) (part CONN_6))
      (sheetpath (names /) (tstamps /))
      (tstamp 560BFDDE))
    (comp (ref R101)
      (value 300)
      (footprint SM0402)
      (libsource (lib device) (part R))
      (sheetpath (names /) (tstamps /))
      (tstamp 560CB229))
    (comp (ref R102)
      (value 300)
      (footprint SM0402)
      (libsource (lib device) (part R))
      (sheetpath (names /) (tstamps /))
      (tstamp 560CB2CB))
    (comp (ref R103)
      (value 300)
      (footprint SM0402)
      (libsource (lib device) (part R))
      (sheetpath (names /) (tstamps /))
      (tstamp 560CB2D1))
    (comp (ref R104)
      (value 300)
      (footprint SM0402)
      (libsource (lib device) (part R))
      (sheetpath (names /) (tstamps /))
      (tstamp 560CB2D7))
    (comp (ref R105)
      (value 300)
      (footprint SM0402)
      (libsource (lib device) (part R))
      (sheetpath (names /) (tstamps /))
      (tstamp 560CB2DD))
    (comp (ref R106)
      (value 300)
      (footprint SM0402)
      (libsource (lib device) (part R))
      (sheetpath (names /) (tstamps /))
      (tstamp 560CB2E3))
    (comp (ref K101)
      (value CONN_3)
      (footprint PIN_ARRAY_3_BLUE)
      (libsource (lib conn) (part CONN_3))
      (sheetpath (names /) (tstamps /))
      (tstamp 560D092E))
    (comp (ref K102)
      (value CONN_3)
      (footprint PIN_ARRAY_3_BLUE)
      (libsource (lib conn) (part CONN_3))
      (sheetpath (names /) (tstamps /))
      (tstamp 560D19BA))
    (comp (ref K103)
      (value CONN_3)
      (footprint PIN_ARRAY_3_BLUE)
      (libsource (lib conn) (part CONN_3))
      (sheetpath (names /) (tstamps /))
      (tstamp 560D1AEC))
    (comp (ref C101)
      (value C)
      (footprint SM0603)
      (libsource (lib device) (part C))
      (sheetpath (names /) (tstamps /))
      (tstamp 560CA5B0))
    (comp (ref C102)
      (value C)
      (footprint SM0603)
      (libsource (lib device) (part C))
      (sheetpath (names /) (tstamps /))
      (tstamp 560CA65B))
    (comp (ref C103)
      (value C)
      (footprint SM0603)
      (libsource (lib device) (part C))
      (sheetpath (names /) (tstamps /))
      (tstamp 560CAA32))
    (comp (ref C104)
      (value C)
      (footprint SM0603)
      (libsource (lib device) (part C))
      (sheetpath (names /) (tstamps /))
      (tstamp 560CAA38))
    (comp (ref C105)
      (value C)
      (footprint SM0603)
      (libsource (lib device) (part C))
      (sheetpath (names /) (tstamps /))
      (tstamp 560CAB81))
    (comp (ref C106)
      (value C)
      (footprint SM0603)
      (libsource (lib device) (part C))
      (sheetpath (names /) (tstamps /))
      (tstamp 560CAB87))
    (comp (ref C107)
      (value 100u)
      (libsource (lib device) (part C))
      (sheetpath (names /) (tstamps /))
      (tstamp 560CFDF3))
    (comp (ref U201)
      (value ISO7140)
      (footprint TSSOP16)
      (libsource (lib crap) (part ISO7140))
      (sheetpath (names /iso/) (tstamps /560AB42F/))
      (tstamp 560AB9DB))
    (comp (ref U202)
      (value ISO7141)
      (footprint TSSOP16)
      (libsource (lib crap) (part ISO7141))
      (sheetpath (names /iso/) (tstamps /560AB42F/))
      (tstamp 560AB9EA))
    (comp (ref C201)
      (value 0.1u)
      (footprint SM0402)
      (libsource (lib device) (part C))
      (sheetpath (names /iso/) (tstamps /560AB42F/))
      (tstamp 560CDC0E))
    (comp (ref C202)
      (value 0.1u)
      (footprint SM0402)
      (libsource (lib device) (part C))
      (sheetpath (names /iso/) (tstamps /560AB42F/))
      (tstamp 560CDC27))
    (comp (ref C203)
      (value 0.1u)
      (footprint SM0402)
      (libsource (lib device) (part C))
      (sheetpath (names /iso/) (tstamps /560AB42F/))
      (tstamp 560CDC2D))
    (comp (ref C204)
      (value 0.1u)
      (footprint SM0402)
      (libsource (lib device) (part C))
      (sheetpath (names /iso/) (tstamps /560AB42F/))
      (tstamp 560CDC33))
    (comp (ref U301)
      (value MC33926)
      (footprint PQFN32-0.8)
      (libsource (lib crap) (part MC33926))
      (sheetpath (names /motors/) (tstamps /560AB43A/))
      (tstamp 560BDC7B))
    (comp (ref C303)
      (value 33n)
      (footprint SM0603)
      (libsource (lib device) (part C))
      (sheetpath (names /motors/) (tstamps /560AB43A/))
      (tstamp 560BDC87))
    (comp (ref C301)
      (value 100u)
      (footprint SM1210)
      (libsource (lib device) (part C))
      (sheetpath (names /motors/) (tstamps /560AB43A/))
      (tstamp 560BDC8D))
    (comp (ref C302)
      (value 100n)
      (footprint SM0805)
      (libsource (lib device) (part C))
      (sheetpath (names /motors/) (tstamps /560AB43A/))
      (tstamp 560BDC93))
    (comp (ref U302)
      (value MC33926)
      (footprint PQFN32-0.8)
      (libsource (lib crap) (part MC33926))
      (sheetpath (names /motors/) (tstamps /560AB43A/))
      (tstamp 560BDD80))
    (comp (ref C306)
      (value 33n)
      (footprint SM0603)
      (libsource (lib device) (part C))
      (sheetpath (names /motors/) (tstamps /560AB43A/))
      (tstamp 560BDD8C))
    (comp (ref C304)
      (value 100u)
      (footprint SM1210)
      (libsource (lib device) (part C))
      (sheetpath (names /motors/) (tstamps /560AB43A/))
      (tstamp 560BDD92))
    (comp (ref C305)
      (value 100n)
      (footprint SM0805)
      (libsource (lib device) (part C))
      (sheetpath (names /motors/) (tstamps /560AB43A/))
      (tstamp 560BDD98))
    (comp (ref U303)
      (value MC33926)
      (footprint PQFN32-0.8)
      (libsource (lib crap) (part MC33926))
      (sheetpath (names /motors/) (tstamps /560AB43A/))
      (tstamp 560BDE0C))
    (comp (ref C309)
      (value 33n)
      (footprint SM0603)
      (libsource (lib device) (part C))
      (sheetpath (names /motors/) (tstamps /560AB43A/))
      (tstamp 560BDE18))
    (comp (ref C307)
      (value 100u)
      (footprint SM1210)
      (libsource (lib device) (part C))
      (sheetpath (names /motors/) (tstamps /560AB43A/))
      (tstamp 560BDE1E))
    (comp (ref C308)
      (value 100n)
      (footprint SM0805)
      (libsource (lib device) (part C))
      (sheetpath (names /motors/) (tstamps /560AB43A/))
      (tstamp 560BDE24))
    (comp (ref P401)
      (value JTAGCON)
      (footprint BM06B-SRSS-TB)
      (libsource (lib crap) (part JTAGCON))
      (sheetpath (names /mcu/) (tstamps /560AB474/))
      (tstamp 560AB47C))
    (comp (ref U401)
      (value STM32F407VG)
      (footprint VQFP100)
      (libsource (lib crap) (part STM32F407VG))
      (sheetpath (names /mcu/) (tstamps /560AB474/))
      (tstamp 560C8B5B))
    (comp (ref C401)
      (value 2.2u)
      (footprint SM0603)
      (libsource (lib device) (part C))
      (sheetpath (names /mcu/) (tstamps /560AB474/))
      (tstamp 560C9A6B))
    (comp (ref C402)
      (value 2.2u)
      (footprint SM0603)
      (libsource (lib device) (part C))
      (sheetpath (names /mcu/) (tstamps /560AB474/))
      (tstamp 560C9A7A))
    (comp (ref C403)
      (value 4.7u)
      (footprint SM0805)
      (libsource (lib device) (part C))
      (sheetpath (names /mcu/) (tstamps /560AB474/))
      (tstamp 560C9F53))
    (comp (ref C404)
      (value 0.1u)
      (footprint SM0402)
      (libsource (lib device) (part C))
      (sheetpath (names /mcu/) (tstamps /560AB474/))
      (tstamp 560C9F67))
    (comp (ref C405)
      (value 0.1u)
      (footprint SM0402)
      (libsource (lib device) (part C))
      (sheetpath (names /mcu/) (tstamps /560AB474/))
      (tstamp 560C9F79))
    (comp (ref C406)
      (value 0.1u)
      (footprint SM0402)
      (libsource (lib device) (part C))
      (sheetpath (names /mcu/) (tstamps /560AB474/))
      (tstamp 560C9F7F))
    (comp (ref C407)
      (value 0.1u)
      (footprint SM0402)
      (libsource (lib device) (part C))
      (sheetpath (names /mcu/) (tstamps /560AB474/))
      (tstamp 560C9F85))
    (comp (ref C408)
      (value 0.1u)
      (footprint SM0402)
      (libsource (lib device) (part C))
      (sheetpath (names /mcu/) (tstamps /560AB474/))
      (tstamp 560C9F8B))
    (comp (ref C409)
      (value 0.1u)
      (footprint SM0402)
      (libsource (lib device) (part C))
      (sheetpath (names /mcu/) (tstamps /560AB474/))
      (tstamp 560C9F91))
    (comp (ref R401)
      (value 2.2k)
      (footprint SM0402)
      (libsource (lib device) (part R))
      (sheetpath (names /mcu/) (tstamps /560AB474/))
      (tstamp 560CA9F8))
    (comp (ref R402)
      (value 2.2k)
      (footprint SM0402)
      (libsource (lib device) (part R))
      (sheetpath (names /mcu/) (tstamps /560AB474/))
      (tstamp 560CAB1E))
    (comp (ref D401)
      (value LED)
      (footprint LED-0603)
      (libsource (lib device) (part LED))
      (sheetpath (names /mcu/) (tstamps /560AB474/))
      (tstamp 560CF3D1))
    (comp (ref R403)
      (value 1k)
      (footprint SM0402)
      (libsource (lib device) (part R))
      (sheetpath (names /mcu/) (tstamps /560AB474/))
      (tstamp 560CF3D7))
    (comp (ref D402)
      (value LED)
      (footprint LED-0603)
      (libsource (lib device) (part LED))
      (sheetpath (names /mcu/) (tstamps /560AB474/))
      (tstamp 560CF3EC))
    (comp (ref R404)
      (value 1k)
      (footprint SM0402)
      (libsource (lib device) (part R))
      (sheetpath (names /mcu/) (tstamps /560AB474/))
      (tstamp 560CF3F2))
    (comp (ref P402)
      (value CONN_1)
      (libsource (lib conn) (part CONN_1))
      (sheetpath (names /mcu/) (tstamps /560AB474/))
      (tstamp 560E3C38))
    (comp (ref X401)
      (value CRYSTAL_4)
      (libsource (lib crap) (part CRYSTAL_4))
      (sheetpath (names /mcu/) (tstamps /560AB474/))
      (tstamp 560E7D2B))
    (comp (ref C410)
      (value C)
      (libsource (lib device) (part C))
      (sheetpath (names /mcu/) (tstamps /560AB474/))
      (tstamp 560E7D44))
    (comp (ref C411)
      (value C)
      (libsource (lib device) (part C))
      (sheetpath (names /mcu/) (tstamps /560AB474/))
      (tstamp 560E7D53))
    (comp (ref U501)
      (value LMR14203)
      (footprint SOT-6L)
      (libsource (lib crap) (part LMR14203))
      (sheetpath (names /power/) (tstamps /560BD1F2/))
      (tstamp 560BD4C3))
    (comp (ref C501)
      (value 2.2u)
      (footprint SM0805)
      (libsource (lib device) (part C))
      (sheetpath (names /power/) (tstamps /560BD1F2/))
      (tstamp 560BD4DB))
    (comp (ref R501)
      (value 5.62k)
      (footprint SM0402)
      (libsource (lib device) (part R))
      (sheetpath (names /power/) (tstamps /560BD1F2/))
      (tstamp 560BD4EF))
    (comp (ref R502)
      (value 1.02k)
      (footprint SM0402)
      (libsource (lib device) (part R))
      (sheetpath (names /power/) (tstamps /560BD1F2/))
      (tstamp 560BD4F5))
    (comp (ref C503)
      (value 47u)
      (footprint SM1210)
      (libsource (lib device) (part C))
      (sheetpath (names /power/) (tstamps /560BD1F2/))
      (tstamp 560BD502))
    (comp (ref C502)
      (value 0.15u)
      (footprint SM0603)
      (libsource (lib device) (part C))
      (sheetpath (names /power/) (tstamps /560BD1F2/))
      (tstamp 560BD511))
    (comp (ref L501)
      (value 15u)
      (footprint SM1812)
      (libsource (lib device) (part INDUCTOR))
      (sheetpath (names /power/) (tstamps /560BD1F2/))
      (tstamp 560BD51D))
    (comp (ref D501)
      (value DIODE)
      (footprint SOD-123)
      (libsource (lib device) (part DIODESCH))
      (sheetpath (names /power/) (tstamps /560BD1F2/))
      (tstamp 560BD524))
    (comp (ref D502)
      (value LED)
      (footprint LED-0603)
      (libsource (lib device) (part LED))
      (sheetpath (names /power/) (tstamps /560BD1F2/))
      (tstamp 560BD544))
    (comp (ref R503)
      (value 1k)
      (footprint SM0402)
      (libsource (lib device) (part R))
      (sheetpath (names /power/) (tstamps /560BD1F2/))
      (tstamp 560BD54A))
    (comp (ref U502)
      (value MCP1702)
      (footprint SOT23)
      (libsource (lib crap) (part MCP1702))
      (sheetpath (names /power/) (tstamps /560BD1F2/))
      (tstamp 560C97CB))
    (comp (ref C504)
      (value 1u)
      (footprint SM0603)
      (libsource (lib device) (part C))
      (sheetpath (names /power/) (tstamps /560BD1F2/))
      (tstamp 560C97E9))
    (comp (ref C505)
      (value 10u)
      (footprint SM0805)
      (libsource (lib device) (part C))
      (sheetpath (names /power/) (tstamps /560BD1F2/))
      (tstamp 560C97FD))
    (comp (ref D503)
      (value LED)
      (footprint LED-0603)
      (libsource (lib device) (part LED))
      (sheetpath (names /power/) (tstamps /560BD1F2/))
      (tstamp 560C9811))
    (comp (ref R504)
      (value 1k)
      (footprint SM0402)
      (libsource (lib device) (part R))
      (sheetpath (names /power/) (tstamps /560BD1F2/))
      (tstamp 560C9817))
    (comp (ref U601)
      (value SN65HVD234)
      (footprint SOIC-8_N)
      (libsource (lib crap) (part SN65HVD234))
      (sheetpath (names /can/) (tstamps /560AB644/))
      (tstamp 560BD858))
    (comp (ref C601)
      (value 0.1u)
      (footprint SM0402)
      (libsource (lib device) (part C))
      (sheetpath (names /can/) (tstamps /560AB644/))
      (tstamp 560BD876))
    (comp (ref R601)
      (value R)
      (footprint SM0402)
      (libsource (lib device) (part R))
      (sheetpath (names /can/) (tstamps /560AB644/))
      (tstamp 560BD884))
    (comp (ref U701)
      (value "MPU-6050(QFN24)")
      (footprint QFN24G-0.5-4X4MM)
      (libsource (lib crap) (part "MPU-6050(QFN24)"))
      (sheetpath (names /gyro/) (tstamps /560C590D/))
      (tstamp 560C59A5))
    (comp (ref C703)
      (value 2.2n)
      (footprint SM0402)
      (libsource (lib device) (part C))
      (sheetpath (names /gyro/) (tstamps /560C590D/))
      (tstamp 560C59B4))
    (comp (ref C702)
      (value 0.1u)
      (footprint SM0402)
      (libsource (lib device) (part C))
      (sheetpath (names /gyro/) (tstamps /560C590D/))
      (tstamp 560C59C3))
    (comp (ref C701)
      (value 0.1u)
      (footprint SM0402)
      (libsource (lib device) (part C))
      (sheetpath (names /gyro/) (tstamps /560C590D/))
      (tstamp 560C59D2))
    (comp (ref C704)
      (value 10n)
      (footprint SM0402)
      (libsource (lib device) (part C))
      (sheetpath (names /gyro/) (tstamps /560C590D/))
      (tstamp 560C59E1)))
  (libparts
    (libpart (lib device) (part C)
      (description "Condensateur non polarise")
      (footprints
        (fp SM*)
        (fp C?)
        (fp C1-1))
      (fields
        (field (name Reference) C)
        (field (name Value) C)
        (field (name Footprint) ~)
        (field (name Datasheet) ~))
      (pins
        (pin (num 1) (name ~) (type passive))
        (pin (num 2) (name ~) (type passive))))
    (libpart (lib device) (part DIODESCH)
      (description "Diode schottky")
      (footprints
        (fp D?)
        (fp S*))
      (fields
        (field (name Reference) D)
        (field (name Value) DIODESCH)
        (field (name Footprint) ~)
        (field (name Datasheet) ~))
      (pins
        (pin (num 1) (name A) (type passive))
        (pin (num 2) (name K) (type passive))))
    (libpart (lib device) (part INDUCTOR)
      (fields
        (field (name Reference) L)
        (field (name Value) INDUCTOR)
        (field (name Footprint) ~)
        (field (name Datasheet) ~))
      (pins
        (pin (num 1) (name 1) (type passive))
        (pin (num 2) (name 2) (type passive))))
    (libpart (lib device) (part LED)
      (footprints
        (fp LED-3MM)
        (fp LED-5MM)
        (fp LED-10MM)
        (fp LED-0603)
        (fp LED-0805)
        (fp LED-1206)
        (fp LEDV))
      (fields
        (field (name Reference) D)
        (field (name Value) LED)
        (field (name Footprint) ~)
        (field (name Datasheet) ~))
      (pins
        (pin (num 1) (name A) (type passive))
        (pin (num 2) (name K) (type passive))))
    (libpart (lib device) (part R)
      (description Resistance)
      (footprints
        (fp R?)
        (fp SM0603)
        (fp SM0805)
        (fp R?-*)
        (fp SM1206))
      (fields
        (field (name Reference) R)
        (field (name Value) R)
        (field (name Footprint) ~)
        (field (name Datasheet) ~))
      (pins
        (pin (num 1) (name ~) (type passive))
        (pin (num 2) (name ~) (type passive))))
    (libpart (lib conn) (part CONN_1)
      (description "1 pin")
      (fields
        (field (name Reference) P)
        (field (name Value) CONN_1))
      (pins
        (pin (num 1) (name 1) (type passive))))
    (libpart (lib conn) (part CONN_2)
      (description "Symbole general de connecteur")
      (fields
        (field (name Reference) P)
        (field (name Value) CONN_2))
      (pins
        (pin (num 1) (name P1) (type passive))
        (pin (num 2) (name PM) (type passive))))
    (libpart (lib conn) (part CONN_3)
      (description "Symbole general de connecteur")
      (fields
        (field (name Reference) K)
        (field (name Value) CONN_3))
      (pins
        (pin (num 1) (name P1) (type passive))
        (pin (num 2) (name PM) (type passive))
        (pin (num 3) (name P3) (type passive))))
    (libpart (lib conn) (part CONN_3X2)
      (description "Symbole general de connecteur")
      (fields
        (field (name Reference) P)
        (field (name Value) CONN_3X2))
      (pins
        (pin (num 1) (name 1) (type passive))
        (pin (num 2) (name 2) (type passive))
        (pin (num 3) (name 3) (type passive))
        (pin (num 4) (name 4) (type passive))
        (pin (num 5) (name 5) (type passive))
        (pin (num 6) (name 6) (type passive))))
    (libpart (lib conn) (part CONN_4)
      (description "Symbole general de connecteur")
      (fields
        (field (name Reference) P)
        (field (name Value) CONN_4))
      (pins
        (pin (num 1) (name P1) (type passive))
        (pin (num 2) (name P2) (type passive))
        (pin (num 3) (name P3) (type passive))
        (pin (num 4) (name P4) (type passive))))
    (libpart (lib conn) (part CONN_6)
      (description "ymbole general de connecteur")
      (fields
        (field (name Reference) P)
        (field (name Value) CONN_6))
      (pins
        (pin (num 1) (name 1) (type passive))
        (pin (num 2) (name 2) (type passive))
        (pin (num 3) (name 3) (type passive))
        (pin (num 4) (name 4) (type passive))
        (pin (num 5) (name 5) (type passive))
        (pin (num 6) (name 6) (type passive))))
    (libpart (lib crap) (part CRYSTAL_4)
      (footprints
        (fp CX2520SB))
      (fields
        (field (name Reference) X)
        (field (name Value) CRYSTAL_4)
        (field (name Footprint) ~)
        (field (name Datasheet) ~))
      (pins
        (pin (num 1) (name 1) (type passive))
        (pin (num 2) (name GND) (type input))
        (pin (num 3) (name 3) (type passive))
        (pin (num 4) (name GND) (type input))))
    (libpart (lib crap) (part ISO7140)
      (footprints
        (fp TSSOP16))
      (fields
        (field (name Reference) U)
        (field (name Value) ISO7140)
        (field (name Footprint) ~)
        (field (name Datasheet) ~))
      (pins
        (pin (num 1) (name VCC1) (type power_in))
        (pin (num 2) (name GND1) (type power_in))
        (pin (num 3) (name INA) (type input))
        (pin (num 4) (name INB) (type input))
        (pin (num 5) (name INC) (type input))
        (pin (num 6) (name IND) (type input))
        (pin (num 7) (name NC) (type NotConnected))
        (pin (num 8) (name GND1) (type power_in))
        (pin (num 9) (name GND2) (type power_in))
        (pin (num 10) (name EN) (type input))
        (pin (num 11) (name OUTD) (type output))
        (pin (num 12) (name OUTC) (type output))
        (pin (num 13) (name OUTB) (type output))
        (pin (num 14) (name OUTA) (type output))
        (pin (num 15) (name GND2) (type power_in))
        (pin (num 16) (name VCC2) (type power_in))))
    (libpart (lib crap) (part ISO7141)
      (footprints
        (fp TSSOP16))
      (fields
        (field (name Reference) U)
        (field (name Value) ISO7141)
        (field (name Footprint) ~)
        (field (name Datasheet) ~))
      (pins
        (pin (num 1) (name VCC1) (type power_in))
        (pin (num 2) (name GND1) (type power_in))
        (pin (num 3) (name INA) (type input))
        (pin (num 4) (name INB) (type input))
        (pin (num 5) (name INC) (type input))
        (pin (num 6) (name OUTD) (type output))
        (pin (num 7) (name EN1) (type input))
        (pin (num 8) (name GND1) (type power_in))
        (pin (num 9) (name GND2) (type power_in))
        (pin (num 10) (name EN2) (type input))
        (pin (num 11) (name IND) (type input))
        (pin (num 12) (name OUTC) (type output))
        (pin (num 13) (name OUTB) (type output))
        (pin (num 14) (name OUTA) (type output))
        (pin (num 15) (name GND2) (type power_in))
        (pin (num 16) (name VCC2) (type power_in))))
    (libpart (lib crap) (part JTAGCON)
      (footprints
        (fp BM06B-SRSS-TB))
      (fields
        (field (name Reference) P)
        (field (name Value) JTAGCON)
        (field (name Footprint) ~)
        (field (name Datasheet) ~))
      (pins
        (pin (num 1) (name GND) (type input))
        (pin (num 2) (name SWCLK) (type input))
        (pin (num 3) (name SWDIO) (type input))
        (pin (num 4) (name DBG_RX) (type input))
        (pin (num 5) (name DBG_TX) (type input))
        (pin (num 6) (name VDD) (type input))
        (pin (num 7) (name FIX) (type input))
        (pin (num 8) (name FIX) (type input))))
    (libpart (lib crap) (part LMR14203)
      (footprints
        (fp SOT-6L))
      (fields
        (field (name Reference) U)
        (field (name Value) LMR14203)
        (field (name Footprint) ~)
        (field (name Datasheet) ~))
      (pins
        (pin (num 1) (name CB) (type power_out))
        (pin (num 2) (name GND) (type power_in))
        (pin (num 3) (name FB) (type input))
        (pin (num 4) (name ~SHDN) (type input))
        (pin (num 5) (name Vin) (type power_in))
        (pin (num 6) (name SW) (type power_out))))
    (libpart (lib crap) (part MC33926)
      (footprints
        (fp PQFN32-0.8))
      (fields
        (field (name Reference) U)
        (field (name Value) MC33926)
        (field (name Footprint) ~)
        (field (name Datasheet) ~))
      (pins
        (pin (num 1) (name IN2) (type input))
        (pin (num 2) (name IN1) (type input))
        (pin (num 3) (name SLEW) (type input))
        (pin (num 4) (name VPWR) (type power_in))
        (pin (num 5) (name AGND) (type power_in))
        (pin (num 6) (name VPWR) (type power_in))
        (pin (num 7) (name INV) (type input))
        (pin (num 8) (name FB) (type output))
        (pin (num 9) (name NC) (type NotConnected))
        (pin (num 10) (name EN) (type input))
        (pin (num 11) (name VPWR) (type power_in))
        (pin (num 12) (name OUT1) (type power_out))
        (pin (num 13) (name OUT1) (type power_out))
        (pin (num 14) (name OUT1) (type power_out))
        (pin (num 15) (name OUT1) (type power_out))
        (pin (num 16) (name ~D2) (type input))
        (pin (num 17) (name NC) (type NotConnected))
        (pin (num 18) (name PGND) (type power_in))
        (pin (num 19) (name PGND) (type power_in))
        (pin (num 20) (name PGND) (type power_in))
        (pin (num 21) (name SF) (type output))
        (pin (num 22) (name PGND) (type power_in))
        (pin (num 23) (name PGND) (type power_in))
        (pin (num 24) (name PGND) (type power_in))
        (pin (num 25) (name NC) (type NotConnected))
        (pin (num 26) (name D1) (type input))
        (pin (num 27) (name OUT2) (type power_out))
        (pin (num 28) (name OUT2) (type power_out))
        (pin (num 29) (name OUT2) (type power_out))
        (pin (num 30) (name OUT2) (type power_out))
        (pin (num 31) (name VPWR) (type power_in))
        (pin (num 32) (name CCP) (type output))
        (pin (num 33) (name AGND) (type power_in))))
    (libpart (lib crap) (part MCP1702)
      (footprints
        (fp SOT23))
      (fields
        (field (name Reference) U)
        (field (name Value) MCP1702)
        (field (name Footprint) ~)
        (field (name Datasheet) ~))
      (pins
        (pin (num 1) (name GND) (type power_in))
        (pin (num 2) (name VOUT) (type power_out))
        (pin (num 3) (name VIN) (type power_in))))
    (libpart (lib crap) (part "MPU-6050(QFN24)")
      (fields
        (field (name Reference) U)
        (field (name Value) "MPU-6050(QFN24)")
        (field (name Footprint) QFN24G-0.5-4X4MM))
      (pins
        (pin (num 1) (name CLKIN) (type BiDi))
        (pin (num 6) (name AUX_DA) (type BiDi))
        (pin (num 7) (name AUX_CL) (type BiDi))
        (pin (num 8) (name VLOGIC) (type BiDi))
        (pin (num 9) (name AD0) (type BiDi))
        (pin (num 10) (name REGOUT) (type BiDi))
        (pin (num 11) (name FSYNC) (type BiDi))
        (pin (num 12) (name INT) (type BiDi))
        (pin (num 13) (name VDD) (type BiDi))
        (pin (num 18) (name GND) (type BiDi))
        (pin (num 20) (name CPOUT) (type BiDi))
        (pin (num 23) (name SCL) (type BiDi))
        (pin (num 24) (name SDA) (type BiDi))))
    (libpart (lib crap) (part SN65HVD234)
      (footprints
        (fp SOIC-8_N))
      (fields
        (field (name Reference) U)
        (field (name Value) SN65HVD234)
        (field (name Footprint) ~)
        (field (name Datasheet) ~))
      (pins
        (pin (num 1) (name D) (type output))
        (pin (num 2) (name GND) (type power_in))
        (pin (num 3) (name VCC) (type power_in))
        (pin (num 4) (name R) (type input))
        (pin (num 5) (name EN) (type input))
        (pin (num 6) (name CANL) (type BiDi))
        (pin (num 7) (name CANH) (type BiDi))
        (pin (num 8) (name RS) (type input))))
    (libpart (lib crap) (part STM32F407VG)
      (footprints
        (fp VQFP100))
      (fields
        (field (name Reference) U)
        (field (name Value) STM32F407VG)
        (field (name Footprint) ~)
        (field (name Datasheet) ~))
      (pins
        (pin (num 1) (name PE2/TRACECLK/ETH_MII_TXD3/FSMC_A23) (type passive))
        (pin (num 2) (name PE3/TRACED0/FSMC_A19) (type passive))
        (pin (num 3) (name PE4/TRACED1/FSMC_A20) (type passive))
        (pin (num 4) (name PE5/TRACED2/TIM9_CH1/FSMC_A21/DCMI_D6) (type passive))
        (pin (num 5) (name PE6/TRACED3/TIM9_CH2/FSMC_A22/DCMI_D7) (type passive))
        (pin (num 6) (name VBAT) (type passive))
        (pin (num 7) (name PC13/RTC_AF1) (type passive))
        (pin (num 8) (name PC14/OSC32_IN) (type passive))
        (pin (num 9) (name PC15/OSC32_OUT) (type passive))
        (pin (num 10) (name VSS) (type passive))
        (pin (num 11) (name VDD) (type passive))
        (pin (num 12) (name OSC_IN/PH0) (type passive))
        (pin (num 13) (name OSC_OUT/PH1) (type passive))
        (pin (num 14) (name NRST) (type passive))
        (pin (num 15) (name PC0/OTG_HS_ULPI_STP/ADC123_IN10) (type passive))
        (pin (num 16) (name PC1/ETH_MDC/ADC123_IN11) (type passive))
        (pin (num 17) (name PC2/SPI2_MISO/I2S2EXT_SD/OTG_HS_ULPI_DIR/ETH_MII_TXD2/ADC123_IN12) (type passive))
        (pin (num 18) (name PC3/SPI2_MOSI/I2S2_SD/OTG_HS_ULPI_NXT/ETH_MII_TX_CLK/ADC123_IN13) (type passive))
        (pin (num 19) (name VDD) (type passive))
        (pin (num 20) (name VSSA) (type passive))
        (pin (num 21) (name VREF+) (type passive))
        (pin (num 22) (name VDDA) (type passive))
        (pin (num 23) (name PA0/TIM2_CH1/TIM2_ETR/TIM_5_CH1/TIM8_ETR/USART2_CTS/UART4_TX/ETH_MII_CRS/ADC123_IN0/WKUP) (type passive))
        (pin (num 24) (name PA1/ETH_MII__RX_CLK/TIM2_CH2/TIM5_CH2/USART2_RTS/UART4_RX/ETH_RMII_REF_CLK/ADC123_IN1) (type passive))
        (pin (num 25) (name PA2/TIM2_CH3/TIM5_CH3/TIM9_CH1/USART2_TX/ETH_MDIO/ADC123_IN2) (type passive))
        (pin (num 26) (name PA3/TIM2_CH4/TIM5_CH4/TIM9_CH2/USART2_RX/OTG_HS_ULPI_D0/ETH_MII_COL/ADC123_IN3) (type passive))
        (pin (num 27) (name VSS) (type passive))
        (pin (num 28) (name VDD) (type passive))
        (pin (num 29) (name PA4/SPI3_NSS/SPI1_NSS/SPI3_NSS/I2S3_WS/USART2_CK/OTG_HS_SOF/DCMI_HSYNC/ADC12_IN4/DAC1_OUT) (type passive))
        (pin (num 30) (name PA5/TIM2_CH1/TIM2_ETR/TIM8_CH1N/SPI1_SCK/OTG_HS_ULPI_CK/ADC12_IN5/DAC2_OUT) (type passive))
        (pin (num 31) (name PA6/TIM1_BKIN/TIM3_CH1/TIM8_BKIN/SPI1_MISO/TIM13_CH1/DCMI_PIXCK/ADC12_IN6) (type passive))
        (pin (num 32) (name PA7/TIM1_CH1N/TIM3_CH2/TIM8_CH1N/SPI1_MOSI/TIM14_CH1/ETH_MII_RX_DV/ETH_RMII_CRS_DV/ADC12_IN7) (type passive))
        (pin (num 33) (name PC4/ETH_MII_RXD0/ETH_RMII_RXD0/ADC12_IN14) (type passive))
        (pin (num 34) (name PC5/ETH_MII_RXD1/ETH_RMII_RXD1/ADC12_IN15) (type passive))
        (pin (num 35) (name PB0/TIM1_CH2N/TIM3_CH3/TIM8_CH2N/OTG_HS_ULPI_D1/ETH_MII_RXD2/ADC12_IN8) (type passive))
        (pin (num 36) (name PB1/TIM1_CH3N/TIM3_CH4/TIM8_CH3N/OTG_HS_ULPI_D2/ETH__MII_RXD3/ADC12_IN9) (type passive))
        (pin (num 37) (name PB2) (type passive))
        (pin (num 38) (name PE7/TIM1_ETR/FSMC_D4) (type passive))
        (pin (num 39) (name PE8/TIM1_CH1N/FSMC_D5) (type passive))
        (pin (num 40) (name PE9/TIM1_CH1/FSMC_D6) (type passive))
        (pin (num 41) (name PE10/TIM1_CH2N/FSMC_D7) (type passive))
        (pin (num 42) (name PE11/TIM1_CH2/FSMC_D8) (type passive))
        (pin (num 43) (name PE12/TIM1_CH3N/FSMC_D9) (type passive))
        (pin (num 44) (name PE13/TIM1_CH3/FSMC_D10) (type passive))
        (pin (num 45) (name PE14/TIM1_CH4/FSMC_D11) (type passive))
        (pin (num 46) (name PE15/TIM1_BKIN/FSMC_D12) (type passive))
        (pin (num 47) (name PB10/TIM2_CH3/I2C2_SCL/SPI2_SCK/I2S2_CK/USART3_TX/OTG_HS_ULPI_D3/ETH_MII_RX_ER) (type passive))
        (pin (num 48) (name PB11/TIM2_CH4/I2C2_SDA/USART3_RX/OTG_HS_ULPI_D4/ETH_MII_TX_EN/ETH_RMII_TX_EN) (type passive))
        (pin (num 49) (name VCAP_1) (type passive))
        (pin (num 50) (name VDD) (type passive))
        (pin (num 51) (name PB12/TIM1_BKIN/I2C2_SMBA/SPI2_NSS/I2S2_WS/USART3_CK/CAN2_RX/OTG_HS_ULPI_D5/ETH_MII_TXD0/ETH_RMII_TXD0) (type passive))
        (pin (num 52) (name PB13/TIM1_CH1N/SPI2_SCK/I2S2_CK/USART3_CTS/CAN2_TX/OTG_HS_ULPI_D6/ETH_MII_TXD1/ETH_RMII_TXD1/OTG_HS_VBUS) (type passive))
        (pin (num 53) (name PB14/TIM1_CH2N/TIM8_CH2N/SPI2_MISO/I2S2EXT_SD/USART3_RTS/TIM12_CH1/OTG_HS_DM) (type passive))
        (pin (num 54) (name PB15/RTC_50HZ/TIM1_CH3N/TIM8_CH3N/SPI2_MOSI/I2S2_SD/TIM12_CH2/OTG_HS_DP) (type passive))
        (pin (num 55) (name PD8/USART3_TX/FSMC_D13) (type passive))
        (pin (num 56) (name PD9/USART3_RX/FSMC_D14) (type passive))
        (pin (num 57) (name PD10/USART3_CK/FSMC_D15) (type passive))
        (pin (num 58) (name PD11/USART3_CTS/FSMC_A16) (type passive))
        (pin (num 59) (name PD12/TIM4_CH1/USART3_RTS/FSMC_A17) (type passive))
        (pin (num 60) (name PD13/TIM4_CH2/FSMC_A18) (type passive))
        (pin (num 61) (name PD14/TIM4_CH3/FSMC_D0) (type passive))
        (pin (num 62) (name PD15/TIM4_CH4/FSMC_D1) (type passive))
        (pin (num 63) (name PC6/TIM3_CH1/TIM8_CH1/I2S2_MCK/USART6_TX/SDIO_D6/DCMI_D0) (type passive))
        (pin (num 64) (name PC7/TIM3_CH2/TIM8_CH2/I2S3_MCK/USART6_RX/SDIO_D7/DCMI_D1) (type passive))
        (pin (num 65) (name PC8/TIM3_CH3/TIM8_CH3/USART6_CK/SDIO_D0/DCMI_D2) (type passive))
        (pin (num 66) (name PC9/MCO2/TIM3_CH4/TIM8_CH4/I2C3_SDA/I2S_CKIN/SDIO_D1/DCMI_D3) (type passive))
        (pin (num 67) (name PA8/MCO1/TIM1_CH1/I2C3_SCL/USART1_CK/OTG_FS_SOF) (type passive))
        (pin (num 68) (name PA9/TIM1_CH2/I2C3_SMBA/USART1_TX/DCMI_D0/OTG_FS_VBUS) (type passive))
        (pin (num 69) (name PA10/TIM1_CH3/USART1_RX/OTG_FS_ID/DCMI_D1) (type passive))
        (pin (num 70) (name PA11/TIM1_CH4/USART1_CTS/CAN1_RX/OTG_FS_DM) (type passive))
        (pin (num 71) (name PA12/TIM1_ETR/USART1_RTS/CAN1_TX/OTG_FS_DP) (type passive))
        (pin (num 72) (name PA13/JTMS-SWDIO) (type passive))
        (pin (num 73) (name VCAP_2) (type passive))
        (pin (num 74) (name VSS) (type passive))
        (pin (num 75) (name VDD) (type passive))
        (pin (num 76) (name PA14/JTCK-SWCLK) (type passive))
        (pin (num 77) (name PA15/JTDI/TIM2_CH1/TIM2_ETR/SPI1_NSS/SPI3_NSS/I2S3S_WS) (type passive))
        (pin (num 78) (name PC10/SPI3_SCK/I2S3S_CK/USART3_TX/UART4_TX/SDIO_D2/DCMI_D8) (type passive))
        (pin (num 79) (name PC11/I2S3EXT_SD/SPI3_MISO/USART3_RX/UART4_RX/SDIO_D3/DCMI_D4) (type passive))
        (pin (num 80) (name PC12/SPI3_MOSI/I2S3_SD/USART3_CK/UART5_TX/SDIO_CK/DCMI_D9) (type passive))
        (pin (num 81) (name PD0/CAN1_RX/FSMC_D2) (type passive))
        (pin (num 82) (name PD1/CAN1_TX/FSMC_D3) (type passive))
        (pin (num 83) (name PD2/TIM3_ETR/UART5_RX/SDIO_CMD/DCMI_D11) (type passive))
        (pin (num 84) (name PD3/USART2_CTS/FSMC_CLK) (type passive))
        (pin (num 85) (name PD4/FSMC_NOE/USART2_RTS) (type passive))
        (pin (num 86) (name PD5/USART2_TX/FSMC_NWE) (type passive))
        (pin (num 87) (name PD6/FSMC_NWAIT/USART2_RX) (type passive))
        (pin (num 88) (name PD7/USART2_CK/FSMC_NE1/FSMC_NCE2) (type passive))
        (pin (num 89) (name PB3/JTDO/TRACESWO/SPI3_SCK/SPI1_SCK/TIM2_CH2/I2S3_CK) (type passive))
        (pin (num 90) (name PB4/NJTRST/TIM3_CH1/SPI1_MISO/SPI3_MISO/I2S3EXT_SD) (type passive))
        (pin (num 91) (name PB5/TIM3_CH2/I2C1_SMBA/SPI1_MOSI/SPI3_MOSI/I2S3_SD/CAN2_RX/OTG_HS_ULPI_D7/ETH_PPS_OUT/DCMI_D10) (type passive))
        (pin (num 92) (name PB6/TIM4_CH1/I2C1_SCL/USART1_TX/CAN2_TX/DCMI_D5) (type passive))
        (pin (num 93) (name PB7/TIM4_CH2/I2C1_SDA/USART1_RX/FSMC_NL/DCMI_VSYNC) (type passive))
        (pin (num 94) (name VPP/BOOT0) (type passive))
        (pin (num 95) (name PB8/TIM4_CH3/TIM10_CH1/I2C1_SCL/CAN1_RX/ETH_MII_TXD3/SDIO_D4/DCMI_D6) (type passive))
        (pin (num 96) (name PB9/TIM4_CH4/TIM11_CH1/I2C1_SDA/SPI2_NSS/I2S2_WS/CAN1_TX/SDIO_D5/DCMI_D7) (type passive))
        (pin (num 97) (name PE0/TIM4_ETR/FSMC_NBL0/DCMI_D2) (type passive))
        (pin (num 98) (name PE1/FSMC_BLN1/DCMI_D3) (type passive))
        (pin (num 99) (name VSS) (type passive))
        (pin (num 100) (name VDD) (type passive)))))
  (libraries
    (library (logical device)
      (uri /usr/share/kicad/library/device.lib))
    (library (logical conn)
      (uri /usr/share/kicad/library/conn.lib))
    (library (logical crap)
      (uri ../lib/crap.lib)))
  (nets
    (net (code 1) (name VDD)
      (node (ref U401) (pin 100))
      (node (ref C408) (pin 1))
      (node (ref R401) (pin 1))
      (node (ref R402) (pin 1))
      (node (ref C407) (pin 1))
      (node (ref C409) (pin 1))
      (node (ref U202) (pin 1))
      (node (ref U601) (pin 3))
      (node (ref C601) (pin 1))
      (node (ref U401) (pin 11))
      (node (ref C403) (pin 1))
      (node (ref C404) (pin 1))
      (node (ref C405) (pin 1))
      (node (ref C406) (pin 1))
      (node (ref R404) (pin 1))
      (node (ref P110) (pin 4))
      (node (ref U401) (pin 21))
      (node (ref U401) (pin 22))
      (node (ref P401) (pin 6))
      (node (ref U401) (pin 6))
      (node (ref U401) (pin 50))
      (node (ref U401) (pin 28))
      (node (ref U401) (pin 19))
      (node (ref U401) (pin 75))
      (node (ref R403) (pin 1))
      (node (ref U502) (pin 2))
      (node (ref D503) (pin 1))
      (node (ref C505) (pin 1))
      (node (ref C701) (pin 1))
      (node (ref C704) (pin 1))
      (node (ref U701) (pin 8))
      (node (ref U701) (pin 13))
      (node (ref R601) (pin 1))
      (node (ref C202) (pin 1))
      (node (ref C201) (pin 1))
      (node (ref U202) (pin 7))
      (node (ref U201) (pin 1)))
    (net (code 2) (name GND)
      (node (ref U201) (pin 8))
      (node (ref C202) (pin 2))
      (node (ref U202) (pin 2))
      (node (ref U202) (pin 8))
      (node (ref C201) (pin 2))
      (node (ref U201) (pin 2))
      (node (ref U502) (pin 1))
      (node (ref C505) (pin 2))
      (node (ref R504) (pin 2))
      (node (ref C504) (pin 2))
      (node (ref C601) (pin 2))
      (node (ref U601) (pin 2))
      (node (ref U601) (pin 8))
      (node (ref U701) (pin 9))
      (node (ref C701) (pin 2))
      (node (ref C704) (pin 2))
      (node (ref U701) (pin 1))
      (node (ref C702) (pin 2))
      (node (ref U701) (pin 18))
      (node (ref C703) (pin 2))
      (node (ref P401) (pin 1))
      (node (ref P401) (pin 7))
      (node (ref P401) (pin 8))
      (node (ref U401) (pin 10))
      (node (ref U401) (pin 20))
      (node (ref U401) (pin 27))
      (node (ref U401) (pin 74))
      (node (ref U401) (pin 94))
      (node (ref C411) (pin 2))
      (node (ref C410) (pin 2))
      (node (ref X401) (pin 2))
      (node (ref X401) (pin 4))
      (node (ref C403) (pin 2))
      (node (ref C402) (pin 1))
      (node (ref C404) (pin 2))
      (node (ref C405) (pin 2))
      (node (ref C406) (pin 2))
      (node (ref C407) (pin 2))
      (node (ref C401) (pin 1))
      (node (ref C408) (pin 2))
      (node (ref U401) (pin 99))
      (node (ref C409) (pin 2))
      (node (ref C101) (pin 2))
      (node (ref C107) (pin 2))
      (node (ref K102) (pin 1))
      (node (ref P106) (pin 3))
      (node (ref P110) (pin 1))
      (node (ref P107) (pin 3))
      (node (ref P105) (pin 3))
      (node (ref C104) (pin 2))
      (node (ref C105) (pin 2))
      (node (ref C106) (pin 2))
      (node (ref C103) (pin 2))
      (node (ref C102) (pin 2))
      (node (ref K103) (pin 1))
      (node (ref K101) (pin 1))
      (node (ref P101) (pin 2))
      (node (ref P101) (pin 1)))
    (net (code 3) (name /mcu/BUMP_0_A)
      (node (ref C102) (pin 1))
      (node (ref U401) (pin 89))
      (node (ref K101) (pin 2)))
    (net (code 4) (name /can/CANH)
      (node (ref P101) (pin 4))
      (node (ref U601) (pin 7)))
    (net (code 5) (name /can/CANL)
      (node (ref P101) (pin 3))
      (node (ref U601) (pin 6)))
    (net (code 6) (name /mcu/BUMP_1_B)
      (node (ref C103) (pin 1))
      (node (ref K102) (pin 3))
      (node (ref U401) (pin 90)))
    (net (code 7) (name /mcu/BUMP_1_A)
      (node (ref C104) (pin 1))
      (node (ref K102) (pin 2))
      (node (ref U401) (pin 91)))
    (net (code 8) (name "")
      (node (ref P107) (pin 2)))
    (net (code 9) (name /mcu/BUMP_0_B)
      (node (ref K101) (pin 3))
      (node (ref C101) (pin 1))
      (node (ref U401) (pin 88)))
    (net (code 10) (name /M0_ENC_A)
      (node (ref P105) (pin 5))
      (node (ref R101) (pin 1)))
    (net (code 11) (name /M0_ENC_B)
      (node (ref R102) (pin 1))
      (node (ref P105) (pin 6)))
    (net (code 12) (name /M1_ENC_A)
      (node (ref P106) (pin 5))
      (node (ref R103) (pin 1)))
    (net (code 13) (name /M1_ENC_B)
      (node (ref P106) (pin 6))
      (node (ref R104) (pin 1)))
    (net (code 14) (name /M2_ENC_A)
      (node (ref R105) (pin 1))
      (node (ref P107) (pin 5)))
    (net (code 15) (name /M2_ENC_B)
      (node (ref R106) (pin 1))
      (node (ref P107) (pin 6)))
    (net (code 16) (name +5V)
      (node (ref U502) (pin 3))
      (node (ref P106) (pin 4))
      (node (ref P107) (pin 4))
      (node (ref C107) (pin 1))
      (node (ref C504) (pin 1))
      (node (ref P105) (pin 4))
      (node (ref P101) (pin 5))
      (node (ref P101) (pin 6)))
    (net (code 17) (name "")
      (node (ref P107) (pin 1)))
    (net (code 18) (name "")
      (node (ref P106) (pin 1)))
    (net (code 19) (name "")
      (node (ref P106) (pin 2)))
    (net (code 20) (name "")
      (node (ref P105) (pin 2)))
    (net (code 21) (name "")
      (node (ref P105) (pin 1)))
    (net (code 22) (name /mcu/GYRO_INT)
      (node (ref U401) (pin 7))
      (node (ref U701) (pin 12)))
    (net (code 23) (name /gyro/SDA)
      (node (ref U701) (pin 24))
      (node (ref U401) (pin 66))
      (node (ref R402) (pin 2))
      (node (ref P110) (pin 3)))
    (net (code 24) (name /gyro/SCL)
      (node (ref U401) (pin 67))
      (node (ref U701) (pin 23))
      (node (ref R401) (pin 2))
      (node (ref P110) (pin 2)))
    (net (code 25) (name /mcu/GYRO_SYNC)
      (node (ref U701) (pin 11))
      (node (ref U401) (pin 8)))
    (net (code 26) (name /mcu/BUMP_2_B)
      (node (ref C105) (pin 1))
      (node (ref K103) (pin 3))
      (node (ref U401) (pin 96)))
    (net (code 27) (name /mcu/BUMP_2_A)
      (node (ref U401) (pin 95))
      (node (ref K103) (pin 2))
      (node (ref C106) (pin 1)))
    (net (code 28) (name /motors/M2_OUT2)
      (node (ref U303) (pin 30))
      (node (ref P104) (pin 1))
      (node (ref U303) (pin 27))
      (node (ref U303) (pin 28))
      (node (ref U303) (pin 29)))
    (net (code 29) (name /motors/M1_OUT1)
      (node (ref U302) (pin 15))
      (node (ref U302) (pin 14))
      (node (ref U302) (pin 13))
      (node (ref U302) (pin 12))
      (node (ref P103) (pin 2)))
    (net (code 30) (name /motors/M1_OUT2)
      (node (ref U302) (pin 29))
      (node (ref U302) (pin 27))
      (node (ref U302) (pin 28))
      (node (ref U302) (pin 30))
      (node (ref P103) (pin 1)))
    (net (code 31) (name /motors/M0_OUT1)
      (node (ref U301) (pin 12))
      (node (ref P102) (pin 2))
      (node (ref U301) (pin 14))
      (node (ref U301) (pin 13))
      (node (ref U301) (pin 15)))
    (net (code 32) (name AGND)
      (node (ref U302) (pin 22))
      (node (ref U202) (pin 15))
      (node (ref U202) (pin 9))
      (node (ref U303) (pin 5))
      (node (ref U201) (pin 15))
      (node (ref U201) (pin 9))
      (node (ref U302) (pin 26))
      (node (ref U302) (pin 24))
      (node (ref U302) (pin 33))
      (node (ref U302) (pin 23))
      (node (ref C501) (pin 2))
      (node (ref R502) (pin 1))
      (node (ref U303) (pin 1))
      (node (ref U303) (pin 20))
      (node (ref P108) (pin 1))
      (node (ref C503) (pin 2))
      (node (ref U303) (pin 8))
      (node (ref U501) (pin 2))
      (node (ref U302) (pin 20))
      (node (ref U302) (pin 8))
      (node (ref U302) (pin 5))
      (node (ref U302) (pin 1))
      (node (ref D501) (pin 1))
      (node (ref C204) (pin 2))
      (node (ref R503) (pin 2))
      (node (ref C203) (pin 2))
      (node (ref U301) (pin 20))
      (node (ref U301) (pin 33))
      (node (ref U301) (pin 23))
      (node (ref U301) (pin 22))
      (node (ref U301) (pin 24))
      (node (ref U303) (pin 23))
      (node (ref C307) (pin 2))
      (node (ref U303) (pin 26))
      (node (ref U302) (pin 19))
      (node (ref U301) (pin 19))
      (node (ref U301) (pin 18))
      (node (ref U301) (pin 26))
      (node (ref U302) (pin 18))
      (node (ref C305) (pin 2))
      (node (ref C304) (pin 2))
      (node (ref U301) (pin 8))
      (node (ref U303) (pin 33))
      (node (ref U301) (pin 5))
      (node (ref U301) (pin 1))
      (node (ref U303) (pin 24))
      (node (ref U303) (pin 22))
      (node (ref C308) (pin 2))
      (node (ref C302) (pin 2))
      (node (ref C301) (pin 2))
      (node (ref U303) (pin 18))
      (node (ref U303) (pin 19)))
    (net (code 33) (name /motors/M0_OUT2)
      (node (ref P102) (pin 1))
      (node (ref U301) (pin 30))
      (node (ref U301) (pin 29))
      (node (ref U301) (pin 28))
      (node (ref U301) (pin 27)))
    (net (code 34) (name /motors/POWER_EN)
      (node (ref U301) (pin 10))
      (node (ref U202) (pin 12))
      (node (ref U202) (pin 11))
      (node (ref U302) (pin 10))
      (node (ref U303) (pin 10)))
    (net (code 35) (name /iso/M1_DIR_iso)
      (node (ref U302) (pin 7))
      (node (ref U201) (pin 14)))
    (net (code 36) (name /iso/M0_DISABLE_iso)
      (node (ref U201) (pin 11))
      (node (ref U301) (pin 16)))
    (net (code 37) (name /iso/M0_DIR_iso)
      (node (ref U301) (pin 7))
      (node (ref U201) (pin 12)))
    (net (code 38) (name /iso/POWER_FB)
      (node (ref U202) (pin 6))
      (node (ref U401) (pin 35)))
    (net (code 39) (name /iso/M2_DISABLE)
      (node (ref U401) (pin 47))
      (node (ref U202) (pin 4)))
    (net (code 40) (name /mcu/M1_ENC_A)
      (node (ref R103) (pin 2))
      (node (ref U401) (pin 23)))
    (net (code 41) (name /iso/M2_DIR)
      (node (ref U401) (pin 48))
      (node (ref U202) (pin 3)))
    (net (code 42) (name /iso/M1_DISABLE)
      (node (ref U201) (pin 4))
      (node (ref U401) (pin 44)))
    (net (code 43) (name /iso/M1_DIR)
      (node (ref U201) (pin 3))
      (node (ref U401) (pin 45)))
    (net (code 44) (name /iso/POWER_EN)
      (node (ref U401) (pin 36))
      (node (ref U202) (pin 5)))
    (net (code 45) (name /iso/M0_DISABLE)
      (node (ref U401) (pin 40))
      (node (ref U201) (pin 6)))
    (net (code 46) (name /iso/M0_DIR)
      (node (ref U201) (pin 5))
      (node (ref U401) (pin 42)))
    (net (code 47) (name /mcu/M2_ENC_B)
      (node (ref R106) (pin 2))
      (node (ref U401) (pin 93)))
    (net (code 48) (name /mcu/M2_ENC_A)
      (node (ref R105) (pin 2))
      (node (ref U401) (pin 92)))
    (net (code 49) (name /mcu/M1_ENC_B)
      (node (ref U401) (pin 24))
      (node (ref R104) (pin 2)))
    (net (code 50) (name +BATT)
      (node (ref C309) (pin 1))
      (node (ref U303) (pin 31))
      (node (ref C307) (pin 1))
      (node (ref U301) (pin 31))
      (node (ref U302) (pin 31))
      (node (ref U302) (pin 11))
      (node (ref U302) (pin 4))
      (node (ref U302) (pin 6))
      (node (ref U301) (pin 11))
      (node (ref C501) (pin 1))
      (node (ref C306) (pin 1))
      (node (ref C304) (pin 1))
      (node (ref C305) (pin 1))
      (node (ref C303) (pin 1))
      (node (ref C301) (pin 1))
      (node (ref C302) (pin 1))
      (node (ref U301) (pin 4))
      (node (ref U301) (pin 6))
      (node (ref U303) (pin 6))
      (node (ref U501) (pin 5))
      (node (ref U501) (pin 4))
      (node (ref C308) (pin 1))
      (node (ref U303) (pin 4))
      (node (ref P108) (pin 2))
      (node (ref U303) (pin 11)))
    (net (code 51) (name /mcu/M0_ENC_B)
      (node (ref U401) (pin 32))
      (node (ref R102) (pin 2)))
    (net (code 52) (name /mcu/M0_ENC_A)
      (node (ref U401) (pin 31))
      (node (ref R101) (pin 2)))
    (net (code 53) (name /iso/M2_DISABLE_iso)
      (node (ref U202) (pin 13))
      (node (ref U303) (pin 16)))
    (net (code 54) (name /iso/M2_DIR_iso)
      (node (ref U202) (pin 14))
      (node (ref U303) (pin 7)))
    (net (code 55) (name /motors/M2_OUT1)
      (node (ref U303) (pin 14))
      (node (ref P104) (pin 2))
      (node (ref U303) (pin 15))
      (node (ref U303) (pin 13))
      (node (ref U303) (pin 12)))
    (net (code 56) (name /iso/M1_DISABLE_iso)
      (node (ref U302) (pin 16))
      (node (ref U201) (pin 13)))
    (net (code 57) (name /mcu/CAN_TX)
      (node (ref U601) (pin 1))
      (node (ref U401) (pin 52)))
    (net (code 58) (name /mcu/CAN_RX)
      (node (ref U401) (pin 51))
      (node (ref U601) (pin 4)))
    (net (code 59) (name +5VA)
      (node (ref C503) (pin 1))
      (node (ref U303) (pin 2))
      (node (ref U303) (pin 3))
      (node (ref R501) (pin 2))
      (node (ref C204) (pin 1))
      (node (ref C203) (pin 1))
      (node (ref U301) (pin 2))
      (node (ref U301) (pin 3))
      (node (ref D502) (pin 1))
      (node (ref L501) (pin 2))
      (node (ref U302) (pin 2))
      (node (ref U302) (pin 3))
      (node (ref U202) (pin 10))
      (node (ref U201) (pin 16))
      (node (ref U202) (pin 16))
      (node (ref U201) (pin 10)))
    (net (code 60) (name "")
      (node (ref U201) (pin 7)))
    (net (code 61) (name "")
      (node (ref U303) (pin 9)))
    (net (code 62) (name "")
      (node (ref U303) (pin 21)))
    (net (code 63) (name "")
      (node (ref U303) (pin 32))
      (node (ref C309) (pin 2)))
    (net (code 64) (name "")
      (node (ref U303) (pin 17)))
    (net (code 65) (name "")
      (node (ref U303) (pin 25)))
    (net (code 66) (name "")
      (node (ref C303) (pin 2))
      (node (ref U301) (pin 32)))
    (net (code 67) (name "")
      (node (ref U301) (pin 21)))
    (net (code 68) (name "")
      (node (ref U301) (pin 9)))
    (net (code 69) (name "")
      (node (ref U301) (pin 17)))
    (net (code 70) (name "")
      (node (ref U301) (pin 25)))
    (net (code 71) (name "")
      (node (ref C306) (pin 2))
      (node (ref U302) (pin 32)))
    (net (code 72) (name "")
      (node (ref U302) (pin 17)))
    (net (code 73) (name "")
      (node (ref U302) (pin 25)))
    (net (code 74) (name "")
      (node (ref U302) (pin 21)))
    (net (code 75) (name "")
      (node (ref U302) (pin 9)))
    (net (code 76) (name /mcu/DBG_RX)
      (node (ref P401) (pin 4))
      (node (ref U401) (pin 87)))
    (net (code 77) (name /mcu/DBG_TX)
      (node (ref U401) (pin 86))
      (node (ref P401) (pin 5)))
    (net (code 78) (name "")
      (node (ref U401) (pin 49))
      (node (ref C401) (pin 2)))
    (net (code 79) (name "")
      (node (ref C402) (pin 2))
      (node (ref U401) (pin 73)))
    (net (code 80) (name /mcu/NRST)
      (node (ref P402) (pin 1))
      (node (ref U401) (pin 14)))
    (net (code 81) (name "")
      (node (ref D402) (pin 1))
      (node (ref R404) (pin 2)))
    (net (code 82) (name "")
      (node (ref R403) (pin 2))
      (node (ref D401) (pin 1)))
    (net (code 83) (name /mcu/LED1)
      (node (ref D401) (pin 2))
      (node (ref U401) (pin 98)))
    (net (code 84) (name "")
      (node (ref C411) (pin 1))
      (node (ref X401) (pin 3))
      (node (ref U401) (pin 12)))
    (net (code 85) (name "")
      (node (ref C410) (pin 1))
      (node (ref X401) (pin 1))
      (node (ref U401) (pin 13)))
    (net (code 86) (name /mcu/LED0)
      (node (ref D402) (pin 2))
      (node (ref U401) (pin 97)))
    (net (code 87) (name "")
      (node (ref U401) (pin 25)))
    (net (code 88) (name "")
      (node (ref U401) (pin 56)))
    (net (code 89) (name "")
      (node (ref U401) (pin 46)))
    (net (code 90) (name "")
      (node (ref U401) (pin 26)))
    (net (code 91) (name "")
      (node (ref U401) (pin 16)))
    (net (code 92) (name "")
      (node (ref U401) (pin 85)))
    (net (code 93) (name "")
      (node (ref U401) (pin 65)))
    (net (code 94) (name "")
      (node (ref U401) (pin 55)))
    (net (code 95) (name "")
      (node (ref U401) (pin 15)))
    (net (code 96) (name "")
      (node (ref U401) (pin 84)))
    (net (code 97) (name "")
      (node (ref U401) (pin 64)))
    (net (code 98) (name "")
      (node (ref U401) (pin 54)))
    (net (code 99) (name "")
      (node (ref U401) (pin 34)))
    (net (code 100) (name "")
      (node (ref U401) (pin 83)))
    (net (code 101) (name "")
      (node (ref U401) (pin 18)))
    (net (code 102) (name "")
      (node (ref U401) (pin 39)))
    (net (code 103) (name "")
      (node (ref U401) (pin 29)))
    (net (code 104) (name "")
      (node (ref U401) (pin 78)))
    (net (code 105) (name "")
      (node (ref U401) (pin 68)))
    (net (code 106) (name "")
      (node (ref U401) (pin 58)))
    (net (code 107) (name "")
      (node (ref U401) (pin 38)))
    (net (code 108) (name "")
      (node (ref U401) (pin 57)))
    (net (code 109) (name "")
      (node (ref U401) (pin 37)))
    (net (code 110) (name "")
      (node (ref U401) (pin 17)))
    (net (code 111) (name "")
      (node (ref U401) (pin 4)))
    (net (code 112) (name "")
      (node (ref U401) (pin 70)))
    (net (code 113) (name "")
      (node (ref U401) (pin 60)))
    (net (code 114) (name "")
      (node (ref U401) (pin 30)))
    (net (code 115) (name "")
      (node (ref U401) (pin 9)))
    (net (code 116) (name "")
      (node (ref U401) (pin 5)))
    (net (code 117) (name "")
      (node (ref U401) (pin 80)))
    (net (code 118) (name "")
      (node (ref U401) (pin 3)))
    (net (code 119) (name "")
      (node (ref U401) (pin 2)))
    (net (code 120) (name "")
      (node (ref U401) (pin 1)))
    (net (code 121) (name /mcu/SWDIO)
      (node (ref P401) (pin 3))
      (node (ref U401) (pin 76)))
    (net (code 122) (name /mcu/SWCLK)
      (node (ref U401) (pin 77))
      (node (ref P401) (pin 2)))
    (net (code 123) (name "")
      (node (ref U401) (pin 63)))
    (net (code 124) (name "")
      (node (ref U401) (pin 53)))
    (net (code 125) (name "")
      (node (ref U401) (pin 43)))
    (net (code 126) (name "")
      (node (ref U401) (pin 33)))
    (net (code 127) (name "")
      (node (ref U401) (pin 82)))
    (net (code 128) (name "")
      (node (ref U401) (pin 72)))
    (net (code 129) (name "")
      (node (ref U401) (pin 62)))
    (net (code 130) (name "")
      (node (ref U401) (pin 81)))
    (net (code 131) (name "")
      (node (ref U401) (pin 71)))
    (net (code 132) (name "")
      (node (ref U401) (pin 61)))
    (net (code 133) (name "")
      (node (ref U401) (pin 41)))
    (net (code 134) (name "")
      (node (ref U401) (pin 69)))
    (net (code 135) (name "")
      (node (ref U401) (pin 79)))
    (net (code 136) (name "")
      (node (ref U401) (pin 59)))
    (net (code 137) (name "")
      (node (ref U601) (pin 5))
      (node (ref R601) (pin 2)))
    (net (code 138) (name "")
      (node (ref R504) (pin 1))
      (node (ref D503) (pin 2)))
    (net (code 139) (name "")
      (node (ref U501) (pin 1))
      (node (ref C502) (pin 1)))
    (net (code 140) (name /power/FB)
      (node (ref U501) (pin 3))
      (node (ref R502) (pin 2))
      (node (ref R501) (pin 1)))
    (net (code 141) (name "")
      (node (ref R503) (pin 1))
      (node (ref D502) (pin 2)))
    (net (code 142) (name "")
      (node (ref C502) (pin 2))
      (node (ref U501) (pin 6))
      (node (ref L501) (pin 1))
      (node (ref D501) (pin 2)))
    (net (code 143) (name "")
      (node (ref U701) (pin 6)))
    (net (code 144) (name "")
      (node (ref U701) (pin 7)))
    (net (code 145) (name "")
      (node (ref C703) (pin 1))
      (node (ref U701) (pin 20)))
    (net (code 146) (name /gyro/REGOUT)
      (node (ref C702) (pin 1))
      (node (ref U701) (pin 10)))))