EESchema Schematic File Version 2
LIBS:canmove-rescue
LIBS:power
LIBS:device
LIBS:transistors
LIBS:conn
LIBS:linear
LIBS:regul
LIBS:74xx
LIBS:cmos4000
LIBS:adc-dac
LIBS:memory
LIBS:xilinx
LIBS:microcontrollers
LIBS:dsp
LIBS:microchip
LIBS:analog_switches
LIBS:motorola
LIBS:texas
LIBS:intel
LIBS:audio
LIBS:interface
LIBS:digital-audio
LIBS:philips
LIBS:display
LIBS:cypress
LIBS:siliconi
LIBS:opto
LIBS:atmel
LIBS:contrib
LIBS:valves
LIBS:crap
LIBS:canmove-cache
EELAYER 25 0
EELAYER END
$Descr A4 11693 8268
encoding utf-8
Sheet 1 7
Title ""
Date "2 oct 2015"
Rev ""
Comp ""
Comment1 ""
Comment2 ""
Comment3 ""
Comment4 ""
$EndDescr
$Sheet
S 4950 4850 1450 1200
U 560AB42F
F0 "iso" 50
F1 "iso.sch" 50
F2 "M0_DIR" I L 4950 5200 60 
F3 "M0_DISABLE" I L 4950 5300 60 
F4 "M1_DIR" I L 4950 5450 60 
F5 "M1_DISABLE" I L 4950 5550 60 
F6 "M2_DIR" I L 4950 5700 60 
F7 "M2_DISABLE" I L 4950 5800 60 
F8 "POWER_FB" O L 4950 5050 60 
F9 "POWER_EN" I L 4950 4950 60 
F10 "M0_DIR_iso" O R 6400 5150 60 
F11 "M0_DISABLE_iso" O R 6400 5050 60 
F12 "M1_DIR_iso" O R 6400 5500 60 
F13 "M1_DISABLE_iso" O R 6400 5400 60 
F14 "M2_DIR_iso" O R 6400 5850 60 
F15 "M2_DISABLE_iso" O R 6400 5750 60 
F16 "POWER_EN_iso" O R 6400 4900 60 
$EndSheet
$Sheet
S 6850 4850 1150 1150
U 560AB43A
F0 "motors" 50
F1 "motors.sch" 50
F2 "M0_OUT1" O R 8000 5050 60 
F3 "M0_OUT2" O R 8000 5150 60 
F4 "M0_INV" I L 6850 5150 60 
F5 "POWER_EN" I L 6850 4900 60 
F6 "M0_ENABLE" I L 6850 5050 60 
F7 "M1_OUT1" O R 8000 5400 60 
F8 "M1_OUT2" O R 8000 5500 60 
F9 "M1_INV" I L 6850 5500 60 
F10 "M1_ENABLE" I L 6850 5400 60 
F11 "M2_OUT1" O R 8000 5750 60 
F12 "M2_OUT2" O R 8000 5850 60 
F13 "M2_INV" I L 6850 5850 60 
F14 "M2_ENABLE" I L 6850 5750 60 
$EndSheet
$Sheet
S 2800 4700 1600 2450
U 560AB474
F0 "mcu" 50
F1 "mcu.sch" 50
F2 "CAN_TX" O L 2800 4900 60 
F3 "CAN_RX" I L 2800 5050 60 
F4 "M0_ENC_A" I L 2800 5350 60 
F5 "M0_ENC_B" I L 2800 5450 60 
F6 "M1_ENC_A" I L 2800 5550 60 
F7 "M1_ENC_B" I L 2800 5650 60 
F8 "M2_ENC_A" I L 2800 5750 60 
F9 "M2_ENC_B" I L 2800 5850 60 
F10 "M0_DIR" O R 4400 5200 60 
F11 "M0_DISABLE" O R 4400 5300 60 
F12 "POWER_FB" I R 4400 4950 60 
F13 "POWER_EN" O R 4400 4850 60 
F14 "M1_DIR" O R 4400 5450 60 
F15 "M1_DISABLE" O R 4400 5550 60 
F16 "M2_DIR" O R 4400 5700 60 
F17 "M2_DISABLE" O R 4400 5800 60 
F18 "BUMP_0_A" I L 2800 6150 60 
F19 "BUMP_0_B" I L 2800 6250 60 
F20 "BUMP_1_A" I L 2800 6400 60 
F21 "BUMP_1_B" I L 2800 6500 60 
F22 "BUMP_2_A" I L 2800 6650 60 
F23 "BUMP_2_B" I L 2800 6750 60 
F24 "SDA" O R 4400 6150 60 
F25 "SCL" O R 4400 6250 60 
F26 "GYRO_SYNC" O R 4400 6450 60 
F27 "GYRO_INT" I L 2800 6950 60 
$EndSheet
$Comp
L CONN_2 P102
U 1 1 560AB49F
P 8650 5050
F 0 "P102" V 8600 5050 40  0000 C CNN
F 1 "CONN_2" V 8700 5050 40  0000 C CNN
F 2 "WE_CONN_3.81_vertical_2way" H 8650 5050 60  0000 C CNN
F 3 "" H 8650 5050 60  0000 C CNN
	1    8650 5050
	1    0    0    1   
$EndComp
$Comp
L CONN_2 P103
U 1 1 560AB4AE
P 8650 5450
F 0 "P103" V 8600 5450 40  0000 C CNN
F 1 "CONN_2" V 8700 5450 40  0000 C CNN
F 2 "WE_CONN_3.81_vertical_2way" H 8650 5450 60  0000 C CNN
F 3 "" H 8650 5450 60  0000 C CNN
	1    8650 5450
	1    0    0    1   
$EndComp
$Comp
L CONN_2 P104
U 1 1 560AB4BD
P 8650 5850
F 0 "P104" V 8600 5850 40  0000 C CNN
F 1 "CONN_2" V 8700 5850 40  0000 C CNN
F 2 "WE_CONN_3.81_vertical_2way" H 8650 5850 60  0000 C CNN
F 3 "" H 8650 5850 60  0000 C CNN
	1    8650 5850
	1    0    0    1   
$EndComp
$Comp
L CONN_3X2 P105
U 1 1 560AB503
P 8050 1850
F 0 "P105" H 8050 2100 50  0000 C CNN
F 1 "CONN_3X2" V 8050 1900 40  0000 C CNN
F 2 "he10-6d" H 8050 1850 60  0000 C CNN
F 3 "" H 8050 1850 60  0000 C CNN
	1    8050 1850
	1    0    0    -1  
$EndComp
$Comp
L CONN_3X2 P106
U 1 1 560AB512
P 8050 2300
F 0 "P106" H 8050 2550 50  0000 C CNN
F 1 "CONN_3X2" V 8050 2350 40  0000 C CNN
F 2 "he10-6d" H 8050 2300 60  0000 C CNN
F 3 "" H 8050 2300 60  0000 C CNN
	1    8050 2300
	1    0    0    -1  
$EndComp
$Comp
L CONN_3X2 P107
U 1 1 560AB521
P 8050 2750
F 0 "P107" H 8050 3000 50  0000 C CNN
F 1 "CONN_3X2" V 8050 2800 40  0000 C CNN
F 2 "he10-6d" H 8050 2750 60  0000 C CNN
F 3 "" H 8050 2750 60  0000 C CNN
	1    8050 2750
	1    0    0    -1  
$EndComp
$Comp
L CONN_2 P108
U 1 1 560AB5A1
P 10750 1200
F 0 "P108" V 10700 1200 40  0000 C CNN
F 1 "CONN_2" V 10800 1200 40  0000 C CNN
F 2 "WE_CONN_3.81_vertical_2way" H 10750 1200 60  0000 C CNN
F 3 "" H 10750 1200 60  0000 C CNN
	1    10750 1200
	1    0    0    1   
$EndComp
$Comp
L CONN_4 P110
U 1 1 560BB486
P 10950 6750
F 0 "P110" V 10900 6750 50  0000 C CNN
F 1 "CONN_4" V 11000 6750 50  0000 C CNN
F 2 "PIN_ARRAY_4x1" H 10950 6750 60  0000 C CNN
F 3 "" H 10950 6750 60  0000 C CNN
	1    10950 6750
	1    0    0    1   
$EndComp
$Sheet
S 5200 950  1150 700 
U 560BD1F2
F0 "power" 50
F1 "power.sch" 50
$EndSheet
$Sheet
S 1050 4700 600  450 
U 560AB644
F0 "can" 50
F1 "can.sch" 50
F2 "CANL" B L 1050 4850 60 
F3 "CANH" B L 1050 5000 60 
F4 "TX" I R 1650 4900 60 
F5 "RX" O R 1650 5050 60 
$EndSheet
$Comp
L GND-RESCUE-canmove #PWR01
U 1 1 560BFDC7
P 1250 1450
F 0 "#PWR01" H 1250 1450 30  0001 C CNN
F 1 "GND" H 1250 1380 30  0001 C CNN
F 2 "" H 1250 1450 60  0000 C CNN
F 3 "" H 1250 1450 60  0000 C CNN
	1    1250 1450
	1    0    0    -1  
$EndComp
$Comp
L +5V #PWR02
U 1 1 560BFDCD
P 1250 750
F 0 "#PWR02" H 1250 840 20  0001 C CNN
F 1 "+5V" H 1250 840 30  0000 C CNN
F 2 "" H 1250 750 60  0000 C CNN
F 3 "" H 1250 750 60  0000 C CNN
	1    1250 750 
	1    0    0    -1  
$EndComp
Text Label 1150 1150 0    60   ~ 0
CANL
Text Label 1150 1050 0    60   ~ 0
CANH
Wire Wire Line
	1250 750  1250 950 
Wire Wire Line
	1250 850  1150 850 
Wire Wire Line
	1250 950  1150 950 
Connection ~ 1250 850 
Wire Wire Line
	1150 1350 1250 1350
Wire Wire Line
	1250 1250 1250 1450
Wire Wire Line
	1150 1250 1250 1250
Connection ~ 1250 1350
Wire Notes Line
	1450 1600 600  1600
$Comp
L CONN_6 P101
U 1 1 560BFDDE
P 800 1100
F 0 "P101" V 750 1100 60  0000 C CNN
F 1 "CONN_6" V 850 1100 60  0000 C CNN
F 2 "TE_MICROMATCH_SMD_FEM_6PIN" H 550 1650 60  0000 C CNN
F 3 "" H 800 1100 60  0000 C CNN
	1    800  1100
	-1   0    0    1   
$EndComp
Wire Notes Line
	1450 1600 1450 550 
Wire Notes Line
	1450 550  600  550 
Wire Notes Line
	600  550  600  1600
Wire Wire Line
	2800 4900 1650 4900
Wire Wire Line
	1650 5050 2800 5050
Text Label 7650 1900 2    60   ~ 0
M0_ENC_A
Text Label 8450 1900 0    60   ~ 0
M0_ENC_B
Text Label 7650 2350 2    60   ~ 0
M1_ENC_A
Text Label 8450 2350 0    60   ~ 0
M1_ENC_B
Text Label 7650 2800 2    60   ~ 0
M2_ENC_A
Text Label 8450 2800 0    60   ~ 0
M2_ENC_B
Text Label 1800 5350 2    60   ~ 0
M0_ENC_A
Text Label 1800 5550 2    60   ~ 0
M1_ENC_A
Text Label 1800 5750 2    60   ~ 0
M2_ENC_A
Text Label 1800 5450 2    60   ~ 0
M0_ENC_B
Text Label 1800 5650 2    60   ~ 0
M1_ENC_B
Text Label 1800 5850 2    60   ~ 0
M2_ENC_B
Wire Wire Line
	2500 5350 2800 5350
Wire Wire Line
	2500 5450 2800 5450
Wire Wire Line
	2500 5550 2800 5550
Wire Wire Line
	2500 5650 2800 5650
Wire Wire Line
	2500 5750 2800 5750
Wire Wire Line
	2500 5850 2800 5850
Wire Wire Line
	4400 4950 4600 4950
Wire Wire Line
	4600 4950 4600 5050
Wire Wire Line
	4600 5050 4950 5050
Wire Wire Line
	4950 4950 4750 4950
Wire Wire Line
	4750 4950 4750 4850
Wire Wire Line
	4750 4850 4400 4850
Wire Wire Line
	4400 5200 4950 5200
Wire Wire Line
	4950 5300 4400 5300
Wire Wire Line
	4400 5450 4950 5450
Wire Wire Line
	4950 5550 4400 5550
Wire Wire Line
	4400 5700 4950 5700
Wire Wire Line
	4950 5800 4400 5800
Wire Wire Line
	6400 4900 6850 4900
Wire Wire Line
	6850 5050 6400 5050
Wire Wire Line
	6400 5150 6850 5150
Wire Wire Line
	6400 5400 6850 5400
Wire Wire Line
	6850 5500 6400 5500
Wire Wire Line
	6400 5750 6850 5750
Wire Wire Line
	6850 5850 6400 5850
Wire Wire Line
	8000 5050 8150 5050
Wire Wire Line
	8150 5050 8150 4950
Wire Wire Line
	8150 4950 8300 4950
Wire Wire Line
	8000 5150 8300 5150
Wire Wire Line
	8000 5400 8150 5400
Wire Wire Line
	8150 5400 8150 5350
Wire Wire Line
	8150 5350 8300 5350
Wire Wire Line
	8000 5500 8150 5500
Wire Wire Line
	8150 5500 8150 5550
Wire Wire Line
	8150 5550 8300 5550
Wire Wire Line
	8000 5750 8300 5750
Wire Wire Line
	8000 5850 8150 5850
Wire Wire Line
	8150 5850 8150 5950
Wire Wire Line
	8150 5950 8300 5950
$Comp
L AGND #PWR03
U 1 1 560C7420
P 10350 1350
F 0 "#PWR03" H 10350 1350 40  0001 C CNN
F 1 "AGND" H 10350 1280 50  0000 C CNN
F 2 "" H 10350 1350 60  0000 C CNN
F 3 "" H 10350 1350 60  0000 C CNN
	1    10350 1350
	1    0    0    -1  
$EndComp
Wire Wire Line
	10350 1350 10350 1300
Wire Wire Line
	10350 1300 10400 1300
$Comp
L +BATT #PWR04
U 1 1 560C75BD
P 10350 1050
F 0 "#PWR04" H 10350 1000 20  0001 C CNN
F 1 "+BATT" H 10350 1150 30  0000 C CNN
F 2 "" H 10350 1050 60  0000 C CNN
F 3 "" H 10350 1050 60  0000 C CNN
	1    10350 1050
	1    0    0    -1  
$EndComp
Wire Wire Line
	10350 1050 10350 1100
Wire Wire Line
	10350 1100 10400 1100
$Comp
L R-RESCUE-canmove R101
U 1 1 560CB229
P 2250 5350
F 0 "R101" V 2330 5350 40  0000 C CNN
F 1 "300" V 2257 5351 40  0000 C CNN
F 2 "SM0402" V 2180 5350 30  0000 C CNN
F 3 "~" H 2250 5350 30  0000 C CNN
	1    2250 5350
	0    -1   -1   0   
$EndComp
$Comp
L R-RESCUE-canmove R102
U 1 1 560CB2CB
P 2250 5450
F 0 "R102" V 2330 5450 40  0000 C CNN
F 1 "300" V 2257 5451 40  0000 C CNN
F 2 "SM0402" V 2180 5450 30  0000 C CNN
F 3 "~" H 2250 5450 30  0000 C CNN
	1    2250 5450
	0    -1   -1   0   
$EndComp
$Comp
L R-RESCUE-canmove R103
U 1 1 560CB2D1
P 2250 5550
F 0 "R103" V 2330 5550 40  0000 C CNN
F 1 "300" V 2257 5551 40  0000 C CNN
F 2 "SM0402" V 2180 5550 30  0000 C CNN
F 3 "~" H 2250 5550 30  0000 C CNN
	1    2250 5550
	0    -1   -1   0   
$EndComp
$Comp
L R-RESCUE-canmove R104
U 1 1 560CB2D7
P 2250 5650
F 0 "R104" V 2330 5650 40  0000 C CNN
F 1 "300" V 2257 5651 40  0000 C CNN
F 2 "SM0402" V 2180 5650 30  0000 C CNN
F 3 "~" H 2250 5650 30  0000 C CNN
	1    2250 5650
	0    -1   -1   0   
$EndComp
$Comp
L R-RESCUE-canmove R105
U 1 1 560CB2DD
P 2250 5750
F 0 "R105" V 2330 5750 40  0000 C CNN
F 1 "300" V 2257 5751 40  0000 C CNN
F 2 "SM0402" V 2180 5750 30  0000 C CNN
F 3 "~" H 2250 5750 30  0000 C CNN
	1    2250 5750
	0    -1   -1   0   
$EndComp
$Comp
L R-RESCUE-canmove R106
U 1 1 560CB2E3
P 2250 5850
F 0 "R106" V 2330 5850 40  0000 C CNN
F 1 "300" V 2257 5851 40  0000 C CNN
F 2 "SM0402" V 2180 5850 30  0000 C CNN
F 3 "~" H 2250 5850 30  0000 C CNN
	1    2250 5850
	0    -1   -1   0   
$EndComp
Wire Wire Line
	1800 5850 2000 5850
Wire Wire Line
	2000 5750 1800 5750
Wire Wire Line
	1800 5650 2000 5650
Wire Wire Line
	2000 5550 1800 5550
Wire Wire Line
	1800 5450 2000 5450
Wire Wire Line
	2000 5350 1800 5350
$Comp
L GND-RESCUE-canmove #PWR05
U 1 1 560CBF8D
P 7550 1800
F 0 "#PWR05" H 7550 1800 30  0001 C CNN
F 1 "GND" H 7550 1730 30  0001 C CNN
F 2 "" H 7550 1800 60  0000 C CNN
F 3 "" H 7550 1800 60  0000 C CNN
	1    7550 1800
	0    1    1    0   
$EndComp
$Comp
L GND-RESCUE-canmove #PWR06
U 1 1 560CBF9A
P 7550 2250
F 0 "#PWR06" H 7550 2250 30  0001 C CNN
F 1 "GND" H 7550 2180 30  0001 C CNN
F 2 "" H 7550 2250 60  0000 C CNN
F 3 "" H 7550 2250 60  0000 C CNN
	1    7550 2250
	0    1    1    0   
$EndComp
$Comp
L GND-RESCUE-canmove #PWR07
U 1 1 560CBFA0
P 7550 2700
F 0 "#PWR07" H 7550 2700 30  0001 C CNN
F 1 "GND" H 7550 2630 30  0001 C CNN
F 2 "" H 7550 2700 60  0000 C CNN
F 3 "" H 7550 2700 60  0000 C CNN
	1    7550 2700
	0    1    1    0   
$EndComp
$Comp
L +5V #PWR08
U 1 1 560CBFA8
P 8550 1800
F 0 "#PWR08" H 8550 1890 20  0001 C CNN
F 1 "+5V" H 8550 1890 30  0000 C CNN
F 2 "" H 8550 1800 60  0000 C CNN
F 3 "" H 8550 1800 60  0000 C CNN
	1    8550 1800
	0    1    1    0   
$EndComp
$Comp
L +5V #PWR09
U 1 1 560CBFB5
P 8550 2250
F 0 "#PWR09" H 8550 2340 20  0001 C CNN
F 1 "+5V" H 8550 2340 30  0000 C CNN
F 2 "" H 8550 2250 60  0000 C CNN
F 3 "" H 8550 2250 60  0000 C CNN
	1    8550 2250
	0    1    1    0   
$EndComp
$Comp
L +5V #PWR010
U 1 1 560CBFBB
P 8550 2700
F 0 "#PWR010" H 8550 2790 20  0001 C CNN
F 1 "+5V" H 8550 2790 30  0000 C CNN
F 2 "" H 8550 2700 60  0000 C CNN
F 3 "" H 8550 2700 60  0000 C CNN
	1    8550 2700
	0    1    1    0   
$EndComp
Wire Wire Line
	8550 2700 8450 2700
Wire Wire Line
	7550 2700 7650 2700
Wire Wire Line
	7550 2250 7650 2250
Wire Wire Line
	8450 2250 8550 2250
Wire Wire Line
	8550 1800 8450 1800
Wire Wire Line
	7550 1800 7650 1800
NoConn ~ 7650 1700
NoConn ~ 8450 1700
NoConn ~ 8450 2150
NoConn ~ 7650 2150
NoConn ~ 7650 2600
NoConn ~ 8450 2600
Text Label 850  4850 2    60   ~ 0
CANL
Text Label 850  5000 2    60   ~ 0
CANH
Wire Wire Line
	850  4850 1050 4850
Wire Wire Line
	850  5000 1050 5000
$Comp
L GND-RESCUE-canmove #PWR011
U 1 1 560D0095
P 10500 7000
F 0 "#PWR011" H 10500 7000 30  0001 C CNN
F 1 "GND" H 10500 6930 30  0001 C CNN
F 2 "" H 10500 7000 60  0000 C CNN
F 3 "" H 10500 7000 60  0000 C CNN
	1    10500 7000
	1    0    0    -1  
$EndComp
Wire Wire Line
	10500 7000 10500 6900
Wire Wire Line
	10500 6900 10600 6900
$Comp
L VDD #PWR012
U 1 1 560D017C
P 10500 6500
F 0 "#PWR012" H 10500 6600 30  0001 C CNN
F 1 "VDD" H 10500 6610 30  0000 C CNN
F 2 "" H 10500 6500 60  0000 C CNN
F 3 "" H 10500 6500 60  0000 C CNN
	1    10500 6500
	1    0    0    -1  
$EndComp
Wire Wire Line
	10500 6500 10500 6600
Wire Wire Line
	10500 6600 10600 6600
Wire Wire Line
	10500 6800 10600 6800
Wire Wire Line
	10600 6700 10500 6700
$Comp
L CONN_3 K101
U 1 1 560D092E
P 750 2100
F 0 "K101" V 700 2100 50  0000 C CNN
F 1 "CONN_3" V 800 2100 40  0000 C CNN
F 2 "PIN_ARRAY_3_BLUE" H 750 2100 60  0000 C CNN
F 3 "" H 750 2100 60  0000 C CNN
	1    750  2100
	-1   0    0    1   
$EndComp
$Comp
L GND-RESCUE-canmove #PWR013
U 1 1 560D0DBD
P 1200 2300
F 0 "#PWR013" H 1200 2300 30  0001 C CNN
F 1 "GND" H 1200 2230 30  0001 C CNN
F 2 "" H 1200 2300 60  0000 C CNN
F 3 "" H 1200 2300 60  0000 C CNN
	1    1200 2300
	-1   0    0    -1  
$EndComp
Wire Wire Line
	1200 2300 1200 2200
Wire Wire Line
	1200 2200 1100 2200
Text Label 1200 2100 0    60   ~ 0
BUMP_0_A
Wire Wire Line
	1100 2100 2000 2100
Text Label 1200 2000 0    60   ~ 0
BUMP_0_B
Wire Wire Line
	1100 2000 2000 2000
$Comp
L CONN_3 K102
U 1 1 560D19BA
P 750 2600
F 0 "K102" V 700 2600 50  0000 C CNN
F 1 "CONN_3" V 800 2600 40  0000 C CNN
F 2 "PIN_ARRAY_3_BLUE" H 750 2600 60  0000 C CNN
F 3 "" H 750 2600 60  0000 C CNN
	1    750  2600
	-1   0    0    1   
$EndComp
$Comp
L GND-RESCUE-canmove #PWR014
U 1 1 560D19C0
P 1200 2800
F 0 "#PWR014" H 1200 2800 30  0001 C CNN
F 1 "GND" H 1200 2730 30  0001 C CNN
F 2 "" H 1200 2800 60  0000 C CNN
F 3 "" H 1200 2800 60  0000 C CNN
	1    1200 2800
	-1   0    0    -1  
$EndComp
Wire Wire Line
	1200 2800 1200 2700
Wire Wire Line
	1200 2700 1100 2700
Text Label 1200 2600 0    60   ~ 0
BUMP_1_A
Wire Wire Line
	1100 2600 2000 2600
Text Label 1200 2500 0    60   ~ 0
BUMP_1_B
Wire Wire Line
	1100 2500 2000 2500
$Comp
L CONN_3 K103
U 1 1 560D1AEC
P 750 3150
F 0 "K103" V 700 3150 50  0000 C CNN
F 1 "CONN_3" V 800 3150 40  0000 C CNN
F 2 "PIN_ARRAY_3_BLUE" H 750 3150 60  0000 C CNN
F 3 "" H 750 3150 60  0000 C CNN
	1    750  3150
	-1   0    0    1   
$EndComp
$Comp
L GND-RESCUE-canmove #PWR015
U 1 1 560D1AF2
P 1200 3350
F 0 "#PWR015" H 1200 3350 30  0001 C CNN
F 1 "GND" H 1200 3280 30  0001 C CNN
F 2 "" H 1200 3350 60  0000 C CNN
F 3 "" H 1200 3350 60  0000 C CNN
	1    1200 3350
	-1   0    0    -1  
$EndComp
Wire Wire Line
	1200 3350 1200 3250
Wire Wire Line
	1200 3250 1100 3250
Text Label 1200 3150 0    60   ~ 0
BUMP_2_A
Wire Wire Line
	1100 3150 2000 3150
Text Label 1200 3050 0    60   ~ 0
BUMP_2_B
Wire Wire Line
	1100 3050 2000 3050
$Sheet
S 3250 3700 650  700 
U 560C590D
F0 "gyro" 50
F1 "gyro.sch" 50
F2 "SCL" I L 3250 3900 60 
F3 "SDA" I L 3250 4000 60 
F4 "SYNC" I L 3250 4200 60 
F5 "INT" O R 3900 4000 60 
$EndSheet
$Comp
L C-RESCUE-canmove C101
U 1 1 560CA5B0
P 2200 1900
F 0 "C101" H 2200 2000 40  0000 L CNN
F 1 "C" H 2206 1815 40  0000 L CNN
F 2 "SM0603" H 2238 1750 30  0000 C CNN
F 3 "~" H 2200 1900 60  0000 C CNN
	1    2200 1900
	0    -1   -1   0   
$EndComp
$Comp
L C-RESCUE-canmove C102
U 1 1 560CA65B
P 2200 2100
F 0 "C102" H 2200 2200 40  0000 L CNN
F 1 "C" H 2206 2015 40  0000 L CNN
F 2 "SM0603" H 2238 1950 30  0000 C CNN
F 3 "~" H 2200 2100 60  0000 C CNN
	1    2200 2100
	0    -1   -1   0   
$EndComp
$Comp
L GND-RESCUE-canmove #PWR016
U 1 1 560CA7A0
P 2500 2000
F 0 "#PWR016" H 2500 2000 30  0001 C CNN
F 1 "GND" H 2500 1930 30  0001 C CNN
F 2 "" H 2500 2000 60  0000 C CNN
F 3 "" H 2500 2000 60  0000 C CNN
	1    2500 2000
	0    -1   1    0   
$EndComp
Wire Wire Line
	2500 2000 2450 2000
Wire Wire Line
	2450 1900 2450 2100
Wire Wire Line
	2450 2100 2400 2100
Wire Wire Line
	2450 1900 2400 1900
Connection ~ 2450 2000
$Comp
L C-RESCUE-canmove C103
U 1 1 560CAA32
P 2200 2400
F 0 "C103" H 2200 2500 40  0000 L CNN
F 1 "C" H 2206 2315 40  0000 L CNN
F 2 "SM0603" H 2238 2250 30  0000 C CNN
F 3 "~" H 2200 2400 60  0000 C CNN
	1    2200 2400
	0    -1   -1   0   
$EndComp
$Comp
L C-RESCUE-canmove C104
U 1 1 560CAA38
P 2200 2600
F 0 "C104" H 2200 2700 40  0000 L CNN
F 1 "C" H 2206 2515 40  0000 L CNN
F 2 "SM0603" H 2238 2450 30  0000 C CNN
F 3 "~" H 2200 2600 60  0000 C CNN
	1    2200 2600
	0    -1   -1   0   
$EndComp
$Comp
L GND-RESCUE-canmove #PWR017
U 1 1 560CAA3E
P 2500 2500
F 0 "#PWR017" H 2500 2500 30  0001 C CNN
F 1 "GND" H 2500 2430 30  0001 C CNN
F 2 "" H 2500 2500 60  0000 C CNN
F 3 "" H 2500 2500 60  0000 C CNN
	1    2500 2500
	0    -1   1    0   
$EndComp
Wire Wire Line
	2500 2500 2450 2500
Wire Wire Line
	2450 2400 2450 2600
Wire Wire Line
	2450 2600 2400 2600
Wire Wire Line
	2450 2400 2400 2400
Connection ~ 2450 2500
$Comp
L C-RESCUE-canmove C105
U 1 1 560CAB81
P 2200 2950
F 0 "C105" H 2200 3050 40  0000 L CNN
F 1 "C" H 2206 2865 40  0000 L CNN
F 2 "SM0603" H 2238 2800 30  0000 C CNN
F 3 "~" H 2200 2950 60  0000 C CNN
	1    2200 2950
	0    -1   -1   0   
$EndComp
$Comp
L C-RESCUE-canmove C106
U 1 1 560CAB87
P 2200 3150
F 0 "C106" H 2200 3250 40  0000 L CNN
F 1 "C" H 2206 3065 40  0000 L CNN
F 2 "SM0603" H 2238 3000 30  0000 C CNN
F 3 "~" H 2200 3150 60  0000 C CNN
	1    2200 3150
	0    -1   -1   0   
$EndComp
$Comp
L GND-RESCUE-canmove #PWR018
U 1 1 560CAB8D
P 2500 3050
F 0 "#PWR018" H 2500 3050 30  0001 C CNN
F 1 "GND" H 2500 2980 30  0001 C CNN
F 2 "" H 2500 3050 60  0000 C CNN
F 3 "" H 2500 3050 60  0000 C CNN
	1    2500 3050
	0    -1   1    0   
$EndComp
Wire Wire Line
	2500 3050 2450 3050
Wire Wire Line
	2450 2950 2450 3150
Wire Wire Line
	2450 3150 2400 3150
Wire Wire Line
	2450 2950 2400 2950
Connection ~ 2450 3050
Wire Wire Line
	2000 3050 2000 2950
Wire Wire Line
	2000 2500 2000 2400
Wire Wire Line
	2000 2000 2000 1900
Text Label 3200 3900 2    60   ~ 0
SCL
Text Label 3200 4000 2    60   ~ 0
SDA
Text Label 3950 4000 0    60   ~ 0
GYRO_INT
Text Label 3200 4200 2    60   ~ 0
GYRO_SYNC
Wire Wire Line
	3200 3900 3250 3900
Wire Wire Line
	3250 4000 3200 4000
Wire Wire Line
	3200 4200 3250 4200
Wire Wire Line
	3900 4000 3950 4000
Text Label 4500 6250 0    60   ~ 0
SCL
Text Label 4500 6150 0    60   ~ 0
SDA
Text Label 4500 6450 0    60   ~ 0
GYRO_SYNC
Wire Wire Line
	4500 6450 4400 6450
Wire Wire Line
	4400 6250 4500 6250
Wire Wire Line
	4500 6150 4400 6150
Text Label 2700 6950 2    60   ~ 0
GYRO_INT
Wire Wire Line
	2700 6950 2800 6950
Text Label 2700 6150 2    60   ~ 0
BUMP_0_A
Text Label 2700 6250 2    60   ~ 0
BUMP_0_B
Text Label 2700 6400 2    60   ~ 0
BUMP_1_A
Text Label 2700 6500 2    60   ~ 0
BUMP_1_B
Text Label 2700 6650 2    60   ~ 0
BUMP_2_A
Text Label 2700 6750 2    60   ~ 0
BUMP_2_B
Wire Wire Line
	2700 6150 2800 6150
Wire Wire Line
	2800 6250 2700 6250
Wire Wire Line
	2700 6400 2800 6400
Wire Wire Line
	2800 6500 2700 6500
Wire Wire Line
	2700 6650 2800 6650
Wire Wire Line
	2700 6750 2800 6750
Text Label 10500 6800 2    60   ~ 0
SCL
Text Label 10500 6700 2    60   ~ 0
SDA
$Comp
L C-RESCUE-canmove C107
U 1 1 560CFDF3
P 2250 1100
F 0 "C107" H 2250 1200 40  0000 L CNN
F 1 "100u" H 2256 1015 40  0000 L CNN
F 2 "C1" H 2288 950 30  0000 C CNN
F 3 "~" H 2250 1100 60  0000 C CNN
	1    2250 1100
	1    0    0    -1  
$EndComp
$Comp
L +5V #PWR019
U 1 1 560CFEC6
P 2250 800
F 0 "#PWR019" H 2250 890 20  0001 C CNN
F 1 "+5V" H 2250 890 30  0000 C CNN
F 2 "" H 2250 800 60  0000 C CNN
F 3 "" H 2250 800 60  0000 C CNN
	1    2250 800 
	1    0    0    -1  
$EndComp
$Comp
L GND-RESCUE-canmove #PWR020
U 1 1 560CFECC
P 2250 1400
F 0 "#PWR020" H 2250 1400 30  0001 C CNN
F 1 "GND" H 2250 1330 30  0001 C CNN
F 2 "" H 2250 1400 60  0000 C CNN
F 3 "" H 2250 1400 60  0000 C CNN
	1    2250 1400
	1    0    0    -1  
$EndComp
Wire Wire Line
	2250 1400 2250 1300
Wire Wire Line
	2250 900  2250 800 
$EndSCHEMATC
