EESchema Schematic File Version 2
LIBS:canmove-rescue
LIBS:power
LIBS:device
LIBS:transistors
LIBS:conn
LIBS:linear
LIBS:regul
LIBS:74xx
LIBS:cmos4000
LIBS:adc-dac
LIBS:memory
LIBS:xilinx
LIBS:microcontrollers
LIBS:dsp
LIBS:microchip
LIBS:analog_switches
LIBS:motorola
LIBS:texas
LIBS:intel
LIBS:audio
LIBS:interface
LIBS:digital-audio
LIBS:philips
LIBS:display
LIBS:cypress
LIBS:siliconi
LIBS:opto
LIBS:atmel
LIBS:contrib
LIBS:valves
LIBS:crap
LIBS:canmove-cache
EELAYER 25 0
EELAYER END
$Descr A4 11693 8268
encoding utf-8
Sheet 7 7
Title ""
Date "2 oct 2015"
Rev ""
Comp ""
Comment1 ""
Comment2 ""
Comment3 ""
Comment4 ""
$EndDescr
$Comp
L MPU-6050(QFN24) U701
U 1 1 560C59A5
P 5650 3700
F 0 "U701" H 5950 3250 50  0000 L CNN
F 1 "MPU-6050(QFN24)" H 5450 4150 50  0000 L CNN
F 2 "QFN24G-0.5-4X4MM" H 5650 3700 50  0001 L CNN
F 3 "" H 5650 3700 60  0000 C CNN
	1    5650 3700
	1    0    0    -1  
$EndComp
$Comp
L C-RESCUE-canmove C703
U 1 1 560C59B4
P 4650 4100
F 0 "C703" H 4650 4200 40  0000 L CNN
F 1 "2.2n" H 4656 4015 40  0000 L CNN
F 2 "SM0402" H 4688 3950 30  0000 C CNN
F 3 "~" H 4650 4100 60  0000 C CNN
	1    4650 4100
	1    0    0    -1  
$EndComp
$Comp
L C-RESCUE-canmove C702
U 1 1 560C59C3
P 4450 4100
F 0 "C702" H 4450 4200 40  0000 L CNN
F 1 "0.1u" H 4456 4015 40  0000 L CNN
F 2 "SM0402" H 4488 3950 30  0000 C CNN
F 3 "~" H 4450 4100 60  0000 C CNN
	1    4450 4100
	1    0    0    -1  
$EndComp
$Comp
L C-RESCUE-canmove C701
U 1 1 560C59D2
P 4250 4100
F 0 "C701" H 4250 4200 40  0000 L CNN
F 1 "0.1u" H 4256 4015 40  0000 L CNN
F 2 "SM0402" H 4288 3950 30  0000 C CNN
F 3 "~" H 4250 4100 60  0000 C CNN
	1    4250 4100
	1    0    0    -1  
$EndComp
$Comp
L C-RESCUE-canmove C704
U 1 1 560C59E1
P 6550 4100
F 0 "C704" H 6550 4200 40  0000 L CNN
F 1 "10n" H 6556 4015 40  0000 L CNN
F 2 "SM0402" H 6588 3950 30  0000 C CNN
F 3 "~" H 6550 4100 60  0000 C CNN
	1    6550 4100
	1    0    0    -1  
$EndComp
$Comp
L GND-RESCUE-canmove #PWR0112
U 1 1 560C59F0
P 6550 4400
F 0 "#PWR0112" H 6550 4400 30  0001 C CNN
F 1 "GND" H 6550 4330 30  0001 C CNN
F 2 "" H 6550 4400 60  0000 C CNN
F 3 "" H 6550 4400 60  0000 C CNN
	1    6550 4400
	1    0    0    -1  
$EndComp
$Comp
L GND-RESCUE-canmove #PWR0113
U 1 1 560C59FD
P 4450 4400
F 0 "#PWR0113" H 4450 4400 30  0001 C CNN
F 1 "GND" H 4450 4330 30  0001 C CNN
F 2 "" H 4450 4400 60  0000 C CNN
F 3 "" H 4450 4400 60  0000 C CNN
	1    4450 4400
	1    0    0    -1  
$EndComp
Wire Wire Line
	4450 4400 4450 4300
Wire Wire Line
	4250 4350 4650 4350
Wire Wire Line
	4650 4350 4650 4300
Connection ~ 4450 4350
Wire Wire Line
	4250 4350 4250 4300
Wire Wire Line
	4650 3900 4950 3900
Wire Wire Line
	4450 3900 4450 3800
Wire Wire Line
	4450 3800 4950 3800
Wire Wire Line
	6350 3900 6900 3900
Wire Wire Line
	6550 4300 6550 4400
$Comp
L VDD #PWR0114
U 1 1 560C5A2D
P 4850 3300
F 0 "#PWR0114" H 4850 3400 30  0001 C CNN
F 1 "VDD" H 4850 3410 30  0000 C CNN
F 2 "" H 4850 3300 60  0000 C CNN
F 3 "" H 4850 3300 60  0000 C CNN
	1    4850 3300
	1    0    0    -1  
$EndComp
Wire Wire Line
	4850 3300 4850 3400
Wire Wire Line
	4850 3400 4950 3400
$Comp
L VDD #PWR0115
U 1 1 560C5A45
P 4250 3800
F 0 "#PWR0115" H 4250 3900 30  0001 C CNN
F 1 "VDD" H 4250 3910 30  0000 C CNN
F 2 "" H 4250 3800 60  0000 C CNN
F 3 "" H 4250 3800 60  0000 C CNN
	1    4250 3800
	1    0    0    -1  
$EndComp
Wire Wire Line
	4250 3800 4250 3900
$Comp
L GND-RESCUE-canmove #PWR0116
U 1 1 560C5A8D
P 4900 4100
F 0 "#PWR0116" H 4900 4100 30  0001 C CNN
F 1 "GND" H 4900 4030 30  0001 C CNN
F 2 "" H 4900 4100 60  0000 C CNN
F 3 "" H 4900 4100 60  0000 C CNN
	1    4900 4100
	1    0    0    -1  
$EndComp
Wire Wire Line
	4900 4100 4900 4000
Wire Wire Line
	4900 4000 4950 4000
$Comp
L GND-RESCUE-canmove #PWR0117
U 1 1 560C5AB5
P 4850 3700
F 0 "#PWR0117" H 4850 3700 30  0001 C CNN
F 1 "GND" H 4850 3630 30  0001 C CNN
F 2 "" H 4850 3700 60  0000 C CNN
F 3 "" H 4850 3700 60  0000 C CNN
	1    4850 3700
	0    1    1    0   
$EndComp
Wire Wire Line
	4850 3700 4950 3700
Text HLabel 6500 3600 2    60   Input ~ 0
SCL
Text HLabel 6500 3700 2    60   Input ~ 0
SDA
Wire Wire Line
	6500 3700 6350 3700
Wire Wire Line
	6350 3600 6500 3600
$Comp
L GND-RESCUE-canmove #PWR0118
U 1 1 560C5AEE
P 6450 3800
F 0 "#PWR0118" H 6450 3800 30  0001 C CNN
F 1 "GND" H 6450 3730 30  0001 C CNN
F 2 "" H 6450 3800 60  0000 C CNN
F 3 "" H 6450 3800 60  0000 C CNN
	1    6450 3800
	0    -1   -1   0   
$EndComp
Wire Wire Line
	6450 3800 6350 3800
Text HLabel 4850 3600 0    60   Input ~ 0
SYNC
Text HLabel 4850 3500 0    60   Output ~ 0
INT
Wire Wire Line
	4850 3500 4950 3500
Wire Wire Line
	4950 3600 4850 3600
$Comp
L VDD #PWR0119
U 1 1 560C52FF
P 6900 3800
F 0 "#PWR0119" H 6900 3900 30  0001 C CNN
F 1 "VDD" H 6900 3910 30  0000 C CNN
F 2 "" H 6900 3800 60  0000 C CNN
F 3 "" H 6900 3800 60  0000 C CNN
	1    6900 3800
	1    0    0    -1  
$EndComp
Wire Wire Line
	6900 3900 6900 3800
Connection ~ 6550 3900
NoConn ~ 6350 3400
NoConn ~ 6350 3500
Text HLabel 4450 3800 1    60   Input ~ 0
REGOUT
$EndSCHEMATC
