EESchema Schematic File Version 2
LIBS:canmove-rescue
LIBS:power
LIBS:device
LIBS:transistors
LIBS:conn
LIBS:linear
LIBS:regul
LIBS:74xx
LIBS:cmos4000
LIBS:adc-dac
LIBS:memory
LIBS:xilinx
LIBS:microcontrollers
LIBS:dsp
LIBS:microchip
LIBS:analog_switches
LIBS:motorola
LIBS:texas
LIBS:intel
LIBS:audio
LIBS:interface
LIBS:digital-audio
LIBS:philips
LIBS:display
LIBS:cypress
LIBS:siliconi
LIBS:opto
LIBS:atmel
LIBS:contrib
LIBS:valves
LIBS:crap
LIBS:canmove-cache
EELAYER 25 0
EELAYER END
$Descr A4 11693 8268
encoding utf-8
Sheet 2 7
Title ""
Date "2 oct 2015"
Rev ""
Comp ""
Comment1 ""
Comment2 ""
Comment3 ""
Comment4 ""
$EndDescr
$Comp
L ISO7140 U201
U 1 1 560AB9DB
P 5400 2900
F 0 "U201" H 5900 2450 60  0000 C CNN
F 1 "ISO7140" H 5050 3400 60  0000 C CNN
F 2 "TSSOP16" H 5300 2850 60  0000 C CNN
F 3 "~" H 5300 2850 60  0000 C CNN
	1    5400 2900
	1    0    0    -1  
$EndComp
$Comp
L ISO7141 U202
U 1 1 560AB9EA
P 5450 4550
F 0 "U202" H 5950 4100 60  0000 C CNN
F 1 "ISO7141" H 5100 5050 60  0000 C CNN
F 2 "TSSOP16" H 5350 4500 60  0000 C CNN
F 3 "~" H 5350 4500 60  0000 C CNN
	1    5450 4550
	1    0    0    -1  
$EndComp
Text HLabel 4550 2950 0    60   Input ~ 0
M0_DIR
Text HLabel 4550 3050 0    60   Input ~ 0
M0_DISABLE
Text HLabel 4550 2750 0    60   Input ~ 0
M1_DIR
Text HLabel 4550 2850 0    60   Input ~ 0
M1_DISABLE
Text HLabel 4550 4400 0    60   Input ~ 0
M2_DIR
Text HLabel 4550 4500 0    60   Input ~ 0
M2_DISABLE
Text HLabel 4550 4700 0    60   Output ~ 0
POWER_FB
Text HLabel 4550 4600 0    60   Input ~ 0
POWER_EN
Text HLabel 6300 2950 2    60   Output ~ 0
M0_DIR_iso
Text HLabel 6300 3050 2    60   Output ~ 0
M0_DISABLE_iso
Text HLabel 6300 2750 2    60   Output ~ 0
M1_DIR_iso
Text HLabel 6300 2850 2    60   Output ~ 0
M1_DISABLE_iso
Text HLabel 6300 4400 2    60   Output ~ 0
M2_DIR_iso
Text HLabel 6300 4500 2    60   Output ~ 0
M2_DISABLE_iso
Text HLabel 6300 4600 2    60   Output ~ 0
POWER_EN_iso
Wire Wire Line
	4550 2750 4750 2750
Wire Wire Line
	4750 2850 4550 2850
Wire Wire Line
	4550 2950 4750 2950
Wire Wire Line
	4750 3050 4550 3050
Wire Wire Line
	4550 4700 4800 4700
Wire Wire Line
	4800 4600 4550 4600
Wire Wire Line
	4550 4500 4800 4500
Wire Wire Line
	4800 4400 4550 4400
Wire Wire Line
	6150 4400 6300 4400
Wire Wire Line
	6300 4500 6150 4500
Wire Wire Line
	6150 4600 6300 4600
Wire Wire Line
	6250 4600 6250 4700
Wire Wire Line
	6250 4700 6150 4700
Connection ~ 6250 4600
Wire Wire Line
	6100 2750 6300 2750
Wire Wire Line
	6300 2850 6100 2850
Wire Wire Line
	6100 2950 6300 2950
Wire Wire Line
	6300 3050 6100 3050
$Comp
L AGND #PWR021
U 1 1 560CDA95
P 6250 5000
F 0 "#PWR021" H 6250 5000 40  0001 C CNN
F 1 "AGND" H 6250 4930 50  0000 C CNN
F 2 "" H 6250 5000 60  0000 C CNN
F 3 "" H 6250 5000 60  0000 C CNN
	1    6250 5000
	1    0    0    -1  
$EndComp
Wire Wire Line
	6250 5000 6250 4900
Wire Wire Line
	6250 4900 6150 4900
$Comp
L +5VA #PWR022
U 1 1 560CDAB7
P 6350 4800
F 0 "#PWR022" H 6350 4930 20  0001 C CNN
F 1 "+5VA" H 6350 4900 30  0000 C CNN
F 2 "" H 6350 4800 60  0000 C CNN
F 3 "" H 6350 4800 60  0000 C CNN
	1    6350 4800
	0    1    1    0   
$EndComp
Wire Wire Line
	6350 4800 6150 4800
$Comp
L +5VA #PWR023
U 1 1 560CDAD9
P 6250 4100
F 0 "#PWR023" H 6250 4230 20  0001 C CNN
F 1 "+5VA" H 6250 4200 30  0000 C CNN
F 2 "" H 6250 4100 60  0000 C CNN
F 3 "" H 6250 4100 60  0000 C CNN
	1    6250 4100
	1    0    0    -1  
$EndComp
Wire Wire Line
	6250 4100 6250 4200
Wire Wire Line
	6250 4200 6150 4200
$Comp
L AGND #PWR024
U 1 1 560CDAF5
P 6200 4300
F 0 "#PWR024" H 6200 4300 40  0001 C CNN
F 1 "AGND" H 6200 4230 50  0000 C CNN
F 2 "" H 6200 4300 60  0000 C CNN
F 3 "" H 6200 4300 60  0000 C CNN
	1    6200 4300
	0    -1   -1   0   
$EndComp
Wire Wire Line
	6150 4300 6200 4300
$Comp
L +5VA #PWR025
U 1 1 560CDB13
P 6200 2450
F 0 "#PWR025" H 6200 2580 20  0001 C CNN
F 1 "+5VA" H 6200 2550 30  0000 C CNN
F 2 "" H 6200 2450 60  0000 C CNN
F 3 "" H 6200 2450 60  0000 C CNN
	1    6200 2450
	1    0    0    -1  
$EndComp
Wire Wire Line
	6200 2450 6200 2550
Wire Wire Line
	6200 2550 6100 2550
$Comp
L AGND #PWR026
U 1 1 560CDB1B
P 6150 2650
F 0 "#PWR026" H 6150 2650 40  0001 C CNN
F 1 "AGND" H 6150 2580 50  0000 C CNN
F 2 "" H 6150 2650 60  0000 C CNN
F 3 "" H 6150 2650 60  0000 C CNN
	1    6150 2650
	0    -1   -1   0   
$EndComp
Wire Wire Line
	6100 2650 6150 2650
$Comp
L AGND #PWR027
U 1 1 560CDB22
P 6200 3350
F 0 "#PWR027" H 6200 3350 40  0001 C CNN
F 1 "AGND" H 6200 3280 50  0000 C CNN
F 2 "" H 6200 3350 60  0000 C CNN
F 3 "" H 6200 3350 60  0000 C CNN
	1    6200 3350
	1    0    0    -1  
$EndComp
Wire Wire Line
	6200 3350 6200 3250
Wire Wire Line
	6200 3250 6100 3250
$Comp
L +5VA #PWR028
U 1 1 560CDB2A
P 6300 3150
F 0 "#PWR028" H 6300 3280 20  0001 C CNN
F 1 "+5VA" H 6300 3250 30  0000 C CNN
F 2 "" H 6300 3150 60  0000 C CNN
F 3 "" H 6300 3150 60  0000 C CNN
	1    6300 3150
	0    1    1    0   
$EndComp
Wire Wire Line
	6300 3150 6100 3150
$Comp
L VDD #PWR029
U 1 1 560CDB33
P 4650 2450
F 0 "#PWR029" H 4650 2550 30  0001 C CNN
F 1 "VDD" H 4650 2560 30  0000 C CNN
F 2 "" H 4650 2450 60  0000 C CNN
F 3 "" H 4650 2450 60  0000 C CNN
	1    4650 2450
	1    0    0    -1  
$EndComp
Wire Wire Line
	4650 2450 4650 2550
Wire Wire Line
	4650 2550 4750 2550
$Comp
L VDD #PWR030
U 1 1 560CDB5F
P 4700 4100
F 0 "#PWR030" H 4700 4200 30  0001 C CNN
F 1 "VDD" H 4700 4210 30  0000 C CNN
F 2 "" H 4700 4100 60  0000 C CNN
F 3 "" H 4700 4100 60  0000 C CNN
	1    4700 4100
	1    0    0    -1  
$EndComp
Wire Wire Line
	4700 4100 4700 4200
Wire Wire Line
	4700 4200 4800 4200
$Comp
L GND-RESCUE-canmove #PWR031
U 1 1 560CDB69
P 4650 3350
F 0 "#PWR031" H 4650 3350 30  0001 C CNN
F 1 "GND" H 4650 3280 30  0001 C CNN
F 2 "" H 4650 3350 60  0000 C CNN
F 3 "" H 4650 3350 60  0000 C CNN
	1    4650 3350
	1    0    0    -1  
$EndComp
Wire Wire Line
	4650 3350 4650 3250
Wire Wire Line
	4650 3250 4750 3250
$Comp
L GND-RESCUE-canmove #PWR032
U 1 1 560CDB99
P 4700 5000
F 0 "#PWR032" H 4700 5000 30  0001 C CNN
F 1 "GND" H 4700 4930 30  0001 C CNN
F 2 "" H 4700 5000 60  0000 C CNN
F 3 "" H 4700 5000 60  0000 C CNN
	1    4700 5000
	1    0    0    -1  
$EndComp
Wire Wire Line
	4700 5000 4700 4900
Wire Wire Line
	4700 4900 4800 4900
$Comp
L VDD #PWR033
U 1 1 560CDBA1
P 4700 4800
F 0 "#PWR033" H 4700 4900 30  0001 C CNN
F 1 "VDD" H 4700 4910 30  0000 C CNN
F 2 "" H 4700 4800 60  0000 C CNN
F 3 "" H 4700 4800 60  0000 C CNN
	1    4700 4800
	0    -1   -1   0   
$EndComp
Wire Wire Line
	4700 4800 4800 4800
$Comp
L GND-RESCUE-canmove #PWR034
U 1 1 560CDBD0
P 4700 4300
F 0 "#PWR034" H 4700 4300 30  0001 C CNN
F 1 "GND" H 4700 4230 30  0001 C CNN
F 2 "" H 4700 4300 60  0000 C CNN
F 3 "" H 4700 4300 60  0000 C CNN
	1    4700 4300
	0    1    1    0   
$EndComp
Wire Wire Line
	4700 4300 4800 4300
$Comp
L GND-RESCUE-canmove #PWR035
U 1 1 560CDC05
P 4650 2650
F 0 "#PWR035" H 4650 2650 30  0001 C CNN
F 1 "GND" H 4650 2580 30  0001 C CNN
F 2 "" H 4650 2650 60  0000 C CNN
F 3 "" H 4650 2650 60  0000 C CNN
	1    4650 2650
	0    1    1    0   
$EndComp
Wire Wire Line
	4650 2650 4750 2650
$Comp
L C-RESCUE-canmove C201
U 1 1 560CDC0E
P 3250 2850
F 0 "C201" H 3250 2950 40  0000 L CNN
F 1 "0.1u" H 3256 2765 40  0000 L CNN
F 2 "SM0402" H 3288 2700 30  0000 C CNN
F 3 "~" H 3250 2850 60  0000 C CNN
	1    3250 2850
	1    0    0    -1  
$EndComp
$Comp
L C-RESCUE-canmove C202
U 1 1 560CDC27
P 3300 4550
F 0 "C202" H 3300 4650 40  0000 L CNN
F 1 "0.1u" H 3306 4465 40  0000 L CNN
F 2 "SM0402" H 3338 4400 30  0000 C CNN
F 3 "~" H 3300 4550 60  0000 C CNN
	1    3300 4550
	1    0    0    -1  
$EndComp
$Comp
L C-RESCUE-canmove C203
U 1 1 560CDC2D
P 7800 2800
F 0 "C203" H 7800 2900 40  0000 L CNN
F 1 "0.1u" H 7806 2715 40  0000 L CNN
F 2 "SM0402" H 7838 2650 30  0000 C CNN
F 3 "~" H 7800 2800 60  0000 C CNN
	1    7800 2800
	1    0    0    -1  
$EndComp
$Comp
L C-RESCUE-canmove C204
U 1 1 560CDC33
P 7850 4500
F 0 "C204" H 7850 4600 40  0000 L CNN
F 1 "0.1u" H 7856 4415 40  0000 L CNN
F 2 "SM0402" H 7888 4350 30  0000 C CNN
F 3 "~" H 7850 4500 60  0000 C CNN
	1    7850 4500
	1    0    0    -1  
$EndComp
$Comp
L AGND #PWR036
U 1 1 560CDC39
P 7800 3100
F 0 "#PWR036" H 7800 3100 40  0001 C CNN
F 1 "AGND" H 7800 3030 50  0000 C CNN
F 2 "" H 7800 3100 60  0000 C CNN
F 3 "" H 7800 3100 60  0000 C CNN
	1    7800 3100
	1    0    0    -1  
$EndComp
$Comp
L AGND #PWR037
U 1 1 560CDC3F
P 7850 4800
F 0 "#PWR037" H 7850 4800 40  0001 C CNN
F 1 "AGND" H 7850 4730 50  0000 C CNN
F 2 "" H 7850 4800 60  0000 C CNN
F 3 "" H 7850 4800 60  0000 C CNN
	1    7850 4800
	1    0    0    -1  
$EndComp
$Comp
L +5VA #PWR038
U 1 1 560CDC45
P 7850 4200
F 0 "#PWR038" H 7850 4330 20  0001 C CNN
F 1 "+5VA" H 7850 4300 30  0000 C CNN
F 2 "" H 7850 4200 60  0000 C CNN
F 3 "" H 7850 4200 60  0000 C CNN
	1    7850 4200
	1    0    0    -1  
$EndComp
$Comp
L +5VA #PWR039
U 1 1 560CDC4B
P 7800 2500
F 0 "#PWR039" H 7800 2630 20  0001 C CNN
F 1 "+5VA" H 7800 2600 30  0000 C CNN
F 2 "" H 7800 2500 60  0000 C CNN
F 3 "" H 7800 2500 60  0000 C CNN
	1    7800 2500
	1    0    0    -1  
$EndComp
$Comp
L VDD #PWR040
U 1 1 560CDC51
P 3250 2550
F 0 "#PWR040" H 3250 2650 30  0001 C CNN
F 1 "VDD" H 3250 2660 30  0000 C CNN
F 2 "" H 3250 2550 60  0000 C CNN
F 3 "" H 3250 2550 60  0000 C CNN
	1    3250 2550
	1    0    0    -1  
$EndComp
$Comp
L VDD #PWR041
U 1 1 560CDC57
P 3300 4250
F 0 "#PWR041" H 3300 4350 30  0001 C CNN
F 1 "VDD" H 3300 4360 30  0000 C CNN
F 2 "" H 3300 4250 60  0000 C CNN
F 3 "" H 3300 4250 60  0000 C CNN
	1    3300 4250
	1    0    0    -1  
$EndComp
$Comp
L GND-RESCUE-canmove #PWR042
U 1 1 560CDC5D
P 3250 3150
F 0 "#PWR042" H 3250 3150 30  0001 C CNN
F 1 "GND" H 3250 3080 30  0001 C CNN
F 2 "" H 3250 3150 60  0000 C CNN
F 3 "" H 3250 3150 60  0000 C CNN
	1    3250 3150
	1    0    0    -1  
$EndComp
$Comp
L GND-RESCUE-canmove #PWR043
U 1 1 560CDC63
P 3300 4850
F 0 "#PWR043" H 3300 4850 30  0001 C CNN
F 1 "GND" H 3300 4780 30  0001 C CNN
F 2 "" H 3300 4850 60  0000 C CNN
F 3 "" H 3300 4850 60  0000 C CNN
	1    3300 4850
	1    0    0    -1  
$EndComp
Wire Wire Line
	3300 4850 3300 4750
Wire Wire Line
	3300 4350 3300 4250
Wire Wire Line
	3250 3150 3250 3050
Wire Wire Line
	3250 2650 3250 2550
Wire Wire Line
	7800 3100 7800 3000
Wire Wire Line
	7800 2600 7800 2500
Wire Wire Line
	7850 4800 7850 4700
Wire Wire Line
	7850 4300 7850 4200
$EndSCHEMATC
