EESchema Schematic File Version 2
LIBS:canmove-rescue
LIBS:power
LIBS:device
LIBS:transistors
LIBS:conn
LIBS:linear
LIBS:regul
LIBS:74xx
LIBS:cmos4000
LIBS:adc-dac
LIBS:memory
LIBS:xilinx
LIBS:microcontrollers
LIBS:dsp
LIBS:microchip
LIBS:analog_switches
LIBS:motorola
LIBS:texas
LIBS:intel
LIBS:audio
LIBS:interface
LIBS:digital-audio
LIBS:philips
LIBS:display
LIBS:cypress
LIBS:siliconi
LIBS:opto
LIBS:atmel
LIBS:contrib
LIBS:valves
LIBS:crap
LIBS:canmove-cache
EELAYER 25 0
EELAYER END
$Descr A4 11693 8268
encoding utf-8
Sheet 4 7
Title ""
Date "2 oct 2015"
Rev ""
Comp ""
Comment1 ""
Comment2 ""
Comment3 ""
Comment4 ""
$EndDescr
$Comp
L JTAGCON P401
U 1 1 560AB47C
P 1350 1900
F 0 "P401" H 1850 1550 60  0000 C CNN
F 1 "JTAGCON" H 1100 2300 60  0000 C CNN
F 2 "BM06B-SRSS-TB" H 1300 1500 60  0000 C CNN
F 3 "~" H 1800 2100 60  0000 C CNN
	1    1350 1900
	1    0    0    -1  
$EndComp
$Comp
L STM32F407VG U401
U 1 1 560C8B5B
P 5850 4650
F 0 "U401" H 6725 7200 60  0000 C CNN
F 1 "STM32F407VG" H 7250 7200 60  0000 C CNN
F 2 "VQFP100" H 5850 4650 60  0000 C CNN
F 3 "" H 5850 4650 60  0000 C CNN
	1    5850 4650
	1    0    0    -1  
$EndComp
Text Label 3800 3300 2    60   ~ 0
SWDIO
Text Label 3800 3400 2    60   ~ 0
SWCLK
Text Label 2100 1950 0    60   ~ 0
SWDIO
Text Label 2100 2050 0    60   ~ 0
SWCLK
Text HLabel 3750 4600 0    60   Output ~ 0
CAN_TX
Text HLabel 3750 4500 0    60   Input ~ 0
CAN_RX
Text HLabel 3550 2800 0    60   Input ~ 0
M0_ENC_A
Text HLabel 3550 2900 0    60   Input ~ 0
M0_ENC_B
Text HLabel 3550 2600 0    60   Input ~ 0
M1_ENC_A
Text HLabel 3550 2700 0    60   Input ~ 0
M1_ENC_B
Text HLabel 3550 3850 0    60   Input ~ 0
M2_ENC_A
Text HLabel 3550 3950 0    60   Input ~ 0
M2_ENC_B
Text Notes 2950 2700 2    60   ~ 0
TIM5
Text Notes 2950 2850 2    60   ~ 0
TIM3
Text Notes 3000 3925 2    60   ~ 0
TIM4
Text Notes 3325 4550 2    60   ~ 0
CAN2
Text HLabel 8075 4175 2    60   Output ~ 0
M0_DIR
Text HLabel 8075 4025 2    60   Output ~ 0
M0_DISABLE
Text HLabel 3250 3350 0    60   Input ~ 0
POWER_FB
Text HLabel 3250 3450 0    60   Output ~ 0
POWER_EN
Text HLabel 8075 4400 2    60   Output ~ 0
M1_DIR
Text HLabel 8075 4325 2    60   Output ~ 0
M1_DISABLE
Text HLabel 3350 4325 0    60   Output ~ 0
M2_DIR
Text HLabel 3350 4250 0    60   Output ~ 0
M2_DISABLE
$Comp
L C-RESCUE-canmove C401
U 1 1 560C9A6B
P 3100 2100
F 0 "C401" H 3100 2200 40  0000 L CNN
F 1 "2.2u" H 3106 2015 40  0000 L CNN
F 2 "SM0603" H 3138 1950 30  0000 C CNN
F 3 "~" H 3100 2100 60  0000 C CNN
	1    3100 2100
	0    -1   -1   0   
$EndComp
$Comp
L C-RESCUE-canmove C402
U 1 1 560C9A7A
P 3100 2300
F 0 "C402" H 3100 2400 40  0000 L CNN
F 1 "2.2u" H 3106 2215 40  0000 L CNN
F 2 "SM0603" H 3138 2150 30  0000 C CNN
F 3 "~" H 3100 2300 60  0000 C CNN
	1    3100 2300
	0    -1   -1   0   
$EndComp
$Comp
L GND-RESCUE-canmove #PWR071
U 1 1 560C9AFC
P 2800 2400
F 0 "#PWR071" H 2800 2400 30  0001 C CNN
F 1 "GND" H 2800 2330 30  0001 C CNN
F 2 "" H 2800 2400 60  0000 C CNN
F 3 "" H 2800 2400 60  0000 C CNN
	1    2800 2400
	1    0    0    -1  
$EndComp
$Comp
L GND-RESCUE-canmove #PWR072
U 1 1 560C9B93
P 7925 5300
F 0 "#PWR072" H 7925 5300 30  0001 C CNN
F 1 "GND" H 7925 5230 30  0001 C CNN
F 2 "" H 7925 5300 60  0000 C CNN
F 3 "" H 7925 5300 60  0000 C CNN
	1    7925 5300
	1    0    0    -1  
$EndComp
$Comp
L VDD #PWR073
U 1 1 560C9C72
P 7925 2150
F 0 "#PWR073" H 7925 2250 30  0001 C CNN
F 1 "VDD" H 7925 2260 30  0000 C CNN
F 2 "" H 7925 2150 60  0000 C CNN
F 3 "" H 7925 2150 60  0000 C CNN
	1    7925 2150
	1    0    0    -1  
$EndComp
$Comp
L VDD #PWR074
U 1 1 560C9DF4
P 4150 2175
F 0 "#PWR074" H 4150 2275 30  0001 C CNN
F 1 "VDD" H 4150 2285 30  0000 C CNN
F 2 "" H 4150 2175 60  0000 C CNN
F 3 "" H 4150 2175 60  0000 C CNN
	1    4150 2175
	1    0    0    -1  
$EndComp
$Comp
L GND-RESCUE-canmove #PWR075
U 1 1 560C9E7F
P 3800 2475
F 0 "#PWR075" H 3800 2475 30  0001 C CNN
F 1 "GND" H 3800 2405 30  0001 C CNN
F 2 "" H 3800 2475 60  0000 C CNN
F 3 "" H 3800 2475 60  0000 C CNN
	1    3800 2475
	0    1    1    0   
$EndComp
$Comp
L C-RESCUE-canmove C403
U 1 1 560C9F53
P 5025 1400
F 0 "C403" H 5025 1500 40  0000 L CNN
F 1 "4.7u" H 5031 1315 40  0000 L CNN
F 2 "SM0805" H 5063 1250 30  0000 C CNN
F 3 "~" H 5025 1400 60  0000 C CNN
	1    5025 1400
	1    0    0    -1  
$EndComp
$Comp
L C-RESCUE-canmove C404
U 1 1 560C9F67
P 5300 1400
F 0 "C404" H 5300 1500 40  0000 L CNN
F 1 "0.1u" H 5306 1315 40  0000 L CNN
F 2 "SM0402" H 5338 1250 30  0000 C CNN
F 3 "~" H 5300 1400 60  0000 C CNN
	1    5300 1400
	1    0    0    -1  
$EndComp
$Comp
L C-RESCUE-canmove C405
U 1 1 560C9F79
P 5550 1400
F 0 "C405" H 5550 1500 40  0000 L CNN
F 1 "0.1u" H 5556 1315 40  0000 L CNN
F 2 "SM0402" H 5588 1250 30  0000 C CNN
F 3 "~" H 5550 1400 60  0000 C CNN
	1    5550 1400
	1    0    0    -1  
$EndComp
$Comp
L C-RESCUE-canmove C406
U 1 1 560C9F7F
P 5800 1400
F 0 "C406" H 5800 1500 40  0000 L CNN
F 1 "0.1u" H 5806 1315 40  0000 L CNN
F 2 "SM0402" H 5838 1250 30  0000 C CNN
F 3 "~" H 5800 1400 60  0000 C CNN
	1    5800 1400
	1    0    0    -1  
$EndComp
$Comp
L C-RESCUE-canmove C407
U 1 1 560C9F85
P 6050 1400
F 0 "C407" H 6050 1500 40  0000 L CNN
F 1 "0.1u" H 6056 1315 40  0000 L CNN
F 2 "SM0402" H 6088 1250 30  0000 C CNN
F 3 "~" H 6050 1400 60  0000 C CNN
	1    6050 1400
	1    0    0    -1  
$EndComp
$Comp
L C-RESCUE-canmove C408
U 1 1 560C9F8B
P 6300 1400
F 0 "C408" H 6300 1500 40  0000 L CNN
F 1 "0.1u" H 6306 1315 40  0000 L CNN
F 2 "SM0402" H 6338 1250 30  0000 C CNN
F 3 "~" H 6300 1400 60  0000 C CNN
	1    6300 1400
	1    0    0    -1  
$EndComp
$Comp
L C-RESCUE-canmove C409
U 1 1 560C9F91
P 6550 1400
F 0 "C409" H 6550 1500 40  0000 L CNN
F 1 "0.1u" H 6556 1315 40  0000 L CNN
F 2 "SM0402" H 6588 1250 30  0000 C CNN
F 3 "~" H 6550 1400 60  0000 C CNN
	1    6550 1400
	1    0    0    -1  
$EndComp
$Comp
L GND-RESCUE-canmove #PWR076
U 1 1 560C9F99
P 5800 1700
F 0 "#PWR076" H 5800 1700 30  0001 C CNN
F 1 "GND" H 5800 1630 30  0001 C CNN
F 2 "" H 5800 1700 60  0000 C CNN
F 3 "" H 5800 1700 60  0000 C CNN
	1    5800 1700
	1    0    0    -1  
$EndComp
$Comp
L VDD #PWR077
U 1 1 560C9FA8
P 5800 1100
F 0 "#PWR077" H 5800 1200 30  0001 C CNN
F 1 "VDD" H 5800 1210 30  0000 C CNN
F 2 "" H 5800 1100 60  0000 C CNN
F 3 "" H 5800 1100 60  0000 C CNN
	1    5800 1100
	1    0    0    -1  
$EndComp
$Comp
L VDD #PWR078
U 1 1 560CA448
P 2150 1550
F 0 "#PWR078" H 2150 1650 30  0001 C CNN
F 1 "VDD" H 2150 1660 30  0000 C CNN
F 2 "" H 2150 1550 60  0000 C CNN
F 3 "" H 2150 1550 60  0000 C CNN
	1    2150 1550
	1    0    0    -1  
$EndComp
$Comp
L GND-RESCUE-canmove #PWR079
U 1 1 560CA4AC
P 2175 2275
F 0 "#PWR079" H 2175 2275 30  0001 C CNN
F 1 "GND" H 2175 2205 30  0001 C CNN
F 2 "" H 2175 2275 60  0000 C CNN
F 3 "" H 2175 2275 60  0000 C CNN
	1    2175 2275
	1    0    0    -1  
$EndComp
$Comp
L GND-RESCUE-canmove #PWR080
U 1 1 560CA517
P 725 2275
F 0 "#PWR080" H 725 2275 30  0001 C CNN
F 1 "GND" H 725 2205 30  0001 C CNN
F 2 "" H 725 2275 60  0000 C CNN
F 3 "" H 725 2275 60  0000 C CNN
	1    725  2275
	1    0    0    -1  
$EndComp
Text Label 8300 2975 0    60   ~ 0
DBG_TX
Text Label 8300 3075 0    60   ~ 0
DBG_RX
Text Notes 8650 3000 0    60   ~ 0
USART2
Text Label 2125 1750 0    60   ~ 0
DBG_TX
Text Label 2125 1850 0    60   ~ 0
DBG_RX
Text Notes 8775 4050 0    60   ~ 0
TIM1_CH1
Text Notes 8500 4225 0    60   ~ 0
TIM1_CH2
Text Notes 8725 4350 0    60   ~ 0
TIM1_CH3
Text HLabel 3250 3550 0    60   Input ~ 0
BUMP_0_A
Text HLabel 8300 3150 2    60   Input ~ 0
BUMP_0_B
Text HLabel 3250 3700 0    60   Input ~ 0
BUMP_1_A
Text HLabel 3250 3625 0    60   Input ~ 0
BUMP_1_B
Text HLabel 3250 4050 0    60   Input ~ 0
BUMP_2_A
Text HLabel 3250 4125 0    60   Input ~ 0
BUMP_2_B
Text HLabel 4000 4800 0    60   Output ~ 0
SDA
Text HLabel 3650 3050 0    60   Output ~ 0
SCL
Text HLabel 4050 5075 0    60   Output ~ 0
GYRO_SYNC
Text HLabel 4050 5000 0    60   Input ~ 0
GYRO_INT
$Comp
L R-RESCUE-canmove R401
U 1 1 560CA9F8
P 3050 3150
F 0 "R401" V 3130 3150 40  0000 C CNN
F 1 "2.2k" V 3057 3151 40  0000 C CNN
F 2 "SM0402" V 2980 3150 30  0000 C CNN
F 3 "~" H 3050 3150 30  0000 C CNN
	1    3050 3150
	0    -1   -1   0   
$EndComp
$Comp
L VDD #PWR081
U 1 1 560CAA07
P 2700 3150
F 0 "#PWR081" H 2700 3250 30  0001 C CNN
F 1 "VDD" H 2700 3260 30  0000 C CNN
F 2 "" H 2700 3150 60  0000 C CNN
F 3 "" H 2700 3150 60  0000 C CNN
	1    2700 3150
	0    -1   -1   0   
$EndComp
$Comp
L R-RESCUE-canmove R402
U 1 1 560CAB1E
P 3050 4900
F 0 "R402" V 3130 4900 40  0000 C CNN
F 1 "2.2k" V 3057 4901 40  0000 C CNN
F 2 "SM0402" V 2980 4900 30  0000 C CNN
F 3 "~" H 3050 4900 30  0000 C CNN
	1    3050 4900
	0    -1   -1   0   
$EndComp
$Comp
L VDD #PWR082
U 1 1 560CAB24
P 2700 4900
F 0 "#PWR082" H 2700 5000 30  0001 C CNN
F 1 "VDD" H 2700 5010 30  0000 C CNN
F 2 "" H 2700 4900 60  0000 C CNN
F 3 "" H 2700 4900 60  0000 C CNN
	1    2700 4900
	0    -1   -1   0   
$EndComp
Wire Wire Line
	2100 1950 2050 1950
Wire Wire Line
	2100 2050 2050 2050
Wire Wire Line
	4250 3350 4000 3350
Wire Wire Line
	4000 3350 4000 3300
Wire Wire Line
	4000 3300 3800 3300
Wire Wire Line
	4250 3400 3800 3400
Wire Wire Line
	4250 2650 3800 2650
Wire Wire Line
	3800 2650 3800 2600
Wire Wire Line
	3800 2600 3550 2600
Wire Wire Line
	3550 2700 4250 2700
Wire Wire Line
	3550 2800 3800 2800
Wire Wire Line
	3800 2800 3800 2950
Wire Wire Line
	3800 2950 4250 2950
Wire Wire Line
	4250 3000 3750 3000
Wire Wire Line
	3750 3000 3750 2900
Wire Wire Line
	3750 2900 3550 2900
Wire Wire Line
	3300 2300 3850 2300
Wire Wire Line
	3300 2100 3900 2100
Wire Wire Line
	2800 2100 2800 2400
Wire Wire Line
	2800 2300 2900 2300
Wire Wire Line
	2800 2100 2900 2100
Connection ~ 2800 2300
Wire Wire Line
	3850 2300 3850 2425
Wire Wire Line
	3850 2425 4250 2425
Wire Wire Line
	4250 2375 3900 2375
Wire Wire Line
	3900 2375 3900 2100
Wire Wire Line
	7925 5000 7925 5300
Wire Wire Line
	7925 5200 7825 5200
Wire Wire Line
	7925 5150 7825 5150
Connection ~ 7925 5200
Wire Wire Line
	7925 5100 7825 5100
Connection ~ 7925 5150
Wire Wire Line
	7925 5050 7825 5050
Connection ~ 7925 5100
Wire Wire Line
	7925 5000 7825 5000
Connection ~ 7925 5050
Wire Wire Line
	7925 2150 7925 2550
Wire Wire Line
	7925 2250 7825 2250
Wire Wire Line
	7925 2300 7825 2300
Connection ~ 7925 2250
Wire Wire Line
	7925 2350 7825 2350
Connection ~ 7925 2300
Wire Wire Line
	7925 2400 7825 2400
Connection ~ 7925 2350
Wire Wire Line
	7925 2450 7825 2450
Connection ~ 7925 2400
Wire Wire Line
	7925 2500 7825 2500
Connection ~ 7925 2450
Wire Wire Line
	7925 2550 7825 2550
Connection ~ 7925 2500
Wire Wire Line
	4150 2175 4150 2325
Wire Wire Line
	4150 2275 4250 2275
Wire Wire Line
	4150 2325 4250 2325
Connection ~ 4150 2275
Wire Wire Line
	3800 2475 4250 2475
Wire Wire Line
	5025 1200 5025 1125
Wire Wire Line
	5025 1125 6550 1125
Wire Wire Line
	5800 1100 5800 1200
Wire Wire Line
	6550 1125 6550 1200
Connection ~ 5800 1125
Wire Wire Line
	6300 1200 6300 1125
Connection ~ 6300 1125
Wire Wire Line
	6050 1200 6050 1125
Connection ~ 6050 1125
Wire Wire Line
	5550 1200 5550 1125
Connection ~ 5550 1125
Wire Wire Line
	5300 1200 5300 1125
Connection ~ 5300 1125
Wire Wire Line
	5025 1600 5025 1675
Wire Wire Line
	5025 1675 6550 1675
Wire Wire Line
	5800 1600 5800 1700
Wire Wire Line
	6550 1675 6550 1600
Connection ~ 5800 1675
Wire Wire Line
	6300 1600 6300 1675
Connection ~ 6300 1675
Wire Wire Line
	6050 1600 6050 1675
Connection ~ 6050 1675
Wire Wire Line
	5550 1600 5550 1675
Connection ~ 5550 1675
Wire Wire Line
	5300 1600 5300 1675
Connection ~ 5300 1675
Wire Wire Line
	2150 1550 2150 1650
Wire Wire Line
	2150 1650 2050 1650
Wire Wire Line
	2175 2275 2175 2150
Wire Wire Line
	2175 2150 2050 2150
Wire Wire Line
	725  2050 725  2275
Wire Wire Line
	725  2150 850  2150
Wire Wire Line
	725  2050 850  2050
Connection ~ 725  2150
Wire Wire Line
	2050 1750 2125 1750
Wire Wire Line
	2050 1850 2125 1850
Wire Wire Line
	8300 2975 7825 2975
Wire Wire Line
	7825 3025 8125 3025
Wire Wire Line
	8125 3025 8125 3075
Wire Wire Line
	8125 3075 8300 3075
Wire Wire Line
	7825 4025 8075 4025
Wire Wire Line
	7825 4125 7975 4125
Wire Wire Line
	7975 4125 7975 4175
Wire Wire Line
	7975 4175 8075 4175
Wire Wire Line
	7825 4225 7925 4225
Wire Wire Line
	7925 4225 7925 4325
Wire Wire Line
	7925 4325 8075 4325
Wire Wire Line
	3250 3350 3450 3350
Wire Wire Line
	3450 3350 3450 3500
Wire Wire Line
	3450 3500 4250 3500
Wire Wire Line
	3250 3450 3425 3450
Wire Wire Line
	3425 3450 3425 3550
Wire Wire Line
	3425 3550 4250 3550
Wire Wire Line
	7825 4275 7900 4275
Wire Wire Line
	7900 4275 7900 4400
Wire Wire Line
	7900 4400 8075 4400
Wire Wire Line
	3650 3050 4250 3050
Wire Wire Line
	4000 4800 4250 4800
Wire Wire Line
	2700 3150 2800 3150
Wire Wire Line
	3300 3150 3750 3150
Wire Wire Line
	3750 3150 3750 3050
Connection ~ 3750 3050
Wire Wire Line
	2700 4900 2800 4900
Wire Wire Line
	3300 4900 4050 4900
Wire Wire Line
	4050 4900 4050 4800
Connection ~ 4050 4800
Wire Wire Line
	8300 3150 8075 3150
Wire Wire Line
	8075 3150 8075 3075
Wire Wire Line
	8075 3075 7825 3075
Wire Wire Line
	3250 3550 3400 3550
Wire Wire Line
	3400 3550 3400 3650
Wire Wire Line
	3400 3650 4250 3650
Wire Wire Line
	3250 3625 3375 3625
Wire Wire Line
	3375 3625 3375 3700
Wire Wire Line
	3375 3700 4250 3700
Wire Wire Line
	3250 3700 3350 3700
Wire Wire Line
	3350 3700 3350 3750
Wire Wire Line
	3350 3750 4250 3750
Wire Wire Line
	4175 4100 4175 4500
Wire Wire Line
	4175 4100 4250 4100
Wire Wire Line
	4225 4150 4225 4600
Wire Wire Line
	4225 4150 4250 4150
Wire Wire Line
	3550 3850 3625 3850
Wire Wire Line
	3625 3850 3625 3800
Wire Wire Line
	3625 3800 4250 3800
Wire Wire Line
	3550 3950 3675 3950
Wire Wire Line
	3675 3950 3675 3850
Wire Wire Line
	3675 3850 4250 3850
Wire Wire Line
	3250 4050 3725 4050
Wire Wire Line
	3725 4050 3725 3900
Wire Wire Line
	3725 3900 4250 3900
Wire Wire Line
	3250 4125 3775 4125
Wire Wire Line
	3775 4125 3775 3950
Wire Wire Line
	3775 3950 4250 3950
Text Notes 2650 4050 2    60   ~ 0
EXTI_8
Text Notes 2650 4150 2    60   ~ 0
EXTI_9
Text Notes 2675 3550 2    60   ~ 0
EXTI_3
Text Notes 2675 3650 2    60   ~ 0
EXTI_4
Text Notes 2675 3750 2    60   ~ 0
EXTI_5
Text Notes 8875 3175 0    60   ~ 0
EXTI_7
Text Notes 3725 4825 2    60   ~ 0
I2C3
Text Notes 3375 3075 2    60   ~ 0
I2C3
Wire Wire Line
	4250 5000 4050 5000
Wire Wire Line
	4050 5075 4150 5075
Wire Wire Line
	4150 5075 4150 5050
Wire Wire Line
	4150 5050 4250 5050
Text Label 7950 3575 0    60   ~ 0
LED0
Text Label 8200 3625 0    60   ~ 0
LED1
Wire Wire Line
	7825 3575 7950 3575
Wire Wire Line
	7825 3625 8200 3625
$Comp
L LED-RESCUE-canmove D401
U 1 1 560CF3D1
P 9650 2000
F 0 "D401" H 9650 2100 50  0000 C CNN
F 1 "LED" H 9650 1900 50  0000 C CNN
F 2 "LED-0603" H 9650 2000 60  0000 C CNN
F 3 "~" H 9650 2000 60  0000 C CNN
	1    9650 2000
	0    1    1    0   
$EndComp
$Comp
L R-RESCUE-canmove R403
U 1 1 560CF3D7
P 9650 1475
F 0 "R403" V 9730 1475 40  0000 C CNN
F 1 "1k" V 9657 1476 40  0000 C CNN
F 2 "SM0402" V 9580 1475 30  0000 C CNN
F 3 "~" H 9650 1475 30  0000 C CNN
	1    9650 1475
	1    0    0    -1  
$EndComp
Wire Wire Line
	9650 2200 9650 2525
$Comp
L VDD #PWR083
U 1 1 560CF3E5
P 9650 1125
F 0 "#PWR083" H 9650 1225 30  0001 C CNN
F 1 "VDD" H 9650 1235 30  0000 C CNN
F 2 "" H 9650 1125 60  0000 C CNN
F 3 "" H 9650 1125 60  0000 C CNN
	1    9650 1125
	1    0    0    -1  
$EndComp
Wire Wire Line
	9650 1125 9650 1225
$Comp
L LED-RESCUE-canmove D402
U 1 1 560CF3EC
P 9975 1975
F 0 "D402" H 9975 2075 50  0000 C CNN
F 1 "LED" H 9975 1875 50  0000 C CNN
F 2 "LED-0603" H 9975 1975 60  0000 C CNN
F 3 "~" H 9975 1975 60  0000 C CNN
	1    9975 1975
	0    1    1    0   
$EndComp
Wire Wire Line
	9975 2175 9975 2375
$Comp
L VDD #PWR084
U 1 1 560CF400
P 9975 1125
F 0 "#PWR084" H 9975 1225 30  0001 C CNN
F 1 "VDD" H 9975 1235 30  0000 C CNN
F 2 "" H 9975 1125 60  0000 C CNN
F 3 "" H 9975 1125 60  0000 C CNN
	1    9975 1125
	1    0    0    -1  
$EndComp
Wire Wire Line
	9975 1125 9975 1225
Text Label 10075 2375 0    60   ~ 0
LED0
Wire Wire Line
	9975 2375 10075 2375
Text Label 10075 2525 0    60   ~ 0
LED1
Wire Wire Line
	9650 2525 10075 2525
$Comp
L R-RESCUE-canmove R404
U 1 1 560CF3F2
P 9975 1475
F 0 "R404" V 10055 1475 40  0000 C CNN
F 1 "1k" V 9982 1476 40  0000 C CNN
F 2 "SM0402" V 9905 1475 30  0000 C CNN
F 3 "~" H 9975 1475 30  0000 C CNN
	1    9975 1475
	1    0    0    -1  
$EndComp
Wire Wire Line
	9650 1800 9650 1725
Wire Wire Line
	9975 1725 9975 1775
Text Label 4150 2600 2    60   ~ 0
NRST
Wire Wire Line
	4150 2600 4200 2600
Wire Wire Line
	4200 2600 4200 2525
Wire Wire Line
	4200 2525 4250 2525
Text Notes 8725 4450 0    60   ~ 0
TIM1_CH4
Wire Wire Line
	4175 4500 3750 4500
Wire Wire Line
	4225 4600 3750 4600
Wire Wire Line
	3350 4250 3925 4250
Wire Wire Line
	3925 4250 3925 4000
Wire Wire Line
	3925 4000 4250 4000
Wire Wire Line
	4250 4050 4000 4050
Wire Wire Line
	4000 4050 4000 4325
Wire Wire Line
	4000 4325 3350 4325
Text Notes 2875 4375 2    60   ~ 0
TIM2_CH4
Text Notes 2700 4300 2    60   ~ 0
TIM2_CH3
$Comp
L CONN_1 P402
U 1 1 560E3C38
P 1175 3050
F 0 "P402" H 1255 3050 40  0000 L CNN
F 1 "CONN_1" H 1175 3105 30  0001 C CNN
F 2 "1PIN_SMD" H 1175 3050 60  0000 C CNN
F 3 "" H 1175 3050 60  0000 C CNN
	1    1175 3050
	-1   0    0    1   
$EndComp
Text Label 1375 3050 0    60   ~ 0
NRST
Wire Wire Line
	1375 3050 1325 3050
Text Notes 3550 5050 2    60   ~ 0
EXTI_13
$Comp
L CRYSTAL_4 X401
U 1 1 560E7D2B
P 9300 4950
F 0 "X401" H 9300 5100 60  0000 C CNN
F 1 "CRYSTAL_4" H 9450 4550 60  0000 C CNN
F 2 "CX2520SB" H 9300 4950 60  0000 C CNN
F 3 "~" H 9300 4950 60  0000 C CNN
	1    9300 4950
	1    0    0    -1  
$EndComp
$Comp
L C-RESCUE-canmove C410
U 1 1 560E7D44
P 8750 5250
F 0 "C410" H 8750 5350 40  0000 L CNN
F 1 "C" H 8756 5165 40  0000 L CNN
F 2 "SM0402" H 8788 5100 30  0000 C CNN
F 3 "~" H 8750 5250 60  0000 C CNN
	1    8750 5250
	1    0    0    -1  
$EndComp
$Comp
L C-RESCUE-canmove C411
U 1 1 560E7D53
P 9900 5250
F 0 "C411" H 9900 5350 40  0000 L CNN
F 1 "C" H 9906 5165 40  0000 L CNN
F 2 "SM0402" H 9938 5100 30  0000 C CNN
F 3 "~" H 9900 5250 60  0000 C CNN
	1    9900 5250
	1    0    0    -1  
$EndComp
Wire Wire Line
	8750 5050 8750 4950
Wire Wire Line
	7950 4950 9000 4950
Wire Wire Line
	9600 4950 9900 4950
Wire Wire Line
	9900 4700 9900 5050
Wire Wire Line
	9600 5200 9750 5200
Wire Wire Line
	9750 5200 9750 5450
Wire Wire Line
	9750 5450 9900 5450
Wire Wire Line
	9000 5200 8900 5200
Wire Wire Line
	8900 5200 8900 5450
Wire Wire Line
	8900 5450 8750 5450
Wire Wire Line
	7950 4950 7950 4500
Wire Wire Line
	7950 4500 7825 4500
Connection ~ 8750 4950
Wire Wire Line
	7825 4450 8000 4450
Wire Wire Line
	8000 4450 8000 4700
Wire Wire Line
	8000 4700 9900 4700
Connection ~ 9900 4950
$Comp
L GND-RESCUE-canmove #PWR085
U 1 1 560E8267
P 8750 5550
F 0 "#PWR085" H 8750 5550 30  0001 C CNN
F 1 "GND" H 8750 5480 30  0001 C CNN
F 2 "" H 8750 5550 60  0000 C CNN
F 3 "" H 8750 5550 60  0000 C CNN
	1    8750 5550
	1    0    0    -1  
$EndComp
Wire Wire Line
	8750 5450 8750 5550
$Comp
L GND-RESCUE-canmove #PWR086
U 1 1 560E7E7D
P 9900 5550
F 0 "#PWR086" H 9900 5550 30  0001 C CNN
F 1 "GND" H 9900 5480 30  0001 C CNN
F 2 "" H 9900 5550 60  0000 C CNN
F 3 "" H 9900 5550 60  0000 C CNN
	1    9900 5550
	1    0    0    -1  
$EndComp
Wire Wire Line
	9900 5450 9900 5550
$EndSCHEMATC
