EESchema Schematic File Version 2
LIBS:canmove-rescue
LIBS:power
LIBS:device
LIBS:transistors
LIBS:conn
LIBS:linear
LIBS:regul
LIBS:74xx
LIBS:cmos4000
LIBS:adc-dac
LIBS:memory
LIBS:xilinx
LIBS:microcontrollers
LIBS:dsp
LIBS:microchip
LIBS:analog_switches
LIBS:motorola
LIBS:texas
LIBS:intel
LIBS:audio
LIBS:interface
LIBS:digital-audio
LIBS:philips
LIBS:display
LIBS:cypress
LIBS:siliconi
LIBS:opto
LIBS:atmel
LIBS:contrib
LIBS:valves
LIBS:crap
LIBS:canmove-cache
EELAYER 25 0
EELAYER END
$Descr A4 11693 8268
encoding utf-8
Sheet 3 7
Title ""
Date "2 oct 2015"
Rev ""
Comp ""
Comment1 ""
Comment2 ""
Comment3 ""
Comment4 ""
$EndDescr
$Comp
L MC33926 U301
U 1 1 560BDC7B
P 2350 3100
F 0 "U301" H 2950 1550 60  0000 C CNN
F 1 "MC33926" H 2050 4450 60  0000 C CNN
F 2 "PQFN32-0.8" H 2300 1550 60  0000 C CNN
F 3 "" H 2200 3600 60  0000 C CNN
	1    2350 3100
	1    0    0    -1  
$EndComp
$Comp
L +BATT #PWR044
U 1 1 560BDC81
P 3300 1800
F 0 "#PWR044" H 3300 1750 20  0001 C CNN
F 1 "+BATT" H 3300 1900 30  0000 C CNN
F 2 "" H 3300 1800 60  0000 C CNN
F 3 "" H 3300 1800 60  0000 C CNN
	1    3300 1800
	1    0    0    -1  
$EndComp
$Comp
L C-RESCUE-canmove C303
U 1 1 560BDC87
P 3550 2150
F 0 "C303" H 3550 2250 40  0000 L CNN
F 1 "33n" H 3556 2065 40  0000 L CNN
F 2 "SM0603" H 3588 2000 30  0000 C CNN
F 3 "~" H 3550 2150 60  0000 C CNN
	1    3550 2150
	1    0    0    -1  
$EndComp
$Comp
L C-RESCUE-canmove C301
U 1 1 560BDC8D
P 2350 1300
F 0 "C301" H 2350 1400 40  0000 L CNN
F 1 "100u" H 2356 1215 40  0000 L CNN
F 2 "SM1210" H 2388 1150 30  0000 C CNN
F 3 "~" H 2350 1300 60  0000 C CNN
	1    2350 1300
	1    0    0    -1  
$EndComp
$Comp
L C-RESCUE-canmove C302
U 1 1 560BDC93
P 2650 1300
F 0 "C302" H 2650 1400 40  0000 L CNN
F 1 "100n" H 2656 1215 40  0000 L CNN
F 2 "SM0805" H 2688 1150 30  0000 C CNN
F 3 "~" H 2650 1300 60  0000 C CNN
	1    2650 1300
	1    0    0    -1  
$EndComp
$Comp
L AGND #PWR045
U 1 1 560BDC99
P 2500 1600
F 0 "#PWR045" H 2500 1600 40  0001 C CNN
F 1 "AGND" H 2500 1530 50  0000 C CNN
F 2 "" H 2500 1600 60  0000 C CNN
F 3 "" H 2500 1600 60  0000 C CNN
	1    2500 1600
	1    0    0    -1  
$EndComp
$Comp
L +BATT #PWR046
U 1 1 560BDC9F
P 2500 1050
F 0 "#PWR046" H 2500 1000 20  0001 C CNN
F 1 "+BATT" H 2500 1150 30  0000 C CNN
F 2 "" H 2500 1050 60  0000 C CNN
F 3 "" H 2500 1050 60  0000 C CNN
	1    2500 1050
	1    0    0    -1  
$EndComp
Text HLabel 3500 3000 2    60   Output ~ 0
M0_OUT1
Text HLabel 3500 3100 2    60   Output ~ 0
M0_OUT2
$Comp
L AGND #PWR047
U 1 1 560BDCA7
P 3300 4600
F 0 "#PWR047" H 3300 4600 40  0001 C CNN
F 1 "AGND" H 3300 4530 50  0000 C CNN
F 2 "" H 3300 4600 60  0000 C CNN
F 3 "" H 3300 4600 60  0000 C CNN
	1    3300 4600
	1    0    0    -1  
$EndComp
Wire Wire Line
	3300 1800 3300 2250
Wire Wire Line
	3300 1950 3150 1950
Wire Wire Line
	3300 2050 3150 2050
Connection ~ 3300 1950
Wire Wire Line
	3300 2150 3150 2150
Connection ~ 3300 2050
Wire Wire Line
	3300 2250 3150 2250
Connection ~ 3300 2150
Wire Wire Line
	3150 2450 3550 2450
Wire Wire Line
	3550 2450 3550 2350
Wire Wire Line
	3550 1950 3550 1850
Wire Wire Line
	3550 1850 3300 1850
Connection ~ 3300 1850
Wire Wire Line
	2500 1600 2500 1550
Wire Wire Line
	2350 1550 2650 1550
Wire Wire Line
	2650 1550 2650 1500
Wire Wire Line
	2350 1550 2350 1500
Connection ~ 2500 1550
Wire Wire Line
	2350 1050 2650 1050
Wire Wire Line
	2650 1050 2650 1100
Wire Wire Line
	2350 1050 2350 1100
Connection ~ 2500 1050
Wire Wire Line
	3150 2650 3350 2650
Wire Wire Line
	3350 2650 3350 3000
Wire Wire Line
	3350 3000 3500 3000
Wire Wire Line
	3150 2750 3350 2750
Connection ~ 3350 2750
Wire Wire Line
	3150 2850 3350 2850
Connection ~ 3350 2850
Wire Wire Line
	3150 2950 3350 2950
Connection ~ 3350 2950
Wire Wire Line
	3150 3500 3350 3500
Wire Wire Line
	3350 3500 3350 3100
Wire Wire Line
	3350 3100 3500 3100
Wire Wire Line
	3150 3400 3350 3400
Connection ~ 3350 3400
Wire Wire Line
	3150 3300 3350 3300
Connection ~ 3350 3300
Wire Wire Line
	3150 3200 3350 3200
Connection ~ 3350 3200
Wire Wire Line
	3300 3750 3300 4600
Wire Wire Line
	3300 4450 3150 4450
Wire Wire Line
	3300 4350 3150 4350
Connection ~ 3300 4450
Wire Wire Line
	3300 4250 3150 4250
Connection ~ 3300 4350
Wire Wire Line
	3150 4150 3300 4150
Connection ~ 3300 4250
Wire Wire Line
	3150 4050 3300 4050
Connection ~ 3300 4150
Wire Wire Line
	3150 3950 3300 3950
Connection ~ 3300 4050
Wire Wire Line
	3150 3850 3300 3850
Connection ~ 3300 3950
Wire Wire Line
	3150 3750 3300 3750
Connection ~ 3300 3850
$Comp
L +5VA #PWR048
U 1 1 560BDCFB
P 1400 2800
F 0 "#PWR048" H 1400 2930 20  0001 C CNN
F 1 "+5VA" H 1400 2900 30  0000 C CNN
F 2 "" H 1400 2800 60  0000 C CNN
F 3 "" H 1400 2800 60  0000 C CNN
	1    1400 2800
	0    -1   -1   0   
$EndComp
Wire Wire Line
	1400 2800 1700 2800
$Comp
L +5VA #PWR049
U 1 1 560BDD02
P 1200 2300
F 0 "#PWR049" H 1200 2430 20  0001 C CNN
F 1 "+5VA" H 1200 2400 30  0000 C CNN
F 2 "" H 1200 2300 60  0000 C CNN
F 3 "" H 1200 2300 60  0000 C CNN
	1    1200 2300
	0    -1   -1   0   
$EndComp
$Comp
L AGND #PWR050
U 1 1 560BDD08
P 1400 2400
F 0 "#PWR050" H 1400 2400 40  0001 C CNN
F 1 "AGND" H 1400 2330 50  0000 C CNN
F 2 "" H 1400 2400 60  0000 C CNN
F 3 "" H 1400 2400 60  0000 C CNN
	1    1400 2400
	0    1    1    0   
$EndComp
Wire Wire Line
	1200 2300 1700 2300
Wire Wire Line
	1700 2400 1400 2400
Text HLabel 1450 2700 0    60   Input ~ 0
M0_INV
Wire Wire Line
	1450 2700 1700 2700
Text HLabel 1450 2200 0    60   Input ~ 0
POWER_EN
Wire Wire Line
	1450 2200 1700 2200
Wire Wire Line
	1550 2500 1700 2500
Text HLabel 1550 2500 0    60   Input ~ 0
M0_ENABLE
Wire Wire Line
	1400 2600 1700 2600
$Comp
L AGND #PWR051
U 1 1 560BDD2E
P 1400 2600
F 0 "#PWR051" H 1400 2600 40  0001 C CNN
F 1 "AGND" H 1400 2530 50  0000 C CNN
F 2 "" H 1400 2600 60  0000 C CNN
F 3 "" H 1400 2600 60  0000 C CNN
	1    1400 2600
	0    1    1    0   
$EndComp
$Comp
L MC33926 U302
U 1 1 560BDD80
P 5650 3100
F 0 "U302" H 6250 1550 60  0000 C CNN
F 1 "MC33926" H 5350 4450 60  0000 C CNN
F 2 "PQFN32-0.8" H 5600 1550 60  0000 C CNN
F 3 "" H 5500 3600 60  0000 C CNN
	1    5650 3100
	1    0    0    -1  
$EndComp
$Comp
L +BATT #PWR052
U 1 1 560BDD86
P 6600 1800
F 0 "#PWR052" H 6600 1750 20  0001 C CNN
F 1 "+BATT" H 6600 1900 30  0000 C CNN
F 2 "" H 6600 1800 60  0000 C CNN
F 3 "" H 6600 1800 60  0000 C CNN
	1    6600 1800
	1    0    0    -1  
$EndComp
$Comp
L C-RESCUE-canmove C306
U 1 1 560BDD8C
P 6850 2150
F 0 "C306" H 6850 2250 40  0000 L CNN
F 1 "33n" H 6856 2065 40  0000 L CNN
F 2 "SM0603" H 6888 2000 30  0000 C CNN
F 3 "~" H 6850 2150 60  0000 C CNN
	1    6850 2150
	1    0    0    -1  
$EndComp
$Comp
L C-RESCUE-canmove C304
U 1 1 560BDD92
P 5650 1300
F 0 "C304" H 5650 1400 40  0000 L CNN
F 1 "100u" H 5656 1215 40  0000 L CNN
F 2 "SM1210" H 5688 1150 30  0000 C CNN
F 3 "~" H 5650 1300 60  0000 C CNN
	1    5650 1300
	1    0    0    -1  
$EndComp
$Comp
L C-RESCUE-canmove C305
U 1 1 560BDD98
P 5950 1300
F 0 "C305" H 5950 1400 40  0000 L CNN
F 1 "100n" H 5956 1215 40  0000 L CNN
F 2 "SM0805" H 5988 1150 30  0000 C CNN
F 3 "~" H 5950 1300 60  0000 C CNN
	1    5950 1300
	1    0    0    -1  
$EndComp
$Comp
L AGND #PWR053
U 1 1 560BDD9E
P 5800 1600
F 0 "#PWR053" H 5800 1600 40  0001 C CNN
F 1 "AGND" H 5800 1530 50  0000 C CNN
F 2 "" H 5800 1600 60  0000 C CNN
F 3 "" H 5800 1600 60  0000 C CNN
	1    5800 1600
	1    0    0    -1  
$EndComp
$Comp
L +BATT #PWR054
U 1 1 560BDDA4
P 5800 1050
F 0 "#PWR054" H 5800 1000 20  0001 C CNN
F 1 "+BATT" H 5800 1150 30  0000 C CNN
F 2 "" H 5800 1050 60  0000 C CNN
F 3 "" H 5800 1050 60  0000 C CNN
	1    5800 1050
	1    0    0    -1  
$EndComp
Text HLabel 6800 3000 2    60   Output ~ 0
M1_OUT1
Text HLabel 6800 3100 2    60   Output ~ 0
M1_OUT2
$Comp
L AGND #PWR055
U 1 1 560BDDAC
P 6600 4600
F 0 "#PWR055" H 6600 4600 40  0001 C CNN
F 1 "AGND" H 6600 4530 50  0000 C CNN
F 2 "" H 6600 4600 60  0000 C CNN
F 3 "" H 6600 4600 60  0000 C CNN
	1    6600 4600
	1    0    0    -1  
$EndComp
Wire Wire Line
	6600 1800 6600 2250
Wire Wire Line
	6600 1950 6450 1950
Wire Wire Line
	6600 2050 6450 2050
Connection ~ 6600 1950
Wire Wire Line
	6600 2150 6450 2150
Connection ~ 6600 2050
Wire Wire Line
	6600 2250 6450 2250
Connection ~ 6600 2150
Wire Wire Line
	6450 2450 6850 2450
Wire Wire Line
	6850 2450 6850 2350
Wire Wire Line
	6850 1950 6850 1850
Wire Wire Line
	6850 1850 6600 1850
Connection ~ 6600 1850
Wire Wire Line
	5800 1600 5800 1550
Wire Wire Line
	5650 1550 5950 1550
Wire Wire Line
	5950 1550 5950 1500
Wire Wire Line
	5650 1550 5650 1500
Connection ~ 5800 1550
Wire Wire Line
	5650 1050 5950 1050
Wire Wire Line
	5950 1050 5950 1100
Wire Wire Line
	5650 1050 5650 1100
Connection ~ 5800 1050
Wire Wire Line
	6450 2650 6650 2650
Wire Wire Line
	6650 2650 6650 3000
Wire Wire Line
	6650 3000 6800 3000
Wire Wire Line
	6450 2750 6650 2750
Connection ~ 6650 2750
Wire Wire Line
	6450 2850 6650 2850
Connection ~ 6650 2850
Wire Wire Line
	6450 2950 6650 2950
Connection ~ 6650 2950
Wire Wire Line
	6450 3500 6650 3500
Wire Wire Line
	6650 3500 6650 3100
Wire Wire Line
	6650 3100 6800 3100
Wire Wire Line
	6450 3400 6650 3400
Connection ~ 6650 3400
Wire Wire Line
	6450 3300 6650 3300
Connection ~ 6650 3300
Wire Wire Line
	6450 3200 6650 3200
Connection ~ 6650 3200
Wire Wire Line
	6600 3750 6600 4600
Wire Wire Line
	6600 4450 6450 4450
Wire Wire Line
	6600 4350 6450 4350
Connection ~ 6600 4450
Wire Wire Line
	6600 4250 6450 4250
Connection ~ 6600 4350
Wire Wire Line
	6450 4150 6600 4150
Connection ~ 6600 4250
Wire Wire Line
	6450 4050 6600 4050
Connection ~ 6600 4150
Wire Wire Line
	6450 3950 6600 3950
Connection ~ 6600 4050
Wire Wire Line
	6450 3850 6600 3850
Connection ~ 6600 3950
Wire Wire Line
	6450 3750 6600 3750
Connection ~ 6600 3850
$Comp
L +5VA #PWR056
U 1 1 560BDDEA
P 4700 2800
F 0 "#PWR056" H 4700 2930 20  0001 C CNN
F 1 "+5VA" H 4700 2900 30  0000 C CNN
F 2 "" H 4700 2800 60  0000 C CNN
F 3 "" H 4700 2800 60  0000 C CNN
	1    4700 2800
	0    -1   -1   0   
$EndComp
Wire Wire Line
	4700 2800 5000 2800
$Comp
L +5VA #PWR057
U 1 1 560BDDF1
P 4500 2300
F 0 "#PWR057" H 4500 2430 20  0001 C CNN
F 1 "+5VA" H 4500 2400 30  0000 C CNN
F 2 "" H 4500 2300 60  0000 C CNN
F 3 "" H 4500 2300 60  0000 C CNN
	1    4500 2300
	0    -1   -1   0   
$EndComp
$Comp
L AGND #PWR058
U 1 1 560BDDF7
P 4700 2400
F 0 "#PWR058" H 4700 2400 40  0001 C CNN
F 1 "AGND" H 4700 2330 50  0000 C CNN
F 2 "" H 4700 2400 60  0000 C CNN
F 3 "" H 4700 2400 60  0000 C CNN
	1    4700 2400
	0    1    1    0   
$EndComp
Wire Wire Line
	4500 2300 5000 2300
Wire Wire Line
	5000 2400 4700 2400
Text HLabel 4750 2700 0    60   Input ~ 0
M1_INV
Wire Wire Line
	4750 2700 5000 2700
Text HLabel 4750 2200 0    60   Input ~ 0
POWER_EN
Wire Wire Line
	4750 2200 5000 2200
Wire Wire Line
	4850 2500 5000 2500
Text HLabel 4850 2500 0    60   Input ~ 0
M1_ENABLE
Wire Wire Line
	4700 2600 5000 2600
$Comp
L AGND #PWR059
U 1 1 560BDE06
P 4700 2600
F 0 "#PWR059" H 4700 2600 40  0001 C CNN
F 1 "AGND" H 4700 2530 50  0000 C CNN
F 2 "" H 4700 2600 60  0000 C CNN
F 3 "" H 4700 2600 60  0000 C CNN
	1    4700 2600
	0    1    1    0   
$EndComp
$Comp
L MC33926 U303
U 1 1 560BDE0C
P 9150 3100
F 0 "U303" H 9750 1550 60  0000 C CNN
F 1 "MC33926" H 8850 4450 60  0000 C CNN
F 2 "PQFN32-0.8" H 9100 1550 60  0000 C CNN
F 3 "" H 9000 3600 60  0000 C CNN
	1    9150 3100
	1    0    0    -1  
$EndComp
$Comp
L +BATT #PWR060
U 1 1 560BDE12
P 10100 1800
F 0 "#PWR060" H 10100 1750 20  0001 C CNN
F 1 "+BATT" H 10100 1900 30  0000 C CNN
F 2 "" H 10100 1800 60  0000 C CNN
F 3 "" H 10100 1800 60  0000 C CNN
	1    10100 1800
	1    0    0    -1  
$EndComp
$Comp
L C-RESCUE-canmove C309
U 1 1 560BDE18
P 10350 2150
F 0 "C309" H 10350 2250 40  0000 L CNN
F 1 "33n" H 10356 2065 40  0000 L CNN
F 2 "SM0603" H 10388 2000 30  0000 C CNN
F 3 "~" H 10350 2150 60  0000 C CNN
	1    10350 2150
	1    0    0    -1  
$EndComp
$Comp
L C-RESCUE-canmove C307
U 1 1 560BDE1E
P 9150 1300
F 0 "C307" H 9150 1400 40  0000 L CNN
F 1 "100u" H 9156 1215 40  0000 L CNN
F 2 "SM1210" H 9188 1150 30  0000 C CNN
F 3 "~" H 9150 1300 60  0000 C CNN
	1    9150 1300
	1    0    0    -1  
$EndComp
$Comp
L C-RESCUE-canmove C308
U 1 1 560BDE24
P 9450 1300
F 0 "C308" H 9450 1400 40  0000 L CNN
F 1 "100n" H 9456 1215 40  0000 L CNN
F 2 "SM0805" H 9488 1150 30  0000 C CNN
F 3 "~" H 9450 1300 60  0000 C CNN
	1    9450 1300
	1    0    0    -1  
$EndComp
$Comp
L AGND #PWR061
U 1 1 560BDE2A
P 9300 1600
F 0 "#PWR061" H 9300 1600 40  0001 C CNN
F 1 "AGND" H 9300 1530 50  0000 C CNN
F 2 "" H 9300 1600 60  0000 C CNN
F 3 "" H 9300 1600 60  0000 C CNN
	1    9300 1600
	1    0    0    -1  
$EndComp
$Comp
L +BATT #PWR062
U 1 1 560BDE30
P 9300 1050
F 0 "#PWR062" H 9300 1000 20  0001 C CNN
F 1 "+BATT" H 9300 1150 30  0000 C CNN
F 2 "" H 9300 1050 60  0000 C CNN
F 3 "" H 9300 1050 60  0000 C CNN
	1    9300 1050
	1    0    0    -1  
$EndComp
Text HLabel 10300 3000 2    60   Output ~ 0
M2_OUT1
Text HLabel 10300 3100 2    60   Output ~ 0
M2_OUT2
$Comp
L AGND #PWR063
U 1 1 560BDE38
P 10100 4600
F 0 "#PWR063" H 10100 4600 40  0001 C CNN
F 1 "AGND" H 10100 4530 50  0000 C CNN
F 2 "" H 10100 4600 60  0000 C CNN
F 3 "" H 10100 4600 60  0000 C CNN
	1    10100 4600
	1    0    0    -1  
$EndComp
Wire Wire Line
	10100 1800 10100 2250
Wire Wire Line
	10100 1950 9950 1950
Wire Wire Line
	10100 2050 9950 2050
Connection ~ 10100 1950
Wire Wire Line
	10100 2150 9950 2150
Connection ~ 10100 2050
Wire Wire Line
	10100 2250 9950 2250
Connection ~ 10100 2150
Wire Wire Line
	9950 2450 10350 2450
Wire Wire Line
	10350 2450 10350 2350
Wire Wire Line
	10350 1950 10350 1850
Wire Wire Line
	10350 1850 10100 1850
Connection ~ 10100 1850
Wire Wire Line
	9300 1600 9300 1550
Wire Wire Line
	9150 1550 9450 1550
Wire Wire Line
	9450 1550 9450 1500
Wire Wire Line
	9150 1550 9150 1500
Connection ~ 9300 1550
Wire Wire Line
	9150 1050 9450 1050
Wire Wire Line
	9450 1050 9450 1100
Wire Wire Line
	9150 1050 9150 1100
Connection ~ 9300 1050
Wire Wire Line
	9950 2650 10150 2650
Wire Wire Line
	10150 2650 10150 3000
Wire Wire Line
	10150 3000 10300 3000
Wire Wire Line
	9950 2750 10150 2750
Connection ~ 10150 2750
Wire Wire Line
	9950 2850 10150 2850
Connection ~ 10150 2850
Wire Wire Line
	9950 2950 10150 2950
Connection ~ 10150 2950
Wire Wire Line
	9950 3500 10150 3500
Wire Wire Line
	10150 3500 10150 3100
Wire Wire Line
	10150 3100 10300 3100
Wire Wire Line
	9950 3400 10150 3400
Connection ~ 10150 3400
Wire Wire Line
	9950 3300 10150 3300
Connection ~ 10150 3300
Wire Wire Line
	9950 3200 10150 3200
Connection ~ 10150 3200
Wire Wire Line
	10100 3750 10100 4600
Wire Wire Line
	10100 4450 9950 4450
Wire Wire Line
	10100 4350 9950 4350
Connection ~ 10100 4450
Wire Wire Line
	10100 4250 9950 4250
Connection ~ 10100 4350
Wire Wire Line
	9950 4150 10100 4150
Connection ~ 10100 4250
Wire Wire Line
	9950 4050 10100 4050
Connection ~ 10100 4150
Wire Wire Line
	9950 3950 10100 3950
Connection ~ 10100 4050
Wire Wire Line
	9950 3850 10100 3850
Connection ~ 10100 3950
Wire Wire Line
	9950 3750 10100 3750
Connection ~ 10100 3850
$Comp
L +5VA #PWR064
U 1 1 560BDE76
P 8200 2800
F 0 "#PWR064" H 8200 2930 20  0001 C CNN
F 1 "+5VA" H 8200 2900 30  0000 C CNN
F 2 "" H 8200 2800 60  0000 C CNN
F 3 "" H 8200 2800 60  0000 C CNN
	1    8200 2800
	0    -1   -1   0   
$EndComp
Wire Wire Line
	8200 2800 8500 2800
$Comp
L +5VA #PWR065
U 1 1 560BDE7D
P 8000 2300
F 0 "#PWR065" H 8000 2430 20  0001 C CNN
F 1 "+5VA" H 8000 2400 30  0000 C CNN
F 2 "" H 8000 2300 60  0000 C CNN
F 3 "" H 8000 2300 60  0000 C CNN
	1    8000 2300
	0    -1   -1   0   
$EndComp
$Comp
L AGND #PWR066
U 1 1 560BDE83
P 8200 2400
F 0 "#PWR066" H 8200 2400 40  0001 C CNN
F 1 "AGND" H 8200 2330 50  0000 C CNN
F 2 "" H 8200 2400 60  0000 C CNN
F 3 "" H 8200 2400 60  0000 C CNN
	1    8200 2400
	0    1    1    0   
$EndComp
Wire Wire Line
	8000 2300 8500 2300
Wire Wire Line
	8500 2400 8200 2400
Text HLabel 8250 2700 0    60   Input ~ 0
M2_INV
Wire Wire Line
	8250 2700 8500 2700
Text HLabel 8250 2200 0    60   Input ~ 0
POWER_EN
Wire Wire Line
	8250 2200 8500 2200
Wire Wire Line
	8350 2500 8500 2500
Text HLabel 8350 2500 0    60   Input ~ 0
M2_ENABLE
Wire Wire Line
	8200 2600 8500 2600
$Comp
L AGND #PWR067
U 1 1 560BDE92
P 8200 2600
F 0 "#PWR067" H 8200 2600 40  0001 C CNN
F 1 "AGND" H 8200 2530 50  0000 C CNN
F 2 "" H 8200 2600 60  0000 C CNN
F 3 "" H 8200 2600 60  0000 C CNN
	1    8200 2600
	0    1    1    0   
$EndComp
$Comp
L AGND #PWR068
U 1 1 560C9877
P 1400 3350
F 0 "#PWR068" H 1400 3350 40  0001 C CNN
F 1 "AGND" H 1400 3280 50  0000 C CNN
F 2 "" H 1400 3350 60  0000 C CNN
F 3 "" H 1400 3350 60  0000 C CNN
	1    1400 3350
	0    1    1    0   
$EndComp
Wire Wire Line
	1400 3350 1700 3350
$Comp
L AGND #PWR069
U 1 1 560C993B
P 4700 3350
F 0 "#PWR069" H 4700 3350 40  0001 C CNN
F 1 "AGND" H 4700 3280 50  0000 C CNN
F 2 "" H 4700 3350 60  0000 C CNN
F 3 "" H 4700 3350 60  0000 C CNN
	1    4700 3350
	0    1    1    0   
$EndComp
Wire Wire Line
	4700 3350 5000 3350
$Comp
L AGND #PWR070
U 1 1 560C9942
P 8200 3350
F 0 "#PWR070" H 8200 3350 40  0001 C CNN
F 1 "AGND" H 8200 3280 50  0000 C CNN
F 2 "" H 8200 3350 60  0000 C CNN
F 3 "" H 8200 3350 60  0000 C CNN
	1    8200 3350
	0    1    1    0   
$EndComp
Wire Wire Line
	8200 3350 8500 3350
$EndSCHEMATC
