EESchema Schematic File Version 2
LIBS:canmove-rescue
LIBS:power
LIBS:device
LIBS:transistors
LIBS:conn
LIBS:linear
LIBS:regul
LIBS:74xx
LIBS:cmos4000
LIBS:adc-dac
LIBS:memory
LIBS:xilinx
LIBS:microcontrollers
LIBS:dsp
LIBS:microchip
LIBS:analog_switches
LIBS:motorola
LIBS:texas
LIBS:intel
LIBS:audio
LIBS:interface
LIBS:digital-audio
LIBS:philips
LIBS:display
LIBS:cypress
LIBS:siliconi
LIBS:opto
LIBS:atmel
LIBS:contrib
LIBS:valves
LIBS:crap
LIBS:canmove-cache
EELAYER 25 0
EELAYER END
$Descr A4 11693 8268
encoding utf-8
Sheet 5 7
Title ""
Date "2 oct 2015"
Rev ""
Comp ""
Comment1 ""
Comment2 ""
Comment3 ""
Comment4 ""
$EndDescr
Wire Notes Line
	5150 800  5150 7250
$Comp
L LMR14203 U501
U 1 1 560BD4C3
P 6850 1700
F 0 "U501" H 7150 1450 60  0000 C CNN
F 1 "LMR14203" H 6600 1950 60  0000 C CNN
F 2 "SOT-6L" H 6800 1400 60  0000 C CNN
F 3 "" H 6950 1450 60  0000 C CNN
	1    6850 1700
	1    0    0    -1  
$EndComp
$Comp
L +BATT #PWR087
U 1 1 560BD4C9
P 6200 1500
F 0 "#PWR087" H 6200 1450 20  0001 C CNN
F 1 "+BATT" H 6200 1600 30  0000 C CNN
F 2 "" H 6200 1500 60  0000 C CNN
F 3 "" H 6200 1500 60  0000 C CNN
	1    6200 1500
	1    0    0    -1  
$EndComp
Wire Wire Line
	6200 1500 6200 1700
Wire Wire Line
	6200 1600 6300 1600
$Comp
L AGND #PWR088
U 1 1 560BD4D1
P 6200 1900
F 0 "#PWR088" H 6200 1900 40  0001 C CNN
F 1 "AGND" H 6200 1830 50  0000 C CNN
F 2 "" H 6200 1900 60  0000 C CNN
F 3 "" H 6200 1900 60  0000 C CNN
	1    6200 1900
	1    0    0    -1  
$EndComp
Wire Wire Line
	6200 1900 6200 1800
Wire Wire Line
	6200 1800 6300 1800
Wire Wire Line
	6200 1700 6300 1700
Connection ~ 6200 1600
$Comp
L C-RESCUE-canmove C501
U 1 1 560BD4DB
P 5500 1700
F 0 "C501" H 5500 1800 40  0000 L CNN
F 1 "2.2u" H 5506 1615 40  0000 L CNN
F 2 "SM0805" H 5538 1550 30  0000 C CNN
F 3 "~" H 5500 1700 60  0000 C CNN
	1    5500 1700
	1    0    0    -1  
$EndComp
$Comp
L AGND #PWR089
U 1 1 560BD4E1
P 5500 2000
F 0 "#PWR089" H 5500 2000 40  0001 C CNN
F 1 "AGND" H 5500 1930 50  0000 C CNN
F 2 "" H 5500 2000 60  0000 C CNN
F 3 "" H 5500 2000 60  0000 C CNN
	1    5500 2000
	1    0    0    -1  
$EndComp
Wire Wire Line
	5500 2000 5500 1900
$Comp
L +BATT #PWR090
U 1 1 560BD4E8
P 5500 1400
F 0 "#PWR090" H 5500 1350 20  0001 C CNN
F 1 "+BATT" H 5500 1500 30  0000 C CNN
F 2 "" H 5500 1400 60  0000 C CNN
F 3 "" H 5500 1400 60  0000 C CNN
	1    5500 1400
	1    0    0    -1  
$EndComp
Wire Wire Line
	5500 1400 5500 1500
$Comp
L R-RESCUE-canmove R501
U 1 1 560BD4EF
P 9100 1700
F 0 "R501" V 9180 1700 40  0000 C CNN
F 1 "5.62k" V 9107 1701 40  0000 C CNN
F 2 "SM0402" V 9030 1700 30  0000 C CNN
F 3 "~" H 9100 1700 30  0000 C CNN
	1    9100 1700
	-1   0    0    1   
$EndComp
$Comp
L R-RESCUE-canmove R502
U 1 1 560BD4F5
P 9100 2350
F 0 "R502" V 9180 2350 40  0000 C CNN
F 1 "1.02k" V 9107 2351 40  0000 C CNN
F 2 "SM0402" V 9030 2350 30  0000 C CNN
F 3 "~" H 9100 2350 30  0000 C CNN
	1    9100 2350
	-1   0    0    1   
$EndComp
$Comp
L AGND #PWR091
U 1 1 560BD4FB
P 9100 2700
F 0 "#PWR091" H 9100 2700 40  0001 C CNN
F 1 "AGND" H 9100 2630 50  0000 C CNN
F 2 "" H 9100 2700 60  0000 C CNN
F 3 "" H 9100 2700 60  0000 C CNN
	1    9100 2700
	1    0    0    -1  
$EndComp
Wire Wire Line
	9100 2700 9100 2600
$Comp
L C-RESCUE-canmove C503
U 1 1 560BD502
P 9500 1750
F 0 "C503" H 9500 1850 40  0000 L CNN
F 1 "47u" H 9506 1665 40  0000 L CNN
F 2 "SM1210" H 9538 1600 30  0000 C CNN
F 3 "~" H 9500 1750 60  0000 C CNN
	1    9500 1750
	1    0    0    -1  
$EndComp
Wire Wire Line
	8900 1400 9800 1400
Wire Wire Line
	9500 1400 9500 1550
$Comp
L AGND #PWR092
U 1 1 560BD50A
P 9500 2100
F 0 "#PWR092" H 9500 2100 40  0001 C CNN
F 1 "AGND" H 9500 2030 50  0000 C CNN
F 2 "" H 9500 2100 60  0000 C CNN
F 3 "" H 9500 2100 60  0000 C CNN
	1    9500 2100
	1    0    0    -1  
$EndComp
Wire Wire Line
	9500 2100 9500 1950
$Comp
L C-RESCUE-canmove C502
U 1 1 560BD511
P 7750 1400
F 0 "C502" H 7750 1500 40  0000 L CNN
F 1 "0.15u" H 7756 1315 40  0000 L CNN
F 2 "SM0603" H 7788 1250 30  0000 C CNN
F 3 "~" H 7750 1400 60  0000 C CNN
	1    7750 1400
	0    -1   -1   0   
$EndComp
Wire Wire Line
	7350 1600 7450 1600
Wire Wire Line
	7450 1600 7450 1400
Wire Wire Line
	7450 1400 7550 1400
Wire Wire Line
	8050 1700 7350 1700
Wire Wire Line
	8050 1400 8050 1700
Wire Wire Line
	7950 1400 8300 1400
$Comp
L INDUCTOR L501
U 1 1 560BD51D
P 8600 1400
F 0 "L501" V 8550 1400 40  0000 C CNN
F 1 "15u" V 8700 1400 40  0000 C CNN
F 2 "SM1812" V 8800 1450 60  0000 C CNN
F 3 "~" H 8600 1400 60  0000 C CNN
	1    8600 1400
	0    -1   -1   0   
$EndComp
Connection ~ 8050 1400
$Comp
L DIODESCH D501
U 1 1 560BD524
P 8200 1700
F 0 "D501" H 8200 1800 40  0000 C CNN
F 1 "DIODE" H 8200 1600 40  0000 C CNN
F 2 "SOD-123" H 8200 1700 60  0000 C CNN
F 3 "~" H 8200 1700 60  0000 C CNN
	1    8200 1700
	0    -1   -1   0   
$EndComp
Wire Wire Line
	8200 1400 8200 1500
Connection ~ 8200 1400
$Comp
L AGND #PWR093
U 1 1 560BD52C
P 8200 2000
F 0 "#PWR093" H 8200 2000 40  0001 C CNN
F 1 "AGND" H 8200 1930 50  0000 C CNN
F 2 "" H 8200 2000 60  0000 C CNN
F 3 "" H 8200 2000 60  0000 C CNN
	1    8200 2000
	1    0    0    -1  
$EndComp
Wire Wire Line
	8200 2000 8200 1900
Wire Wire Line
	9100 1400 9100 1450
Wire Wire Line
	9100 1950 9100 2100
Text Label 8950 2000 2    60   ~ 0
FB
Wire Wire Line
	8950 2000 9100 2000
Connection ~ 9100 2000
Text Label 7450 1800 0    60   ~ 0
FB
Wire Wire Line
	7450 1800 7350 1800
Connection ~ 9100 1400
Wire Wire Line
	9800 1400 9800 1300
Connection ~ 9500 1400
$Comp
L +5VA #PWR094
U 1 1 560BD53D
P 9800 1300
F 0 "#PWR094" H 9800 1430 20  0001 C CNN
F 1 "+5VA" H 9800 1400 30  0000 C CNN
F 2 "" H 9800 1300 60  0000 C CNN
F 3 "" H 9800 1300 60  0000 C CNN
	1    9800 1300
	1    0    0    -1  
$EndComp
Text Notes 8600 3000 0    60   ~ 0
Vout = 0.765 * (1+R1/R2)\nVout = 4.98
$Comp
L LED-RESCUE-canmove D502
U 1 1 560BD544
P 10650 1600
F 0 "D502" H 10650 1700 50  0000 C CNN
F 1 "LED" H 10650 1500 50  0000 C CNN
F 2 "LED-0603" H 10650 1600 60  0000 C CNN
F 3 "~" H 10650 1600 60  0000 C CNN
	1    10650 1600
	0    1    1    0   
$EndComp
$Comp
L R-RESCUE-canmove R503
U 1 1 560BD54A
P 10650 2150
F 0 "R503" V 10730 2150 40  0000 C CNN
F 1 "1k" V 10657 2151 40  0000 C CNN
F 2 "SM0402" V 10580 2150 30  0000 C CNN
F 3 "~" H 10650 2150 30  0000 C CNN
	1    10650 2150
	1    0    0    -1  
$EndComp
$Comp
L AGND #PWR095
U 1 1 560BD550
P 10650 2500
F 0 "#PWR095" H 10650 2500 40  0001 C CNN
F 1 "AGND" H 10650 2430 50  0000 C CNN
F 2 "" H 10650 2500 60  0000 C CNN
F 3 "" H 10650 2500 60  0000 C CNN
	1    10650 2500
	1    0    0    -1  
$EndComp
Wire Wire Line
	10650 2500 10650 2400
Wire Wire Line
	10650 1900 10650 1800
Wire Wire Line
	10650 1400 10650 1300
$Comp
L +5VA #PWR096
U 1 1 560BD559
P 10650 1300
F 0 "#PWR096" H 10650 1430 20  0001 C CNN
F 1 "+5VA" H 10650 1400 30  0000 C CNN
F 2 "" H 10650 1300 60  0000 C CNN
F 3 "" H 10650 1300 60  0000 C CNN
	1    10650 1300
	1    0    0    -1  
$EndComp
$Comp
L MCP1702-RESCUE-canmove U502
U 1 1 560C97CB
P 2500 1400
F 0 "U502" H 2600 900 60  0000 C CNN
F 1 "MCP1702" H 2350 1350 60  0000 C CNN
F 2 "SOT23" H 2500 1400 60  0000 C CNN
F 3 "~" H 2500 1400 60  0000 C CNN
	1    2500 1400
	1    0    0    -1  
$EndComp
$Comp
L GND-RESCUE-canmove #PWR097
U 1 1 560C97D1
P 1800 1850
F 0 "#PWR097" H 1800 1850 30  0001 C CNN
F 1 "GND" H 1800 1780 30  0001 C CNN
F 2 "" H 1800 1850 60  0000 C CNN
F 3 "" H 1800 1850 60  0000 C CNN
	1    1800 1850
	1    0    0    -1  
$EndComp
Wire Wire Line
	1800 1850 1800 1750
Wire Wire Line
	1800 1750 1900 1750
$Comp
L +5V #PWR098
U 1 1 560C97D9
P 1800 1500
F 0 "#PWR098" H 1800 1590 20  0001 C CNN
F 1 "+5V" H 1800 1590 30  0000 C CNN
F 2 "" H 1800 1500 60  0000 C CNN
F 3 "" H 1800 1500 60  0000 C CNN
	1    1800 1500
	1    0    0    -1  
$EndComp
Wire Wire Line
	1800 1500 1800 1600
Wire Wire Line
	1800 1600 1900 1600
$Comp
L VDD #PWR099
U 1 1 560C97E1
P 3050 1500
F 0 "#PWR099" H 3050 1600 30  0001 C CNN
F 1 "VDD" H 3050 1610 30  0000 C CNN
F 2 "" H 3050 1500 60  0000 C CNN
F 3 "" H 3050 1500 60  0000 C CNN
	1    3050 1500
	1    0    0    -1  
$EndComp
Wire Wire Line
	3050 1500 3050 1600
Wire Wire Line
	3050 1600 2950 1600
$Comp
L C-RESCUE-canmove C504
U 1 1 560C97E9
P 1450 1650
F 0 "C504" H 1450 1750 40  0000 L CNN
F 1 "1u" H 1456 1565 40  0000 L CNN
F 2 "SM0603" H 1488 1500 30  0000 C CNN
F 3 "~" H 1450 1650 60  0000 C CNN
	1    1450 1650
	1    0    0    -1  
$EndComp
$Comp
L GND-RESCUE-canmove #PWR0100
U 1 1 560C97EF
P 1450 1900
F 0 "#PWR0100" H 1450 1900 30  0001 C CNN
F 1 "GND" H 1450 1830 30  0001 C CNN
F 2 "" H 1450 1900 60  0000 C CNN
F 3 "" H 1450 1900 60  0000 C CNN
	1    1450 1900
	1    0    0    -1  
$EndComp
Wire Wire Line
	1450 1900 1450 1850
$Comp
L +5V #PWR0101
U 1 1 560C97F6
P 1450 1400
F 0 "#PWR0101" H 1450 1490 20  0001 C CNN
F 1 "+5V" H 1450 1490 30  0000 C CNN
F 2 "" H 1450 1400 60  0000 C CNN
F 3 "" H 1450 1400 60  0000 C CNN
	1    1450 1400
	1    0    0    -1  
$EndComp
Wire Wire Line
	1450 1400 1450 1450
$Comp
L C-RESCUE-canmove C505
U 1 1 560C97FD
P 3350 1700
F 0 "C505" H 3350 1800 40  0000 L CNN
F 1 "10u" H 3356 1615 40  0000 L CNN
F 2 "SM0805" H 3388 1550 30  0000 C CNN
F 3 "~" H 3350 1700 60  0000 C CNN
	1    3350 1700
	1    0    0    -1  
$EndComp
$Comp
L GND-RESCUE-canmove #PWR0102
U 1 1 560C9803
P 3350 1950
F 0 "#PWR0102" H 3350 1950 30  0001 C CNN
F 1 "GND" H 3350 1880 30  0001 C CNN
F 2 "" H 3350 1950 60  0000 C CNN
F 3 "" H 3350 1950 60  0000 C CNN
	1    3350 1950
	1    0    0    -1  
$EndComp
Wire Wire Line
	3350 1950 3350 1900
Wire Wire Line
	3350 1450 3350 1500
$Comp
L VDD #PWR0103
U 1 1 560C980B
P 3350 1450
F 0 "#PWR0103" H 3350 1550 30  0001 C CNN
F 1 "VDD" H 3350 1560 30  0000 C CNN
F 2 "" H 3350 1450 60  0000 C CNN
F 3 "" H 3350 1450 60  0000 C CNN
	1    3350 1450
	1    0    0    -1  
$EndComp
$Comp
L LED-RESCUE-canmove D503
U 1 1 560C9811
P 3750 1600
F 0 "D503" H 3750 1700 50  0000 C CNN
F 1 "LED" H 3750 1500 50  0000 C CNN
F 2 "LED-0603" H 3750 1600 60  0000 C CNN
F 3 "~" H 3750 1600 60  0000 C CNN
	1    3750 1600
	0    1    1    0   
$EndComp
$Comp
L R-RESCUE-canmove R504
U 1 1 560C9817
P 3750 2100
F 0 "R504" V 3830 2100 40  0000 C CNN
F 1 "1k" V 3757 2101 40  0000 C CNN
F 2 "SM0402" V 3680 2100 30  0000 C CNN
F 3 "~" H 3750 2100 30  0000 C CNN
	1    3750 2100
	1    0    0    -1  
$EndComp
$Comp
L GND-RESCUE-canmove #PWR0104
U 1 1 560C981D
P 3750 2450
F 0 "#PWR0104" H 3750 2450 30  0001 C CNN
F 1 "GND" H 3750 2380 30  0001 C CNN
F 2 "" H 3750 2450 60  0000 C CNN
F 3 "" H 3750 2450 60  0000 C CNN
	1    3750 2450
	1    0    0    -1  
$EndComp
Wire Wire Line
	3750 2450 3750 2350
Wire Wire Line
	3750 1850 3750 1800
$Comp
L VDD #PWR0105
U 1 1 560C9825
P 3750 1300
F 0 "#PWR0105" H 3750 1400 30  0001 C CNN
F 1 "VDD" H 3750 1410 30  0000 C CNN
F 2 "" H 3750 1300 60  0000 C CNN
F 3 "" H 3750 1300 60  0000 C CNN
	1    3750 1300
	1    0    0    -1  
$EndComp
Wire Wire Line
	3750 1300 3750 1400
$EndSCHEMATC
