EESchema Schematic File Version 2
LIBS:canradiojack-rescue
LIBS:power
LIBS:device
LIBS:transistors
LIBS:conn
LIBS:linear
LIBS:regul
LIBS:74xx
LIBS:cmos4000
LIBS:adc-dac
LIBS:memory
LIBS:xilinx
LIBS:microcontrollers
LIBS:dsp
LIBS:microchip
LIBS:analog_switches
LIBS:motorola
LIBS:texas
LIBS:intel
LIBS:audio
LIBS:interface
LIBS:digital-audio
LIBS:philips
LIBS:display
LIBS:cypress
LIBS:siliconi
LIBS:opto
LIBS:atmel
LIBS:contrib
LIBS:valves
LIBS:crap
LIBS:canradiojack-cache
EELAYER 25 0
EELAYER END
$Descr A4 11693 8268
encoding utf-8
Sheet 1 5
Title ""
Date ""
Rev ""
Comp ""
Comment1 ""
Comment2 ""
Comment3 ""
Comment4 ""
$EndDescr
Text Notes 2850 1200 0    60   ~ 0
hello
$Sheet
S 3850 3750 800  1250
U 582F15F8
F0 "radio" 60
F1 "radio.sch" 60
F2 "~SEL" I L 3850 4400 60 
F3 "SCLK" I L 3850 4300 60 
F4 "MOSI" I L 3850 4200 60 
F5 "MISO" I L 3850 4100 60 
F6 "IRQ" I L 3850 4800 60 
F7 "SLP_TR" I L 3850 4700 60 
F8 "~RST" I L 3850 4500 60 
F9 "DIG2" I L 3850 4600 60 
$EndSheet
$Sheet
S 2800 3650 800  2700
U 582F2D5C
F0 "MCU" 60
F1 "MCU.sch" 60
F2 "CANH" I L 2800 3850 60 
F3 "CANL" I L 2800 3950 60 
F4 "RF_MISO" I R 3600 4100 60 
F5 "RF_MOSI" O R 3600 4200 60 
F6 "RF_SCLK" O R 3600 4300 60 
F7 "~RF_SEL" O R 3600 4400 60 
F8 "~RF_RST" O R 3600 4500 60 
F9 "RF_DIG2" I R 3600 4600 60 
F10 "RF_SLPTR" O R 3600 4700 60 
F11 "RF_IRQ" I R 3600 4800 60 
F12 "SCL" I R 3600 5350 60 
F13 "SDA" I R 3600 5450 60 
F14 "LEDs_OE" I R 3600 5600 60 
F15 "TEST_SW" I L 2800 5000 60 
F16 "RESTART_SW" I L 2800 4900 60 
F17 "CUSTOM_SW_1" I L 2800 5100 60 
F18 "JACK" I L 2800 5300 60 
F19 "COLOR" I L 2800 5400 60 
F20 "STRAT" I L 2800 5500 60 
$EndSheet
$Comp
L CONN_01X06 P101
U 1 1 582F21F6
P 1000 4250
F 0 "P101" H 1000 4600 50  0000 C CNN
F 1 "CONN_01X06" V 1100 4250 50  0000 C CNN
F 2 "lib:TE_MICROMATCH_SMD_FEM_6PIN" H 1000 4250 60  0001 C CNN
F 3 "" H 1000 4250 60  0000 C CNN
	1    1000 4250
	-1   0    0    1   
$EndComp
$Comp
L GND #PWR01
U 1 1 582F21FD
P 1300 4600
F 0 "#PWR01" H 1300 4350 50  0001 C CNN
F 1 "GND" H 1300 4450 50  0000 C CNN
F 2 "" H 1300 4600 60  0000 C CNN
F 3 "" H 1300 4600 60  0000 C CNN
	1    1300 4600
	1    0    0    -1  
$EndComp
$Comp
L +5V #PWR02
U 1 1 582F2207
P 1700 3800
F 0 "#PWR02" H 1700 3650 50  0001 C CNN
F 1 "+5V" H 1700 3940 50  0000 C CNN
F 2 "" H 1700 3800 60  0000 C CNN
F 3 "" H 1700 3800 60  0000 C CNN
	1    1700 3800
	1    0    0    -1  
$EndComp
Text Label 1350 4300 0    60   ~ 0
CANL
Text Label 1350 4200 0    60   ~ 0
CANH
$Comp
L D_Schottky D101
U 1 1 582F2215
P 1450 3900
F 0 "D101" H 1450 4000 50  0000 C CNN
F 1 "D_Schottky" H 1450 3800 50  0000 C CNN
F 2 "Diodes_SMD:SOD-123" H 1450 3900 50  0001 C CNN
F 3 "" H 1450 3900 50  0000 C CNN
	1    1450 3900
	-1   0    0    1   
$EndComp
Text Label 2800 3850 2    60   ~ 0
CANH
Text Label 2800 3950 2    60   ~ 0
CANL
$Sheet
S 3850 5200 700  700 
U 58300DE2
F0 "LEDs" 60
F1 "leds.sch" 60
F2 "SCL" I L 3850 5350 60 
F3 "SDA" I L 3850 5450 60 
F4 "LEDs_OE" I L 3850 5600 60 
$EndSheet
$Sheet
S 3200 2850 750  350 
U 58300D8F
F0 "Power" 60
F1 "power.sch" 60
$EndSheet
$Comp
L SW_PUSH SW103
U 1 1 58301F38
P 9700 2550
F 0 "SW103" H 9850 2660 50  0000 C CNN
F 1 "SW_PUSH" H 9700 2470 50  0000 C CNN
F 2 "craplib:CHEAP_SWITCH" H 9700 2550 50  0001 C CNN
F 3 "" H 9700 2550 50  0000 C CNN
	1    9700 2550
	1    0    0    -1  
$EndComp
$Comp
L SW_PUSH SW102
U 1 1 58301FEC
P 9700 1950
F 0 "SW102" H 9850 2060 50  0000 C CNN
F 1 "SW_PUSH" H 9700 1870 50  0000 C CNN
F 2 "craplib:CHEAP_SWITCH" H 9700 1950 50  0001 C CNN
F 3 "" H 9700 1950 50  0000 C CNN
	1    9700 1950
	1    0    0    -1  
$EndComp
$Comp
L SW_PUSH SW101
U 1 1 5830243F
P 9700 1450
F 0 "SW101" H 9850 1560 50  0000 C CNN
F 1 "SW_PUSH" H 9700 1370 50  0000 C CNN
F 2 "craplib:CHEAP_SWITCH" H 9700 1450 50  0001 C CNN
F 3 "" H 9700 1450 50  0000 C CNN
	1    9700 1450
	1    0    0    -1  
$EndComp
$Comp
L SPST SW105
U 1 1 58302A03
P 9700 3700
F 0 "SW105" H 9700 3800 50  0000 C CNN
F 1 "SPST" H 9700 3600 50  0000 C CNN
F 2 "Connect:PINHEAD1-2" H 9700 3700 50  0001 C CNN
F 3 "" H 9700 3700 50  0000 C CNN
	1    9700 3700
	1    0    0    -1  
$EndComp
Text Label 8850 1450 2    60   ~ 0
RESTART_SW
Text Label 8850 1950 2    60   ~ 0
TEST_SW
Text Label 8850 2550 2    60   ~ 0
CUSTOM_SW_1
Text Label 9050 3700 2    60   ~ 0
JACK
Text Label 10250 4550 0    60   ~ 0
COLOR
Text Label 10250 5700 0    60   ~ 0
STRAT
Text Label 2700 4900 2    60   ~ 0
RESTART_SW
Text Label 2700 5000 2    60   ~ 0
TEST_SW
Text Label 2700 5100 2    60   ~ 0
CUSTOM_SW_1
Text Label 2700 5300 2    60   ~ 0
JACK
Text Label 2700 5400 2    60   ~ 0
COLOR
Text Label 2700 5500 2    60   ~ 0
STRAT
$Comp
L C C101
U 1 1 58320B89
P 9700 1200
F 0 "C101" H 9725 1300 50  0000 L CNN
F 1 "1u" H 9725 1100 50  0000 L CNN
F 2 "Capacitors_SMD:C_0603" H 9738 1050 50  0001 C CNN
F 3 "" H 9700 1200 50  0000 C CNN
	1    9700 1200
	0    1    1    0   
$EndComp
$Comp
L C C102
U 1 1 58321128
P 9700 1700
F 0 "C102" H 9725 1800 50  0000 L CNN
F 1 "1u" H 9725 1600 50  0000 L CNN
F 2 "Capacitors_SMD:C_0603" H 9738 1550 50  0001 C CNN
F 3 "" H 9700 1700 50  0000 C CNN
	1    9700 1700
	0    1    1    0   
$EndComp
$Comp
L C C103
U 1 1 5832120F
P 9700 2250
F 0 "C103" H 9725 2350 50  0000 L CNN
F 1 "1u" H 9725 2150 50  0000 L CNN
F 2 "Capacitors_SMD:C_0603" H 9738 2100 50  0001 C CNN
F 3 "" H 9700 2250 50  0000 C CNN
	1    9700 2250
	0    1    1    0   
$EndComp
$Comp
L C C105
U 1 1 5832156C
P 9700 3400
F 0 "C105" H 9725 3500 50  0000 L CNN
F 1 "1u" H 9725 3300 50  0000 L CNN
F 2 "Capacitors_SMD:C_0603" H 9738 3250 50  0001 C CNN
F 3 "" H 9700 3400 50  0000 C CNN
	1    9700 3400
	0    1    1    0   
$EndComp
$Comp
L C C106
U 1 1 583218F4
P 9700 4250
F 0 "C106" H 9725 4350 50  0000 L CNN
F 1 "1u" H 9725 4150 50  0000 L CNN
F 2 "Capacitors_SMD:C_0603" H 9738 4100 50  0001 C CNN
F 3 "" H 9700 4250 50  0000 C CNN
	1    9700 4250
	0    1    1    0   
$EndComp
$Comp
L C C107
U 1 1 58321A87
P 9700 5400
F 0 "C107" H 9725 5500 50  0000 L CNN
F 1 "1u" H 9725 5300 50  0000 L CNN
F 2 "Capacitors_SMD:C_0603" H 9738 5250 50  0001 C CNN
F 3 "" H 9700 5400 50  0000 C CNN
	1    9700 5400
	0    1    1    0   
$EndComp
$Comp
L GND #PWR03
U 1 1 583225AB
P 10400 3850
F 0 "#PWR03" H 10400 3600 50  0001 C CNN
F 1 "GND" H 10400 3700 50  0000 C CNN
F 2 "" H 10400 3850 50  0000 C CNN
F 3 "" H 10400 3850 50  0000 C CNN
	1    10400 3850
	1    0    0    -1  
$EndComp
$Comp
L CONN_01X02 P102
U 1 1 5833206F
P 1150 2350
F 0 "P102" H 1150 2500 50  0000 C CNN
F 1 "CONN_01X02" V 1250 2350 50  0000 C CNN
F 2 "lib:PHOENIX_MC0._2G" H 1150 2350 50  0001 C CNN
F 3 "" H 1150 2350 50  0000 C CNN
	1    1150 2350
	-1   0    0    1   
$EndComp
$Comp
L GND #PWR04
U 1 1 58332A89
P 1400 2450
F 0 "#PWR04" H 1400 2200 50  0001 C CNN
F 1 "GND" H 1400 2300 50  0000 C CNN
F 2 "" H 1400 2450 60  0000 C CNN
F 3 "" H 1400 2450 60  0000 C CNN
	1    1400 2450
	1    0    0    -1  
$EndComp
$Comp
L +5VL #PWR05
U 1 1 583333AC
P 1450 2200
F 0 "#PWR05" H 1450 2050 50  0001 C CNN
F 1 "+5VL" H 1450 2340 50  0000 C CNN
F 2 "" H 1450 2200 50  0000 C CNN
F 3 "" H 1450 2200 50  0000 C CNN
	1    1450 2200
	1    0    0    -1  
$EndComp
Text Notes 1100 1950 0    60   ~ 0
5V for LEDs
$Comp
L SPDT+LEDs SW104
U 1 1 58337FBB
P 9700 4650
F 0 "SW104" H 9500 4800 50  0000 C CNN
F 1 "SPDT+LEDs" H 9450 4500 50  0000 C CNN
F 2 "lib:SWITCH_GW_PC" H 9700 4650 50  0001 C CNN
F 3 "" H 9700 4650 50  0000 C CNN
	1    9700 4650
	1    0    0    -1  
$EndComp
$Comp
L GND #PWR06
U 1 1 58338B22
P 9300 4650
F 0 "#PWR06" H 9300 4400 50  0001 C CNN
F 1 "GND" H 9300 4500 50  0000 C CNN
F 2 "" H 9300 4650 50  0000 C CNN
F 3 "" H 9300 4650 50  0000 C CNN
	1    9300 4650
	0    1    1    0   
$EndComp
$Comp
L R_Small R101
U 1 1 58339A4D
P 9250 5050
F 0 "R101" H 9280 5070 50  0000 L CNN
F 1 "R_Small" H 9280 5010 50  0000 L CNN
F 2 "Resistors_SMD:R_0402" H 9250 5050 50  0001 C CNN
F 3 "" H 9250 5050 50  0000 C CNN
	1    9250 5050
	0    1    1    0   
$EndComp
Wire Wire Line
	10100 4750 10000 4750
Wire Wire Line
	10100 5150 10100 4750
Wire Wire Line
	10000 5150 10100 5150
Wire Wire Line
	10150 4250 10150 4950
Wire Wire Line
	9050 5050 9150 5050
Wire Wire Line
	9350 5050 9400 5050
Wire Wire Line
	10150 4950 10000 4950
Connection ~ 10150 4550
Wire Wire Line
	10150 4250 9850 4250
Wire Wire Line
	10250 4550 10000 4550
Connection ~ 9350 4650
Wire Wire Line
	9350 4250 9350 4650
Wire Wire Line
	9550 4250 9350 4250
Wire Wire Line
	9300 4650 9400 4650
Wire Wire Line
	1450 2300 1350 2300
Wire Wire Line
	1450 2200 1450 2300
Wire Wire Line
	1400 2400 1350 2400
Wire Wire Line
	1400 2450 1400 2400
Connection ~ 9350 2550
Wire Wire Line
	9350 2250 9350 2550
Connection ~ 9350 1450
Wire Wire Line
	9350 1200 9350 1450
Wire Wire Line
	9550 1200 9350 1200
Connection ~ 9350 1950
Wire Wire Line
	9350 1700 9350 1950
Wire Wire Line
	9550 1700 9350 1700
Wire Wire Line
	9350 2250 9550 2250
Connection ~ 9150 3700
Wire Wire Line
	9150 3400 9150 3700
Wire Wire Line
	9550 3400 9150 3400
Connection ~ 10400 3400
Wire Wire Line
	9850 3400 10400 3400
Connection ~ 10400 2250
Wire Wire Line
	9850 2250 10400 2250
Connection ~ 10400 1700
Wire Wire Line
	9850 1700 10400 1700
Connection ~ 10400 1450
Wire Wire Line
	10400 1200 9850 1200
Connection ~ 10400 1950
Wire Wire Line
	10400 1450 10000 1450
Connection ~ 10400 2550
Wire Wire Line
	10400 1950 10000 1950
Wire Wire Line
	10400 2550 10000 2550
Connection ~ 10400 3700
Wire Wire Line
	10400 3700 10200 3700
Wire Wire Line
	2700 4900 2800 4900
Wire Wire Line
	2700 5000 2800 5000
Wire Wire Line
	2700 5100 2800 5100
Wire Wire Line
	2800 5300 2700 5300
Wire Wire Line
	2700 5400 2800 5400
Wire Wire Line
	2700 5500 2800 5500
Wire Wire Line
	9400 1450 8850 1450
Wire Wire Line
	8850 1950 9400 1950
Wire Wire Line
	9400 2550 8850 2550
Wire Wire Line
	9050 3700 9200 3700
Wire Wire Line
	3600 5600 3850 5600
Wire Wire Line
	3850 5450 3600 5450
Wire Wire Line
	3600 5350 3850 5350
Wire Wire Line
	1700 3900 1600 3900
Wire Wire Line
	1700 3800 1700 3900
Wire Wire Line
	1350 4300 1200 4300
Wire Wire Line
	1350 4200 1200 4200
Connection ~ 1300 4000
Wire Wire Line
	1300 4100 1200 4100
Wire Wire Line
	1300 4000 1200 4000
Wire Wire Line
	1300 3900 1300 4100
Connection ~ 1300 4500
Wire Wire Line
	1200 4400 1300 4400
Wire Wire Line
	1300 4500 1200 4500
Wire Wire Line
	1300 4400 1300 4600
Wire Wire Line
	3850 4800 3600 4800
Wire Wire Line
	3600 4700 3850 4700
Wire Wire Line
	3850 4600 3600 4600
Wire Wire Line
	3600 4500 3850 4500
Wire Wire Line
	3850 4400 3600 4400
Wire Wire Line
	3600 4300 3850 4300
Wire Wire Line
	3850 4200 3600 4200
Wire Wire Line
	3600 4100 3850 4100
Wire Wire Line
	10400 1200 10400 3850
$Comp
L SPDT+LEDs SW106
U 1 1 5833E0DA
P 9700 5800
F 0 "SW106" H 9500 5950 50  0000 C CNN
F 1 "SPDT+LEDs" H 9450 5650 50  0000 C CNN
F 2 "lib:SWITCH_GW_PC" H 9700 5800 50  0001 C CNN
F 3 "" H 9700 5800 50  0000 C CNN
	1    9700 5800
	1    0    0    -1  
$EndComp
$Comp
L GND #PWR07
U 1 1 5833E0E0
P 9300 5800
F 0 "#PWR07" H 9300 5550 50  0001 C CNN
F 1 "GND" H 9300 5650 50  0000 C CNN
F 2 "" H 9300 5800 50  0000 C CNN
F 3 "" H 9300 5800 50  0000 C CNN
	1    9300 5800
	0    1    1    0   
$EndComp
$Comp
L R_Small R102
U 1 1 5833E0E6
P 9250 6200
F 0 "R102" H 9280 6220 50  0000 L CNN
F 1 "R_Small" H 9280 6160 50  0000 L CNN
F 2 "Resistors_SMD:R_0402" H 9250 6200 50  0001 C CNN
F 3 "" H 9250 6200 50  0000 C CNN
	1    9250 6200
	0    1    1    0   
$EndComp
Wire Wire Line
	10100 5900 10000 5900
Wire Wire Line
	10100 6300 10100 5900
Wire Wire Line
	10000 6300 10100 6300
Wire Wire Line
	10150 5400 10150 6100
Wire Wire Line
	9050 6200 9150 6200
Wire Wire Line
	9350 6200 9400 6200
Wire Wire Line
	10150 6100 10000 6100
Connection ~ 10150 5700
Wire Wire Line
	10150 5400 9850 5400
Wire Wire Line
	10250 5700 10000 5700
Connection ~ 9350 5800
Wire Wire Line
	9350 5400 9350 5800
Wire Wire Line
	9550 5400 9350 5400
Wire Wire Line
	9300 5800 9400 5800
$Comp
L +3V3 #PWR08
U 1 1 5834837A
P 9050 5050
F 0 "#PWR08" H 9050 4900 50  0001 C CNN
F 1 "+3V3" H 9050 5190 50  0000 C CNN
F 2 "" H 9050 5050 50  0000 C CNN
F 3 "" H 9050 5050 50  0000 C CNN
	1    9050 5050
	0    -1   -1   0   
$EndComp
$Comp
L +3V3 #PWR09
U 1 1 58348473
P 9050 6200
F 0 "#PWR09" H 9050 6050 50  0001 C CNN
F 1 "+3V3" H 9050 6340 50  0000 C CNN
F 2 "" H 9050 6200 50  0000 C CNN
F 3 "" H 9050 6200 50  0000 C CNN
	1    9050 6200
	0    -1   -1   0   
$EndComp
$EndSCHEMATC
