EESchema Schematic File Version 2
LIBS:canradiojack-rescue
LIBS:power
LIBS:device
LIBS:transistors
LIBS:conn
LIBS:linear
LIBS:regul
LIBS:74xx
LIBS:cmos4000
LIBS:adc-dac
LIBS:memory
LIBS:xilinx
LIBS:microcontrollers
LIBS:dsp
LIBS:microchip
LIBS:analog_switches
LIBS:motorola
LIBS:texas
LIBS:intel
LIBS:audio
LIBS:interface
LIBS:digital-audio
LIBS:philips
LIBS:display
LIBS:cypress
LIBS:siliconi
LIBS:opto
LIBS:atmel
LIBS:contrib
LIBS:valves
LIBS:crap
LIBS:canradiojack-cache
EELAYER 25 0
EELAYER END
$Descr A4 11693 8268
encoding utf-8
Sheet 4 5
Title ""
Date ""
Rev ""
Comp ""
Comment1 ""
Comment2 ""
Comment3 ""
Comment4 ""
$EndDescr
$Comp
L PCA9685 U401
U 1 1 58301074
P 4700 4350
F 0 "U401" H 4300 5200 60  0000 C CNN
F 1 "PCA9685" H 4700 4350 60  0000 C CNN
F 2 "Housings_SSOP:TSSOP-28_4.4x9.7mm_Pitch0.65mm" H 4700 4350 60  0001 C CNN
F 3 "" H 4700 4350 60  0000 C CNN
	1    4700 4350
	1    0    0    -1  
$EndComp
$Comp
L GND #PWR043
U 1 1 5830107B
P 3900 5250
F 0 "#PWR043" H 3900 5000 50  0001 C CNN
F 1 "GND" H 3900 5100 50  0000 C CNN
F 2 "" H 3900 5250 50  0000 C CNN
F 3 "" H 3900 5250 50  0000 C CNN
	1    3900 5250
	1    0    0    -1  
$EndComp
Wire Wire Line
	3900 4150 3900 5250
Wire Wire Line
	3900 5150 4000 5150
Wire Wire Line
	3900 4950 4000 4950
Connection ~ 3900 5150
Wire Wire Line
	3900 4650 4000 4650
Connection ~ 3900 4950
Wire Wire Line
	3900 4550 4000 4550
Connection ~ 3900 4650
Wire Wire Line
	3900 4450 4000 4450
Connection ~ 3900 4550
Wire Wire Line
	3900 4350 4000 4350
Connection ~ 3900 4450
Connection ~ 3900 4350
Wire Wire Line
	3900 4150 4000 4150
Wire Wire Line
	4000 4250 3750 4250
Wire Wire Line
	3750 4250 3750 3500
Wire Wire Line
	3750 3650 4000 3650
Connection ~ 3750 3650
Wire Wire Line
	3800 4850 4000 4850
Wire Wire Line
	3900 3950 4000 3950
Wire Wire Line
	4000 3850 3900 3850
$Comp
L LED_RGB D402
U 1 1 5830109F
P 5850 3050
F 0 "D402" H 5850 3475 50  0000 C CNN
F 1 "LED_RGB" H 5850 3400 50  0000 C CNN
F 2 "craplib:PLCC6" H 5850 3000 50  0001 C CNN
F 3 "" H 5850 3000 50  0000 C CNN
	1    5850 3050
	0    -1   -1   0   
$EndComp
$Comp
L LED_RGB D403
U 1 1 583010A6
P 6550 3450
F 0 "D403" H 6550 3875 50  0000 C CNN
F 1 "LED_RGB" H 6550 3800 50  0000 C CNN
F 2 "craplib:PLCC6" H 6550 3400 50  0001 C CNN
F 3 "" H 6550 3400 50  0000 C CNN
	1    6550 3450
	0    -1   -1   0   
$EndComp
$Comp
L LED_RGB D405
U 1 1 583010AD
P 7250 3850
F 0 "D405" H 7250 4275 50  0000 C CNN
F 1 "LED_RGB" H 7250 4200 50  0000 C CNN
F 2 "craplib:PLCC6" H 7250 3800 50  0001 C CNN
F 3 "" H 7250 3800 50  0000 C CNN
	1    7250 3850
	0    -1   -1   0   
$EndComp
$Comp
L LED_RGB D404
U 1 1 583010B4
P 6650 5250
F 0 "D404" H 6650 5675 50  0000 C CNN
F 1 "LED_RGB" H 6650 5600 50  0000 C CNN
F 2 "craplib:PLCC6" H 6650 5200 50  0001 C CNN
F 3 "" H 6650 5200 50  0000 C CNN
	1    6650 5250
	0    1    1    0   
$EndComp
$Comp
L LED_RGB D401
U 1 1 583010BB
P 5750 5600
F 0 "D401" H 5750 6025 50  0000 C CNN
F 1 "LED_RGB" H 5750 5950 50  0000 C CNN
F 2 "craplib:PLCC6" H 5750 5550 50  0001 C CNN
F 3 "" H 5750 5550 50  0000 C CNN
	1    5750 5600
	0    1    1    0   
$EndComp
$Comp
L R_Small R402
U 1 1 583010C2
P 5650 3400
F 0 "R402" H 5680 3420 50  0000 L CNN
F 1 "R_Small" H 5680 3360 50  0000 L CNN
F 2 "Resistors_SMD:R_0402" H 5650 3400 50  0001 C CNN
F 3 "" H 5650 3400 50  0000 C CNN
	1    5650 3400
	1    0    0    -1  
$EndComp
$Comp
L R_Small R404
U 1 1 583010C9
P 5850 3400
F 0 "R404" H 5880 3420 50  0000 L CNN
F 1 "R_Small" H 5880 3360 50  0000 L CNN
F 2 "Resistors_SMD:R_0402" H 5850 3400 50  0001 C CNN
F 3 "" H 5850 3400 50  0000 C CNN
	1    5850 3400
	1    0    0    -1  
$EndComp
$Comp
L R_Small R406
U 1 1 583010D0
P 6050 3400
F 0 "R406" H 6080 3420 50  0000 L CNN
F 1 "R_Small" H 6080 3360 50  0000 L CNN
F 2 "Resistors_SMD:R_0402" H 6050 3400 50  0001 C CNN
F 3 "" H 6050 3400 50  0000 C CNN
	1    6050 3400
	1    0    0    -1  
$EndComp
Wire Wire Line
	5650 3250 5650 3300
Wire Wire Line
	5850 3250 5850 3300
Wire Wire Line
	6050 3250 6050 3300
$Comp
L R_Small R407
U 1 1 583010E0
P 6350 3800
F 0 "R407" H 6380 3820 50  0000 L CNN
F 1 "R_Small" H 6380 3760 50  0000 L CNN
F 2 "Resistors_SMD:R_0402" H 6350 3800 50  0001 C CNN
F 3 "" H 6350 3800 50  0000 C CNN
	1    6350 3800
	1    0    0    -1  
$EndComp
$Comp
L R_Small R409
U 1 1 583010E7
P 6550 3800
F 0 "R409" H 6580 3820 50  0000 L CNN
F 1 "R_Small" H 6580 3760 50  0000 L CNN
F 2 "Resistors_SMD:R_0402" H 6550 3800 50  0001 C CNN
F 3 "" H 6550 3800 50  0000 C CNN
	1    6550 3800
	1    0    0    -1  
$EndComp
$Comp
L R_Small R411
U 1 1 583010EE
P 6750 3800
F 0 "R411" H 6780 3820 50  0000 L CNN
F 1 "R_Small" H 6780 3760 50  0000 L CNN
F 2 "Resistors_SMD:R_0402" H 6750 3800 50  0001 C CNN
F 3 "" H 6750 3800 50  0000 C CNN
	1    6750 3800
	1    0    0    -1  
$EndComp
Wire Wire Line
	6750 3700 6750 3650
Wire Wire Line
	6550 3700 6550 3650
Wire Wire Line
	6350 3700 6350 3650
Wire Wire Line
	5400 4050 6550 4050
Wire Wire Line
	6550 4050 6550 3900
$Comp
L R_Small R414
U 1 1 583010FE
P 7250 4200
F 0 "R414" H 7280 4220 50  0000 L CNN
F 1 "R_Small" H 7280 4160 50  0000 L CNN
F 2 "Resistors_SMD:R_0402" H 7250 4200 50  0001 C CNN
F 3 "" H 7250 4200 50  0000 C CNN
	1    7250 4200
	1    0    0    -1  
$EndComp
$Comp
L R_Small R415
U 1 1 58301105
P 7450 4200
F 0 "R415" H 7480 4220 50  0000 L CNN
F 1 "R_Small" H 7480 4160 50  0000 L CNN
F 2 "Resistors_SMD:R_0402" H 7450 4200 50  0001 C CNN
F 3 "" H 7450 4200 50  0000 C CNN
	1    7450 4200
	1    0    0    -1  
$EndComp
$Comp
L R_Small R413
U 1 1 5830110C
P 7050 4200
F 0 "R413" H 7080 4220 50  0000 L CNN
F 1 "R_Small" H 7080 4160 50  0000 L CNN
F 2 "Resistors_SMD:R_0402" H 7050 4200 50  0001 C CNN
F 3 "" H 7050 4200 50  0000 C CNN
	1    7050 4200
	1    0    0    -1  
$EndComp
Wire Wire Line
	7050 4100 7050 4050
Wire Wire Line
	7250 4100 7250 4050
Wire Wire Line
	7450 4100 7450 4050
Wire Wire Line
	7050 4300 7050 4350
Wire Wire Line
	7050 4350 6950 4350
Wire Wire Line
	6950 4350 6950 4250
Wire Wire Line
	6950 4250 5400 4250
Wire Wire Line
	5400 4350 6900 4350
Wire Wire Line
	6900 4350 6900 4400
Wire Wire Line
	6900 4400 7250 4400
Wire Wire Line
	7250 4400 7250 4300
Wire Wire Line
	7450 4300 7450 4450
Wire Wire Line
	7450 4450 5400 4450
$Comp
L R_Small R408
U 1 1 58301120
P 6450 4900
F 0 "R408" H 6480 4920 50  0000 L CNN
F 1 "R_Small" H 6480 4860 50  0000 L CNN
F 2 "Resistors_SMD:R_0402" H 6450 4900 50  0001 C CNN
F 3 "" H 6450 4900 50  0000 C CNN
	1    6450 4900
	1    0    0    -1  
$EndComp
$Comp
L R_Small R410
U 1 1 58301127
P 6650 4900
F 0 "R410" H 6680 4920 50  0000 L CNN
F 1 "R_Small" H 6680 4860 50  0000 L CNN
F 2 "Resistors_SMD:R_0402" H 6650 4900 50  0001 C CNN
F 3 "" H 6650 4900 50  0000 C CNN
	1    6650 4900
	1    0    0    -1  
$EndComp
$Comp
L R_Small R412
U 1 1 5830112E
P 6850 4900
F 0 "R412" H 6880 4920 50  0000 L CNN
F 1 "R_Small" H 6880 4860 50  0000 L CNN
F 2 "Resistors_SMD:R_0402" H 6850 4900 50  0001 C CNN
F 3 "" H 6850 4900 50  0000 C CNN
	1    6850 4900
	1    0    0    -1  
$EndComp
Wire Wire Line
	6850 4800 6850 4550
Wire Wire Line
	6850 4550 5400 4550
Wire Wire Line
	5400 4650 6650 4650
Wire Wire Line
	6650 4650 6650 4800
Wire Wire Line
	6450 4800 6450 4750
Wire Wire Line
	6450 4750 5400 4750
Wire Wire Line
	6450 5050 6450 5000
Wire Wire Line
	6650 5050 6650 5000
Wire Wire Line
	6850 5050 6850 5000
Wire Wire Line
	5950 4850 5400 4850
Wire Wire Line
	5750 4950 5400 4950
Wire Wire Line
	5550 5050 5400 5050
$Comp
L R_Small R401
U 1 1 58301141
P 5550 5250
F 0 "R401" H 5580 5270 50  0000 L CNN
F 1 "R_Small" H 5580 5210 50  0000 L CNN
F 2 "Resistors_SMD:R_0402" H 5550 5250 50  0001 C CNN
F 3 "" H 5550 5250 50  0000 C CNN
	1    5550 5250
	1    0    0    -1  
$EndComp
$Comp
L R_Small R403
U 1 1 58301148
P 5750 5250
F 0 "R403" H 5780 5270 50  0000 L CNN
F 1 "R_Small" H 5780 5210 50  0000 L CNN
F 2 "Resistors_SMD:R_0402" H 5750 5250 50  0001 C CNN
F 3 "" H 5750 5250 50  0000 C CNN
	1    5750 5250
	1    0    0    -1  
$EndComp
$Comp
L R_Small R405
U 1 1 5830114F
P 5950 5250
F 0 "R405" H 5980 5270 50  0000 L CNN
F 1 "R_Small" H 5980 5210 50  0000 L CNN
F 2 "Resistors_SMD:R_0402" H 5950 5250 50  0001 C CNN
F 3 "" H 5950 5250 50  0000 C CNN
	1    5950 5250
	1    0    0    -1  
$EndComp
Wire Wire Line
	5550 5400 5550 5350
Wire Wire Line
	5750 5400 5750 5350
Wire Wire Line
	5950 5400 5950 5350
Wire Wire Line
	5550 5150 5550 5050
Wire Wire Line
	5750 5150 5750 4950
Wire Wire Line
	5950 5150 5950 4850
Wire Wire Line
	7350 5600 7350 5350
Wire Wire Line
	6450 5600 7350 5600
Wire Wire Line
	6850 5600 6850 5450
Wire Wire Line
	6650 5600 6650 5450
Connection ~ 6850 5600
Wire Wire Line
	6450 5900 6450 5450
Connection ~ 6650 5600
Wire Wire Line
	5550 5900 6450 5900
Wire Wire Line
	5950 5900 5950 5800
Connection ~ 6450 5600
Wire Wire Line
	5750 5900 5750 5800
Connection ~ 5950 5900
Wire Wire Line
	5550 5900 5550 5800
Connection ~ 5750 5900
Wire Wire Line
	5850 2600 5850 2850
Wire Wire Line
	5650 2850 5650 2750
Wire Wire Line
	5650 2750 6550 2750
Connection ~ 5850 2750
Wire Wire Line
	6050 2750 6050 2850
Wire Wire Line
	6550 2750 6550 3250
Connection ~ 6050 2750
Wire Wire Line
	6350 3250 6350 3100
Wire Wire Line
	6350 3100 7250 3100
Connection ~ 6550 3100
Wire Wire Line
	6750 3100 6750 3250
Wire Wire Line
	7250 3100 7250 3650
Connection ~ 6750 3100
Wire Wire Line
	7050 3500 7450 3500
Wire Wire Line
	7450 3500 7450 3650
Connection ~ 7250 3500
Wire Wire Line
	7050 3500 7050 3650
Text HLabel 3900 3850 0    60   Input ~ 0
SCL
Text HLabel 3900 3950 0    60   Input ~ 0
SDA
Text HLabel 3800 4850 0    60   Input ~ 0
LEDs_OE
$Comp
L C C401
U 1 1 58301476
P 2600 4300
F 0 "C401" H 2625 4400 50  0000 L CNN
F 1 "0.1u" H 2625 4200 50  0000 L CNN
F 2 "Capacitors_SMD:C_0402" H 2638 4150 50  0001 C CNN
F 3 "" H 2600 4300 50  0000 C CNN
	1    2600 4300
	1    0    0    -1  
$EndComp
$Comp
L GND #PWR044
U 1 1 58301518
P 2600 4500
F 0 "#PWR044" H 2600 4250 50  0001 C CNN
F 1 "GND" H 2600 4350 50  0000 C CNN
F 2 "" H 2600 4500 50  0000 C CNN
F 3 "" H 2600 4500 50  0000 C CNN
	1    2600 4500
	1    0    0    -1  
$EndComp
Wire Wire Line
	2600 4500 2600 4450
Wire Wire Line
	2600 4150 2600 4100
Wire Wire Line
	5400 4150 6350 4150
Wire Wire Line
	6750 3950 6750 3900
Wire Wire Line
	5400 3950 6750 3950
Wire Wire Line
	6350 4150 6350 3900
Wire Wire Line
	5850 3500 5850 3750
Wire Wire Line
	5850 3750 5400 3750
Wire Wire Line
	5400 3650 6050 3650
Wire Wire Line
	6050 3650 6050 3500
Wire Wire Line
	5650 3500 5650 3850
Wire Wire Line
	5650 3850 5400 3850
$Comp
L +5VL #PWR045
U 1 1 58333D56
P 5850 2600
F 0 "#PWR045" H 5850 2450 50  0001 C CNN
F 1 "+5VL" H 5850 2740 50  0000 C CNN
F 2 "" H 5850 2600 50  0000 C CNN
F 3 "" H 5850 2600 50  0000 C CNN
	1    5850 2600
	1    0    0    -1  
$EndComp
$Comp
L +5VL #PWR046
U 1 1 583340B7
P 7350 5350
F 0 "#PWR046" H 7350 5200 50  0001 C CNN
F 1 "+5VL" H 7350 5490 50  0000 C CNN
F 2 "" H 7350 5350 50  0000 C CNN
F 3 "" H 7350 5350 50  0000 C CNN
	1    7350 5350
	1    0    0    -1  
$EndComp
$Comp
L +3V3 #PWR047
U 1 1 583498A8
P 3750 3500
F 0 "#PWR047" H 3750 3350 50  0001 C CNN
F 1 "+3V3" H 3750 3640 50  0000 C CNN
F 2 "" H 3750 3500 50  0000 C CNN
F 3 "" H 3750 3500 50  0000 C CNN
	1    3750 3500
	1    0    0    -1  
$EndComp
$Comp
L +3V3 #PWR048
U 1 1 58349A31
P 2600 4100
F 0 "#PWR048" H 2600 3950 50  0001 C CNN
F 1 "+3V3" H 2600 4240 50  0000 C CNN
F 2 "" H 2600 4100 50  0000 C CNN
F 3 "" H 2600 4100 50  0000 C CNN
	1    2600 4100
	1    0    0    -1  
$EndComp
$EndSCHEMATC
