EESchema Schematic File Version 2
LIBS:canradiojack-rescue
LIBS:power
LIBS:device
LIBS:transistors
LIBS:conn
LIBS:linear
LIBS:regul
LIBS:74xx
LIBS:cmos4000
LIBS:adc-dac
LIBS:memory
LIBS:xilinx
LIBS:microcontrollers
LIBS:dsp
LIBS:microchip
LIBS:analog_switches
LIBS:motorola
LIBS:texas
LIBS:intel
LIBS:audio
LIBS:interface
LIBS:digital-audio
LIBS:philips
LIBS:display
LIBS:cypress
LIBS:siliconi
LIBS:opto
LIBS:atmel
LIBS:contrib
LIBS:valves
LIBS:crap
LIBS:canradiojack-cache
EELAYER 25 0
EELAYER END
$Descr A4 11693 8268
encoding utf-8
Sheet 3 5
Title ""
Date ""
Rev ""
Comp ""
Comment1 ""
Comment2 ""
Comment3 ""
Comment4 ""
$EndDescr
$Comp
L GND #PWR022
U 1 1 582F2233
P 4200 6050
F 0 "#PWR022" H 4200 6050 30  0001 C CNN
F 1 "GND" H 4200 5980 30  0001 C CNN
F 2 "" H 4200 6050 60  0000 C CNN
F 3 "" H 4200 6050 60  0000 C CNN
	1    4200 6050
	1    0    0    -1  
$EndComp
NoConn ~ 4300 4350
$Comp
L +3.3V #PWR023
U 1 1 582F223B
P 3750 2500
F 0 "#PWR023" H 3750 2460 30  0001 C CNN
F 1 "+3.3V" H 3750 2610 30  0000 C CNN
F 2 "" H 3750 2500 60  0000 C CNN
F 3 "" H 3750 2500 60  0000 C CNN
	1    3750 2500
	1    0    0    -1  
$EndComp
$Comp
L GND #PWR024
U 1 1 582F2255
P 4200 5050
F 0 "#PWR024" H 4200 5050 30  0001 C CNN
F 1 "GND" H 4200 4980 30  0001 C CNN
F 2 "" H 4200 5050 60  0000 C CNN
F 3 "" H 4200 5050 60  0000 C CNN
	1    4200 5050
	1    0    0    -1  
$EndComp
Text Notes 4100 5000 2    60   ~ 0
FLASH BOOT
Wire Wire Line
	4200 5650 4300 5650
Connection ~ 4200 5650
Wire Wire Line
	4200 5450 4300 5450
Connection ~ 4200 5450
Wire Wire Line
	4300 5350 4200 5350
Wire Wire Line
	3750 2500 3750 3250
Wire Wire Line
	3750 2850 4300 2850
Connection ~ 3750 2850
Wire Wire Line
	3750 2950 4300 2950
Connection ~ 3750 2950
Wire Wire Line
	3750 3050 4300 3050
Connection ~ 3750 3050
Wire Wire Line
	6200 3850 6650 3850
Wire Wire Line
	6200 3950 6650 3950
Wire Wire Line
	6200 4050 6650 4050
Wire Wire Line
	6200 4550 6650 4550
Wire Wire Line
	6200 4650 6650 4650
Wire Wire Line
	6200 4750 6650 4750
Wire Wire Line
	6200 2550 6650 2550
Wire Wire Line
	6200 2750 6650 2750
Wire Wire Line
	6200 2650 6650 2650
Wire Wire Line
	6200 5350 6650 5350
Wire Wire Line
	6200 2850 6300 2850
Wire Wire Line
	6200 5250 6650 5250
Wire Wire Line
	4300 4950 4200 4950
Wire Wire Line
	4200 4950 4200 5050
Wire Wire Line
	9200 2850 9100 2850
Wire Wire Line
	9100 2850 9100 2950
Wire Wire Line
	9200 2350 9100 2350
Wire Wire Line
	9100 2350 9100 2250
Wire Wire Line
	10450 2700 10550 2700
Wire Wire Line
	10550 2700 10550 2800
$Comp
L GND #PWR025
U 1 1 582F2295
P 9100 2950
F 0 "#PWR025" H 9100 2950 30  0001 C CNN
F 1 "GND" H 9100 2880 30  0001 C CNN
F 2 "" H 9100 2950 60  0000 C CNN
F 3 "" H 9100 2950 60  0000 C CNN
	1    9100 2950
	1    0    0    -1  
$EndComp
$Comp
L GND #PWR026
U 1 1 582F229B
P 10550 2800
F 0 "#PWR026" H 10550 2800 30  0001 C CNN
F 1 "GND" H 10550 2730 30  0001 C CNN
F 2 "" H 10550 2800 60  0000 C CNN
F 3 "" H 10550 2800 60  0000 C CNN
	1    10550 2800
	1    0    0    -1  
$EndComp
$Comp
L +3.3V #PWR027
U 1 1 582F22A1
P 9100 2250
F 0 "#PWR027" H 9100 2210 30  0001 C CNN
F 1 "+3.3V" H 9100 2360 30  0000 C CNN
F 2 "" H 9100 2250 60  0000 C CNN
F 3 "" H 9100 2250 60  0000 C CNN
	1    9100 2250
	1    0    0    -1  
$EndComp
Wire Wire Line
	10450 2450 10650 2450
Wire Wire Line
	10450 2550 10650 2550
$Comp
L C C304
U 1 1 582F22B1
P 1900 2200
F 0 "C304" H 1900 2300 40  0000 L CNN
F 1 "4.7u" H 1906 2115 40  0000 L CNN
F 2 "Capacitors_SMD:C_0805" H 1938 2050 30  0000 C CNN
F 3 "~" H 1900 2200 60  0000 C CNN
	1    1900 2200
	1    0    0    -1  
$EndComp
$Comp
L C C303
U 1 1 582F22B8
P 1550 2200
F 0 "C303" H 1550 2300 40  0000 L CNN
F 1 "100n" H 1556 2115 40  0000 L CNN
F 2 "Capacitors_SMD:C_0402" H 1588 2050 30  0000 C CNN
F 3 "~" H 1550 2200 60  0000 C CNN
	1    1550 2200
	1    0    0    -1  
$EndComp
$Comp
L C C302
U 1 1 582F22BF
P 1350 2200
F 0 "C302" H 1350 2300 40  0000 L CNN
F 1 "100n" H 1356 2115 40  0000 L CNN
F 2 "Capacitors_SMD:C_0402" H 1388 2050 30  0000 C CNN
F 3 "~" H 1350 2200 60  0000 C CNN
	1    1350 2200
	1    0    0    -1  
$EndComp
$Comp
L C C301
U 1 1 582F22C6
P 1150 2200
F 0 "C301" H 1150 2300 40  0000 L CNN
F 1 "100n" H 1156 2115 40  0000 L CNN
F 2 "Capacitors_SMD:C_0402" H 1188 2050 30  0000 C CNN
F 3 "~" H 1150 2200 60  0000 C CNN
	1    1150 2200
	1    0    0    -1  
$EndComp
Wire Wire Line
	1150 2050 1150 2000
Wire Wire Line
	1550 2050 1550 2000
Wire Wire Line
	1350 1900 1350 2050
Connection ~ 1350 2000
Wire Wire Line
	1150 2350 1150 2400
Wire Wire Line
	1550 2350 1550 2400
Wire Wire Line
	1350 2350 1350 2500
Connection ~ 1350 2400
$Comp
L GND #PWR028
U 1 1 582F22D5
P 1350 2500
F 0 "#PWR028" H 1350 2500 30  0001 C CNN
F 1 "GND" H 1350 2430 30  0001 C CNN
F 2 "" H 1350 2500 60  0000 C CNN
F 3 "" H 1350 2500 60  0000 C CNN
	1    1350 2500
	1    0    0    -1  
$EndComp
$Comp
L +3.3V #PWR029
U 1 1 582F22DB
P 1350 1900
F 0 "#PWR029" H 1350 1860 30  0001 C CNN
F 1 "+3.3V" H 1350 2010 30  0000 C CNN
F 2 "" H 1350 1900 60  0000 C CNN
F 3 "" H 1350 1900 60  0000 C CNN
	1    1350 1900
	1    0    0    -1  
$EndComp
Wire Wire Line
	4200 6000 5250 6000
Wire Wire Line
	5250 6000 5250 5950
Connection ~ 4200 6000
Wire Wire Line
	4200 5250 4200 6050
Wire Wire Line
	4200 5250 4300 5250
Connection ~ 4200 5350
Wire Wire Line
	3750 3250 4300 3250
Text Notes 6300 3500 0    60   ~ 0
USART1
Text Notes 6500 3750 0    60   ~ 0
CAN
Text Notes 7000 4700 0    60   ~ 0
SPI1(REMAP)\n
Text Notes 7100 2800 0    60   ~ 0
TIM2
Wire Notes Line
	7050 2650 7050 2850
Wire Notes Line
	7000 2650 7050 2650
Wire Notes Line
	7050 2850 7000 2850
Text Notes 6950 2550 0    40   ~ 0
EXTI_0
Wire Wire Line
	6200 2950 6650 2950
NoConn ~ 4300 3950
Wire Wire Line
	4300 2650 3750 2650
Connection ~ 3750 2650
Text Notes 1400 1950 0    40   ~ 0
VDD_X
Wire Wire Line
	2350 2350 2350 2500
Wire Wire Line
	2350 2050 2350 1900
$Comp
L GND #PWR030
U 1 1 582F2347
P 2350 2500
F 0 "#PWR030" H 2350 2500 30  0001 C CNN
F 1 "GND" H 2350 2430 30  0001 C CNN
F 2 "" H 2350 2500 60  0000 C CNN
F 3 "" H 2350 2500 60  0000 C CNN
	1    2350 2500
	1    0    0    -1  
$EndComp
$Comp
L +3.3V #PWR031
U 1 1 582F234D
P 2350 1900
F 0 "#PWR031" H 2350 1860 30  0001 C CNN
F 1 "+3.3V" H 2350 2010 30  0000 C CNN
F 2 "" H 2350 1900 60  0000 C CNN
F 3 "" H 2350 1900 60  0000 C CNN
	1    2350 1900
	1    0    0    -1  
$EndComp
Text Notes 2400 1950 0    40   ~ 0
VDDA
$Comp
L SN65HVD234 U302
U 1 1 582F237F
P 9750 2550
F 0 "U302" H 10300 2150 60  0000 C CNN
F 1 "SN65HVD234" H 9600 2900 60  0000 C CNN
F 2 "lib:SOIC-8_N" H 9700 2150 60  0000 C CNN
F 3 "~" H 9700 2150 60  0000 C CNN
	1    9750 2550
	1    0    0    -1  
$EndComp
Text Label 6300 3650 0    40   ~ 0
CANRX
Text Label 6300 3750 0    40   ~ 0
CANTX
Wire Wire Line
	6200 3650 6300 3650
Wire Wire Line
	6200 3750 6300 3750
Wire Wire Line
	9200 2500 9000 2500
Wire Wire Line
	9200 2600 9000 2600
Text Label 9000 2600 2    40   ~ 0
CANRX
Text Label 9000 2500 2    40   ~ 0
CANTX
Wire Wire Line
	9200 2750 8650 2750
$Comp
L R R305
U 1 1 582F238F
P 8650 2500
F 0 "R305" V 8730 2500 40  0000 C CNN
F 1 "R" V 8657 2501 40  0000 C CNN
F 2 "Resistors_SMD:R_0402" V 8580 2500 30  0000 C CNN
F 3 "~" H 8650 2500 30  0000 C CNN
	1    8650 2500
	1    0    0    -1  
$EndComp
Wire Wire Line
	8650 2100 8650 2350
$Comp
L +3.3V #PWR032
U 1 1 582F2397
P 8650 2100
F 0 "#PWR032" H 8650 2060 30  0001 C CNN
F 1 "+3.3V" H 8650 2210 30  0000 C CNN
F 2 "" H 8650 2100 60  0000 C CNN
F 3 "" H 8650 2100 60  0000 C CNN
	1    8650 2100
	1    0    0    -1  
$EndComp
$Comp
L C C307
U 1 1 582F239D
P 9850 1550
F 0 "C307" H 9850 1650 40  0000 L CNN
F 1 "100n" H 9856 1465 40  0000 L CNN
F 2 "Capacitors_SMD:C_0402" H 9888 1400 30  0000 C CNN
F 3 "~" H 9850 1550 60  0000 C CNN
	1    9850 1550
	1    0    0    -1  
$EndComp
Wire Wire Line
	9850 1700 9850 1900
Wire Wire Line
	9850 1200 9850 1400
$Comp
L GND #PWR033
U 1 1 582F23A6
P 9850 1900
F 0 "#PWR033" H 9850 1900 30  0001 C CNN
F 1 "GND" H 9850 1830 30  0001 C CNN
F 2 "" H 9850 1900 60  0000 C CNN
F 3 "" H 9850 1900 60  0000 C CNN
	1    9850 1900
	1    0    0    -1  
$EndComp
$Comp
L +3.3V #PWR034
U 1 1 582F23AC
P 9850 1200
F 0 "#PWR034" H 9850 1160 30  0001 C CNN
F 1 "+3.3V" H 9850 1310 30  0000 C CNN
F 2 "" H 9850 1200 60  0000 C CNN
F 3 "" H 9850 1200 60  0000 C CNN
	1    9850 1200
	1    0    0    -1  
$EndComp
Text Notes 9900 1300 0    40   ~ 0
CAN\n
$Comp
L C C305
U 1 1 582F23BB
P 2350 2200
F 0 "C305" H 2350 2300 40  0000 L CNN
F 1 "10n" H 2356 2115 40  0000 L CNN
F 2 "Capacitors_SMD:C_0402" H 2388 2050 30  0000 C CNN
F 3 "~" H 2350 2200 60  0000 C CNN
	1    2350 2200
	1    0    0    -1  
$EndComp
$Comp
L C C306
U 1 1 582F23C2
P 2550 2200
F 0 "C306" H 2550 2300 40  0000 L CNN
F 1 "1u" H 2556 2115 40  0000 L CNN
F 2 "Capacitors_SMD:C_0805" H 2588 2050 30  0000 C CNN
F 3 "~" H 2550 2200 60  0000 C CNN
	1    2550 2200
	1    0    0    -1  
$EndComp
Wire Wire Line
	2350 2000 2550 2000
Wire Wire Line
	2550 2000 2550 2050
Connection ~ 2350 2000
Wire Wire Line
	2350 2400 2550 2400
Wire Wire Line
	2550 2400 2550 2350
Connection ~ 2350 2400
Text Notes 1950 1950 0    40   ~ 0
VDD_3\n
Wire Wire Line
	1550 2000 1150 2000
Wire Wire Line
	1550 2400 1150 2400
Wire Wire Line
	1900 2350 1900 2500
Wire Wire Line
	1900 2050 1900 1900
$Comp
L +3.3V #PWR035
U 1 1 582F23D4
P 1900 1900
F 0 "#PWR035" H 1900 1860 30  0001 C CNN
F 1 "+3.3V" H 1900 2010 30  0000 C CNN
F 2 "" H 1900 1900 60  0000 C CNN
F 3 "" H 1900 1900 60  0000 C CNN
	1    1900 1900
	1    0    0    -1  
$EndComp
$Comp
L GND #PWR036
U 1 1 582F23DA
P 1900 2500
F 0 "#PWR036" H 1900 2500 30  0001 C CNN
F 1 "GND" H 1900 2430 30  0001 C CNN
F 2 "" H 1900 2500 60  0000 C CNN
F 3 "" H 1900 2500 60  0000 C CNN
	1    1900 2500
	1    0    0    -1  
$EndComp
$Comp
L LED D301
U 1 1 582F243F
P 8250 6000
F 0 "D301" H 8250 6100 50  0000 C CNN
F 1 "LED" H 8250 5900 50  0000 C CNN
F 2 "Capacitors_SMD:C_0603" H 8250 6000 60  0000 C CNN
F 3 "~" H 8250 6000 60  0000 C CNN
	1    8250 6000
	0    -1   -1   0   
$EndComp
Wire Wire Line
	8250 5200 8250 5350
$Comp
L R R301
U 1 1 582F2447
P 8250 5500
F 0 "R301" V 8330 5500 40  0000 C CNN
F 1 "800" V 8257 5501 40  0000 C CNN
F 2 "Resistors_SMD:R_0402" V 8180 5500 30  0000 C CNN
F 3 "~" H 8250 5500 30  0000 C CNN
	1    8250 5500
	1    0    0    -1  
$EndComp
Wire Wire Line
	8250 6200 8250 6250
$Comp
L GND #PWR037
U 1 1 582F244F
P 8250 6250
F 0 "#PWR037" H 8250 6250 30  0001 C CNN
F 1 "GND" H 8250 6180 30  0001 C CNN
F 2 "" H 8250 6250 60  0000 C CNN
F 3 "" H 8250 6250 60  0000 C CNN
	1    8250 6250
	1    0    0    -1  
$EndComp
$Comp
L STM32F103CX U301
U 1 1 582F2455
P 5250 4150
F 0 "U301" H 5650 2400 60  0000 C CNN
F 1 "STM32F103CX" H 5250 5750 60  0000 C CNN
F 2 "lib:LQFP48" H 5250 4150 60  0000 C CNN
F 3 "~" H 5250 4150 60  0000 C CNN
	1    5250 4150
	1    0    0    -1  
$EndComp
Wire Wire Line
	8250 5650 8250 5800
NoConn ~ 4300 3550
NoConn ~ 4300 3850
Wire Wire Line
	8650 2750 8650 2650
Text HLabel 10650 2450 2    40   Input ~ 0
CANH
Text HLabel 10650 2550 2    40   Input ~ 0
CANL
Wire Wire Line
	4300 4650 3950 4650
$Comp
L TEST_1P W301
U 1 1 582F4091
P 3950 4650
F 0 "W301" H 3950 4920 50  0000 C CNN
F 1 "TEST_1P" H 3950 4850 50  0000 C CNN
F 2 "Connect:PINTST" H 4150 4650 50  0001 C CNN
F 3 "" H 4150 4650 50  0000 C CNN
	1    3950 4650
	1    0    0    -1  
$EndComp
Text HLabel 6650 4650 2    40   Input ~ 0
RF_MISO
Text HLabel 6650 4750 2    40   Output ~ 0
RF_MOSI
Text HLabel 6650 4550 2    40   Output ~ 0
RF_SCLK
$Comp
L LED D302
U 1 1 582F45FB
P 8550 6000
F 0 "D302" H 8550 6100 50  0000 C CNN
F 1 "LED" H 8550 5900 50  0000 C CNN
F 2 "Capacitors_SMD:C_0603" H 8550 6000 60  0000 C CNN
F 3 "~" H 8550 6000 60  0000 C CNN
	1    8550 6000
	0    -1   -1   0   
$EndComp
Wire Wire Line
	8550 5100 8550 5350
$Comp
L R R304
U 1 1 582F4602
P 8550 5500
F 0 "R304" V 8630 5500 40  0000 C CNN
F 1 "800" V 8557 5501 40  0000 C CNN
F 2 "Resistors_SMD:R_0402" V 8480 5500 30  0000 C CNN
F 3 "~" H 8550 5500 30  0000 C CNN
	1    8550 5500
	1    0    0    -1  
$EndComp
Wire Wire Line
	8550 6200 8550 6250
$Comp
L GND #PWR038
U 1 1 582F4609
P 8550 6250
F 0 "#PWR038" H 8550 6250 30  0001 C CNN
F 1 "GND" H 8550 6180 30  0001 C CNN
F 2 "" H 8550 6250 60  0000 C CNN
F 3 "" H 8550 6250 60  0000 C CNN
	1    8550 6250
	1    0    0    -1  
$EndComp
Wire Wire Line
	8550 5650 8550 5800
Text HLabel 6650 4050 2    40   Output ~ 0
~RF_SEL
Text Label 6650 3950 0    40   ~ 0
SWCLK
Text Label 6650 3850 0    40   ~ 0
SWDIO
Text Label 6650 5350 0    40   ~ 0
DBG_RX
Text Label 6650 5250 0    40   ~ 0
DBG_TX
Text HLabel 6500 5050 2    40   Output ~ 0
~RF_RST
Text HLabel 6650 2750 2    40   Input ~ 0
RF_DIG2
Text HLabel 6650 2650 2    40   Output ~ 0
RF_SLPTR
Text HLabel 6650 2550 2    40   Input ~ 0
RF_IRQ
$Comp
L GND #PWR039
U 1 1 582F1A0C
P 2350 7150
F 0 "#PWR039" H 2350 7150 30  0001 C CNN
F 1 "GND" H 2350 7080 30  0001 C CNN
F 2 "" H 2350 7150 60  0000 C CNN
F 3 "" H 2350 7150 60  0000 C CNN
	1    2350 7150
	1    0    0    -1  
$EndComp
Text Label 2350 6950 0    60   ~ 0
SWCLK
Text Label 2350 6850 0    60   ~ 0
SWDIO
Text Label 2350 6750 0    60   ~ 0
DBG_RX
Text Label 2350 6650 0    60   ~ 0
DBG_TX
Text Notes 1750 7400 0    60   ~ 0
Prog & Debug
$Comp
L JTAGCON P301
U 1 1 582F1A1D
P 1550 6800
F 0 "P301" H 2050 6450 60  0000 C CNN
F 1 "JTAGCON" H 1300 7200 60  0000 C CNN
F 2 "lib:BM06B-SRSS-TB" H 1200 7050 60  0000 C CNN
F 3 "~" H 2000 7000 60  0000 C CNN
	1    1550 6800
	1    0    0    -1  
$EndComp
$Comp
L GND #PWR040
U 1 1 582F1A24
P 950 7150
F 0 "#PWR040" H 950 7150 30  0001 C CNN
F 1 "GND" H 950 7080 30  0001 C CNN
F 2 "" H 950 7150 60  0000 C CNN
F 3 "" H 950 7150 60  0000 C CNN
	1    950  7150
	1    0    0    -1  
$EndComp
Connection ~ 950  7050
Wire Wire Line
	950  6950 1050 6950
Wire Wire Line
	950  7050 1050 7050
Wire Wire Line
	950  6950 950  7150
Wire Notes Line
	800  6200 800  7450
Wire Notes Line
	2750 6200 800  6200
Wire Notes Line
	2750 7450 2750 6200
Wire Notes Line
	800  7450 2750 7450
Wire Wire Line
	2250 6950 2350 6950
Wire Wire Line
	2350 6850 2250 6850
Wire Wire Line
	2250 6750 2350 6750
Wire Wire Line
	2350 6650 2250 6650
Wire Wire Line
	2350 6550 2250 6550
Wire Wire Line
	2350 6450 2350 6550
Wire Wire Line
	2350 7050 2350 7150
Wire Wire Line
	2250 7050 2350 7050
$Comp
L +3.3V #PWR041
U 1 1 582F7B48
P 2350 6450
F 0 "#PWR041" H 2350 6300 50  0001 C CNN
F 1 "+3.3V" H 2350 6590 50  0000 C CNN
F 2 "" H 2350 6450 50  0000 C CNN
F 3 "" H 2350 6450 50  0000 C CNN
	1    2350 6450
	1    0    0    -1  
$EndComp
Text HLabel 7750 4150 2    60   Input ~ 0
SCL
Text HLabel 7750 4250 2    60   Input ~ 0
SDA
Text HLabel 6600 5750 2    60   Input ~ 0
LEDs_OE
$Comp
L R_Small R303
U 1 1 582FD360
P 7650 3900
F 0 "R303" H 7680 3920 50  0000 L CNN
F 1 "R_Small" H 7680 3860 50  0000 L CNN
F 2 "Resistors_SMD:R_0402" H 7650 3900 50  0001 C CNN
F 3 "" H 7650 3900 50  0000 C CNN
	1    7650 3900
	1    0    0    -1  
$EndComp
$Comp
L R_Small R302
U 1 1 582FD3AC
P 7500 3900
F 0 "R302" H 7530 3920 50  0000 L CNN
F 1 "R_Small" H 7530 3860 50  0000 L CNN
F 2 "Resistors_SMD:R_0402" H 7500 3900 50  0001 C CNN
F 3 "" H 7500 3900 50  0000 C CNN
	1    7500 3900
	1    0    0    -1  
$EndComp
$Comp
L +3.3V #PWR042
U 1 1 582FD3E4
P 7650 3700
F 0 "#PWR042" H 7650 3550 50  0001 C CNN
F 1 "+3.3V" H 7650 3840 50  0000 C CNN
F 2 "" H 7650 3700 50  0000 C CNN
F 3 "" H 7650 3700 50  0000 C CNN
	1    7650 3700
	1    0    0    -1  
$EndComp
Wire Wire Line
	7650 3700 7650 3800
Wire Wire Line
	7650 3750 7500 3750
Wire Wire Line
	7500 3750 7500 3800
Connection ~ 7650 3750
Wire Wire Line
	7650 4000 7650 4150
Wire Wire Line
	7650 4150 7750 4150
Wire Wire Line
	7500 4000 7500 4250
Wire Wire Line
	7500 4250 7750 4250
Text HLabel 6500 3350 2    60   Input ~ 0
TEST_SW
Text HLabel 6600 5550 2    60   Input ~ 0
STRAT
Text HLabel 6600 5650 2    60   Input ~ 0
RESTART_SW
Text HLabel 6350 4350 2    60   Input ~ 0
JACK
Text HLabel 6600 5450 2    60   Input ~ 0
COLOR
Text Notes 6950 5300 0    60   ~ 0
USART3
Text Notes 7000 5350 0    60   ~ 0
I2C2
Text Notes 6300 2800 0    60   ~ 0
USART2
Text Notes 7250 4900 0    60   ~ 0
I2C1
Text Notes 6250 5100 0    60   ~ 0
I2C1
Text Label 8250 5200 2    60   ~ 0
LED0
Text Label 8550 5100 2    60   ~ 0
LED1
Text Notes 6850 4900 0    60   ~ 0
USART1
Text HLabel 6500 4850 2    60   Input ~ 0
SCL
Text HLabel 6500 4950 2    60   Input ~ 0
SDA
Wire Wire Line
	6500 4850 6200 4850
Wire Wire Line
	6200 4950 6500 4950
Wire Wire Line
	6600 5750 6200 5750
Text Label 6450 3050 0    60   ~ 0
LED1
Text Label 6450 3150 0    60   ~ 0
LED0
Wire Wire Line
	6450 3150 6200 3150
Wire Wire Line
	6200 3050 6450 3050
Wire Wire Line
	6600 5450 6200 5450
Wire Wire Line
	6600 5550 6200 5550
Text HLabel 6500 3450 2    60   Input ~ 0
CUSTOM_SW_1
Wire Wire Line
	6600 5650 6200 5650
Wire Wire Line
	6500 3350 6200 3350
Wire Wire Line
	6500 3450 6200 3450
Wire Wire Line
	6350 4350 6200 4350
Wire Wire Line
	6500 5050 6200 5050
$EndSCHEMATC
