EESchema Schematic File Version 2
LIBS:canradiojack-rescue
LIBS:power
LIBS:device
LIBS:transistors
LIBS:conn
LIBS:linear
LIBS:regul
LIBS:74xx
LIBS:cmos4000
LIBS:adc-dac
LIBS:memory
LIBS:xilinx
LIBS:microcontrollers
LIBS:dsp
LIBS:microchip
LIBS:analog_switches
LIBS:motorola
LIBS:texas
LIBS:intel
LIBS:audio
LIBS:interface
LIBS:digital-audio
LIBS:philips
LIBS:display
LIBS:cypress
LIBS:siliconi
LIBS:opto
LIBS:atmel
LIBS:contrib
LIBS:valves
LIBS:crap
LIBS:canradiojack-cache
EELAYER 25 0
EELAYER END
$Descr A4 11693 8268
encoding utf-8
Sheet 5 5
Title ""
Date ""
Rev ""
Comp ""
Comment1 ""
Comment2 ""
Comment3 ""
Comment4 ""
$EndDescr
$Comp
L MCP1702 U501
U 1 1 58300FB6
P 5400 3400
F 0 "U501" H 5500 2900 60  0000 C CNN
F 1 "MCP1702" H 5250 3350 60  0000 C CNN
F 2 "TO_SOT_Packages_SMD:SOT-23" H 5400 3550 60  0000 C CNN
F 3 "~" H 5400 3400 60  0000 C CNN
	1    5400 3400
	1    0    0    -1  
$EndComp
$Comp
L GND #PWR049
U 1 1 58300FBD
P 4700 3850
F 0 "#PWR049" H 4700 3850 30  0001 C CNN
F 1 "GND" H 4700 3780 30  0001 C CNN
F 2 "" H 4700 3850 60  0000 C CNN
F 3 "" H 4700 3850 60  0000 C CNN
	1    4700 3850
	1    0    0    -1  
$EndComp
Wire Wire Line
	4700 3850 4700 3750
Wire Wire Line
	4700 3750 4800 3750
$Comp
L +5V #PWR050
U 1 1 58300FC5
P 4700 3500
F 0 "#PWR050" H 4700 3590 20  0001 C CNN
F 1 "+5V" H 4700 3590 30  0000 C CNN
F 2 "" H 4700 3500 60  0000 C CNN
F 3 "" H 4700 3500 60  0000 C CNN
	1    4700 3500
	1    0    0    -1  
$EndComp
Wire Wire Line
	4700 3500 4700 3600
Wire Wire Line
	4700 3600 4800 3600
Wire Wire Line
	5950 3500 5950 3600
Wire Wire Line
	5850 3600 6050 3600
$Comp
L C C501
U 1 1 58300FCF
P 4350 3650
F 0 "C501" H 4350 3750 40  0000 L CNN
F 1 "1u" H 4356 3565 40  0000 L CNN
F 2 "Capacitors_SMD:C_0603" H 4388 3500 30  0000 C CNN
F 3 "~" H 4350 3650 60  0000 C CNN
	1    4350 3650
	1    0    0    -1  
$EndComp
$Comp
L GND #PWR051
U 1 1 58300FD6
P 4350 3850
F 0 "#PWR051" H 4350 3850 30  0001 C CNN
F 1 "GND" H 4350 3780 30  0001 C CNN
F 2 "" H 4350 3850 60  0000 C CNN
F 3 "" H 4350 3850 60  0000 C CNN
	1    4350 3850
	1    0    0    -1  
$EndComp
Wire Wire Line
	4350 3850 4350 3800
$Comp
L +5V #PWR052
U 1 1 58300FDD
P 4350 3450
F 0 "#PWR052" H 4350 3540 20  0001 C CNN
F 1 "+5V" H 4350 3540 30  0000 C CNN
F 2 "" H 4350 3450 60  0000 C CNN
F 3 "" H 4350 3450 60  0000 C CNN
	1    4350 3450
	1    0    0    -1  
$EndComp
Wire Wire Line
	4350 3450 4350 3500
$Comp
L C C502
U 1 1 58300FE4
P 6250 3650
F 0 "C502" H 6250 3750 40  0000 L CNN
F 1 "10u" H 6256 3565 40  0000 L CNN
F 2 "Capacitors_SMD:C_0805" H 6288 3500 30  0000 C CNN
F 3 "~" H 6250 3650 60  0000 C CNN
	1    6250 3650
	1    0    0    -1  
$EndComp
$Comp
L GND #PWR053
U 1 1 58300FEB
P 6250 3850
F 0 "#PWR053" H 6250 3850 30  0001 C CNN
F 1 "GND" H 6250 3780 30  0001 C CNN
F 2 "" H 6250 3850 60  0000 C CNN
F 3 "" H 6250 3850 60  0000 C CNN
	1    6250 3850
	1    0    0    -1  
$EndComp
Wire Wire Line
	6250 3850 6250 3800
Wire Wire Line
	6250 3300 6250 3500
$Comp
L LED D501
U 1 1 58300FF3
P 6650 3600
F 0 "D501" H 6650 3700 50  0000 C CNN
F 1 "LED" H 6650 3500 50  0000 C CNN
F 2 "Capacitors_SMD:C_0603" H 6650 3600 60  0000 C CNN
F 3 "~" H 6650 3600 60  0000 C CNN
	1    6650 3600
	0    -1   -1   0   
$EndComp
$Comp
L R R501
U 1 1 58300FFA
P 6650 4000
F 0 "R501" V 6730 4000 40  0000 C CNN
F 1 "1k" V 6657 4001 40  0000 C CNN
F 2 "Resistors_SMD:R_0402" V 6580 4000 30  0000 C CNN
F 3 "~" H 6650 4000 30  0000 C CNN
	1    6650 4000
	1    0    0    -1  
$EndComp
$Comp
L GND #PWR054
U 1 1 58301001
P 6650 4250
F 0 "#PWR054" H 6650 4250 30  0001 C CNN
F 1 "GND" H 6650 4180 30  0001 C CNN
F 2 "" H 6650 4250 60  0000 C CNN
F 3 "" H 6650 4250 60  0000 C CNN
	1    6650 4250
	1    0    0    -1  
$EndComp
Wire Wire Line
	6650 4250 6650 4150
Wire Wire Line
	6650 3850 6650 3800
Wire Wire Line
	6650 3300 6650 3400
Text Notes 5100 4300 0    60   ~ 0
3.3V output
Wire Wire Line
	6050 3600 6050 3300
Connection ~ 5950 3600
Wire Wire Line
	6050 3300 6650 3300
Connection ~ 6250 3300
$Comp
L +3.3V #PWR055
U 1 1 5830100F
P 5950 3500
F 0 "#PWR055" H 5950 3350 50  0001 C CNN
F 1 "+3.3V" H 5950 3640 50  0000 C CNN
F 2 "" H 5950 3500 50  0000 C CNN
F 3 "" H 5950 3500 50  0000 C CNN
	1    5950 3500
	1    0    0    -1  
$EndComp
$EndSCHEMATC
