EESchema Schematic File Version 2
LIBS:canradiojack-rescue
LIBS:power
LIBS:device
LIBS:transistors
LIBS:conn
LIBS:linear
LIBS:regul
LIBS:74xx
LIBS:cmos4000
LIBS:adc-dac
LIBS:memory
LIBS:xilinx
LIBS:microcontrollers
LIBS:dsp
LIBS:microchip
LIBS:analog_switches
LIBS:motorola
LIBS:texas
LIBS:intel
LIBS:audio
LIBS:interface
LIBS:digital-audio
LIBS:philips
LIBS:display
LIBS:cypress
LIBS:siliconi
LIBS:opto
LIBS:atmel
LIBS:contrib
LIBS:valves
LIBS:crap
LIBS:canradiojack-cache
EELAYER 25 0
EELAYER END
$Descr A4 11693 8268
encoding utf-8
Sheet 2 5
Title ""
Date ""
Rev ""
Comp ""
Comment1 ""
Comment2 ""
Comment3 ""
Comment4 ""
$EndDescr
$Comp
L AT86RF233 U201
U 1 1 582F1A79
P 4450 3850
F 0 "U201" H 4450 3950 60  0000 C CNN
F 1 "AT86RF233" H 4450 3850 60  0000 C CNN
F 2 "lib:CRAP-QFN32" H 4450 3750 60  0000 C CNN
F 3 "" H 4450 3850 60  0000 C CNN
	1    4450 3850
	1    0    0    -1  
$EndComp
$Comp
L C C203
U 1 1 582F1A80
P 4550 2650
F 0 "C203" H 4550 2750 40  0000 L CNN
F 1 "1u" H 4556 2565 40  0000 L CNN
F 2 "Capacitors_SMD:C_0603" H 4588 2500 30  0000 C CNN
F 3 "~" H 4550 2650 60  0000 C CNN
	1    4550 2650
	1    0    0    -1  
$EndComp
$Comp
L C C202
U 1 1 582F1A87
P 4350 2650
F 0 "C202" H 4350 2750 40  0000 L CNN
F 1 "1u" H 4356 2565 40  0000 L CNN
F 2 "Capacitors_SMD:C_0603" H 4388 2500 30  0000 C CNN
F 3 "~" H 4350 2650 60  0000 C CNN
	1    4350 2650
	1    0    0    -1  
$EndComp
$Comp
L C C201
U 1 1 582F1A8E
P 3750 2650
F 0 "C201" H 3750 2750 40  0000 L CNN
F 1 "1u" H 3756 2565 40  0000 L CNN
F 2 "Capacitors_SMD:C_0603" H 3788 2500 30  0000 C CNN
F 3 "~" H 3750 2650 60  0000 C CNN
	1    3750 2650
	1    0    0    -1  
$EndComp
$Comp
L C C204
U 1 1 582F1A95
P 5150 2650
F 0 "C204" H 5150 2750 40  0000 L CNN
F 1 "1u" H 5156 2565 40  0000 L CNN
F 2 "Capacitors_SMD:C_0603" H 5188 2500 30  0000 C CNN
F 3 "~" H 5150 2650 60  0000 C CNN
	1    5150 2650
	1    0    0    -1  
$EndComp
$Comp
L GND #PWR010
U 1 1 582F1A9C
P 4350 2900
F 0 "#PWR010" H 4350 2900 30  0001 C CNN
F 1 "GND" H 4350 2830 30  0001 C CNN
F 2 "" H 4350 2900 60  0000 C CNN
F 3 "" H 4350 2900 60  0000 C CNN
	1    4350 2900
	1    0    0    -1  
$EndComp
$Comp
L GND #PWR011
U 1 1 582F1AA2
P 3750 2900
F 0 "#PWR011" H 3750 2900 30  0001 C CNN
F 1 "GND" H 3750 2830 30  0001 C CNN
F 2 "" H 3750 2900 60  0000 C CNN
F 3 "" H 3750 2900 60  0000 C CNN
	1    3750 2900
	1    0    0    -1  
$EndComp
$Comp
L GND #PWR012
U 1 1 582F1AA8
P 5150 2900
F 0 "#PWR012" H 5150 2900 30  0001 C CNN
F 1 "GND" H 5150 2830 30  0001 C CNN
F 2 "" H 5150 2900 60  0000 C CNN
F 3 "" H 5150 2900 60  0000 C CNN
	1    5150 2900
	1    0    0    -1  
$EndComp
$Comp
L GND #PWR013
U 1 1 582F1ABA
P 4550 2900
F 0 "#PWR013" H 4550 2900 30  0001 C CNN
F 1 "GND" H 4550 2830 30  0001 C CNN
F 2 "" H 4550 2900 60  0000 C CNN
F 3 "" H 4550 2900 60  0000 C CNN
	1    4550 2900
	1    0    0    -1  
$EndComp
$Comp
L GND #PWR014
U 1 1 582F1AC0
P 4350 4850
F 0 "#PWR014" H 4350 4850 30  0001 C CNN
F 1 "GND" H 4350 4780 30  0001 C CNN
F 2 "" H 4350 4850 60  0000 C CNN
F 3 "" H 4350 4850 60  0000 C CNN
	1    4350 4850
	1    0    0    -1  
$EndComp
$Comp
L 2450BM15A0015 U202
U 1 1 582F1ADA
P 7400 3900
F 0 "U202" H 8150 3400 60  0000 C CNN
F 1 "2450BM15A0015" H 7300 4250 60  0000 C CNN
F 2 "lib:2450BM15A0015" H 7400 3700 60  0000 C CNN
F 3 "~" H 7400 3700 60  0000 C CNN
	1    7400 3900
	1    0    0    1   
$EndComp
$Comp
L CRYSTAL_4 X201
U 1 1 582F1AE1
P 6000 4950
F 0 "X201" H 6000 5100 60  0000 C CNN
F 1 "16MHz_10pF" H 6000 4550 60  0000 C CNN
F 2 "lib:CX2520SB" H 6000 4800 60  0000 C CNN
F 3 "~" H 6000 4950 60  0000 C CNN
	1    6000 4950
	1    0    0    -1  
$EndComp
$Comp
L GND #PWR015
U 1 1 582F1AE8
P 8550 3850
F 0 "#PWR015" H 8550 3850 30  0001 C CNN
F 1 "GND" H 8550 3780 30  0001 C CNN
F 2 "" H 8550 3850 60  0000 C CNN
F 3 "" H 8550 3850 60  0000 C CNN
	1    8550 3850
	1    0    0    -1  
$EndComp
$Comp
L GND #PWR016
U 1 1 582F1AEE
P 5550 5500
F 0 "#PWR016" H 5550 5500 30  0001 C CNN
F 1 "GND" H 5550 5430 30  0001 C CNN
F 2 "" H 5550 5500 60  0000 C CNN
F 3 "" H 5550 5500 60  0000 C CNN
	1    5550 5500
	1    0    0    -1  
$EndComp
$Comp
L GND #PWR017
U 1 1 582F1AF4
P 6450 5500
F 0 "#PWR017" H 6450 5500 30  0001 C CNN
F 1 "GND" H 6450 5430 30  0001 C CNN
F 2 "" H 6450 5500 60  0000 C CNN
F 3 "" H 6450 5500 60  0000 C CNN
	1    6450 5500
	1    0    0    -1  
$EndComp
$Comp
L C C205
U 1 1 582F1AFA
P 5400 5150
F 0 "C205" H 5400 5250 40  0000 L CNN
F 1 "16p" H 5406 5065 40  0000 L CNN
F 2 "Capacitors_SMD:C_0402" H 5438 5000 30  0000 C CNN
F 3 "~" H 5400 5150 60  0000 C CNN
	1    5400 5150
	1    0    0    -1  
$EndComp
$Comp
L C C206
U 1 1 582F1B01
P 6600 5150
F 0 "C206" H 6600 5250 40  0000 L CNN
F 1 "16p" H 6606 5065 40  0000 L CNN
F 2 "Capacitors_SMD:C_0402" H 6638 5000 30  0000 C CNN
F 3 "~" H 6600 5150 60  0000 C CNN
	1    6600 5150
	1    0    0    -1  
$EndComp
$Comp
L GND #PWR018
U 1 1 582F1B08
P 5800 3600
F 0 "#PWR018" H 5800 3600 30  0001 C CNN
F 1 "GND" H 5800 3530 30  0001 C CNN
F 2 "" H 5800 3600 60  0000 C CNN
F 3 "" H 5800 3600 60  0000 C CNN
	1    5800 3600
	1    0    0    -1  
$EndComp
$Comp
L R R201
U 1 1 582F1B24
P 3450 4650
F 0 "R201" V 3530 4650 40  0000 C CNN
F 1 "100k" V 3457 4651 40  0000 C CNN
F 2 "Resistors_SMD:R_0402" V 3380 4650 30  0000 C CNN
F 3 "~" H 3450 4650 30  0000 C CNN
	1    3450 4650
	1    0    0    -1  
$EndComp
$Comp
L GND #PWR019
U 1 1 582F1B2B
P 3450 4950
F 0 "#PWR019" H 3450 4950 30  0001 C CNN
F 1 "GND" H 3450 4880 30  0001 C CNN
F 2 "" H 3450 4950 60  0000 C CNN
F 3 "" H 3450 4950 60  0000 C CNN
	1    3450 4950
	1    0    0    -1  
$EndComp
Wire Wire Line
	3950 2400 3950 2950
Wire Wire Line
	3950 2450 3750 2450
Wire Wire Line
	3750 2800 3750 2900
Wire Wire Line
	5150 2800 5150 2900
Wire Wire Line
	5150 2450 4950 2450
Wire Wire Line
	4950 2400 4950 2950
Wire Wire Line
	4550 2800 4550 2900
Wire Wire Line
	4350 2800 4350 2900
Wire Wire Line
	4150 2950 4150 2450
Wire Wire Line
	4150 2450 4350 2450
Wire Wire Line
	4750 2450 4550 2450
Wire Wire Line
	4750 2450 4750 2950
Wire Wire Line
	4250 2950 4250 2900
Wire Wire Line
	4250 2900 4150 2900
Connection ~ 4150 2900
Wire Wire Line
	3850 4750 3850 4800
Wire Wire Line
	3850 4800 5050 4800
Wire Wire Line
	5050 4800 5050 4750
Wire Wire Line
	4950 4750 4950 4800
Connection ~ 4950 4800
Wire Wire Line
	4850 4750 4850 4800
Connection ~ 4850 4800
Wire Wire Line
	4750 4750 4750 4800
Connection ~ 4750 4800
Wire Wire Line
	4650 4750 4650 4800
Connection ~ 4650 4800
Wire Wire Line
	4550 4750 4550 4800
Connection ~ 4550 4800
Wire Wire Line
	4450 4750 4450 4800
Connection ~ 4450 4800
Wire Wire Line
	4250 4750 4250 4800
Connection ~ 4250 4800
Wire Wire Line
	4150 4750 4150 4800
Connection ~ 4150 4800
Wire Wire Line
	4050 4750 4050 4800
Connection ~ 4050 4800
Wire Wire Line
	3950 4750 3950 4800
Connection ~ 3950 4800
Wire Wire Line
	4350 4800 4350 4850
Connection ~ 4350 4800
Wire Wire Line
	3550 3350 3450 3350
Wire Wire Line
	3550 3450 3450 3450
Wire Wire Line
	3550 3950 3450 3950
Wire Wire Line
	5350 3350 5450 3350
Wire Wire Line
	3550 4200 3450 4200
Wire Wire Line
	3550 4350 3450 4350
Wire Wire Line
	3450 3550 3550 3550
Wire Wire Line
	3450 3650 3550 3650
Wire Wire Line
	5350 3900 6800 3900
Wire Wire Line
	5350 3800 6800 3800
Wire Wire Line
	8400 3600 8550 3600
Wire Wire Line
	8550 3600 8550 3850
Wire Wire Line
	8400 3800 8550 3800
Connection ~ 8550 3800
Wire Wire Line
	8400 3700 8550 3700
Connection ~ 8550 3700
Wire Wire Line
	5350 4350 5500 4350
Wire Wire Line
	5500 4350 5500 4950
Wire Wire Line
	5350 4250 6400 4250
Wire Wire Line
	6300 5200 6450 5200
Wire Wire Line
	6450 5200 6450 5500
Wire Wire Line
	5700 5200 5550 5200
Wire Wire Line
	5550 5200 5550 5500
Wire Wire Line
	6600 5400 6450 5400
Wire Wire Line
	6600 5300 6600 5400
Connection ~ 6450 5400
Wire Wire Line
	5400 5400 5550 5400
Wire Wire Line
	5400 5300 5400 5400
Connection ~ 5550 5400
Wire Wire Line
	5400 4950 5700 4950
Wire Wire Line
	6300 4950 6600 4950
Connection ~ 5500 4950
Wire Wire Line
	6400 4250 6400 4950
Connection ~ 6400 4950
Wire Wire Line
	8400 4050 10000 4050
Wire Wire Line
	5350 3550 5800 3550
Wire Wire Line
	5800 3250 5800 3600
Wire Wire Line
	5350 3450 5800 3450
Wire Wire Line
	5350 3250 5800 3250
Connection ~ 5800 3550
Connection ~ 5800 3450
Wire Wire Line
	3450 4350 3450 4500
Wire Wire Line
	3450 4800 3450 4950
Connection ~ 4950 2450
Connection ~ 3950 2450
Wire Wire Line
	5400 5000 5400 4950
Wire Wire Line
	6600 4950 6600 5000
Wire Wire Line
	3750 2450 3750 2500
Wire Wire Line
	4550 2450 4550 2500
Wire Wire Line
	4350 2450 4350 2500
Text HLabel 3450 3350 0    40   Input ~ 0
~SEL
Text HLabel 3450 3450 0    40   Input ~ 0
SCLK
Text HLabel 3450 3550 0    40   Input ~ 0
MOSI
Text HLabel 3450 3650 0    40   Input ~ 0
MISO
Text HLabel 3450 3950 0    40   Input ~ 0
IRQ
Text HLabel 3450 4200 0    40   Input ~ 0
SLP_TR
Text HLabel 3450 4350 0    40   Input ~ 0
~RST
Text HLabel 5450 3350 2    40   Input ~ 0
DIG2
Wire Wire Line
	5150 2500 5150 2450
$Comp
L +3V3 #PWR020
U 1 1 58349342
P 3950 2400
F 0 "#PWR020" H 3950 2250 50  0001 C CNN
F 1 "+3V3" H 3950 2540 50  0000 C CNN
F 2 "" H 3950 2400 50  0000 C CNN
F 3 "" H 3950 2400 50  0000 C CNN
	1    3950 2400
	1    0    0    -1  
$EndComp
$Comp
L +3V3 #PWR021
U 1 1 583493B8
P 4950 2400
F 0 "#PWR021" H 4950 2250 50  0001 C CNN
F 1 "+3V3" H 4950 2540 50  0000 C CNN
F 2 "" H 4950 2400 50  0000 C CNN
F 3 "" H 4950 2400 50  0000 C CNN
	1    4950 2400
	1    0    0    -1  
$EndComp
$Comp
L ANTENNA_CONN A201
U 1 1 582F1B14
P 10350 4200
F 0 "A201" H 10450 4050 60  0000 C CNN
F 1 "ANTENNA_CONN" H 10400 4550 60  0000 C CNN
F 2 "craplib:ANT_MOLEX_CMS" H 10350 4200 60  0000 C CNN
F 3 "~" H 10350 4200 60  0000 C CNN
	1    10350 4200
	1    0    0    -1  
$EndComp
NoConn ~ 10000 4250
$Comp
L TEST_1P W201
U 1 1 5835B0C0
P 9300 3850
F 0 "W201" H 9300 4120 50  0000 C CNN
F 1 "TEST_1P" H 9300 4050 50  0000 C CNN
F 2 "Connect:1pin" H 9500 3850 50  0001 C CNN
F 3 "" H 9500 3850 50  0000 C CNN
	1    9300 3850
	1    0    0    -1  
$EndComp
Wire Wire Line
	9300 3850 9300 4050
Connection ~ 9300 4050
$EndSCHEMATC
