EESchema Schematic File Version 2
LIBS:cancape-rescue
LIBS:power
LIBS:device
LIBS:transistors
LIBS:conn
LIBS:linear
LIBS:regul
LIBS:74xx
LIBS:cmos4000
LIBS:adc-dac
LIBS:memory
LIBS:xilinx
LIBS:microcontrollers
LIBS:dsp
LIBS:microchip
LIBS:analog_switches
LIBS:motorola
LIBS:texas
LIBS:intel
LIBS:audio
LIBS:interface
LIBS:digital-audio
LIBS:philips
LIBS:display
LIBS:cypress
LIBS:siliconi
LIBS:opto
LIBS:atmel
LIBS:contrib
LIBS:valves
LIBS:crap
LIBS:cancape-cache
EELAYER 25 0
EELAYER END
$Descr A4 11693 8268
encoding utf-8
Sheet 1 1
Title ""
Date "4 jun 2015"
Rev ""
Comp ""
Comment1 ""
Comment2 ""
Comment3 ""
Comment4 ""
$EndDescr
$Comp
L CONN_23X2 P2
U 1 1 555CBA69
P 2000 2650
F 0 "P2" H 2000 3850 60  0000 C CNN
F 1 "CONN_23X2" V 2000 2550 50  0000 C CNN
F 2 "crap:PIN_ARRAY_23X2" H 2000 2550 60  0001 C CNN
F 3 "" H 2000 2550 60  0000 C CNN
	1    2000 2650
	1    0    0    -1  
$EndComp
$Comp
L CONN_23X2 P3
U 1 1 555CBA78
P 2000 5550
F 0 "P3" H 2000 6750 60  0000 C CNN
F 1 "CONN_23X2" V 2000 5450 50  0000 C CNN
F 2 "crap:PIN_ARRAY_23X2" H 2000 5450 60  0001 C CNN
F 3 "" H 2000 5450 60  0000 C CNN
	1    2000 5550
	1    0    0    -1  
$EndComp
Text Notes 1900 4000 0    118  ~ 0
P9
Text Notes 1900 6900 0    118  ~ 0
P8
$Comp
L GND-RESCUE-cancape #PWR01
U 1 1 555CBA8C
P 1350 1550
F 0 "#PWR01" H 1350 1550 30  0001 C CNN
F 1 "GND" H 1350 1480 30  0001 C CNN
F 2 "" H 1350 1550 60  0000 C CNN
F 3 "" H 1350 1550 60  0000 C CNN
	1    1350 1550
	0    1    1    0   
$EndComp
$Comp
L GND-RESCUE-cancape #PWR02
U 1 1 555CBAAB
P 2650 1550
F 0 "#PWR02" H 2650 1550 30  0001 C CNN
F 1 "GND" H 2650 1480 30  0001 C CNN
F 2 "" H 2650 1550 60  0000 C CNN
F 3 "" H 2650 1550 60  0000 C CNN
	1    2650 1550
	0    -1   -1   0   
$EndComp
$Comp
L +3.3V-RESCUE-cancape #PWR03
U 1 1 555CBB3D
P 1350 1650
F 0 "#PWR03" H 1350 1610 30  0001 C CNN
F 1 "+3.3V" H 1350 1760 30  0000 C CNN
F 2 "" H 1350 1650 60  0000 C CNN
F 3 "" H 1350 1650 60  0000 C CNN
	1    1350 1650
	0    -1   -1   0   
$EndComp
$Comp
L +3.3V-RESCUE-cancape #PWR04
U 1 1 555CBB54
P 2650 1650
F 0 "#PWR04" H 2650 1610 30  0001 C CNN
F 1 "+3.3V" H 2650 1760 30  0000 C CNN
F 2 "" H 2650 1650 60  0000 C CNN
F 3 "" H 2650 1650 60  0000 C CNN
	1    2650 1650
	0    1    1    0   
$EndComp
Text Label 2650 2650 0    60   ~ 0
P9.24 DCAN1_RX
Text Label 2650 2750 0    60   ~ 0
P9.26 DCAN1_TX
$Comp
L +5VP #PWR07
U 1 1 555CBCA2
P 2850 1750
F 0 "#PWR07" H 2850 1840 20  0001 C CNN
F 1 "+5VP" H 2850 1840 30  0000 C CNN
F 2 "" H 2850 1750 60  0000 C CNN
F 3 "" H 2850 1750 60  0000 C CNN
	1    2850 1750
	0    1    1    0   
$EndComp
$Comp
L +5VP #PWR08
U 1 1 555CBCBC
P 1100 1750
F 0 "#PWR08" H 1100 1840 20  0001 C CNN
F 1 "+5VP" H 1100 1840 30  0000 C CNN
F 2 "" H 1100 1750 60  0000 C CNN
F 3 "" H 1100 1750 60  0000 C CNN
	1    1100 1750
	0    -1   -1   0   
$EndComp
Text Notes 600  1150 0    60   ~ 0
POWER\n======\n\nUse +3.3V for signal levels\nUse +5V for cape powering\nUse +5VP for powering the BBB from the cape
Text Label 1350 2050 2    60   ~ 0
P9.11 UART4_RX
Text Label 1350 2150 2    60   ~ 0
P9.13 UART4_TX
$Comp
L ISO1050DUB U1
U 1 1 555CBF82
P 6200 2400
F 0 "U1" H 6650 2050 60  0000 C CNN
F 1 "ISO1050DUB" H 6000 2700 60  0000 C CNN
F 2 "crap:R-PDSO-G8" H 6200 2400 60  0001 C CNN
F 3 "" H 6200 2400 60  0000 C CNN
	1    6200 2400
	1    0    0    -1  
$EndComp
Text Label 5350 2350 2    60   ~ 0
P9.24 DCAN1_RX
Text Label 5350 2450 2    60   ~ 0
P9.26 DCAN1_TX
$Comp
L GND-RESCUE-cancape #PWR09
U 1 1 555CBFBE
P 5450 2650
F 0 "#PWR09" H 5450 2650 30  0001 C CNN
F 1 "GND" H 5450 2580 30  0001 C CNN
F 2 "" H 5450 2650 60  0000 C CNN
F 3 "" H 5450 2650 60  0000 C CNN
	1    5450 2650
	1    0    0    -1  
$EndComp
$Comp
L +3.3V-RESCUE-cancape #PWR010
U 1 1 555CBFD7
P 5450 2150
F 0 "#PWR010" H 5450 2110 30  0001 C CNN
F 1 "+3.3V" H 5450 2260 30  0000 C CNN
F 2 "" H 5450 2150 60  0000 C CNN
F 3 "" H 5450 2150 60  0000 C CNN
	1    5450 2150
	1    0    0    -1  
$EndComp
Text Label 6900 2450 0    60   ~ 0
CANL
Text Label 6900 2350 0    60   ~ 0
CANH
Wire Wire Line
	1350 1550 1600 1550
Wire Wire Line
	2650 1550 2400 1550
Wire Wire Line
	1350 1650 1600 1650
Wire Wire Line
	2400 1650 2650 1650
Wire Wire Line
	2650 2750 2400 2750
Wire Wire Line
	2650 2650 2400 2650
Wire Wire Line
	2400 1750 2850 1750
Wire Wire Line
	1100 1750 1600 1750
Wire Wire Line
	1350 2050 1600 2050
Wire Wire Line
	1350 2150 1600 2150
Wire Wire Line
	5350 2350 5550 2350
Wire Wire Line
	5350 2450 5550 2450
Wire Wire Line
	5450 2650 5450 2550
Wire Wire Line
	5450 2550 5550 2550
Wire Wire Line
	5450 2150 5450 2250
Wire Wire Line
	5450 2250 5550 2250
Wire Wire Line
	6900 2350 6800 2350
Wire Wire Line
	6800 2450 6900 2450
Wire Wire Line
	6900 2650 6900 2550
Wire Wire Line
	6900 2550 6800 2550
Wire Wire Line
	6900 2150 6900 2250
Wire Wire Line
	6900 2250 6800 2250
$Comp
L GND-RESCUE-cancape #PWR011
U 1 1 555CC060
P 6900 2650
F 0 "#PWR011" H 6900 2650 30  0001 C CNN
F 1 "GND" H 6900 2580 30  0001 C CNN
F 2 "" H 6900 2650 60  0000 C CNN
F 3 "" H 6900 2650 60  0000 C CNN
	1    6900 2650
	1    0    0    -1  
$EndComp
$Comp
L MAX3227E U2
U 1 1 555DF665
P 6150 5050
F 0 "U2" H 6150 5900 70  0000 C CNN
F 1 "MAX3227E" H 6150 4200 70  0000 C CNN
F 2 "crap:SSOP16" H 6150 5050 60  0001 C CNN
F 3 "" H 6150 5050 60  0000 C CNN
	1    6150 5050
	1    0    0    -1  
$EndComp
$Comp
L Csmall C6
U 1 1 555DF674
P 5100 4550
F 0 "C6" H 5125 4600 30  0000 L CNN
F 1 "0.1u" H 5125 4500 30  0000 L CNN
F 2 "Capacitors_SMD:C_0603_HandSoldering" H 5100 4550 60  0001 C CNN
F 3 "~" H 5100 4550 60  0000 C CNN
	1    5100 4550
	1    0    0    -1  
$EndComp
$Comp
L Csmall C9
U 1 1 555DF683
P 5100 5050
F 0 "C9" H 5125 5100 30  0000 L CNN
F 1 "0.1u" H 5125 5000 30  0000 L CNN
F 2 "Capacitors_SMD:C_0603_HandSoldering" H 5100 5050 60  0001 C CNN
F 3 "~" H 5100 5050 60  0000 C CNN
	1    5100 5050
	1    0    0    -1  
$EndComp
$Comp
L Csmall C7
U 1 1 555DF692
P 7450 4750
F 0 "C7" H 7475 4800 30  0000 L CNN
F 1 "0.1u" H 7475 4700 30  0000 L CNN
F 2 "Capacitors_SMD:C_0603_HandSoldering" H 7450 4750 60  0001 C CNN
F 3 "~" H 7450 4750 60  0000 C CNN
	1    7450 4750
	1    0    0    -1  
$EndComp
$Comp
L Csmall C8
U 1 1 555DF6A1
P 7800 4750
F 0 "C8" H 7825 4800 30  0000 L CNN
F 1 "0.1u" H 7825 4700 30  0000 L CNN
F 2 "Capacitors_SMD:C_0603_HandSoldering" H 7800 4750 60  0001 C CNN
F 3 "~" H 7800 4750 60  0000 C CNN
	1    7800 4750
	1    0    0    -1  
$EndComp
$Comp
L Csmall C5
U 1 1 555DF6B0
P 7550 4050
F 0 "C5" H 7575 4100 30  0000 L CNN
F 1 "0.1u" H 7575 4000 30  0000 L CNN
F 2 "Capacitors_SMD:C_0603_HandSoldering" H 7550 4050 60  0001 C CNN
F 3 "~" H 7550 4050 60  0000 C CNN
	1    7550 4050
	-1   0    0    1   
$EndComp
Wire Wire Line
	6950 4650 7450 4650
Wire Wire Line
	6950 4550 7800 4550
Wire Wire Line
	7800 4550 7800 4650
$Comp
L GND-RESCUE-cancape #PWR012
U 1 1 555DF726
P 7450 4950
F 0 "#PWR012" H 7450 4950 30  0001 C CNN
F 1 "GND" H 7450 4880 30  0001 C CNN
F 2 "" H 7450 4950 60  0000 C CNN
F 3 "" H 7450 4950 60  0000 C CNN
	1    7450 4950
	1    0    0    -1  
$EndComp
$Comp
L GND-RESCUE-cancape #PWR013
U 1 1 555DF735
P 7800 4950
F 0 "#PWR013" H 7800 4950 30  0001 C CNN
F 1 "GND" H 7800 4880 30  0001 C CNN
F 2 "" H 7800 4950 60  0000 C CNN
F 3 "" H 7800 4950 60  0000 C CNN
	1    7800 4950
	1    0    0    -1  
$EndComp
Wire Wire Line
	7800 4950 7800 4850
Wire Wire Line
	7450 4950 7450 4850
$Comp
L GND-RESCUE-cancape #PWR014
U 1 1 555DF7B1
P 7100 4800
F 0 "#PWR014" H 7100 4800 30  0001 C CNN
F 1 "GND" H 7100 4730 30  0001 C CNN
F 2 "" H 7100 4800 60  0000 C CNN
F 3 "" H 7100 4800 60  0000 C CNN
	1    7100 4800
	0    -1   -1   0   
$EndComp
Wire Wire Line
	7100 4800 6950 4800
Wire Wire Line
	5100 4450 5100 4350
Wire Wire Line
	5100 4350 5350 4350
Wire Wire Line
	5100 4650 5100 4750
Wire Wire Line
	5100 4750 5350 4750
Wire Wire Line
	5350 4850 5100 4850
Wire Wire Line
	5100 4850 5100 4950
Wire Wire Line
	5100 5150 5100 5250
Wire Wire Line
	5100 5250 5350 5250
$Comp
L +3.3V-RESCUE-cancape #PWR015
U 1 1 555DF928
P 7100 4250
F 0 "#PWR015" H 7100 4210 30  0001 C CNN
F 1 "+3.3V" H 7100 4360 30  0000 C CNN
F 2 "" H 7100 4250 60  0000 C CNN
F 3 "" H 7100 4250 60  0000 C CNN
	1    7100 4250
	1    0    0    -1  
$EndComp
Wire Wire Line
	7100 4250 7100 4350
Wire Wire Line
	7100 4350 6950 4350
$Comp
L +3.3V-RESCUE-cancape #PWR016
U 1 1 555DF96F
P 5150 5750
F 0 "#PWR016" H 5150 5710 30  0001 C CNN
F 1 "+3.3V" H 5150 5860 30  0000 C CNN
F 2 "" H 5150 5750 60  0000 C CNN
F 3 "" H 5150 5750 60  0000 C CNN
	1    5150 5750
	0    -1   -1   0   
$EndComp
Wire Wire Line
	5150 5750 5350 5750
Wire Wire Line
	7100 5750 6950 5750
NoConn ~ 6950 5200
NoConn ~ 6950 5100
Text Label 5350 5550 2    60   ~ 0
P9.11 UART4_RX
Text Label 5350 5450 2    60   ~ 0
P9.13 UART4_TX
Text Label 6950 5450 0    60   ~ 0
RS232_TX
Text Label 6950 5550 0    60   ~ 0
RS232_RX
$Comp
L CONN_4 P4
U 1 1 555DFA0F
P 8650 5550
F 0 "P4" V 8600 5550 50  0000 C CNN
F 1 "CONN_4" V 8700 5550 50  0000 C CNN
F 2 "Connect:bornier4" H 8650 5550 60  0001 C CNN
F 3 "" H 8650 5550 60  0000 C CNN
	1    8650 5550
	1    0    0    1   
$EndComp
$Comp
L GND-RESCUE-cancape #PWR018
U 1 1 555DFA23
P 8200 5800
F 0 "#PWR018" H 8200 5800 30  0001 C CNN
F 1 "GND" H 8200 5730 30  0001 C CNN
F 2 "" H 8200 5800 60  0000 C CNN
F 3 "" H 8200 5800 60  0000 C CNN
	1    8200 5800
	1    0    0    -1  
$EndComp
Wire Wire Line
	8200 5800 8200 5700
Wire Wire Line
	8200 5700 8300 5700
Wire Wire Line
	8300 5400 8200 5400
Wire Wire Line
	8200 5400 8200 5300
Text Label 8200 5600 2    60   ~ 0
RS232_RX
Text Label 8200 5500 2    60   ~ 0
RS232_TX
Wire Wire Line
	8300 5500 8200 5500
Wire Wire Line
	8200 5600 8300 5600
$Comp
L GND-RESCUE-cancape #PWR019
U 1 1 555EF5B5
P 7550 4200
F 0 "#PWR019" H 7550 4200 30  0001 C CNN
F 1 "GND" H 7550 4130 30  0001 C CNN
F 2 "" H 7550 4200 60  0000 C CNN
F 3 "" H 7550 4200 60  0000 C CNN
	1    7550 4200
	1    0    0    -1  
$EndComp
Wire Wire Line
	7550 4200 7550 4150
$Comp
L +3.3V-RESCUE-cancape #PWR020
U 1 1 555EF606
P 7550 3900
F 0 "#PWR020" H 7550 3860 30  0001 C CNN
F 1 "+3.3V" H 7550 4010 30  0000 C CNN
F 2 "" H 7550 3900 60  0000 C CNN
F 3 "" H 7550 3900 60  0000 C CNN
	1    7550 3900
	1    0    0    -1  
$EndComp
Wire Wire Line
	7550 3900 7550 3950
$Comp
L Csmall C10
U 1 1 555EF76A
P 7750 4050
F 0 "C10" H 7775 4100 30  0000 L CNN
F 1 "1u" H 7775 4000 30  0000 L CNN
F 2 "Capacitors_SMD:C_0805_HandSoldering" H 7750 4050 60  0001 C CNN
F 3 "~" H 7750 4050 60  0000 C CNN
	1    7750 4050
	-1   0    0    1   
$EndComp
$Comp
L GND-RESCUE-cancape #PWR021
U 1 1 555EF770
P 7750 4200
F 0 "#PWR021" H 7750 4200 30  0001 C CNN
F 1 "GND" H 7750 4130 30  0001 C CNN
F 2 "" H 7750 4200 60  0000 C CNN
F 3 "" H 7750 4200 60  0000 C CNN
	1    7750 4200
	1    0    0    -1  
$EndComp
Wire Wire Line
	7750 4200 7750 4150
$Comp
L +3.3V-RESCUE-cancape #PWR022
U 1 1 555EF777
P 7750 3900
F 0 "#PWR022" H 7750 3860 30  0001 C CNN
F 1 "+3.3V" H 7750 4010 30  0000 C CNN
F 2 "" H 7750 3900 60  0000 C CNN
F 3 "" H 7750 3900 60  0000 C CNN
	1    7750 3900
	1    0    0    -1  
$EndComp
Wire Wire Line
	7750 3900 7750 3950
Text Label 9350 2500 2    60   ~ 0
CANL
Text Label 9350 2400 2    60   ~ 0
CANH
Wire Wire Line
	9350 2600 9350 2800
Wire Wire Line
	9350 2700 9450 2700
Wire Wire Line
	9350 2400 9450 2400
Wire Wire Line
	9350 2500 9450 2500
Wire Wire Line
	9350 2100 9350 2300
Wire Wire Line
	9350 2200 9450 2200
$Comp
L GND-RESCUE-cancape #PWR023
U 1 1 556806AE
P 9350 2800
F 0 "#PWR023" H 9350 2800 30  0001 C CNN
F 1 "GND" H 9350 2730 30  0001 C CNN
F 2 "" H 9350 2800 60  0000 C CNN
F 3 "" H 9350 2800 60  0000 C CNN
	1    9350 2800
	1    0    0    -1  
$EndComp
Wire Wire Line
	9350 2600 9450 2600
Connection ~ 9350 2700
Wire Wire Line
	9350 2300 9450 2300
Connection ~ 9350 2200
$Comp
L C-RESCUE-cancape C101
U 1 1 55680899
P 9250 4100
F 0 "C101" H 9250 4200 40  0000 L CNN
F 1 "10u" H 9256 4015 40  0000 L CNN
F 2 "Capacitors_SMD:C_0805_HandSoldering" H 9288 3950 30  0001 C CNN
F 3 "~" H 9250 4100 60  0000 C CNN
	1    9250 4100
	1    0    0    -1  
$EndComp
$Comp
L C-RESCUE-cancape C102
U 1 1 556808A8
P 9550 4100
F 0 "C102" H 9550 4200 40  0000 L CNN
F 1 "10u" H 9556 4015 40  0000 L CNN
F 2 "Capacitors_SMD:C_0805_HandSoldering" H 9588 3950 30  0001 C CNN
F 3 "~" H 9550 4100 60  0000 C CNN
	1    9550 4100
	1    0    0    -1  
$EndComp
$Comp
L +5VP #PWR024
U 1 1 556808B5
P 3600 1350
F 0 "#PWR024" H 3600 1440 20  0001 C CNN
F 1 "+5VP" H 3600 1440 30  0000 C CNN
F 2 "" H 3600 1350 60  0000 C CNN
F 3 "" H 3600 1350 60  0000 C CNN
	1    3600 1350
	1    0    0    -1  
$EndComp
$Comp
L GND-RESCUE-cancape #PWR025
U 1 1 556808C5
P 9400 4400
F 0 "#PWR025" H 9400 4400 30  0001 C CNN
F 1 "GND" H 9400 4330 30  0001 C CNN
F 2 "" H 9400 4400 60  0000 C CNN
F 3 "" H 9400 4400 60  0000 C CNN
	1    9400 4400
	1    0    0    -1  
$EndComp
Wire Wire Line
	9400 4400 9400 4350
Wire Wire Line
	9250 4350 10450 4350
Wire Wire Line
	9250 4350 9250 4300
Wire Wire Line
	9550 4350 9550 4300
Connection ~ 9400 4350
Wire Wire Line
	9250 3900 9250 3850
Wire Wire Line
	9250 3850 10450 3850
Wire Wire Line
	9400 3850 9400 3750
Wire Wire Line
	9550 3850 9550 3900
Connection ~ 9400 3850
$Comp
L CONN_6 P101
U 1 1 556DBD44
P 9800 2450
F 0 "P101" V 9750 2450 60  0000 C CNN
F 1 "CONN_6" V 9850 2450 60  0000 C CNN
F 2 "crap:TE_MICROMATCH_SMD_FEM_6PIN" H 9800 2450 60  0001 C CNN
F 3 "" H 9800 2450 60  0000 C CNN
	1    9800 2450
	1    0    0    1   
$EndComp
$Comp
L R-RESCUE-cancape R101
U 1 1 556DBE28
P 10400 2450
F 0 "R101" V 10480 2450 40  0000 C CNN
F 1 "120" V 10407 2451 40  0000 C CNN
F 2 "Resistors_SMD:R_0603_HandSoldering" V 10330 2450 30  0001 C CNN
F 3 "~" H 10400 2450 30  0000 C CNN
	1    10400 2450
	1    0    0    -1  
$EndComp
Text Label 10500 2100 0    60   ~ 0
CANH
Text Label 10500 2800 0    60   ~ 0
CANL
Wire Wire Line
	10500 2100 10400 2100
Wire Wire Line
	10400 2100 10400 2200
Wire Wire Line
	10400 2700 10400 2800
Wire Wire Line
	10400 2800 10500 2800
Wire Wire Line
	3600 1350 3600 1450
Wire Wire Line
	3600 1450 3850 1450
$Comp
L +5VD #PWR026
U 1 1 55707C1A
P 8200 5300
F 0 "#PWR026" H 8200 5250 20  0001 C CNN
F 1 "+5VD" H 8200 5400 30  0000 C CNN
F 2 "" H 8200 5300 60  0000 C CNN
F 3 "" H 8200 5300 60  0000 C CNN
	1    8200 5300
	1    0    0    -1  
$EndComp
$Comp
L +5VD #PWR027
U 1 1 55707C27
P 9400 3750
F 0 "#PWR027" H 9400 3700 20  0001 C CNN
F 1 "+5VD" H 9400 3850 30  0000 C CNN
F 2 "" H 9400 3750 60  0000 C CNN
F 3 "" H 9400 3750 60  0000 C CNN
	1    9400 3750
	1    0    0    -1  
$EndComp
$Comp
L +5VD #PWR028
U 1 1 55707C2D
P 9350 2100
F 0 "#PWR028" H 9350 2050 20  0001 C CNN
F 1 "+5VD" H 9350 2200 30  0000 C CNN
F 2 "" H 9350 2100 60  0000 C CNN
F 3 "" H 9350 2100 60  0000 C CNN
	1    9350 2100
	1    0    0    -1  
$EndComp
$Comp
L +5VD #PWR029
U 1 1 55707C39
P 6900 2150
F 0 "#PWR029" H 6900 2100 20  0001 C CNN
F 1 "+5VD" H 6900 2250 30  0000 C CNN
F 2 "" H 6900 2150 60  0000 C CNN
F 3 "" H 6900 2150 60  0000 C CNN
	1    6900 2150
	1    0    0    -1  
$EndComp
$Comp
L +5VD #PWR030
U 1 1 55707C3F
P 3850 1350
F 0 "#PWR030" H 3850 1300 20  0001 C CNN
F 1 "+5VD" H 3850 1450 30  0000 C CNN
F 2 "" H 3850 1350 60  0000 C CNN
F 3 "" H 3850 1350 60  0000 C CNN
	1    3850 1350
	1    0    0    -1  
$EndComp
Wire Wire Line
	3850 1450 3850 1350
$Comp
L C-RESCUE-cancape C11
U 1 1 56B33CD5
P 9850 4100
F 0 "C11" H 9850 4200 40  0000 L CNN
F 1 "100u" H 9856 4015 40  0000 L CNN
F 2 "Capacitors_ThroughHole:C_Radial_D8_L11.5_P3.5" H 9888 3950 30  0001 C CNN
F 3 "~" H 9850 4100 60  0000 C CNN
	1    9850 4100
	1    0    0    -1  
$EndComp
Wire Wire Line
	9850 4350 9850 4300
Wire Wire Line
	9850 3850 9850 3900
Connection ~ 9550 3850
Connection ~ 9550 4350
$Comp
L C-RESCUE-cancape C1
U 1 1 56B353D0
P 10450 4100
F 0 "C1" H 10450 4200 40  0000 L CNN
F 1 "100u" H 10456 4015 40  0000 L CNN
F 2 "Capacitors_ThroughHole:C_Radial_D8_L11.5_P3.5" H 10488 3950 30  0001 C CNN
F 3 "~" H 10450 4100 60  0000 C CNN
	1    10450 4100
	1    0    0    -1  
$EndComp
Wire Wire Line
	10450 4350 10450 4300
Wire Wire Line
	10450 3850 10450 3900
Connection ~ 9850 3850
Connection ~ 9850 4350
$Comp
L +3.3V-RESCUE-cancape #PWR?
U 1 1 56B4AFE0
P 7100 5750
F 0 "#PWR?" H 7100 5710 30  0001 C CNN
F 1 "+3.3V" H 7100 5860 30  0000 C CNN
F 2 "" H 7100 5750 60  0000 C CNN
F 3 "" H 7100 5750 60  0000 C CNN
	1    7100 5750
	0    1    1    0   
$EndComp
$EndSCHEMATC
