EESchema Schematic File Version 2
LIBS:power
LIBS:device
LIBS:transistors
LIBS:conn
LIBS:linear
LIBS:regul
LIBS:74xx
LIBS:cmos4000
LIBS:adc-dac
LIBS:memory
LIBS:xilinx
LIBS:special
LIBS:microcontrollers
LIBS:dsp
LIBS:microchip
LIBS:analog_switches
LIBS:motorola
LIBS:texas
LIBS:intel
LIBS:audio
LIBS:interface
LIBS:digital-audio
LIBS:philips
LIBS:display
LIBS:cypress
LIBS:siliconi
LIBS:opto
LIBS:atmel
LIBS:contrib
LIBS:valves
LIBS:crap
LIBS:rfus_main-cache
EELAYER 27 0
EELAYER END
$Descr A4 11693 8268
encoding utf-8
Sheet 4 7
Title ""
Date "3 oct 2015"
Rev ""
Comp ""
Comment1 ""
Comment2 ""
Comment3 ""
Comment4 ""
$EndDescr
$Comp
L TLC5947 U401
U 1 1 5585935D
P 1750 2900
F 0 "U401" H 1950 4400 60  0000 C CNN
F 1 "TLC5947" H 1750 3950 60  0000 C CNN
F 2 "~" H 1750 2800 60  0000 C CNN
F 3 "~" H 1750 2800 60  0000 C CNN
	1    1750 2900
	1    0    0    -1  
$EndComp
$Comp
L R R401
U 1 1 55B5256E
P 900 3350
F 0 "R401" V 980 3350 40  0000 C CNN
F 1 "R" V 907 3351 40  0000 C CNN
F 2 "~" V 830 3350 30  0000 C CNN
F 3 "~" H 900 3350 30  0000 C CNN
	1    900  3350
	1    0    0    -1  
$EndComp
$Comp
L C C401
U 1 1 5585937B
P 1100 5750
F 0 "C401" H 1100 5850 40  0000 L CNN
F 1 "C" H 1106 5665 40  0000 L CNN
F 2 "~" H 1138 5600 30  0000 C CNN
F 3 "~" H 1100 5750 60  0000 C CNN
	1    1100 5750
	1    0    0    -1  
$EndComp
Wire Wire Line
	1650 4400 1650 4500
Wire Wire Line
	1650 4500 1850 4500
Wire Wire Line
	1850 4500 1850 4400
Wire Wire Line
	1750 4500 1750 4600
Connection ~ 1750 4500
$Comp
L GND #PWR019
U 1 1 55859404
P 1750 4600
F 0 "#PWR019" H 1750 4600 30  0001 C CNN
F 1 "GND" H 1750 4530 30  0001 C CNN
F 2 "" H 1750 4600 60  0000 C CNN
F 3 "" H 1750 4600 60  0000 C CNN
	1    1750 4600
	1    0    0    -1  
$EndComp
Wire Wire Line
	900  3600 900  3700
$Comp
L GND #PWR020
U 1 1 55B52575
P 900 3700
F 0 "#PWR020" H 900 3700 30  0001 C CNN
F 1 "GND" H 900 3630 30  0001 C CNN
F 2 "" H 900 3700 60  0000 C CNN
F 3 "" H 900 3700 60  0000 C CNN
	1    900  3700
	1    0    0    -1  
$EndComp
$Comp
L GND #PWR021
U 1 1 55B52576
P 1100 6050
F 0 "#PWR021" H 1100 6050 30  0001 C CNN
F 1 "GND" H 1100 5980 30  0001 C CNN
F 2 "" H 1100 6050 60  0000 C CNN
F 3 "" H 1100 6050 60  0000 C CNN
	1    1100 6050
	1    0    0    -1  
$EndComp
Wire Wire Line
	1100 5450 1100 5550
Wire Wire Line
	1100 5950 1100 6050
Text HLabel 750  600  0    40   Input ~ 0
BLANK
Text HLabel 750  700  0    40   Input ~ 0
XLAT
Text HLabel 750  800  0    40   Input ~ 0
SCLK
Text HLabel 750  1700 0    40   Input ~ 0
SIN
Text HLabel 10900 1700 2    40   Output ~ 0
SOUT
Wire Wire Line
	2550 1900 2700 1900
Wire Wire Line
	2550 2000 2850 2000
Wire Wire Line
	950  3000 900  3000
Wire Wire Line
	900  3000 900  3100
Wire Wire Line
	1750 1100 1750 1200
Wire Wire Line
	950  1700 750  1700
Wire Wire Line
	800  800  800  1600
Wire Wire Line
	800  1600 950  1600
Connection ~ 800  800 
Wire Wire Line
	850  700  850  1500
Connection ~ 850  700 
Wire Wire Line
	900  600  900  1400
Connection ~ 900  600 
Wire Wire Line
	850  1500 950  1500
Wire Wire Line
	900  1400 950  1400
Entry Wire Line
	2850 2000 2950 1900
Entry Wire Line
	3000 2100 3100 2000
Wire Wire Line
	2550 2100 2750 2100
Entry Wire Line
	2700 1900 2800 1800
Wire Wire Line
	2750 2100 2750 2050
Wire Wire Line
	2750 2050 2900 2050
Wire Wire Line
	2900 2050 2900 2100
Wire Wire Line
	2900 2100 3000 2100
Wire Wire Line
	2550 2200 2700 2200
Wire Wire Line
	2550 2300 2850 2300
Entry Wire Line
	2850 2300 2950 2200
Entry Wire Line
	3000 2400 3100 2300
Wire Wire Line
	2550 2400 2750 2400
Entry Wire Line
	2700 2200 2800 2100
Wire Wire Line
	2750 2400 2750 2350
Wire Wire Line
	2750 2350 2900 2350
Wire Wire Line
	2900 2350 2900 2400
Wire Wire Line
	2900 2400 3000 2400
Wire Wire Line
	2550 2500 2700 2500
Wire Wire Line
	2550 2600 2850 2600
Entry Wire Line
	2850 2600 2950 2500
Entry Wire Line
	3000 2700 3100 2600
Wire Wire Line
	2550 2700 2750 2700
Entry Wire Line
	2700 2500 2800 2400
Wire Wire Line
	2750 2700 2750 2650
Wire Wire Line
	2750 2650 2900 2650
Wire Wire Line
	2900 2650 2900 2700
Wire Wire Line
	2900 2700 3000 2700
Wire Wire Line
	2550 2800 2700 2800
Wire Wire Line
	2550 2900 2850 2900
Entry Wire Line
	2850 2900 2950 2800
Entry Wire Line
	3000 3000 3100 2900
Wire Wire Line
	2550 3000 2750 3000
Entry Wire Line
	2700 2800 2800 2700
Wire Wire Line
	2750 3000 2750 2950
Wire Wire Line
	2750 2950 2900 2950
Wire Wire Line
	2900 2950 2900 3000
Wire Wire Line
	2900 3000 3000 3000
Wire Wire Line
	2550 3100 2700 3100
Wire Wire Line
	2550 3200 2850 3200
Entry Wire Line
	2850 3200 2950 3100
Entry Wire Line
	3000 3300 3100 3200
Wire Wire Line
	2550 3300 2750 3300
Entry Wire Line
	2700 3100 2800 3000
Wire Wire Line
	2750 3300 2750 3250
Wire Wire Line
	2750 3250 2900 3250
Wire Wire Line
	2900 3250 2900 3300
Wire Wire Line
	2900 3300 3000 3300
Wire Wire Line
	2550 3400 2700 3400
Wire Wire Line
	2550 3500 2850 3500
Entry Wire Line
	2850 3500 2950 3400
Entry Wire Line
	3000 3600 3100 3500
Wire Wire Line
	2550 3600 2750 3600
Entry Wire Line
	2700 3400 2800 3300
Wire Wire Line
	2750 3600 2750 3550
Wire Wire Line
	2750 3550 2900 3550
Wire Wire Line
	2900 3550 2900 3600
Wire Wire Line
	2900 3600 3000 3600
Wire Wire Line
	2550 3700 2700 3700
Wire Wire Line
	2550 3800 2850 3800
Entry Wire Line
	2850 3800 2950 3700
Entry Wire Line
	3000 3900 3100 3800
Wire Wire Line
	2550 3900 2750 3900
Entry Wire Line
	2700 3700 2800 3600
Wire Wire Line
	2750 3900 2750 3850
Wire Wire Line
	2750 3850 2900 3850
Wire Wire Line
	2900 3850 2900 3900
Wire Wire Line
	2900 3900 3000 3900
Wire Wire Line
	2550 4000 2700 4000
Wire Wire Line
	2550 4100 2850 4100
Entry Wire Line
	2850 4100 2950 4000
Entry Wire Line
	3000 4200 3100 4100
Wire Wire Line
	2550 4200 2750 4200
Entry Wire Line
	2700 4000 2800 3900
Wire Wire Line
	2750 4200 2750 4150
Wire Wire Line
	2750 4150 2900 4150
Wire Wire Line
	2900 4150 2900 4200
Wire Wire Line
	2900 4200 3000 4200
Text Label 2700 1900 2    60   ~ 0
X1
Text Label 2700 2200 2    60   ~ 0
X2
Text Label 2700 2500 2    60   ~ 0
X3
Text Label 2700 2800 2    60   ~ 0
X4
Text Label 2700 3100 2    60   ~ 0
X5
Text Label 2700 3400 2    60   ~ 0
X6
Text Label 2700 3700 2    60   ~ 0
X7
Text Label 2700 4000 2    60   ~ 0
X8
Text Label 2700 2000 2    60   ~ 0
Y1
Text Label 2700 2300 2    60   ~ 0
Y2
Text Label 2700 2600 2    60   ~ 0
Y3
Text Label 2700 2900 2    60   ~ 0
Y4
Text Label 2700 3200 2    60   ~ 0
Y5
Text Label 2700 3500 2    60   ~ 0
Y6
Text Label 2700 3800 2    60   ~ 0
Y7
Text Label 2700 4100 2    60   ~ 0
Y8
Text Label 2700 2100 2    60   ~ 0
Z1
Text Label 2700 2400 2    60   ~ 0
Z2
Text Label 2700 2700 2    60   ~ 0
Z3
Text Label 2700 3000 2    60   ~ 0
Z4
Text Label 2700 3300 2    60   ~ 0
Z5
Text Label 2700 3600 2    60   ~ 0
Z6
Text Label 2700 3900 2    60   ~ 0
Z7
Text Label 2700 4200 2    60   ~ 0
Z8
$Comp
L TLC5947 U402
U 1 1 55BB3C89
P 4150 2900
F 0 "U402" H 4350 4400 60  0000 C CNN
F 1 "TLC5947" H 4150 3950 60  0000 C CNN
F 2 "~" H 4150 2800 60  0000 C CNN
F 3 "~" H 4150 2800 60  0000 C CNN
	1    4150 2900
	1    0    0    -1  
$EndComp
$Comp
L R R402
U 1 1 55BB3C8F
P 3300 3350
F 0 "R402" V 3380 3350 40  0000 C CNN
F 1 "R" V 3307 3351 40  0000 C CNN
F 2 "~" V 3230 3350 30  0000 C CNN
F 3 "~" H 3300 3350 30  0000 C CNN
	1    3300 3350
	1    0    0    -1  
$EndComp
$Comp
L C C402
U 1 1 55BB3C95
P 3500 5750
F 0 "C402" H 3500 5850 40  0000 L CNN
F 1 "C" H 3506 5665 40  0000 L CNN
F 2 "~" H 3538 5600 30  0000 C CNN
F 3 "~" H 3500 5750 60  0000 C CNN
	1    3500 5750
	1    0    0    -1  
$EndComp
Wire Wire Line
	4050 4400 4050 4500
Wire Wire Line
	4050 4500 4250 4500
Wire Wire Line
	4250 4500 4250 4400
Wire Wire Line
	4150 4500 4150 4600
Connection ~ 4150 4500
$Comp
L GND #PWR022
U 1 1 55BB3CA1
P 4150 4600
F 0 "#PWR022" H 4150 4600 30  0001 C CNN
F 1 "GND" H 4150 4530 30  0001 C CNN
F 2 "" H 4150 4600 60  0000 C CNN
F 3 "" H 4150 4600 60  0000 C CNN
	1    4150 4600
	1    0    0    -1  
$EndComp
Wire Wire Line
	3300 3600 3300 3700
$Comp
L GND #PWR023
U 1 1 55BB3CA8
P 3300 3700
F 0 "#PWR023" H 3300 3700 30  0001 C CNN
F 1 "GND" H 3300 3630 30  0001 C CNN
F 2 "" H 3300 3700 60  0000 C CNN
F 3 "" H 3300 3700 60  0000 C CNN
	1    3300 3700
	1    0    0    -1  
$EndComp
$Comp
L GND #PWR024
U 1 1 55BB3CAE
P 3500 6050
F 0 "#PWR024" H 3500 6050 30  0001 C CNN
F 1 "GND" H 3500 5980 30  0001 C CNN
F 2 "" H 3500 6050 60  0000 C CNN
F 3 "" H 3500 6050 60  0000 C CNN
	1    3500 6050
	1    0    0    -1  
$EndComp
Wire Wire Line
	3500 5450 3500 5550
Wire Wire Line
	3500 5950 3500 6050
Wire Wire Line
	4950 1900 5100 1900
Wire Wire Line
	4950 2000 5250 2000
Wire Wire Line
	3350 3000 3300 3000
Wire Wire Line
	3300 3000 3300 3100
Wire Wire Line
	4150 1100 4150 1200
Wire Wire Line
	3200 800  3200 1600
Wire Wire Line
	3200 1600 3350 1600
Wire Wire Line
	3250 700  3250 1500
Connection ~ 3250 700 
Wire Wire Line
	3300 600  3300 1400
Connection ~ 3300 600 
Wire Wire Line
	3250 1500 3350 1500
Wire Wire Line
	3300 1400 3350 1400
Entry Wire Line
	5250 2000 5350 1900
Entry Wire Line
	5400 2100 5500 2000
Wire Wire Line
	4950 2100 5150 2100
Entry Wire Line
	5100 1900 5200 1800
Wire Wire Line
	5150 2100 5150 2050
Wire Wire Line
	5150 2050 5300 2050
Wire Wire Line
	5300 2050 5300 2100
Wire Wire Line
	5300 2100 5400 2100
Wire Wire Line
	4950 2200 5100 2200
Wire Wire Line
	4950 2300 5250 2300
Entry Wire Line
	5250 2300 5350 2200
Entry Wire Line
	5400 2400 5500 2300
Wire Wire Line
	4950 2400 5150 2400
Entry Wire Line
	5100 2200 5200 2100
Wire Wire Line
	5150 2400 5150 2350
Wire Wire Line
	5150 2350 5300 2350
Wire Wire Line
	5300 2350 5300 2400
Wire Wire Line
	5300 2400 5400 2400
Wire Wire Line
	4950 2500 5100 2500
Wire Wire Line
	4950 2600 5250 2600
Entry Wire Line
	5250 2600 5350 2500
Entry Wire Line
	5400 2700 5500 2600
Wire Wire Line
	4950 2700 5150 2700
Entry Wire Line
	5100 2500 5200 2400
Wire Wire Line
	5150 2700 5150 2650
Wire Wire Line
	5150 2650 5300 2650
Wire Wire Line
	5300 2650 5300 2700
Wire Wire Line
	5300 2700 5400 2700
Wire Wire Line
	4950 2800 5100 2800
Wire Wire Line
	4950 2900 5250 2900
Entry Wire Line
	5250 2900 5350 2800
Entry Wire Line
	5400 3000 5500 2900
Wire Wire Line
	4950 3000 5150 3000
Entry Wire Line
	5100 2800 5200 2700
Wire Wire Line
	5150 3000 5150 2950
Wire Wire Line
	5150 2950 5300 2950
Wire Wire Line
	5300 2950 5300 3000
Wire Wire Line
	5300 3000 5400 3000
Wire Wire Line
	4950 3100 5100 3100
Wire Wire Line
	4950 3200 5250 3200
Entry Wire Line
	5250 3200 5350 3100
Entry Wire Line
	5400 3300 5500 3200
Wire Wire Line
	4950 3300 5150 3300
Entry Wire Line
	5100 3100 5200 3000
Wire Wire Line
	5150 3300 5150 3250
Wire Wire Line
	5150 3250 5300 3250
Wire Wire Line
	5300 3250 5300 3300
Wire Wire Line
	5300 3300 5400 3300
Wire Wire Line
	4950 3400 5100 3400
Wire Wire Line
	4950 3500 5250 3500
Entry Wire Line
	5250 3500 5350 3400
Entry Wire Line
	5400 3600 5500 3500
Wire Wire Line
	4950 3600 5150 3600
Entry Wire Line
	5100 3400 5200 3300
Wire Wire Line
	5150 3600 5150 3550
Wire Wire Line
	5150 3550 5300 3550
Wire Wire Line
	5300 3550 5300 3600
Wire Wire Line
	5300 3600 5400 3600
Wire Wire Line
	4950 3700 5100 3700
Wire Wire Line
	4950 3800 5250 3800
Entry Wire Line
	5250 3800 5350 3700
Entry Wire Line
	5400 3900 5500 3800
Wire Wire Line
	4950 3900 5150 3900
Entry Wire Line
	5100 3700 5200 3600
Wire Wire Line
	5150 3900 5150 3850
Wire Wire Line
	5150 3850 5300 3850
Wire Wire Line
	5300 3850 5300 3900
Wire Wire Line
	5300 3900 5400 3900
Wire Wire Line
	4950 4000 5100 4000
Wire Wire Line
	4950 4100 5250 4100
Entry Wire Line
	5250 4100 5350 4000
Entry Wire Line
	5400 4200 5500 4100
Wire Wire Line
	4950 4200 5150 4200
Entry Wire Line
	5100 4000 5200 3900
Wire Wire Line
	5150 4200 5150 4150
Wire Wire Line
	5150 4150 5300 4150
Wire Wire Line
	5300 4150 5300 4200
Wire Wire Line
	5300 4200 5400 4200
Text Label 5100 1900 2    60   ~ 0
X9
Text Label 5100 2200 2    60   ~ 0
X10
Text Label 5100 2500 2    60   ~ 0
X11
Text Label 5100 2800 2    60   ~ 0
X12
Text Label 5100 3100 2    60   ~ 0
X13
Text Label 5100 3400 2    60   ~ 0
X14
Text Label 5100 3700 2    60   ~ 0
X15
Text Label 5100 4000 2    60   ~ 0
X16
Text Label 5100 2000 2    60   ~ 0
Y9
Text Label 5100 2300 2    60   ~ 0
Y10
Text Label 5100 2600 2    60   ~ 0
Y11
Text Label 5100 2900 2    60   ~ 0
Y12
Text Label 5100 3200 2    60   ~ 0
Y13
Text Label 5100 3500 2    60   ~ 0
Y14
Text Label 5100 3800 2    60   ~ 0
Y15
Text Label 5100 4100 2    60   ~ 0
Y16
Text Label 5100 2100 2    60   ~ 0
Z9
Text Label 5100 2400 2    60   ~ 0
Z10
Text Label 5100 2700 2    60   ~ 0
Z11
Text Label 5100 3000 2    60   ~ 0
Z12
Text Label 5100 3300 2    60   ~ 0
Z13
Text Label 5100 3600 2    60   ~ 0
Z14
Text Label 5100 3900 2    60   ~ 0
Z15
Text Label 5100 4200 2    60   ~ 0
Z16
$Comp
L TLC5947 U403
U 1 1 55BB3D3B
P 6550 2900
F 0 "U403" H 6750 4400 60  0000 C CNN
F 1 "TLC5947" H 6550 3950 60  0000 C CNN
F 2 "~" H 6550 2800 60  0000 C CNN
F 3 "~" H 6550 2800 60  0000 C CNN
	1    6550 2900
	1    0    0    -1  
$EndComp
$Comp
L R R403
U 1 1 55BB3D41
P 5700 3350
F 0 "R403" V 5780 3350 40  0000 C CNN
F 1 "R" V 5707 3351 40  0000 C CNN
F 2 "~" V 5630 3350 30  0000 C CNN
F 3 "~" H 5700 3350 30  0000 C CNN
	1    5700 3350
	1    0    0    -1  
$EndComp
$Comp
L C C403
U 1 1 55BB3D47
P 5900 5750
F 0 "C403" H 5900 5850 40  0000 L CNN
F 1 "C" H 5906 5665 40  0000 L CNN
F 2 "~" H 5938 5600 30  0000 C CNN
F 3 "~" H 5900 5750 60  0000 C CNN
	1    5900 5750
	1    0    0    -1  
$EndComp
Wire Wire Line
	6450 4400 6450 4500
Wire Wire Line
	6450 4500 6650 4500
Wire Wire Line
	6650 4500 6650 4400
Wire Wire Line
	6550 4500 6550 4600
Connection ~ 6550 4500
$Comp
L GND #PWR025
U 1 1 55BB3D53
P 6550 4600
F 0 "#PWR025" H 6550 4600 30  0001 C CNN
F 1 "GND" H 6550 4530 30  0001 C CNN
F 2 "" H 6550 4600 60  0000 C CNN
F 3 "" H 6550 4600 60  0000 C CNN
	1    6550 4600
	1    0    0    -1  
$EndComp
Wire Wire Line
	5700 3600 5700 3700
$Comp
L GND #PWR026
U 1 1 55BB3D5A
P 5700 3700
F 0 "#PWR026" H 5700 3700 30  0001 C CNN
F 1 "GND" H 5700 3630 30  0001 C CNN
F 2 "" H 5700 3700 60  0000 C CNN
F 3 "" H 5700 3700 60  0000 C CNN
	1    5700 3700
	1    0    0    -1  
$EndComp
$Comp
L GND #PWR027
U 1 1 55BB3D60
P 5900 6050
F 0 "#PWR027" H 5900 6050 30  0001 C CNN
F 1 "GND" H 5900 5980 30  0001 C CNN
F 2 "" H 5900 6050 60  0000 C CNN
F 3 "" H 5900 6050 60  0000 C CNN
	1    5900 6050
	1    0    0    -1  
$EndComp
Wire Wire Line
	5900 5450 5900 5550
Wire Wire Line
	5900 5950 5900 6050
Wire Wire Line
	7350 1900 7500 1900
Wire Wire Line
	7350 2000 7650 2000
Wire Wire Line
	5750 3000 5700 3000
Wire Wire Line
	5700 3000 5700 3100
Wire Wire Line
	6550 1100 6550 1200
Wire Wire Line
	5600 800  5600 1600
Wire Wire Line
	5600 1600 5750 1600
Connection ~ 5600 800 
Wire Wire Line
	5650 700  5650 1500
Connection ~ 5650 700 
Wire Wire Line
	5700 600  5700 1400
Connection ~ 5700 600 
Wire Wire Line
	5650 1500 5750 1500
Wire Wire Line
	5700 1400 5750 1400
Entry Wire Line
	7650 2000 7750 1900
Entry Wire Line
	7800 2100 7900 2000
Wire Wire Line
	7350 2100 7550 2100
Entry Wire Line
	7500 1900 7600 1800
Wire Wire Line
	7550 2100 7550 2050
Wire Wire Line
	7550 2050 7700 2050
Wire Wire Line
	7700 2050 7700 2100
Wire Wire Line
	7700 2100 7800 2100
Wire Wire Line
	7350 2200 7500 2200
Wire Wire Line
	7350 2300 7650 2300
Entry Wire Line
	7650 2300 7750 2200
Entry Wire Line
	7800 2400 7900 2300
Wire Wire Line
	7350 2400 7550 2400
Entry Wire Line
	7500 2200 7600 2100
Wire Wire Line
	7550 2400 7550 2350
Wire Wire Line
	7550 2350 7700 2350
Wire Wire Line
	7700 2350 7700 2400
Wire Wire Line
	7700 2400 7800 2400
Wire Wire Line
	7350 2500 7500 2500
Wire Wire Line
	7350 2600 7650 2600
Entry Wire Line
	7650 2600 7750 2500
Entry Wire Line
	7800 2700 7900 2600
Wire Wire Line
	7350 2700 7550 2700
Entry Wire Line
	7500 2500 7600 2400
Wire Wire Line
	7550 2700 7550 2650
Wire Wire Line
	7550 2650 7700 2650
Wire Wire Line
	7700 2650 7700 2700
Wire Wire Line
	7700 2700 7800 2700
Wire Wire Line
	7350 2800 7500 2800
Wire Wire Line
	7350 2900 7650 2900
Entry Wire Line
	7650 2900 7750 2800
Entry Wire Line
	7800 3000 7900 2900
Wire Wire Line
	7350 3000 7550 3000
Entry Wire Line
	7500 2800 7600 2700
Wire Wire Line
	7550 3000 7550 2950
Wire Wire Line
	7550 2950 7700 2950
Wire Wire Line
	7700 2950 7700 3000
Wire Wire Line
	7700 3000 7800 3000
Wire Wire Line
	7350 3100 7500 3100
Wire Wire Line
	7350 3200 7650 3200
Entry Wire Line
	7650 3200 7750 3100
Entry Wire Line
	7800 3300 7900 3200
Wire Wire Line
	7350 3300 7550 3300
Entry Wire Line
	7500 3100 7600 3000
Wire Wire Line
	7550 3300 7550 3250
Wire Wire Line
	7550 3250 7700 3250
Wire Wire Line
	7700 3250 7700 3300
Wire Wire Line
	7700 3300 7800 3300
Wire Wire Line
	7350 3400 7500 3400
Wire Wire Line
	7350 3500 7650 3500
Entry Wire Line
	7650 3500 7750 3400
Entry Wire Line
	7800 3600 7900 3500
Wire Wire Line
	7350 3600 7550 3600
Entry Wire Line
	7500 3400 7600 3300
Wire Wire Line
	7550 3600 7550 3550
Wire Wire Line
	7550 3550 7700 3550
Wire Wire Line
	7700 3550 7700 3600
Wire Wire Line
	7700 3600 7800 3600
Wire Wire Line
	7350 3700 7500 3700
Wire Wire Line
	7350 3800 7650 3800
Entry Wire Line
	7650 3800 7750 3700
Entry Wire Line
	7800 3900 7900 3800
Wire Wire Line
	7350 3900 7550 3900
Entry Wire Line
	7500 3700 7600 3600
Wire Wire Line
	7550 3900 7550 3850
Wire Wire Line
	7550 3850 7700 3850
Wire Wire Line
	7700 3850 7700 3900
Wire Wire Line
	7700 3900 7800 3900
Wire Wire Line
	7350 4000 7500 4000
Wire Wire Line
	7350 4100 7650 4100
Entry Wire Line
	7650 4100 7750 4000
Entry Wire Line
	7800 4200 7900 4100
Wire Wire Line
	7350 4200 7550 4200
Entry Wire Line
	7500 4000 7600 3900
Wire Wire Line
	7550 4200 7550 4150
Wire Wire Line
	7550 4150 7700 4150
Wire Wire Line
	7700 4150 7700 4200
Wire Wire Line
	7700 4200 7800 4200
Text Label 7500 1900 2    60   ~ 0
X17
Text Label 7500 2200 2    60   ~ 0
X18
Text Label 7500 2500 2    60   ~ 0
X19
Text Label 7500 2800 2    60   ~ 0
X20
Text Label 7500 3100 2    60   ~ 0
X21
Text Label 7500 3400 2    60   ~ 0
X22
Text Label 7500 3700 2    60   ~ 0
X23
Text Label 7500 4000 2    60   ~ 0
X24
Text Label 7500 2000 2    60   ~ 0
Y17
Text Label 7500 2300 2    60   ~ 0
Y18
Text Label 7500 2600 2    60   ~ 0
Y19
Text Label 7500 2900 2    60   ~ 0
Y20
Text Label 7500 3200 2    60   ~ 0
Y21
Text Label 7500 3500 2    60   ~ 0
Y22
Text Label 7500 3800 2    60   ~ 0
Y23
Text Label 7500 4100 2    60   ~ 0
Y24
Text Label 7500 2100 2    60   ~ 0
Z17
Text Label 7500 2400 2    60   ~ 0
Z18
Text Label 7500 2700 2    60   ~ 0
Z19
Text Label 7500 3000 2    60   ~ 0
Z20
Text Label 7500 3300 2    60   ~ 0
Z21
Text Label 7500 3600 2    60   ~ 0
Z22
Text Label 7500 3900 2    60   ~ 0
Z23
Text Label 7500 4200 2    60   ~ 0
Z24
Wire Wire Line
	750  600  10900 600 
Wire Wire Line
	750  700  10900 700 
Wire Wire Line
	750  800  10900 800 
Wire Wire Line
	7350 1700 10900 1700
Wire Wire Line
	2550 1700 3350 1700
Connection ~ 3200 800 
Wire Wire Line
	4950 1700 5750 1700
Wire Bus Line
	2800 1800 2800 4800
Wire Bus Line
	2800 4800 10500 4800
Wire Bus Line
	2950 1900 2950 5000
Wire Bus Line
	2950 5000 10500 5000
Wire Bus Line
	3100 2000 3100 5200
Wire Bus Line
	3100 5200 10500 5200
Text HLabel 10500 5200 2    60   Output ~ 0
RED[1..24]
Text HLabel 10500 5000 2    60   Output ~ 0
BLUE[1..24]
Text HLabel 10500 4800 2    60   Output ~ 0
GREEN[1..24]
Wire Bus Line
	5200 1800 5200 4800
Wire Bus Line
	5350 1900 5350 5000
Wire Bus Line
	5500 2000 5500 5200
Wire Bus Line
	7600 1800 7600 4800
Wire Bus Line
	7750 1900 7750 5000
Wire Bus Line
	7900 2000 7900 5200
Text Label 9850 4800 0    60   ~ 0
X[1..24]
Text Label 9850 5000 0    60   ~ 0
Y[1..24]
Text Label 9850 5200 0    60   ~ 0
Z[1..24]
$Comp
L +3.3V #PWR?
U 1 1 55BCE7A3
P 1750 1100
F 0 "#PWR?" H 1750 1060 30  0001 C CNN
F 1 "+3.3V" H 1750 1210 30  0000 C CNN
F 2 "" H 1750 1100 60  0000 C CNN
F 3 "" H 1750 1100 60  0000 C CNN
	1    1750 1100
	1    0    0    -1  
$EndComp
$Comp
L +3.3V #PWR?
U 1 1 55BCE7B2
P 4150 1100
F 0 "#PWR?" H 4150 1060 30  0001 C CNN
F 1 "+3.3V" H 4150 1210 30  0000 C CNN
F 2 "" H 4150 1100 60  0000 C CNN
F 3 "" H 4150 1100 60  0000 C CNN
	1    4150 1100
	1    0    0    -1  
$EndComp
$Comp
L +3.3V #PWR?
U 1 1 55BCE7C1
P 6550 1100
F 0 "#PWR?" H 6550 1060 30  0001 C CNN
F 1 "+3.3V" H 6550 1210 30  0000 C CNN
F 2 "" H 6550 1100 60  0000 C CNN
F 3 "" H 6550 1100 60  0000 C CNN
	1    6550 1100
	1    0    0    -1  
$EndComp
$Comp
L +3.3V #PWR?
U 1 1 55BCE7D0
P 1100 5450
F 0 "#PWR?" H 1100 5410 30  0001 C CNN
F 1 "+3.3V" H 1100 5560 30  0000 C CNN
F 2 "" H 1100 5450 60  0000 C CNN
F 3 "" H 1100 5450 60  0000 C CNN
	1    1100 5450
	1    0    0    -1  
$EndComp
$Comp
L +3.3V #PWR?
U 1 1 55BCE7DF
P 3500 5450
F 0 "#PWR?" H 3500 5410 30  0001 C CNN
F 1 "+3.3V" H 3500 5560 30  0000 C CNN
F 2 "" H 3500 5450 60  0000 C CNN
F 3 "" H 3500 5450 60  0000 C CNN
	1    3500 5450
	1    0    0    -1  
$EndComp
$Comp
L +3.3V #PWR?
U 1 1 55BCE7F6
P 5900 5450
F 0 "#PWR?" H 5900 5410 30  0001 C CNN
F 1 "+3.3V" H 5900 5560 30  0000 C CNN
F 2 "" H 5900 5450 60  0000 C CNN
F 3 "" H 5900 5450 60  0000 C CNN
	1    5900 5450
	1    0    0    -1  
$EndComp
$EndSCHEMATC
