EESchema Schematic File Version 2
LIBS:power
LIBS:device
LIBS:transistors
LIBS:conn
LIBS:linear
LIBS:regul
LIBS:74xx
LIBS:cmos4000
LIBS:adc-dac
LIBS:memory
LIBS:xilinx
LIBS:special
LIBS:microcontrollers
LIBS:dsp
LIBS:microchip
LIBS:analog_switches
LIBS:motorola
LIBS:texas
LIBS:intel
LIBS:audio
LIBS:interface
LIBS:digital-audio
LIBS:philips
LIBS:display
LIBS:cypress
LIBS:siliconi
LIBS:opto
LIBS:atmel
LIBS:contrib
LIBS:valves
LIBS:crap
LIBS:rfus_main-cache
EELAYER 27 0
EELAYER END
$Descr A4 11693 8268
encoding utf-8
Sheet 3 7
Title ""
Date "3 oct 2015"
Rev ""
Comp ""
Comment1 ""
Comment2 ""
Comment3 ""
Comment4 ""
$EndDescr
$Comp
L TRIPLE_LED_COMMON_ANODE D301
U 1 1 5585AD02
P 1300 1100
F 0 "D301" H 1300 1400 50  0000 C CNN
F 1 "TRIPLE_LED_COMMON_ANODE" H 1300 825 50  0001 C CNN
F 2 "~" H 1350 1050 60  0000 C CNN
F 3 "~" H 1350 1050 60  0000 C CNN
	1    1300 1100
	1    0    0    -1  
$EndComp
$Comp
L TRIPLE_LED_COMMON_ANODE D302
U 1 1 5585ADD8
P 1300 1800
F 0 "D302" H 1300 2100 50  0000 C CNN
F 1 "TRIPLE_LED_COMMON_ANODE" H 1300 1525 50  0001 C CNN
F 2 "~" H 1350 1750 60  0000 C CNN
F 3 "~" H 1350 1750 60  0000 C CNN
	1    1300 1800
	1    0    0    -1  
$EndComp
$Comp
L TRIPLE_LED_COMMON_ANODE D303
U 1 1 55B52580
P 1300 2500
F 0 "D303" H 1300 2800 50  0000 C CNN
F 1 "TRIPLE_LED_COMMON_ANODE" H 1300 2225 50  0001 C CNN
F 2 "~" H 1350 2450 60  0000 C CNN
F 3 "~" H 1350 2450 60  0000 C CNN
	1    1300 2500
	1    0    0    -1  
$EndComp
$Comp
L TRIPLE_LED_COMMON_ANODE D304
U 1 1 55B52582
P 1300 3200
F 0 "D304" H 1300 3500 50  0000 C CNN
F 1 "TRIPLE_LED_COMMON_ANODE" H 1300 2925 50  0001 C CNN
F 2 "~" H 1350 3150 60  0000 C CNN
F 3 "~" H 1350 3150 60  0000 C CNN
	1    1300 3200
	1    0    0    -1  
$EndComp
$Comp
L TRIPLE_LED_COMMON_ANODE D305
U 1 1 55B52584
P 1300 3900
F 0 "D305" H 1300 4200 50  0000 C CNN
F 1 "TRIPLE_LED_COMMON_ANODE" H 1300 3625 50  0001 C CNN
F 2 "~" H 1350 3850 60  0000 C CNN
F 3 "~" H 1350 3850 60  0000 C CNN
	1    1300 3900
	1    0    0    -1  
$EndComp
$Comp
L TRIPLE_LED_COMMON_ANODE D306
U 1 1 55B52586
P 1300 4600
F 0 "D306" H 1300 4900 50  0000 C CNN
F 1 "TRIPLE_LED_COMMON_ANODE" H 1300 4325 50  0001 C CNN
F 2 "~" H 1350 4550 60  0000 C CNN
F 3 "~" H 1350 4550 60  0000 C CNN
	1    1300 4600
	1    0    0    -1  
$EndComp
$Comp
L TRIPLE_LED_COMMON_ANODE D307
U 1 1 55B52588
P 1300 5300
F 0 "D307" H 1300 5600 50  0000 C CNN
F 1 "TRIPLE_LED_COMMON_ANODE" H 1300 5025 50  0001 C CNN
F 2 "~" H 1350 5250 60  0000 C CNN
F 3 "~" H 1350 5250 60  0000 C CNN
	1    1300 5300
	1    0    0    -1  
$EndComp
$Comp
L TRIPLE_LED_COMMON_ANODE D308
U 1 1 5585AE29
P 1300 6000
F 0 "D308" H 1300 6300 50  0000 C CNN
F 1 "TRIPLE_LED_COMMON_ANODE" H 1300 5725 50  0001 C CNN
F 2 "~" H 1350 5950 60  0000 C CNN
F 3 "~" H 1350 5950 60  0000 C CNN
	1    1300 6000
	1    0    0    -1  
$EndComp
Wire Wire Line
	850  700  850  6000
Connection ~ 850  5300
Connection ~ 850  4600
Connection ~ 850  3900
Connection ~ 850  3200
Connection ~ 850  2500
Connection ~ 850  1800
Connection ~ 850  1100
Wire Wire Line
	1700 1250 2200 1250
Wire Wire Line
	1700 1100 2050 1100
Wire Wire Line
	1700 950  1900 950 
Entry Wire Line
	1900 950  2000 850 
Wire Wire Line
	900  1100 850  1100
Wire Wire Line
	900  1800 850  1800
Wire Wire Line
	900  2500 850  2500
Wire Wire Line
	850  3200 900  3200
Wire Wire Line
	850  3900 900  3900
Wire Wire Line
	850  4600 900  4600
Wire Wire Line
	850  5300 900  5300
Wire Wire Line
	850  6000 900  6000
Entry Wire Line
	2050 1100 2150 1000
Entry Wire Line
	2200 1250 2300 1150
Wire Wire Line
	1700 1950 2200 1950
Wire Wire Line
	1700 1800 2050 1800
Wire Wire Line
	1700 1650 1900 1650
Entry Wire Line
	1900 1650 2000 1550
Entry Wire Line
	2050 1800 2150 1700
Entry Wire Line
	2200 1950 2300 1850
Wire Wire Line
	1700 2650 2200 2650
Wire Wire Line
	1700 2500 2050 2500
Wire Wire Line
	1700 2350 1900 2350
Entry Wire Line
	1900 2350 2000 2250
Entry Wire Line
	2050 2500 2150 2400
Entry Wire Line
	2200 2650 2300 2550
Wire Wire Line
	1700 3350 2200 3350
Wire Wire Line
	1700 3200 2050 3200
Wire Wire Line
	1700 3050 1900 3050
Entry Wire Line
	1900 3050 2000 2950
Entry Wire Line
	2050 3200 2150 3100
Entry Wire Line
	2200 3350 2300 3250
Wire Wire Line
	1700 4050 2200 4050
Wire Wire Line
	1700 3900 2050 3900
Wire Wire Line
	1700 3750 1900 3750
Entry Wire Line
	1900 3750 2000 3650
Entry Wire Line
	2050 3900 2150 3800
Entry Wire Line
	2200 4050 2300 3950
Wire Wire Line
	1700 4750 2200 4750
Wire Wire Line
	1700 4600 2050 4600
Wire Wire Line
	1700 4450 1900 4450
Entry Wire Line
	1900 4450 2000 4350
Entry Wire Line
	2050 4600 2150 4500
Entry Wire Line
	2200 4750 2300 4650
Wire Wire Line
	1700 5450 2200 5450
Wire Wire Line
	1700 5300 2050 5300
Wire Wire Line
	1700 5150 1900 5150
Entry Wire Line
	1900 5150 2000 5050
Entry Wire Line
	2050 5300 2150 5200
Entry Wire Line
	2200 5450 2300 5350
Wire Wire Line
	1700 6150 2200 6150
Wire Wire Line
	1700 6000 2050 6000
Wire Wire Line
	1700 5850 1900 5850
Entry Wire Line
	1900 5850 2000 5750
Entry Wire Line
	2050 6000 2150 5900
Entry Wire Line
	2200 6150 2300 6050
Text Label 1900 950  2    60   ~ 0
A1
Text Label 1900 1650 2    60   ~ 0
A2
Text Label 1900 2350 2    60   ~ 0
A3
Text Label 1900 3050 2    60   ~ 0
A4
Text Label 1900 3750 2    60   ~ 0
A5
Text Label 1900 4450 2    60   ~ 0
A6
Text Label 1900 5150 2    60   ~ 0
A7
Text Label 1900 5850 2    60   ~ 0
A8
Text Label 1900 1100 2    60   ~ 0
B1
Text Label 1900 1800 2    60   ~ 0
B2
Text Label 1900 2500 2    60   ~ 0
B3
Text Label 1900 3200 2    60   ~ 0
B4
Text Label 1900 3900 2    60   ~ 0
B5
Text Label 1900 4600 2    60   ~ 0
B6
Text Label 1900 5300 2    60   ~ 0
B7
Text Label 1900 6000 2    60   ~ 0
B8
Text Label 1900 1250 2    60   ~ 0
C1
Text Label 1900 1950 2    60   ~ 0
C2
Text Label 1900 2650 2    60   ~ 0
C3
Text Label 1900 3350 2    60   ~ 0
C4
Text Label 1900 4050 2    60   ~ 0
C5
Text Label 1900 4750 2    60   ~ 0
C6
Text Label 1900 5450 2    60   ~ 0
C7
Text Label 1900 6150 2    60   ~ 0
C8
$Comp
L TRIPLE_LED_COMMON_ANODE D309
U 1 1 55BB4D68
P 3000 1100
F 0 "D309" H 3000 1400 50  0000 C CNN
F 1 "TRIPLE_LED_COMMON_ANODE" H 3000 825 50  0001 C CNN
F 2 "~" H 3050 1050 60  0000 C CNN
F 3 "~" H 3050 1050 60  0000 C CNN
	1    3000 1100
	1    0    0    -1  
$EndComp
$Comp
L TRIPLE_LED_COMMON_ANODE D310
U 1 1 55BB4D6E
P 3000 1800
F 0 "D310" H 3000 2100 50  0000 C CNN
F 1 "TRIPLE_LED_COMMON_ANODE" H 3000 1525 50  0001 C CNN
F 2 "~" H 3050 1750 60  0000 C CNN
F 3 "~" H 3050 1750 60  0000 C CNN
	1    3000 1800
	1    0    0    -1  
$EndComp
$Comp
L TRIPLE_LED_COMMON_ANODE D311
U 1 1 55BB4D74
P 3000 2500
F 0 "D311" H 3000 2800 50  0000 C CNN
F 1 "TRIPLE_LED_COMMON_ANODE" H 3000 2225 50  0001 C CNN
F 2 "~" H 3050 2450 60  0000 C CNN
F 3 "~" H 3050 2450 60  0000 C CNN
	1    3000 2500
	1    0    0    -1  
$EndComp
$Comp
L TRIPLE_LED_COMMON_ANODE D312
U 1 1 55BB4D7A
P 3000 3200
F 0 "D312" H 3000 3500 50  0000 C CNN
F 1 "TRIPLE_LED_COMMON_ANODE" H 3000 2925 50  0001 C CNN
F 2 "~" H 3050 3150 60  0000 C CNN
F 3 "~" H 3050 3150 60  0000 C CNN
	1    3000 3200
	1    0    0    -1  
$EndComp
$Comp
L TRIPLE_LED_COMMON_ANODE D313
U 1 1 55BB4D80
P 3000 3900
F 0 "D313" H 3000 4200 50  0000 C CNN
F 1 "TRIPLE_LED_COMMON_ANODE" H 3000 3625 50  0001 C CNN
F 2 "~" H 3050 3850 60  0000 C CNN
F 3 "~" H 3050 3850 60  0000 C CNN
	1    3000 3900
	1    0    0    -1  
$EndComp
$Comp
L TRIPLE_LED_COMMON_ANODE D314
U 1 1 55BB4D86
P 3000 4600
F 0 "D314" H 3000 4900 50  0000 C CNN
F 1 "TRIPLE_LED_COMMON_ANODE" H 3000 4325 50  0001 C CNN
F 2 "~" H 3050 4550 60  0000 C CNN
F 3 "~" H 3050 4550 60  0000 C CNN
	1    3000 4600
	1    0    0    -1  
$EndComp
$Comp
L TRIPLE_LED_COMMON_ANODE D315
U 1 1 55BB4D8C
P 3000 5300
F 0 "D315" H 3000 5600 50  0000 C CNN
F 1 "TRIPLE_LED_COMMON_ANODE" H 3000 5025 50  0001 C CNN
F 2 "~" H 3050 5250 60  0000 C CNN
F 3 "~" H 3050 5250 60  0000 C CNN
	1    3000 5300
	1    0    0    -1  
$EndComp
$Comp
L TRIPLE_LED_COMMON_ANODE D316
U 1 1 55BB4D92
P 3000 6000
F 0 "D316" H 3000 6300 50  0000 C CNN
F 1 "TRIPLE_LED_COMMON_ANODE" H 3000 5725 50  0001 C CNN
F 2 "~" H 3050 5950 60  0000 C CNN
F 3 "~" H 3050 5950 60  0000 C CNN
	1    3000 6000
	1    0    0    -1  
$EndComp
Wire Wire Line
	2550 700  2550 6000
Connection ~ 2550 5300
Connection ~ 2550 4600
Connection ~ 2550 3900
Connection ~ 2550 3200
Connection ~ 2550 2500
Connection ~ 2550 1800
Connection ~ 2550 1100
Wire Wire Line
	3400 1250 3900 1250
Wire Wire Line
	3400 1100 3750 1100
Wire Wire Line
	3400 950  3600 950 
Entry Wire Line
	3600 950  3700 850 
Wire Wire Line
	2600 1100 2550 1100
Wire Wire Line
	2600 1800 2550 1800
Wire Wire Line
	2600 2500 2550 2500
Wire Wire Line
	2550 3200 2600 3200
Wire Wire Line
	2550 3900 2600 3900
Wire Wire Line
	2550 4600 2600 4600
Wire Wire Line
	2550 5300 2600 5300
Wire Wire Line
	2550 6000 2600 6000
Entry Wire Line
	3750 1100 3850 1000
Entry Wire Line
	3900 1250 4000 1150
Wire Wire Line
	3400 1950 3900 1950
Wire Wire Line
	3400 1800 3750 1800
Wire Wire Line
	3400 1650 3600 1650
Entry Wire Line
	3600 1650 3700 1550
Entry Wire Line
	3750 1800 3850 1700
Entry Wire Line
	3900 1950 4000 1850
Wire Wire Line
	3400 2650 3900 2650
Wire Wire Line
	3400 2500 3750 2500
Wire Wire Line
	3400 2350 3600 2350
Entry Wire Line
	3600 2350 3700 2250
Entry Wire Line
	3750 2500 3850 2400
Entry Wire Line
	3900 2650 4000 2550
Wire Wire Line
	3400 3350 3900 3350
Wire Wire Line
	3400 3200 3750 3200
Wire Wire Line
	3400 3050 3600 3050
Entry Wire Line
	3600 3050 3700 2950
Entry Wire Line
	3750 3200 3850 3100
Entry Wire Line
	3900 3350 4000 3250
Wire Wire Line
	3400 4050 3900 4050
Wire Wire Line
	3400 3900 3750 3900
Wire Wire Line
	3400 3750 3600 3750
Entry Wire Line
	3600 3750 3700 3650
Entry Wire Line
	3750 3900 3850 3800
Entry Wire Line
	3900 4050 4000 3950
Wire Wire Line
	3400 4750 3900 4750
Wire Wire Line
	3400 4600 3750 4600
Wire Wire Line
	3400 4450 3600 4450
Entry Wire Line
	3600 4450 3700 4350
Entry Wire Line
	3750 4600 3850 4500
Entry Wire Line
	3900 4750 4000 4650
Wire Wire Line
	3400 5450 3900 5450
Wire Wire Line
	3400 5300 3750 5300
Wire Wire Line
	3400 5150 3600 5150
Entry Wire Line
	3600 5150 3700 5050
Entry Wire Line
	3750 5300 3850 5200
Entry Wire Line
	3900 5450 4000 5350
Wire Wire Line
	3400 6150 3900 6150
Wire Wire Line
	3400 6000 3750 6000
Wire Wire Line
	3400 5850 3600 5850
Entry Wire Line
	3600 5850 3700 5750
Entry Wire Line
	3750 6000 3850 5900
Entry Wire Line
	3900 6150 4000 6050
Text Label 3600 950  2    60   ~ 0
A9
Text Label 3600 1650 2    60   ~ 0
A10
Text Label 3600 2350 2    60   ~ 0
A11
Text Label 3600 3050 2    60   ~ 0
A12
Text Label 3600 3750 2    60   ~ 0
A13
Text Label 3600 4450 2    60   ~ 0
A14
Text Label 3600 5150 2    60   ~ 0
A15
Text Label 3600 5850 2    60   ~ 0
A16
Text Label 3600 1100 2    60   ~ 0
B9
Text Label 3600 1800 2    60   ~ 0
B10
Text Label 3600 2500 2    60   ~ 0
B11
Text Label 3600 3200 2    60   ~ 0
B12
Text Label 3600 3900 2    60   ~ 0
B13
Text Label 3600 4600 2    60   ~ 0
B14
Text Label 3600 5300 2    60   ~ 0
B15
Text Label 3600 6000 2    60   ~ 0
B16
Text Label 3600 1250 2    60   ~ 0
C9
Text Label 3600 1950 2    60   ~ 0
C10
Text Label 3600 2650 2    60   ~ 0
C11
Text Label 3600 3350 2    60   ~ 0
C12
Text Label 3600 4050 2    60   ~ 0
C13
Text Label 3600 4750 2    60   ~ 0
C14
Text Label 3600 5450 2    60   ~ 0
C15
Text Label 3600 6150 2    60   ~ 0
C16
$Comp
L TRIPLE_LED_COMMON_ANODE D317
U 1 1 55BB4DFD
P 4700 1100
F 0 "D317" H 4700 1400 50  0000 C CNN
F 1 "TRIPLE_LED_COMMON_ANODE" H 4700 825 50  0001 C CNN
F 2 "~" H 4750 1050 60  0000 C CNN
F 3 "~" H 4750 1050 60  0000 C CNN
	1    4700 1100
	1    0    0    -1  
$EndComp
$Comp
L TRIPLE_LED_COMMON_ANODE D318
U 1 1 55BB4E03
P 4700 1800
F 0 "D318" H 4700 2100 50  0000 C CNN
F 1 "TRIPLE_LED_COMMON_ANODE" H 4700 1525 50  0001 C CNN
F 2 "~" H 4750 1750 60  0000 C CNN
F 3 "~" H 4750 1750 60  0000 C CNN
	1    4700 1800
	1    0    0    -1  
$EndComp
$Comp
L TRIPLE_LED_COMMON_ANODE D319
U 1 1 55BB4E09
P 4700 2500
F 0 "D319" H 4700 2800 50  0000 C CNN
F 1 "TRIPLE_LED_COMMON_ANODE" H 4700 2225 50  0001 C CNN
F 2 "~" H 4750 2450 60  0000 C CNN
F 3 "~" H 4750 2450 60  0000 C CNN
	1    4700 2500
	1    0    0    -1  
$EndComp
$Comp
L TRIPLE_LED_COMMON_ANODE D320
U 1 1 55BB4E0F
P 4700 3200
F 0 "D320" H 4700 3500 50  0000 C CNN
F 1 "TRIPLE_LED_COMMON_ANODE" H 4700 2925 50  0001 C CNN
F 2 "~" H 4750 3150 60  0000 C CNN
F 3 "~" H 4750 3150 60  0000 C CNN
	1    4700 3200
	1    0    0    -1  
$EndComp
$Comp
L TRIPLE_LED_COMMON_ANODE D321
U 1 1 55BB4E15
P 4700 3900
F 0 "D321" H 4700 4200 50  0000 C CNN
F 1 "TRIPLE_LED_COMMON_ANODE" H 4700 3625 50  0001 C CNN
F 2 "~" H 4750 3850 60  0000 C CNN
F 3 "~" H 4750 3850 60  0000 C CNN
	1    4700 3900
	1    0    0    -1  
$EndComp
$Comp
L TRIPLE_LED_COMMON_ANODE D322
U 1 1 55BB4E1B
P 4700 4600
F 0 "D322" H 4700 4900 50  0000 C CNN
F 1 "TRIPLE_LED_COMMON_ANODE" H 4700 4325 50  0001 C CNN
F 2 "~" H 4750 4550 60  0000 C CNN
F 3 "~" H 4750 4550 60  0000 C CNN
	1    4700 4600
	1    0    0    -1  
$EndComp
$Comp
L TRIPLE_LED_COMMON_ANODE D323
U 1 1 55BB4E21
P 4700 5300
F 0 "D323" H 4700 5600 50  0000 C CNN
F 1 "TRIPLE_LED_COMMON_ANODE" H 4700 5025 50  0001 C CNN
F 2 "~" H 4750 5250 60  0000 C CNN
F 3 "~" H 4750 5250 60  0000 C CNN
	1    4700 5300
	1    0    0    -1  
$EndComp
$Comp
L TRIPLE_LED_COMMON_ANODE D324
U 1 1 55BB4E27
P 4700 6000
F 0 "D324" H 4700 6300 50  0000 C CNN
F 1 "TRIPLE_LED_COMMON_ANODE" H 4700 5725 50  0001 C CNN
F 2 "~" H 4750 5950 60  0000 C CNN
F 3 "~" H 4750 5950 60  0000 C CNN
	1    4700 6000
	1    0    0    -1  
$EndComp
Wire Wire Line
	4250 700  4250 6000
Connection ~ 4250 5300
Connection ~ 4250 4600
Connection ~ 4250 3900
Connection ~ 4250 3200
Connection ~ 4250 2500
Connection ~ 4250 1800
Connection ~ 4250 1100
Wire Wire Line
	5100 1250 5600 1250
Wire Wire Line
	5100 1100 5450 1100
Wire Wire Line
	5100 950  5300 950 
Entry Wire Line
	5300 950  5400 850 
Wire Wire Line
	4300 1100 4250 1100
Wire Wire Line
	4300 1800 4250 1800
Wire Wire Line
	4300 2500 4250 2500
Wire Wire Line
	4250 3200 4300 3200
Wire Wire Line
	4250 3900 4300 3900
Wire Wire Line
	4250 4600 4300 4600
Wire Wire Line
	4250 5300 4300 5300
Wire Wire Line
	4250 6000 4300 6000
Entry Wire Line
	5450 1100 5550 1000
Entry Wire Line
	5600 1250 5700 1150
Wire Wire Line
	5100 1950 5600 1950
Wire Wire Line
	5100 1800 5450 1800
Wire Wire Line
	5100 1650 5300 1650
Entry Wire Line
	5300 1650 5400 1550
Entry Wire Line
	5450 1800 5550 1700
Entry Wire Line
	5600 1950 5700 1850
Wire Wire Line
	5100 2650 5600 2650
Wire Wire Line
	5100 2500 5450 2500
Wire Wire Line
	5100 2350 5300 2350
Entry Wire Line
	5300 2350 5400 2250
Entry Wire Line
	5450 2500 5550 2400
Entry Wire Line
	5600 2650 5700 2550
Wire Wire Line
	5100 3350 5600 3350
Wire Wire Line
	5100 3200 5450 3200
Wire Wire Line
	5100 3050 5300 3050
Entry Wire Line
	5300 3050 5400 2950
Entry Wire Line
	5450 3200 5550 3100
Entry Wire Line
	5600 3350 5700 3250
Wire Wire Line
	5100 4050 5600 4050
Wire Wire Line
	5100 3900 5450 3900
Wire Wire Line
	5100 3750 5300 3750
Entry Wire Line
	5300 3750 5400 3650
Entry Wire Line
	5450 3900 5550 3800
Entry Wire Line
	5600 4050 5700 3950
Wire Wire Line
	5100 4750 5600 4750
Wire Wire Line
	5100 4600 5450 4600
Wire Wire Line
	5100 4450 5300 4450
Entry Wire Line
	5300 4450 5400 4350
Entry Wire Line
	5450 4600 5550 4500
Entry Wire Line
	5600 4750 5700 4650
Wire Wire Line
	5100 5450 5600 5450
Wire Wire Line
	5100 5300 5450 5300
Wire Wire Line
	5100 5150 5300 5150
Entry Wire Line
	5300 5150 5400 5050
Entry Wire Line
	5450 5300 5550 5200
Entry Wire Line
	5600 5450 5700 5350
Wire Wire Line
	5100 6150 5600 6150
Wire Wire Line
	5100 6000 5450 6000
Wire Wire Line
	5100 5850 5300 5850
Entry Wire Line
	5300 5850 5400 5750
Entry Wire Line
	5450 6000 5550 5900
Entry Wire Line
	5600 6150 5700 6050
Text Label 5300 950  2    60   ~ 0
A17
Text Label 5300 1650 2    60   ~ 0
A18
Text Label 5300 2350 2    60   ~ 0
A19
Text Label 5300 3050 2    60   ~ 0
A20
Text Label 5300 3750 2    60   ~ 0
A21
Text Label 5300 4450 2    60   ~ 0
A22
Text Label 5300 5150 2    60   ~ 0
A23
Text Label 5300 5850 2    60   ~ 0
A24
Text Label 5300 1100 2    60   ~ 0
B17
Text Label 5300 1800 2    60   ~ 0
B18
Text Label 5300 2500 2    60   ~ 0
B19
Text Label 5300 3200 2    60   ~ 0
B20
Text Label 5300 3900 2    60   ~ 0
B21
Text Label 5300 4600 2    60   ~ 0
B22
Text Label 5300 5300 2    60   ~ 0
B23
Text Label 5300 6000 2    60   ~ 0
B24
Text Label 5300 1250 2    60   ~ 0
C17
Text Label 5300 1950 2    60   ~ 0
C18
Text Label 5300 2650 2    60   ~ 0
C19
Text Label 5300 3350 2    60   ~ 0
C20
Text Label 5300 4050 2    60   ~ 0
C21
Text Label 5300 4750 2    60   ~ 0
C22
Text Label 5300 5450 2    60   ~ 0
C23
Text Label 5300 6150 2    60   ~ 0
C24
Wire Bus Line
	2000 850  2000 6500
Wire Bus Line
	2150 1000 2150 6700
Wire Bus Line
	2300 1150 2300 6900
Text Label 1600 6500 0    60   ~ 0
A[1..24]
Text Label 1600 6700 0    60   ~ 0
B[1..24]
Text Label 1600 6900 0    60   ~ 0
C[1..24]
Wire Bus Line
	1600 6500 5400 6500
Wire Bus Line
	1600 6700 5550 6700
Wire Bus Line
	1600 6900 5700 6900
Text HLabel 1600 6900 0    60   Input ~ 0
RED[1..24]
Text HLabel 1600 6700 0    60   Input ~ 0
GREEN[1..24]
Text HLabel 1600 6500 0    60   Input ~ 0
BLUE[1..24]
Wire Bus Line
	3700 6500 3700 850 
Wire Bus Line
	3850 6700 3850 1000
Wire Bus Line
	4000 6900 4000 1150
Wire Bus Line
	5400 6500 5400 850 
Wire Bus Line
	5550 6700 5550 1000
Wire Bus Line
	5700 6900 5700 1150
$Comp
L VPWR #PWR016
U 1 1 55BCAC18
P 850 700
F 0 "#PWR016" H 850 800 30  0001 C CNN
F 1 "VPWR" H 850 800 30  0000 C CNN
F 2 "~" H 850 700 60  0000 C CNN
F 3 "~" H 850 700 60  0000 C CNN
	1    850  700 
	1    0    0    -1  
$EndComp
$Comp
L VPWR #PWR017
U 1 1 55BCAC25
P 2550 700
F 0 "#PWR017" H 2550 800 30  0001 C CNN
F 1 "VPWR" H 2550 800 30  0000 C CNN
F 2 "~" H 2550 700 60  0000 C CNN
F 3 "~" H 2550 700 60  0000 C CNN
	1    2550 700 
	1    0    0    -1  
$EndComp
$Comp
L VPWR #PWR018
U 1 1 55BCAC2B
P 4250 700
F 0 "#PWR018" H 4250 800 30  0001 C CNN
F 1 "VPWR" H 4250 800 30  0000 C CNN
F 2 "~" H 4250 700 60  0000 C CNN
F 3 "~" H 4250 700 60  0000 C CNN
	1    4250 700 
	1    0    0    -1  
$EndComp
$EndSCHEMATC
