EESchema Schematic File Version 2
LIBS:power
LIBS:device
LIBS:transistors
LIBS:conn
LIBS:linear
LIBS:regul
LIBS:74xx
LIBS:cmos4000
LIBS:adc-dac
LIBS:memory
LIBS:xilinx
LIBS:special
LIBS:microcontrollers
LIBS:dsp
LIBS:microchip
LIBS:analog_switches
LIBS:motorola
LIBS:texas
LIBS:intel
LIBS:audio
LIBS:interface
LIBS:digital-audio
LIBS:philips
LIBS:display
LIBS:cypress
LIBS:siliconi
LIBS:opto
LIBS:atmel
LIBS:contrib
LIBS:valves
LIBS:crap
LIBS:rfus_main-cache
EELAYER 27 0
EELAYER END
$Descr A4 11693 8268
encoding utf-8
Sheet 2 7
Title ""
Date "3 oct 2015"
Rev ""
Comp ""
Comment1 ""
Comment2 ""
Comment3 ""
Comment4 ""
$EndDescr
$Comp
L LTC3569-TSSOP U201
U 1 1 55BC9684
P 3000 3700
F 0 "U201" H 3350 5350 60  0000 C CNN
F 1 "LTC3569-TSSOP" H 3000 3700 60  0000 C CNN
F 2 "~" H 3000 3600 60  0000 C CNN
F 3 "~" H 3000 3600 60  0000 C CNN
	1    3000 3700
	1    0    0    -1  
$EndComp
$Comp
L +BATT #PWR202
U 1 1 55BC969D
P 2100 1600
F 0 "#PWR202" H 2100 1550 20  0001 C CNN
F 1 "+BATT" H 2100 1700 30  0000 C CNN
F 2 "" H 2100 1600 60  0000 C CNN
F 3 "" H 2100 1600 60  0000 C CNN
	1    2100 1600
	1    0    0    -1  
$EndComp
Wire Wire Line
	2100 3600 2200 3600
Wire Wire Line
	2100 3500 2200 3500
Connection ~ 2100 3500
Wire Wire Line
	2100 3000 2200 3000
Connection ~ 2100 3000
Wire Wire Line
	2100 3100 2200 3100
Connection ~ 2100 3100
Wire Wire Line
	2100 3200 2200 3200
Connection ~ 2100 3200
NoConn ~ 2200 4200
$Comp
L C C208
U 1 1 55BC96F5
P 8050 1800
F 0 "C208" H 8050 1900 40  0000 L CNN
F 1 "22u" H 8056 1715 40  0000 L CNN
F 2 "~" H 8088 1650 30  0000 C CNN
F 3 "~" H 8050 1800 60  0000 C CNN
	1    8050 1800
	1    0    0    -1  
$EndComp
Wire Wire Line
	1700 2200 1700 2400
$Comp
L GND #PWR201
U 1 1 55BC972B
P 1700 2400
F 0 "#PWR201" H 1700 2400 30  0001 C CNN
F 1 "GND" H 1700 2330 30  0001 C CNN
F 2 "" H 1700 2400 60  0000 C CNN
F 3 "" H 1700 2400 60  0000 C CNN
	1    1700 2400
	1    0    0    -1  
$EndComp
$Comp
L C C201
U 1 1 55BC973F
P 1700 2000
F 0 "C201" H 1700 2100 40  0000 L CNN
F 1 "22u" H 1706 1915 40  0000 L CNN
F 2 "~" H 1738 1850 30  0000 C CNN
F 3 "~" H 1700 2000 60  0000 C CNN
	1    1700 2000
	1    0    0    -1  
$EndComp
$Comp
L GND #PWR204
U 1 1 55BC97C2
P 2700 5800
F 0 "#PWR204" H 2700 5800 30  0001 C CNN
F 1 "GND" H 2700 5730 30  0001 C CNN
F 2 "" H 2700 5800 60  0000 C CNN
F 3 "" H 2700 5800 60  0000 C CNN
	1    2700 5800
	1    0    0    -1  
$EndComp
$Comp
L INDUCTOR L201
U 1 1 55BC97E0
P 4250 2000
F 0 "L201" V 4200 2000 40  0000 C CNN
F 1 "2.2u" V 4350 2000 40  0000 C CNN
F 2 "~" H 4250 2000 60  0000 C CNN
F 3 "~" H 4250 2000 60  0000 C CNN
	1    4250 2000
	0    -1   -1   0   
$EndComp
$Comp
L C C202
U 1 1 55BC97ED
P 4650 2300
F 0 "C202" H 4650 2400 40  0000 L CNN
F 1 "22p" H 4656 2215 40  0000 L CNN
F 2 "~" H 4688 2150 30  0000 C CNN
F 3 "~" H 4650 2300 60  0000 C CNN
	1    4650 2300
	1    0    0    -1  
$EndComp
$Comp
L R R201
U 1 1 55BC97F5
P 4900 2300
F 0 "R201" V 4980 2300 40  0000 C CNN
F 1 "R" V 4907 2301 40  0000 C CNN
F 2 "~" V 4830 2300 30  0000 C CNN
F 3 "~" H 4900 2300 30  0000 C CNN
	1    4900 2300
	1    0    0    -1  
$EndComp
$Comp
L R R202
U 1 1 55BC9802
P 4900 2900
F 0 "R202" V 4980 2900 40  0000 C CNN
F 1 "150k" V 4907 2901 40  0000 C CNN
F 2 "~" V 4830 2900 30  0000 C CNN
F 3 "~" H 4900 2900 30  0000 C CNN
	1    4900 2900
	1    0    0    -1  
$EndComp
$Comp
L GND #PWR206
U 1 1 55BC980A
P 4900 3200
F 0 "#PWR206" H 4900 3200 30  0001 C CNN
F 1 "GND" H 4900 3130 30  0001 C CNN
F 2 "" H 4900 3200 60  0000 C CNN
F 3 "" H 4900 3200 60  0000 C CNN
	1    4900 3200
	1    0    0    -1  
$EndComp
$Comp
L C C205
U 1 1 55BC9823
P 5550 2300
F 0 "C205" H 5550 2400 40  0000 L CNN
F 1 "10u" H 5556 2215 40  0000 L CNN
F 2 "~" H 5588 2150 30  0000 C CNN
F 3 "~" H 5550 2300 60  0000 C CNN
	1    5550 2300
	1    0    0    -1  
$EndComp
$Comp
L GND #PWR210
U 1 1 55BC9829
P 5550 2600
F 0 "#PWR210" H 5550 2600 30  0001 C CNN
F 1 "GND" H 5550 2530 30  0001 C CNN
F 2 "" H 5550 2600 60  0000 C CNN
F 3 "" H 5550 2600 60  0000 C CNN
	1    5550 2600
	1    0    0    -1  
$EndComp
Wire Wire Line
	3800 2000 3950 2000
Wire Wire Line
	2600 5600 2600 5700
Wire Wire Line
	2600 5700 2800 5700
Wire Wire Line
	2800 5700 2800 5600
Wire Wire Line
	2700 5700 2700 5800
Connection ~ 2700 5700
Wire Wire Line
	2100 1600 2100 3600
Wire Wire Line
	2900 1700 2900 1800
Wire Wire Line
	2800 1700 2800 1800
Connection ~ 2800 1700
Wire Wire Line
	2600 1700 2600 1800
Connection ~ 2600 1700
Connection ~ 2100 1700
Wire Wire Line
	1700 1800 1700 1700
Wire Wire Line
	4550 2000 5900 2000
Wire Wire Line
	5550 2000 5550 2100
Wire Wire Line
	4900 2000 4900 2050
Connection ~ 4900 2000
Wire Wire Line
	4650 2100 4650 2000
Connection ~ 4650 2000
Wire Wire Line
	3800 2600 4900 2600
Wire Wire Line
	4900 2550 4900 2650
Connection ~ 4900 2600
Wire Wire Line
	4650 2600 4650 2500
Connection ~ 4650 2600
Wire Wire Line
	4900 3200 4900 3150
Wire Wire Line
	5550 2600 5550 2500
$Comp
L INDUCTOR L202
U 1 1 55BCA329
P 4250 3400
F 0 "L202" V 4200 3400 40  0000 C CNN
F 1 "2.2u" V 4350 3400 40  0000 C CNN
F 2 "~" H 4250 3400 60  0000 C CNN
F 3 "~" H 4250 3400 60  0000 C CNN
	1    4250 3400
	0    -1   -1   0   
$EndComp
$Comp
L C C203
U 1 1 55BCA32F
P 4650 3700
F 0 "C203" H 4650 3800 40  0000 L CNN
F 1 "22p" H 4656 3615 40  0000 L CNN
F 2 "~" H 4688 3550 30  0000 C CNN
F 3 "~" H 4650 3700 60  0000 C CNN
	1    4650 3700
	1    0    0    -1  
$EndComp
$Comp
L R R203
U 1 1 55BCA335
P 4900 3700
F 0 "R203" V 4980 3700 40  0000 C CNN
F 1 "R" V 4907 3701 40  0000 C CNN
F 2 "~" V 4830 3700 30  0000 C CNN
F 3 "~" H 4900 3700 30  0000 C CNN
	1    4900 3700
	1    0    0    -1  
$EndComp
$Comp
L R R204
U 1 1 55BCA33B
P 4900 4300
F 0 "R204" V 4980 4300 40  0000 C CNN
F 1 "150k" V 4907 4301 40  0000 C CNN
F 2 "~" V 4830 4300 30  0000 C CNN
F 3 "~" H 4900 4300 30  0000 C CNN
	1    4900 4300
	1    0    0    -1  
$EndComp
$Comp
L GND #PWR207
U 1 1 55BCA341
P 4900 4600
F 0 "#PWR207" H 4900 4600 30  0001 C CNN
F 1 "GND" H 4900 4530 30  0001 C CNN
F 2 "" H 4900 4600 60  0000 C CNN
F 3 "" H 4900 4600 60  0000 C CNN
	1    4900 4600
	1    0    0    -1  
$EndComp
$Comp
L C C206
U 1 1 55BCA347
P 5550 3700
F 0 "C206" H 5550 3800 40  0000 L CNN
F 1 "4.7u" H 5556 3615 40  0000 L CNN
F 2 "~" H 5588 3550 30  0000 C CNN
F 3 "~" H 5550 3700 60  0000 C CNN
	1    5550 3700
	1    0    0    -1  
$EndComp
$Comp
L GND #PWR211
U 1 1 55BCA34D
P 5550 4000
F 0 "#PWR211" H 5550 4000 30  0001 C CNN
F 1 "GND" H 5550 3930 30  0001 C CNN
F 2 "" H 5550 4000 60  0000 C CNN
F 3 "" H 5550 4000 60  0000 C CNN
	1    5550 4000
	1    0    0    -1  
$EndComp
Wire Wire Line
	3800 3400 3950 3400
Wire Wire Line
	4550 3400 5900 3400
Wire Wire Line
	5550 3400 5550 3500
Wire Wire Line
	4900 3400 4900 3450
Connection ~ 4900 3400
Wire Wire Line
	4650 3500 4650 3400
Connection ~ 4650 3400
Wire Wire Line
	3800 4000 4900 4000
Wire Wire Line
	4900 3950 4900 4050
Connection ~ 4900 4000
Wire Wire Line
	4650 4000 4650 3900
Connection ~ 4650 4000
Wire Wire Line
	4900 4600 4900 4550
Wire Wire Line
	5550 4000 5550 3900
$Comp
L GND #PWR208
U 1 1 55BCA366
P 4900 4600
F 0 "#PWR208" H 4900 4600 30  0001 C CNN
F 1 "GND" H 4900 4530 30  0001 C CNN
F 2 "" H 4900 4600 60  0000 C CNN
F 3 "" H 4900 4600 60  0000 C CNN
	1    4900 4600
	1    0    0    -1  
$EndComp
$Comp
L INDUCTOR L203
U 1 1 55BCA36C
P 4250 4800
F 0 "L203" V 4200 4800 40  0000 C CNN
F 1 "3.3u" V 4350 4800 40  0000 C CNN
F 2 "~" H 4250 4800 60  0000 C CNN
F 3 "~" H 4250 4800 60  0000 C CNN
	1    4250 4800
	0    -1   -1   0   
$EndComp
$Comp
L C C204
U 1 1 55BCA372
P 4650 5100
F 0 "C204" H 4650 5200 40  0000 L CNN
F 1 "22p" H 4656 5015 40  0000 L CNN
F 2 "~" H 4688 4950 30  0000 C CNN
F 3 "~" H 4650 5100 60  0000 C CNN
	1    4650 5100
	1    0    0    -1  
$EndComp
$Comp
L R R205
U 1 1 55BCA378
P 4900 5100
F 0 "R205" V 4980 5100 40  0000 C CNN
F 1 "150k" V 4907 5101 40  0000 C CNN
F 2 "~" V 4830 5100 30  0000 C CNN
F 3 "~" H 4900 5100 30  0000 C CNN
	1    4900 5100
	1    0    0    -1  
$EndComp
$Comp
L R R206
U 1 1 55BCA37E
P 4900 5700
F 0 "R206" V 4980 5700 40  0000 C CNN
F 1 "300k" V 4907 5701 40  0000 C CNN
F 2 "~" V 4830 5700 30  0000 C CNN
F 3 "~" H 4900 5700 30  0000 C CNN
	1    4900 5700
	1    0    0    -1  
$EndComp
$Comp
L GND #PWR209
U 1 1 55BCA384
P 4900 6000
F 0 "#PWR209" H 4900 6000 30  0001 C CNN
F 1 "GND" H 4900 5930 30  0001 C CNN
F 2 "" H 4900 6000 60  0000 C CNN
F 3 "" H 4900 6000 60  0000 C CNN
	1    4900 6000
	1    0    0    -1  
$EndComp
$Comp
L C C207
U 1 1 55BCA38A
P 5550 5100
F 0 "C207" H 5550 5200 40  0000 L CNN
F 1 "4.7u" H 5556 5015 40  0000 L CNN
F 2 "~" H 5588 4950 30  0000 C CNN
F 3 "~" H 5550 5100 60  0000 C CNN
	1    5550 5100
	1    0    0    -1  
$EndComp
$Comp
L GND #PWR212
U 1 1 55BCA390
P 5550 5400
F 0 "#PWR212" H 5550 5400 30  0001 C CNN
F 1 "GND" H 5550 5330 30  0001 C CNN
F 2 "" H 5550 5400 60  0000 C CNN
F 3 "" H 5550 5400 60  0000 C CNN
	1    5550 5400
	1    0    0    -1  
$EndComp
Wire Wire Line
	3800 4800 3950 4800
Wire Wire Line
	4550 4800 5900 4800
Wire Wire Line
	5550 4800 5550 4900
Wire Wire Line
	4900 4800 4900 4850
Connection ~ 4900 4800
Wire Wire Line
	4650 4900 4650 4800
Connection ~ 4650 4800
Wire Wire Line
	3800 5400 4900 5400
Wire Wire Line
	4900 5350 4900 5450
Connection ~ 4900 5400
Wire Wire Line
	4650 5400 4650 5300
Connection ~ 4650 5400
Wire Wire Line
	4900 6000 4900 5950
Wire Wire Line
	5550 5400 5550 5300
Wire Wire Line
	5750 3400 5750 3300
Connection ~ 5550 3400
Wire Wire Line
	5750 4800 5750 4700
Connection ~ 5550 4800
$Comp
L +1.2V #PWR215
U 1 1 55BCA449
P 5750 4700
F 0 "#PWR215" H 5750 4840 20  0001 C CNN
F 1 "+1.2V" H 5750 4810 30  0000 C CNN
F 2 "" H 5750 4700 60  0000 C CNN
F 3 "" H 5750 4700 60  0000 C CNN
	1    5750 4700
	1    0    0    -1  
$EndComp
Wire Wire Line
	5750 2000 5750 1900
Connection ~ 5550 2000
$Comp
L GND #PWR203
U 1 1 55BCA6A8
P 2600 6700
F 0 "#PWR203" H 2600 6700 30  0001 C CNN
F 1 "GND" H 2600 6630 30  0001 C CNN
F 2 "" H 2600 6700 60  0000 C CNN
F 3 "" H 2600 6700 60  0000 C CNN
	1    2600 6700
	1    0    0    -1  
$EndComp
Wire Wire Line
	3100 6600 3000 6600
Wire Wire Line
	3000 6600 3000 6500
$Comp
L +BATT #PWR205
U 1 1 55BCA7E0
P 3000 6500
F 0 "#PWR205" H 3000 6450 20  0001 C CNN
F 1 "+BATT" H 3000 6600 30  0000 C CNN
F 2 "" H 3000 6500 60  0000 C CNN
F 3 "" H 3000 6500 60  0000 C CNN
	1    3000 6500
	1    0    0    -1  
$EndComp
Wire Wire Line
	2600 6600 2600 6700
$Comp
L VPWR #PWR213
U 1 1 55BCAB12
P 5750 1900
F 0 "#PWR213" H 5750 2000 30  0001 C CNN
F 1 "VPWR" H 5750 2000 30  0000 C CNN
F 2 "~" H 5750 1900 60  0000 C CNN
F 3 "~" H 5750 1900 60  0000 C CNN
	1    5750 1900
	1    0    0    -1  
$EndComp
Wire Wire Line
	2500 6600 2600 6600
Connection ~ 5750 4800
Connection ~ 5750 3400
Connection ~ 5750 2000
$Comp
L TEST_POINT T202
U 1 1 55BCB416
P 3250 6600
F 0 "T202" H 3330 6600 40  0000 L CNN
F 1 "TEST_POINT" H 3250 6655 30  0001 C CNN
F 2 "" H 3250 6600 60  0000 C CNN
F 3 "" H 3250 6600 60  0000 C CNN
	1    3250 6600
	1    0    0    -1  
$EndComp
$Comp
L TEST_POINT T201
U 1 1 55BCB89A
P 2350 6600
F 0 "T201" H 2430 6600 40  0000 L CNN
F 1 "TEST_POINT" H 2350 6655 30  0001 C CNN
F 2 "" H 2350 6600 60  0000 C CNN
F 3 "" H 2350 6600 60  0000 C CNN
	1    2350 6600
	-1   0    0    1   
$EndComp
$Comp
L TEST_POINT T205
U 1 1 55BCB429
P 6050 4800
F 0 "T205" H 6130 4800 40  0000 L CNN
F 1 "TEST_POINT" H 6050 4855 30  0001 C CNN
F 2 "" H 6050 4800 60  0000 C CNN
F 3 "" H 6050 4800 60  0000 C CNN
	1    6050 4800
	1    0    0    -1  
$EndComp
$Comp
L TEST_POINT T204
U 1 1 55BCB42F
P 6050 3400
F 0 "T204" H 6130 3400 40  0000 L CNN
F 1 "TEST_POINT" H 6050 3455 30  0001 C CNN
F 2 "" H 6050 3400 60  0000 C CNN
F 3 "" H 6050 3400 60  0000 C CNN
	1    6050 3400
	1    0    0    -1  
$EndComp
$Comp
L TEST_POINT T203
U 1 1 55BCB449
P 6050 2000
F 0 "T203" H 6130 2000 40  0000 L CNN
F 1 "TEST_POINT" H 6050 2055 30  0001 C CNN
F 2 "" H 6050 2000 60  0000 C CNN
F 3 "" H 6050 2000 60  0000 C CNN
	1    6050 2000
	1    0    0    -1  
$EndComp
$Comp
L +3.3V #PWR214
U 1 1 55BCE652
P 5750 3300
F 0 "#PWR214" H 5750 3260 30  0001 C CNN
F 1 "+3.3V" H 5750 3410 30  0000 C CNN
F 2 "" H 5750 3300 60  0000 C CNN
F 3 "" H 5750 3300 60  0000 C CNN
	1    5750 3300
	1    0    0    -1  
$EndComp
$Comp
L TPS61232 U202
U 1 1 55D36856
P 9000 2600
F 0 "U202" H 9400 2250 60  0000 C CNN
F 1 "TPS61232" H 8750 3250 60  0000 C CNN
F 2 "~" H 9050 1450 60  0000 C CNN
F 3 "~" H 9050 1450 60  0000 C CNN
	1    9000 2600
	1    0    0    -1  
$EndComp
Wire Wire Line
	9600 2100 9700 2100
Wire Wire Line
	9700 1650 9700 2200
Wire Wire Line
	9700 2200 9600 2200
Wire Wire Line
	9700 2400 9700 2600
Wire Wire Line
	9700 2500 9600 2500
Wire Wire Line
	9700 2600 9600 2600
Connection ~ 9700 2500
$Comp
L C C209
U 1 1 55D3697A
P 8050 2800
F 0 "C209" H 8050 2900 40  0000 L CNN
F 1 "10n" H 8056 2715 40  0000 L CNN
F 2 "~" H 8088 2650 30  0000 C CNN
F 3 "~" H 8050 2800 60  0000 C CNN
	1    8050 2800
	1    0    0    -1  
$EndComp
Wire Wire Line
	8400 2600 8050 2600
Wire Wire Line
	8400 2800 8300 2800
Wire Wire Line
	8300 2800 8300 3150
Wire Wire Line
	8050 3000 8300 3000
Connection ~ 8300 3000
$Comp
L GND #PWR218
U 1 1 55D36AA3
P 8300 3150
F 0 "#PWR218" H 8300 3150 30  0001 C CNN
F 1 "GND" H 8300 3080 30  0001 C CNN
F 2 "" H 8300 3150 60  0000 C CNN
F 3 "" H 8300 3150 60  0000 C CNN
	1    8300 3150
	1    0    0    -1  
$EndComp
NoConn ~ 8400 2450
$Comp
L +BATT #PWR217
U 1 1 55D36B14
P 8250 1550
F 0 "#PWR217" H 8250 1500 20  0001 C CNN
F 1 "+BATT" H 8250 1650 30  0000 C CNN
F 2 "" H 8250 1550 60  0000 C CNN
F 3 "" H 8250 1550 60  0000 C CNN
	1    8250 1550
	1    0    0    -1  
$EndComp
Wire Wire Line
	8250 1550 8250 2350
Wire Wire Line
	8250 2100 8400 2100
Wire Wire Line
	8050 1600 8250 1600
Connection ~ 8250 1600
Wire Wire Line
	8050 2000 8050 2100
$Comp
L GND #PWR216
U 1 1 55D36CC9
P 8050 2100
F 0 "#PWR216" H 8050 2100 30  0001 C CNN
F 1 "GND" H 8050 2030 30  0001 C CNN
F 2 "" H 8050 2100 60  0000 C CNN
F 3 "" H 8050 2100 60  0000 C CNN
	1    8050 2100
	1    0    0    -1  
$EndComp
Wire Wire Line
	1700 1700 2900 1700
$Comp
L INDUCTOR L204
U 1 1 55D36D44
P 8950 1650
F 0 "L204" V 8900 1650 40  0000 C CNN
F 1 "1u" V 9050 1650 40  0000 C CNN
F 2 "~" H 8950 1650 60  0000 C CNN
F 3 "~" H 8950 1650 60  0000 C CNN
	1    8950 1650
	0    -1   -1   0   
$EndComp
Wire Wire Line
	8650 1650 8250 1650
Connection ~ 8250 1650
Wire Wire Line
	9250 1650 9700 1650
Connection ~ 9700 2100
Connection ~ 9700 2400
$Comp
L +5V #PWR219
U 1 1 55D36E86
P 10450 2150
F 0 "#PWR219" H 10450 2240 20  0001 C CNN
F 1 "+5V" H 10450 2240 30  0000 C CNN
F 2 "" H 10450 2150 60  0000 C CNN
F 3 "" H 10450 2150 60  0000 C CNN
	1    10450 2150
	1    0    0    -1  
$EndComp
Wire Wire Line
	10450 2150 10450 2400
Connection ~ 10450 2400
$Comp
L TEST_POINT T206
U 1 1 55D36EFA
P 10800 2400
F 0 "T206" H 10880 2400 40  0000 L CNN
F 1 "TEST_POINT" H 10800 2455 30  0001 C CNN
F 2 "" H 10800 2400 60  0000 C CNN
F 3 "" H 10800 2400 60  0000 C CNN
	1    10800 2400
	1    0    0    -1  
$EndComp
Wire Wire Line
	10650 2400 9600 2400
NoConn ~ 9600 2800
Wire Wire Line
	8250 2350 8400 2350
Connection ~ 8250 2100
$Comp
L C C210
U 1 1 55D37138
P 10600 2650
F 0 "C210" H 10600 2750 40  0000 L CNN
F 1 "22u" H 10606 2565 40  0000 L CNN
F 2 "~" H 10638 2500 30  0000 C CNN
F 3 "~" H 10600 2650 60  0000 C CNN
	1    10600 2650
	1    0    0    -1  
$EndComp
Wire Wire Line
	10600 2450 10600 2400
Connection ~ 10600 2400
Wire Wire Line
	10600 2850 10600 2900
$Comp
L GND #PWR220
U 1 1 55D37223
P 10600 2900
F 0 "#PWR220" H 10600 2900 30  0001 C CNN
F 1 "GND" H 10600 2830 30  0001 C CNN
F 2 "" H 10600 2900 60  0000 C CNN
F 3 "" H 10600 2900 60  0000 C CNN
	1    10600 2900
	1    0    0    -1  
$EndComp
$EndSCHEMATC
