EESchema Schematic File Version 2
LIBS:power
LIBS:device
LIBS:transistors
LIBS:conn
LIBS:linear
LIBS:regul
LIBS:74xx
LIBS:cmos4000
LIBS:adc-dac
LIBS:memory
LIBS:xilinx
LIBS:special
LIBS:microcontrollers
LIBS:dsp
LIBS:microchip
LIBS:analog_switches
LIBS:motorola
LIBS:texas
LIBS:intel
LIBS:audio
LIBS:interface
LIBS:digital-audio
LIBS:philips
LIBS:display
LIBS:cypress
LIBS:siliconi
LIBS:opto
LIBS:atmel
LIBS:contrib
LIBS:valves
LIBS:crap
LIBS:rfus_main-cache
EELAYER 27 0
EELAYER END
$Descr A4 11693 8268
encoding utf-8
Sheet 6 7
Title ""
Date "3 oct 2015"
Rev ""
Comp ""
Comment1 ""
Comment2 ""
Comment3 ""
Comment4 ""
$EndDescr
Text HLabel 6150 1450 0    60   Input ~ 0
SCLK
Text HLabel 6150 1550 0    60   Input ~ 0
MOSI
Text HLabel 6150 1650 0    60   Output ~ 0
MISO
Text HLabel 6150 1350 0    60   Input ~ 0
~CS
Text HLabel 6150 1750 0    60   Output ~ 0
IRQ
Text HLabel 6150 1250 0    60   Output ~ 0
CLKM
Text HLabel 6150 2050 0    60   Input ~ 0
~RST
Text HLabel 6150 1950 0    60   Input ~ 0
SLP_TR
Text HLabel 6150 1850 0    60   Output ~ 0
DIG2
$Comp
L AT86RF233 U601
U 1 1 55BCB3E6
P 3100 3650
F 0 "U601" H 3100 3750 60  0000 C CNN
F 1 "AT86RF233" H 3100 3650 60  0000 C CNN
F 2 "CRAP-QFN32" H 3100 3550 60  0000 C CNN
F 3 "" H 3100 3650 60  0000 C CNN
	1    3100 3650
	1    0    0    -1  
$EndComp
$Comp
L C C604
U 1 1 55BCB3E7
P 3200 2450
F 0 "C604" H 3200 2550 40  0000 L CNN
F 1 "C" H 3206 2365 40  0000 L CNN
F 2 "CRAP-SM0402" H 3238 2300 30  0000 C CNN
F 3 "~" H 3200 2450 60  0000 C CNN
	1    3200 2450
	1    0    0    -1  
$EndComp
$Comp
L C C603
U 1 1 55BCB3E8
P 3000 2450
F 0 "C603" H 3000 2550 40  0000 L CNN
F 1 "C" H 3006 2365 40  0000 L CNN
F 2 "CRAP-SM0402" H 3038 2300 30  0000 C CNN
F 3 "~" H 3000 2450 60  0000 C CNN
	1    3000 2450
	1    0    0    -1  
$EndComp
$Comp
L C C602
U 1 1 55BCB3E9
P 2400 2450
F 0 "C602" H 2400 2550 40  0000 L CNN
F 1 "C" H 2406 2365 40  0000 L CNN
F 2 "CRAP-SM0402" H 2438 2300 30  0000 C CNN
F 3 "~" H 2400 2450 60  0000 C CNN
	1    2400 2450
	1    0    0    -1  
$EndComp
$Comp
L C C605
U 1 1 55BCB3EA
P 3800 2450
F 0 "C605" H 3800 2550 40  0000 L CNN
F 1 "C" H 3806 2365 40  0000 L CNN
F 2 "CRAP-SM0402" H 3838 2300 30  0000 C CNN
F 3 "~" H 3800 2450 60  0000 C CNN
	1    3800 2450
	1    0    0    -1  
$EndComp
$Comp
L GND #PWR034
U 1 1 55BCB3EB
P 3000 2700
F 0 "#PWR034" H 3000 2700 30  0001 C CNN
F 1 "GND" H 3000 2630 30  0001 C CNN
F 2 "" H 3000 2700 60  0000 C CNN
F 3 "" H 3000 2700 60  0000 C CNN
	1    3000 2700
	1    0    0    -1  
$EndComp
$Comp
L GND #PWR035
U 1 1 55BCB3EC
P 2400 2700
F 0 "#PWR035" H 2400 2700 30  0001 C CNN
F 1 "GND" H 2400 2630 30  0001 C CNN
F 2 "" H 2400 2700 60  0000 C CNN
F 3 "" H 2400 2700 60  0000 C CNN
	1    2400 2700
	1    0    0    -1  
$EndComp
$Comp
L GND #PWR036
U 1 1 55BCB3ED
P 3800 2700
F 0 "#PWR036" H 3800 2700 30  0001 C CNN
F 1 "GND" H 3800 2630 30  0001 C CNN
F 2 "" H 3800 2700 60  0000 C CNN
F 3 "" H 3800 2700 60  0000 C CNN
	1    3800 2700
	1    0    0    -1  
$EndComp
$Comp
L +3.3V #PWR037
U 1 1 55BCB3EE
P 2600 2200
F 0 "#PWR037" H 2600 2160 30  0001 C CNN
F 1 "+3.3V" H 2600 2310 30  0000 C CNN
F 2 "" H 2600 2200 60  0000 C CNN
F 3 "" H 2600 2200 60  0000 C CNN
	1    2600 2200
	1    0    0    -1  
$EndComp
$Comp
L +3.3V #PWR038
U 1 1 55BCB3EF
P 3600 2200
F 0 "#PWR038" H 3600 2160 30  0001 C CNN
F 1 "+3.3V" H 3600 2310 30  0000 C CNN
F 2 "" H 3600 2200 60  0000 C CNN
F 3 "" H 3600 2200 60  0000 C CNN
	1    3600 2200
	1    0    0    -1  
$EndComp
$Comp
L GND #PWR039
U 1 1 55BCB3F0
P 3200 2700
F 0 "#PWR039" H 3200 2700 30  0001 C CNN
F 1 "GND" H 3200 2630 30  0001 C CNN
F 2 "" H 3200 2700 60  0000 C CNN
F 3 "" H 3200 2700 60  0000 C CNN
	1    3200 2700
	1    0    0    -1  
$EndComp
$Comp
L GND #PWR040
U 1 1 55BCB3F1
P 3000 4650
F 0 "#PWR040" H 3000 4650 30  0001 C CNN
F 1 "GND" H 3000 4580 30  0001 C CNN
F 2 "" H 3000 4650 60  0000 C CNN
F 3 "" H 3000 4650 60  0000 C CNN
	1    3000 4650
	1    0    0    -1  
$EndComp
$Comp
L R R601
U 1 1 55BCB3F2
P 1450 3650
F 0 "R601" V 1530 3650 40  0000 C CNN
F 1 "R" V 1457 3651 40  0000 C CNN
F 2 "CRAP-SM0402" V 1380 3650 30  0000 C CNN
F 3 "~" H 1450 3650 30  0000 C CNN
	1    1450 3650
	0    -1   -1   0   
$EndComp
$Comp
L C C601
U 1 1 55BCB3F3
P 1100 3900
F 0 "C601" H 1100 4000 40  0000 L CNN
F 1 "C" H 1106 3815 40  0000 L CNN
F 2 "CRAP-SM0402" H 1138 3750 30  0000 C CNN
F 3 "~" H 1100 3900 60  0000 C CNN
	1    1100 3900
	1    0    0    -1  
$EndComp
$Comp
L GND #PWR041
U 1 1 55BCB3F4
P 1100 4150
F 0 "#PWR041" H 1100 4150 30  0001 C CNN
F 1 "GND" H 1100 4080 30  0001 C CNN
F 2 "" H 1100 4150 60  0000 C CNN
F 3 "" H 1100 4150 60  0000 C CNN
	1    1100 4150
	1    0    0    -1  
$EndComp
$Comp
L 2450BM15A0015 U602
U 1 1 55BCB3F5
P 6050 3700
F 0 "U602" H 6800 3200 60  0000 C CNN
F 1 "2450BM15A0015" H 5950 4050 60  0000 C CNN
F 2 "2450BM15A0015" H 6050 3500 60  0000 C CNN
F 3 "~" H 6050 3500 60  0000 C CNN
	1    6050 3700
	1    0    0    1   
$EndComp
$Comp
L CRYSTAL_4 X601
U 1 1 55BCB3F6
P 4650 4750
F 0 "X601" H 4650 4900 60  0000 C CNN
F 1 "16MHz_10pF" H 4650 4350 60  0000 C CNN
F 2 "CRAP-CRYSTAL-2.5x2" H 4650 4600 60  0000 C CNN
F 3 "~" H 4650 4750 60  0000 C CNN
	1    4650 4750
	1    0    0    -1  
$EndComp
$Comp
L GND #PWR042
U 1 1 55BCB3F7
P 7200 3650
F 0 "#PWR042" H 7200 3650 30  0001 C CNN
F 1 "GND" H 7200 3580 30  0001 C CNN
F 2 "" H 7200 3650 60  0000 C CNN
F 3 "" H 7200 3650 60  0000 C CNN
	1    7200 3650
	1    0    0    -1  
$EndComp
$Comp
L GND #PWR043
U 1 1 55BCB3F8
P 4200 5300
F 0 "#PWR043" H 4200 5300 30  0001 C CNN
F 1 "GND" H 4200 5230 30  0001 C CNN
F 2 "" H 4200 5300 60  0000 C CNN
F 3 "" H 4200 5300 60  0000 C CNN
	1    4200 5300
	1    0    0    -1  
$EndComp
$Comp
L GND #PWR044
U 1 1 55BCB3F9
P 5100 5300
F 0 "#PWR044" H 5100 5300 30  0001 C CNN
F 1 "GND" H 5100 5230 30  0001 C CNN
F 2 "" H 5100 5300 60  0000 C CNN
F 3 "" H 5100 5300 60  0000 C CNN
	1    5100 5300
	1    0    0    -1  
$EndComp
$Comp
L C C606
U 1 1 55BCB3FA
P 4050 4950
F 0 "C606" H 4050 5050 40  0000 L CNN
F 1 "16p" H 4056 4865 40  0000 L CNN
F 2 "CRAP-SM0402" H 4088 4800 30  0000 C CNN
F 3 "~" H 4050 4950 60  0000 C CNN
	1    4050 4950
	1    0    0    -1  
$EndComp
$Comp
L C C607
U 1 1 55BCB3FB
P 5250 4950
F 0 "C607" H 5250 5050 40  0000 L CNN
F 1 "16p" H 5256 4865 40  0000 L CNN
F 2 "CRAP-SM0402" H 5288 4800 30  0000 C CNN
F 3 "~" H 5250 4950 60  0000 C CNN
	1    5250 4950
	1    0    0    -1  
$EndComp
$Comp
L GND #PWR045
U 1 1 55BCB3FC
P 4450 3400
F 0 "#PWR045" H 4450 3400 30  0001 C CNN
F 1 "GND" H 4450 3330 30  0001 C CNN
F 2 "" H 4450 3400 60  0000 C CNN
F 3 "" H 4450 3400 60  0000 C CNN
	1    4450 3400
	1    0    0    -1  
$EndComp
$Comp
L GND #PWR046
U 1 1 55BCB3FD
P 7350 4100
F 0 "#PWR046" H 7350 4100 30  0001 C CNN
F 1 "GND" H 7350 4030 30  0001 C CNN
F 2 "" H 7350 4100 60  0000 C CNN
F 3 "" H 7350 4100 60  0000 C CNN
	1    7350 4100
	1    0    0    -1  
$EndComp
$Comp
L ANTENNA_CONN A601
U 1 1 55BCB3FE
P 7800 4000
F 0 "A601" H 7900 3850 60  0000 C CNN
F 1 "ANTENNA_CONN" H 7850 4350 60  0000 C CNN
F 2 "CRAP-SMA-JACK_RIGHT" H 7800 4000 60  0000 C CNN
F 3 "~" H 7800 4000 60  0000 C CNN
	1    7800 4000
	1    0    0    -1  
$EndComp
Text Label 4100 3150 0    40   ~ 0
DIG2
Text Label 2100 3150 2    40   ~ 0
~SEL
Text Label 2100 3250 2    40   ~ 0
SCLK
Text Label 2100 3350 2    40   ~ 0
MOSI
Text Label 2100 3450 2    40   ~ 0
MISO
Text Label 2100 3750 2    40   ~ 0
IRQ
Text Label 2100 4000 2    40   ~ 0
SLP_TR
Text Label 2100 4150 2    40   ~ 0
~RST
Text Label 6500 1350 2    40   ~ 0
~SEL
Text Label 6500 1450 2    40   ~ 0
SCLK
Text Label 6500 1550 2    40   ~ 0
MOSI
Text Label 6500 1650 2    40   ~ 0
MISO
Text Label 6500 1750 2    40   ~ 0
IRQ
Text Label 6500 1950 2    40   ~ 0
SLP_TR
Text Label 6500 2050 2    40   ~ 0
~RST
Text Label 6500 1850 2    40   ~ 0
DIG2
Text Label 1000 3650 2    40   ~ 0
CLKM
Text Label 6500 1250 2    40   ~ 0
CLKM
$Comp
L R R602
U 1 1 55BCB408
P 2100 4450
F 0 "R602" V 2180 4450 40  0000 C CNN
F 1 "100k" V 2107 4451 40  0000 C CNN
F 2 "CRAP-SM0402" V 2030 4450 30  0000 C CNN
F 3 "~" H 2100 4450 30  0000 C CNN
	1    2100 4450
	1    0    0    -1  
$EndComp
$Comp
L GND #PWR047
U 1 1 55BCB409
P 2100 4750
F 0 "#PWR047" H 2100 4750 30  0001 C CNN
F 1 "GND" H 2100 4680 30  0001 C CNN
F 2 "" H 2100 4750 60  0000 C CNN
F 3 "" H 2100 4750 60  0000 C CNN
	1    2100 4750
	1    0    0    -1  
$EndComp
Wire Wire Line
	2600 2200 2600 2750
Wire Wire Line
	2600 2250 2400 2250
Wire Wire Line
	2400 2650 2400 2700
Wire Wire Line
	3800 2700 3800 2650
Wire Wire Line
	3800 2250 3600 2250
Wire Wire Line
	3600 2200 3600 2750
Wire Wire Line
	3200 2700 3200 2650
Wire Wire Line
	3000 2700 3000 2650
Wire Wire Line
	2800 2750 2800 2250
Wire Wire Line
	2800 2250 3000 2250
Wire Wire Line
	3400 2250 3200 2250
Wire Wire Line
	3400 2250 3400 2750
Wire Wire Line
	2900 2750 2900 2700
Wire Wire Line
	2900 2700 2800 2700
Connection ~ 2800 2700
Wire Wire Line
	2500 4550 2500 4600
Wire Wire Line
	2500 4600 3700 4600
Wire Wire Line
	3700 4600 3700 4550
Wire Wire Line
	3600 4550 3600 4600
Connection ~ 3600 4600
Wire Wire Line
	3500 4550 3500 4600
Connection ~ 3500 4600
Wire Wire Line
	3400 4550 3400 4600
Connection ~ 3400 4600
Wire Wire Line
	3300 4550 3300 4600
Connection ~ 3300 4600
Wire Wire Line
	3200 4550 3200 4600
Connection ~ 3200 4600
Wire Wire Line
	3100 4550 3100 4600
Connection ~ 3100 4600
Wire Wire Line
	2900 4550 2900 4600
Connection ~ 2900 4600
Wire Wire Line
	2800 4550 2800 4600
Connection ~ 2800 4600
Wire Wire Line
	2700 4550 2700 4600
Connection ~ 2700 4600
Wire Wire Line
	2600 4550 2600 4600
Connection ~ 2600 4600
Wire Wire Line
	3000 4600 3000 4650
Connection ~ 3000 4600
Wire Wire Line
	2200 3150 2100 3150
Wire Wire Line
	2200 3250 2100 3250
Wire Wire Line
	2200 3750 2100 3750
Wire Wire Line
	4000 3150 4100 3150
Wire Wire Line
	2200 4000 2100 4000
Wire Wire Line
	2200 4150 2100 4150
Wire Wire Line
	2100 3350 2200 3350
Wire Wire Line
	2100 3450 2200 3450
Wire Wire Line
	1100 4150 1100 4100
Wire Wire Line
	1000 3650 1200 3650
Wire Wire Line
	1700 3650 2200 3650
Wire Wire Line
	1100 3700 1100 3650
Connection ~ 1100 3650
Wire Wire Line
	4000 3700 5450 3700
Wire Wire Line
	4000 3600 5450 3600
Wire Wire Line
	7050 3400 7200 3400
Wire Wire Line
	7200 3400 7200 3650
Wire Wire Line
	7050 3600 7200 3600
Connection ~ 7200 3600
Wire Wire Line
	7050 3500 7200 3500
Connection ~ 7200 3500
Wire Wire Line
	4000 4150 4150 4150
Wire Wire Line
	4150 4150 4150 4750
Wire Wire Line
	4000 4050 5050 4050
Wire Wire Line
	4950 5000 5100 5000
Wire Wire Line
	5100 5000 5100 5300
Wire Wire Line
	4350 5000 4200 5000
Wire Wire Line
	4200 5000 4200 5300
Wire Wire Line
	5100 5200 5250 5200
Wire Wire Line
	5250 5200 5250 5150
Connection ~ 5100 5200
Wire Wire Line
	4200 5200 4050 5200
Wire Wire Line
	4050 5200 4050 5150
Connection ~ 4200 5200
Wire Wire Line
	4050 4750 4350 4750
Wire Wire Line
	4950 4750 5250 4750
Connection ~ 4150 4750
Wire Wire Line
	5050 4050 5050 4750
Connection ~ 5050 4750
Wire Wire Line
	7050 3850 7450 3850
Wire Wire Line
	4000 3350 4450 3350
Wire Wire Line
	4450 3050 4450 3400
Wire Wire Line
	4000 3250 4450 3250
Wire Wire Line
	4000 3050 4450 3050
Connection ~ 4450 3350
Connection ~ 4450 3250
Wire Wire Line
	7450 4050 7350 4050
Wire Wire Line
	7350 4050 7350 4100
Wire Wire Line
	6150 1350 6600 1350
Wire Wire Line
	6150 1450 6600 1450
Wire Wire Line
	6150 1550 6600 1550
Wire Wire Line
	6150 1650 6600 1650
Wire Wire Line
	6150 1750 6600 1750
Wire Wire Line
	6150 1850 6600 1850
Wire Wire Line
	6150 1950 6600 1950
Wire Wire Line
	6150 2050 6600 2050
Wire Wire Line
	6600 1250 6150 1250
Wire Wire Line
	2100 4150 2100 4200
Wire Wire Line
	2100 4700 2100 4750
Connection ~ 3600 2250
Connection ~ 2600 2250
$Comp
L TEST_POINT T601
U 1 1 55BCB423
P 6750 1250
F 0 "T601" H 6830 1250 40  0000 L CNN
F 1 "TEST_POINT" H 6750 1305 30  0001 C CNN
F 2 "~" H 6750 1250 60  0000 C CNN
F 3 "~" H 6750 1250 60  0000 C CNN
	1    6750 1250
	1    0    0    -1  
$EndComp
$Comp
L TEST_POINT T602
U 1 1 55BCB430
P 6750 1350
F 0 "T602" H 6830 1350 40  0000 L CNN
F 1 "TEST_POINT" H 6750 1405 30  0001 C CNN
F 2 "~" H 6750 1350 60  0000 C CNN
F 3 "~" H 6750 1350 60  0000 C CNN
	1    6750 1350
	1    0    0    -1  
$EndComp
$Comp
L TEST_POINT T603
U 1 1 55BCB436
P 6750 1450
F 0 "T603" H 6830 1450 40  0000 L CNN
F 1 "TEST_POINT" H 6750 1505 30  0001 C CNN
F 2 "~" H 6750 1450 60  0000 C CNN
F 3 "~" H 6750 1450 60  0000 C CNN
	1    6750 1450
	1    0    0    -1  
$EndComp
$Comp
L TEST_POINT T604
U 1 1 55BCB43C
P 6750 1550
F 0 "T604" H 6830 1550 40  0000 L CNN
F 1 "TEST_POINT" H 6750 1605 30  0001 C CNN
F 2 "~" H 6750 1550 60  0000 C CNN
F 3 "~" H 6750 1550 60  0000 C CNN
	1    6750 1550
	1    0    0    -1  
$EndComp
$Comp
L TEST_POINT T605
U 1 1 55BCB442
P 6750 1650
F 0 "T605" H 6830 1650 40  0000 L CNN
F 1 "TEST_POINT" H 6750 1705 30  0001 C CNN
F 2 "~" H 6750 1650 60  0000 C CNN
F 3 "~" H 6750 1650 60  0000 C CNN
	1    6750 1650
	1    0    0    -1  
$EndComp
$Comp
L TEST_POINT T606
U 1 1 55BCB448
P 6750 1750
F 0 "T606" H 6830 1750 40  0000 L CNN
F 1 "TEST_POINT" H 6750 1805 30  0001 C CNN
F 2 "~" H 6750 1750 60  0000 C CNN
F 3 "~" H 6750 1750 60  0000 C CNN
	1    6750 1750
	1    0    0    -1  
$EndComp
$Comp
L TEST_POINT T607
U 1 1 55BCB44E
P 6750 1850
F 0 "T607" H 6830 1850 40  0000 L CNN
F 1 "TEST_POINT" H 6750 1905 30  0001 C CNN
F 2 "~" H 6750 1850 60  0000 C CNN
F 3 "~" H 6750 1850 60  0000 C CNN
	1    6750 1850
	1    0    0    -1  
$EndComp
$Comp
L TEST_POINT T608
U 1 1 55BCB454
P 6750 1950
F 0 "T608" H 6830 1950 40  0000 L CNN
F 1 "TEST_POINT" H 6750 2005 30  0001 C CNN
F 2 "~" H 6750 1950 60  0000 C CNN
F 3 "~" H 6750 1950 60  0000 C CNN
	1    6750 1950
	1    0    0    -1  
$EndComp
$Comp
L TEST_POINT T609
U 1 1 55BCB45A
P 6750 2050
F 0 "T609" H 6830 2050 40  0000 L CNN
F 1 "TEST_POINT" H 6750 2105 30  0001 C CNN
F 2 "~" H 6750 2050 60  0000 C CNN
F 3 "~" H 6750 2050 60  0000 C CNN
	1    6750 2050
	1    0    0    -1  
$EndComp
$EndSCHEMATC
