
G21
G90
G94
F250.00
G00 Z1.0000
M03 S10000
G04 P1
G00 X-0.5500Y-18.4150
G01 Z-1.6000
G01 X-0.5500Y-37.3800
G01 X30.4800Y-37.3800
G00 Z1.0000
G00 X30.4800Y-37.3800
G01 Z-1.6000
G01 X61.5100Y-37.3800
G01 X61.5100Y-18.4150
G00 Z1.0000
G00 X61.5100Y-18.4150
G01 Z-1.6000
G01 X61.5100Y0.5500
G01 X30.4800Y0.5500
G00 Z1.0000
G00 X30.4800Y0.5500
G01 Z-1.6000
G01 X-0.5500Y0.5500
G01 X-0.5500Y-18.4150
G00 Z1.0000
G00 Z1.0000
G00 X0Y0
M05

