
G21
G90
G94
F100.00
G00 Z2.0000
M03 S10000
G04 P1
G00 X5.0800Y-22.8600
G01 Z-1.8000
G01 Z2.0000
G00 X5.0800Y-20.3200
G01 Z-1.8000
G01 Z2.0000
G00 X5.0800Y-17.7800
G01 Z-1.8000
G01 Z2.0000
G00 X5.0800Y-15.2400
G01 Z-1.8000
G01 Z2.0000
G00 X5.0800Y-12.7000
G01 Z-1.8000
G01 Z2.0000
G00 X7.6200Y-22.8600
G01 Z-1.8000
G01 Z2.0000
G00 X7.6200Y-20.3200
G01 Z-1.8000
G01 Z2.0000
G00 X7.6200Y-17.7800
G01 Z-1.8000
G01 Z2.0000
G00 X7.6200Y-15.2400
G01 Z-1.8000
G01 Z2.0000
G00 X7.6200Y-12.7000
G01 Z-1.8000
G01 Z2.0000
G00 X10.1600Y-22.8600
G01 Z-1.8000
G01 Z2.0000
G00 X10.1600Y-20.3200
G01 Z-1.8000
G01 Z2.0000
G00 X10.1600Y-17.7800
G01 Z-1.8000
G01 Z2.0000
G00 X10.1600Y-15.2400
G01 Z-1.8000
G01 Z2.0000
G00 X10.1600Y-12.7000
G01 Z-1.8000
G01 Z2.0000
G00 X12.7000Y-22.8600
G01 Z-1.8000
G01 Z2.0000
G00 X12.7000Y-20.3200
G01 Z-1.8000
G01 Z2.0000
G00 X12.7000Y-17.7800
G01 Z-1.8000
G01 Z2.0000
G00 X12.7000Y-15.2400
G01 Z-1.8000
G01 Z2.0000
G00 X12.7000Y-12.7000
G01 Z-1.8000
G01 Z2.0000
G00 X15.2400Y-22.8600
G01 Z-1.8000
G01 Z2.0000
G00 X15.2400Y-20.3200
G01 Z-1.8000
G01 Z2.0000
G00 X15.2400Y-17.7800
G01 Z-1.8000
G01 Z2.0000
G00 X15.2400Y-15.2400
G01 Z-1.8000
G01 Z2.0000
G00 X15.2400Y-12.7000
G01 Z-1.8000
G01 Z2.0000
G00 X33.0200Y-13.9700
G01 Z-1.8000
G01 Z2.0000
G00 X33.0200Y-6.3500
G01 Z-1.8000
G01 Z2.0000
G00 X35.5600Y-16.5100
G01 Z-1.8000
G01 Z2.0000
G00 X40.6400Y-6.3500
G01 Z-1.8000
G01 Z2.0000
G00 X43.1800Y-16.5100
G01 Z-1.8000
G01 Z2.0000
G00 X43.1800Y-8.8900
G01 Z-1.8000
G01 Z2.0000
G00 X21.5900Y-33.6550
G01 Z-1.8000
G01 Z2.0000
G00 X38.7350Y-27.3050
G01 Z-1.8000
G01 Z2.0000
G00 X50.8000Y-30.4800
G01 Z-1.8000
G01 Z2.0000
G00 X57.1500Y-8.8900
G01 Z-1.8000
G01 Z2.0000
G00 X57.1500Y-6.3500
G01 Z-1.8000
G01 Z2.0000
G00 X19.0500Y-19.6850
G01 Z-1.8000
G01 Z2.0000
G00 X19.0500Y-9.5250
G01 Z-1.8000
G01 Z2.0000
G00 X21.5900Y-18.4150
G01 Z-1.8000
G01 Z2.0000
G00 X21.5900Y-8.2550
G01 Z-1.8000
G01 Z2.0000
G00 X24.1300Y-17.1450
G01 Z-1.8000
G01 Z2.0000
G00 X24.1300Y-6.9850
G01 Z-1.8000
G01 Z2.0000
G00 X27.7410Y-14.4060
G01 Z-1.8000
G01 Z2.0000
G00 X34.9250Y-21.5900
G01 Z-1.8000
G01 Z2.0000
G00 X46.9900Y-19.0500
G01 Z-1.8000
G01 Z2.0000
G00 X46.9900Y-8.8900
G01 Z-1.8000
G01 Z2.0000
G00 X49.5300Y-16.5100
G01 Z-1.8000
G01 Z2.0000
G00 X49.5300Y-6.3500
G01 Z-1.8000
G01 Z2.0000
G00 X52.0700Y-13.9700
G01 Z-1.8000
G01 Z2.0000
G00 X52.0700Y-3.8100
G01 Z-1.8000
G01 Z2.0000
G00 X0.0000Y0.0000
M05

